Full Time (seconds)
0.005630
Incremental Time - I
0.000617
0.000030
0.000031
0.000031
0.000033
0.000031
0.000034
0.000052
0.000065
0.000062
0.000063
0.000074
0.000090
0.000100
0.000101
0.000104
0.000115
0.000113
0.000116
0.000121
0.000123
0.000218
0.000282
0.000267
0.000549
0.000450
0.000463
0.000493
0.000532
0.000551
0.000568
Classification Time - I
0.000384
0.000415
0.000441
0.000467
0.000499
0.000833
0.000818
0.000970
0.001027
0.001123
0.001210
0.001312
0.001419
0.001529
0.001674
0.001762
0.001910
0.002012
0.002136
0.002233
0.002501
0.002547
0.002910
0.003165
0.003180
0.003657
0.003938
0.004166
0.004472
0.004889
