Full Time (seconds)
0.101833
Time - I
0.004296
0.008469
0.012950
0.017188
0.020772
0.026167
0.030529
0.033038
0.037134
0.044784
0.045503
0.052499
0.057327
0.066017
0.069291
0.077170
0.081797
0.088669
0.096555
0.099962
0.108941
