Full Time (seconds)
0.106041
Time - I
0.004337
0.008478
0.012782
0.016776
0.020835
0.024982
0.029157
0.033294
0.037345
0.041440
0.045522
0.051538
0.057410
0.063220
0.069279
0.075455
0.081422
0.089323
0.095283
0.099836
0.106153
