Full Time (seconds)
0.111769
Time - I
0.004200
0.008519
0.012674
0.017419
0.020848
0.025013
0.029456
0.033156
0.040291
0.041298
0.045724
0.051382
0.057799
0.063325
0.073524
0.075777
0.085414
0.091624
0.095675
0.100114
0.108249
