Full Time (seconds)
0.047852
Time - I
0.004317
0.008495
0.012546
0.016738
0.020743
0.024856
0.028955
0.033053
0.037169
0.041509
0.045210
0.051253
0.057218
0.029935
0.069601
0.075458
0.081443
0.087596
0.096433
0.100714
0.108689
