Full Time (seconds)
0.107056
Time - I
0.004190
0.008649
0.012878
0.016937
0.021223
0.025251
0.029442
0.033564
0.037934
0.041363
0.046335
0.051508
0.059285
0.065684
0.070771
0.076071
0.083253
0.087882
0.094082
0.101948
0.106420
