Full Accuracy
91.153847
Accuracy - I
50.000000
57.153851
67.153847
73.846153
75.846153
78.846153
81.615387
83.461540
84.769234
85.692307
86.153847
87.000000
88.307693
88.461533
88.769234
89.307693
89.538460
90.384613
90.384613
91.000000
91.153847
