Full Time (seconds)
0.108008
Time - I
0.004735
0.009000
0.013285
0.017714
0.021811
0.025785
0.030167
0.033804
0.040783
0.042016
0.046044
0.053743
0.055411
0.055012
0.061513
0.076835
0.085505
0.080524
0.094787
0.109537
0.108527
