Full Accuracy
87.036766
Accuracy - I
50.000000
70.096611
76.959282
82.276688
83.609589
85.314941
86.907150
87.448021
87.605347
87.953102
88.309090
88.226273
88.143448
88.082718
88.041306
88.088181
88.115730
87.522446
87.464485
87.296150
87.036766
