Full Time (seconds)
0.304170
Time - I
0.253970
0.286834
0.167559
0.233306
0.384844
0.405218
0.455171
0.287986
0.393912
0.358131
0.336240
0.675691
0.571464
0.397266
0.323437
0.352832
0.351021
0.329222
0.312664
0.281493
0.334565
