Full Time (seconds)
0.853720
Time - I
0.153908
0.182741
0.198508
0.215825
0.233634
0.250803
0.271088
0.285202
0.297612
0.314578
0.313610
0.324500
0.346512
0.388558
0.379941
0.363666
0.345554
0.753159
0.506662
0.441706
0.589786
