Full Time (seconds)
0.018481
Time - I
0.002377
0.003025
0.003784
0.004460
0.005134
0.005817
0.006512
0.007443
0.007886
0.008550
0.009701
0.008959
0.010654
0.011766
0.011334
0.014876
0.016530
0.015336
0.015643
0.017289
0.018358
