Full Time (seconds)
0.105110
Time - I
0.003918
0.004665
0.005419
0.006197
0.006962
0.007691
0.008453
0.009231
0.009973
0.010720
0.011526
0.012661
0.013097
0.013895
0.014699
0.015572
0.016366
0.016784
0.017929
0.018168
0.019522
0.020377
0.021091
0.021844
0.022614
0.022902
0.023505
0.024462
0.024958
0.025738
0.026498
0.027205
0.028003
0.030279
0.029492
0.030598
0.031948
0.031699
0.032547
0.033703
0.034308
0.034952
0.035680
0.036222
0.037323
0.037776
0.038822
0.039231
0.040027
0.041104
0.042803
0.043093
0.042801
0.042457
0.042763
0.043668
0.044100
0.044358
0.045015
0.045616
0.045238
0.046037
0.048534
0.047437
0.048242
0.050583
0.050128
0.050548
0.051259
0.052023
0.053319
0.053870
0.054402
0.055531
0.056040
0.056448
0.059494
0.058272
0.058719
0.059542
0.060342
0.061541
0.061731
0.064565
0.063550
0.066080
0.066797
0.065501
0.066401
0.069222
0.068227
0.068924
0.069527
0.071134
0.073039
0.071911
0.072336
0.072996
0.073814
0.074759
0.075253
0.076818
0.079299
0.080169
0.078240
0.080924
0.079818
0.080727
0.081301
0.082007
0.082715
0.086343
0.084209
0.086993
0.086134
0.086569
0.087285
0.087912
0.089667
0.092605
0.091967
0.092208
0.091853
0.093047
0.093243
0.095318
0.094740
0.097208
0.096522
0.097555
0.098077
0.098452
0.099217
0.103865
0.100660
0.101747
0.102378
0.103185
0.107014
0.104387
0.107960
