Full Time (seconds)
0.105252
Time - I
0.003947
0.004704
0.005648
0.006238
0.006942
0.007688
0.008465
0.009261
0.010057
0.010719
0.011597
0.012317
0.013106
0.013774
0.014651
0.015210
0.016413
0.017165
0.017522
0.018220
0.018951
0.020319
0.020782
0.021233
0.021895
0.022685
0.024221
0.024586
0.024992
0.026520
0.026804
0.027223
0.028545
0.028751
0.029502
0.031209
0.031970
0.031784
0.033039
0.033787
0.034279
0.034791
0.036274
0.036763
0.037872
0.038986
0.039631
0.039852
0.040847
0.040706
0.041745
0.042265
0.043280
0.044620
0.044536
0.046687
0.046726
0.048246
0.047557
0.048283
0.049079
0.049963
0.051570
0.053234
0.053722
0.054466
0.053462
0.056101
0.055173
0.055729
0.057221
0.059073
0.059183
0.058845
0.059538
0.061829
0.063848
0.063702
0.064496
0.063845
0.068987
0.064816
0.065490
0.066286
0.069087
0.069907
0.070769
0.069348
0.070060
0.070759
0.071528
0.073050
0.072167
0.074827
0.075230
0.073015
0.074716
0.073819
0.074345
0.075435
0.075631
0.078445
0.080483
0.079795
0.081025
0.079499
0.079820
0.085809
0.081231
0.081920
0.083731
0.086269
0.084407
0.085297
0.086185
0.086867
0.090642
0.088497
0.091872
0.089567
0.090346
0.092015
0.092072
0.092947
0.093908
0.093963
0.099373
0.096372
0.096879
0.097041
0.097840
0.101947
0.099232
0.100009
0.101494
0.101572
0.103216
0.110362
0.104051
0.104642
0.105948
