Full Accuracy
88.046768
Accuracy - I
50.000000
74.558655
80.165863
83.107437
84.787926
85.762062
86.435402
86.868668
87.243973
87.470268
87.735199
88.143524
88.229034
88.223495
88.182083
88.228958
88.151680
88.038536
88.234421
88.159920
88.046768
