Full Time (seconds)
0.442504
Time - I
0.161445
0.193207
0.193306
0.208988
0.218561
0.252328
0.265802
0.274628
0.291245
0.267786
0.323184
0.370448
0.390998
0.478085
0.530875
0.582492
0.618511
0.555658
0.561018
0.530259
0.720438
