Full Accuracy
87.8063
Accuracy - I
62.0161
50
50
50
50
50
50
50
50
50
50
79.365
78.0032
81.9539
81.9539
81.9539
81.9496
81.9496
81.9496
81.9496
81.9496
85.0184
88.4564
90.0573
91.9411
88.8681
90.1199
90.3075
89.0245
87.3596
88.3422
