Full Time (seconds)
0.001386
Incremental Time - I
0.000308
0.000149
0.000256
0.000380
0.000621
0.000656
0.000674
0.000740
0.000739
0.000948
0.001033
0.001448
0.001642
0.004469
0.003664
0.008900
0.008212
0.005960
0.003730
0.004672
0.004855
0.005027
0.005779
0.006960
0.006666
0.009113
0.010831
0.017181
0.008489
0.008972
0.012288
Classification Time - C
0.000810
0.000554
0.000589
0.000632
0.000631
0.000636
0.000629
0.000660
0.000658
0.000656
0.000661
0.000924
0.000916
0.000885
0.000948
0.001029
0.001040
0.001122
0.001072
0.001120
0.001095
0.001068
0.001141
0.001210
0.001196
0.001290
0.001281
0.001297
0.001299
0.001577
0.002007
