Full Time (seconds)
0.388330
Time - I
0.240327
0.244009
0.259149
0.240701
0.248449
0.242653
0.242545
0.243675
0.300163
0.292615
0.291885
0.263068
0.264800
0.434411
0.450404
0.430176
0.377728
0.450381
0.458889
0.441902
0.385100
