Full Time (seconds)
0.231351
Time - I
0.002100
0.002457
0.003180
0.003881
0.004944
0.006005
0.007491
0.008508
0.009534
0.010968
0.012024
0.013078
0.014489
0.015558
0.016623
0.018399
0.019113
0.020428
0.021652
0.022626
0.023720
0.025111
0.026184
0.027205
0.029171
0.030031
0.030774
0.032184
0.033546
0.035079
0.036080
0.037148
0.038267
0.039297
0.040306
0.041379
0.042802
0.043866
0.044917
0.046263
0.047437
0.048921
0.049861
0.051430
0.052045
0.053423
0.054433
0.055983
0.056922
0.058058
0.059036
0.060945
0.061597
0.062658
0.064027
0.065427
0.066161
0.067586
0.069609
0.069650
0.071244
0.072205
0.074493
0.075409
0.076168
0.078184
0.079796
0.079723
0.080282
0.081680
0.082791
0.083887
0.085371
0.086913
0.088230
0.088900
0.089826
0.091428
0.092377
0.093359
0.095422
0.095888
0.097063
0.098411
0.099438
0.101314
0.102106
0.102992
0.106437
0.106370
0.106489
0.107713
0.108614
0.110042
0.112187
0.112160
0.113589
0.115184
0.115727
0.117650
0.118265
0.119189
0.120648
0.121742
0.123280
0.125622
0.127592
0.126362
0.130132
0.129338
0.129795
0.131752
0.134009
0.133480
0.134826
0.137540
0.137637
0.138358
0.140905
0.140590
0.142554
0.146312
0.145137
0.145992
0.146550
0.148002
0.149047
0.150081
0.151170
0.152547
0.154018
0.154646
0.151229
0.145022
0.146045
0.147231
0.150034
0.161731
0.163192
0.165420
0.166024
0.167006
0.167649
0.170553
0.170152
0.171655
0.173993
0.163585
0.161403
0.162756
0.163900
0.165069
0.165606
0.165573
0.155809
0.156855
0.158172
0.158874
0.186797
0.173426
0.188893
0.190167
0.176844
0.177575
0.178750
0.198764
0.195901
0.196492
0.183074
0.187495
0.188497
0.188691
0.189695
0.190755
0.190466
0.191229
0.191872
0.193346
0.193966
0.195587
0.196256
0.184561
0.184020
0.172938
0.173654
0.174560
0.177603
0.177022
0.178829
0.178575
0.182957
0.180509
0.181700
0.182540
0.183481
0.184288
0.187180
0.189257
0.188791
0.190609
0.189106
0.189733
0.191292
0.193560
0.181123
0.184836
0.182243
0.183652
0.248562
0.215820
0.247929
