Full Time (seconds)
0.188287
Time - I
0.002114
0.003194
0.004256
0.005667
0.006727
0.007791
0.009215
0.010273
0.011333
0.012726
0.013118
0.013831
0.014526
0.016010
0.016649
0.018260
0.019283
0.020489
0.021793
0.022876
0.024181
0.025186
0.026598
0.027344
0.029120
0.030173
0.031237
0.032216
0.033261
0.034624
0.036091
0.036775
0.038240
0.039864
0.040381
0.041438
0.042866
0.043915
0.044936
0.046354
0.047735
0.049282
0.050393
0.051444
0.052549
0.053403
0.054594
0.055994
0.057105
0.058076
0.059095
0.061131
0.061808
0.063424
0.064756
0.065128
0.066591
0.067593
0.068768
0.070403
0.071600
0.072219
0.073281
0.074705
0.075832
0.076768
0.078187
0.080672
0.081233
0.081775
0.082801
0.084557
0.085368
0.087845
0.089230
0.089962
0.089903
0.092387
0.092400
0.093490
0.094935
0.096658
0.097650
0.099261
0.100738
0.101584
0.103886
0.104198
0.104360
0.105160
0.109046
0.107686
0.108712
0.110664
0.112178
0.112180
0.114087
0.114740
0.115821
0.117267
0.118311
0.119799
0.120783
0.121781
0.123292
0.124266
0.127460
0.126350
0.127906
0.129206
0.130079
0.131362
0.133114
0.133960
0.137084
0.135982
0.137849
0.139382
0.139740
0.142572
0.143882
0.145565
0.146741
0.145756
0.147733
0.148499
0.149908
0.139837
0.139598
0.152808
0.154008
0.155825
0.156910
0.161319
0.159741
0.161113
0.149163
0.163138
0.163856
0.164366
0.165830
0.166822
0.168465
0.169085
0.162084
0.158347
0.160965
0.161317
0.163297
0.164300
0.165762
0.152903
0.153981
0.166930
0.170923
0.168926
0.170483
0.171851
0.172566
0.164326
0.162058
0.173678
0.176864
0.178465
0.178891
0.182950
0.182658
0.182150
0.188657
0.201391
0.201105
0.202131
0.204312
0.202055
0.189800
0.191219
0.191825
0.187856
0.180934
0.182447
0.182436
0.184687
0.184583
0.177629
0.175459
0.175028
0.176800
0.177645
0.221924
0.224125
0.224716
0.209322
0.204146
0.196139
0.197605
0.197483
0.233126
0.202029
0.236238
0.235865
0.236068
0.219269
0.215361
0.205511
0.208367
0.207662
0.208721
0.212340
0.186137
0.185540
0.186042
