Full Time (seconds)
0.250144
Time - I
0.002126
0.003185
0.004253
0.005680
0.006749
0.007792
0.009230
0.010307
0.011362
0.012788
0.014279
0.014997
0.016446
0.017355
0.018435
0.019896
0.020875
0.022102
0.023373
0.023752
0.024429
0.025150
0.026201
0.027481
0.029104
0.029780
0.030826
0.032314
0.033263
0.034296
0.036195
0.036855
0.037843
0.039283
0.042877
0.043686
0.042857
0.046175
0.046504
0.046622
0.047771
0.048448
0.049877
0.051893
0.052034
0.053475
0.055006
0.055564
0.057244
0.058019
0.059215
0.060444
0.062756
0.062641
0.064479
0.065136
0.066187
0.067603
0.069509
0.070477
0.072352
0.072401
0.073791
0.074653
0.075805
0.076968
0.078228
0.079643
0.081913
0.082193
0.082866
0.083834
0.085234
0.086398
0.087400
0.088848
0.090293
0.090924
0.092362
0.093870
0.094556
0.096106
0.097048
0.097975
0.099497
0.100566
0.102090
0.103136
0.104395
0.105737
0.106557
0.108015
0.109100
0.110115
0.111281
0.112303
0.116728
0.115322
0.117850
0.117273
0.118724
0.119329
0.120811
0.122467
0.122782
0.124216
0.125249
0.126466
0.128323
0.128681
0.129978
0.131792
0.132728
0.133913
0.134849
0.136070
0.137344
0.138351
0.139853
0.140477
0.143583
0.142898
0.146895
0.142241
0.136782
0.136331
0.150089
0.138689
0.148083
0.155416
0.154279
0.156555
0.158578
0.157096
0.159811
0.159543
0.160876
0.162662
0.166389
0.166897
0.165289
0.161558
0.157658
0.157620
0.160670
0.174182
0.175515
0.174191
0.176972
0.176441
0.179551
0.178667
0.179656
0.174015
0.167872
0.182808
0.186706
0.188754
0.188520
0.174779
0.174879
0.178868
0.177795
0.179947
0.179594
0.195300
0.185626
0.198673
0.202074
0.199307
0.186588
0.186390
0.174067
0.176334
0.178337
0.178088
0.180166
0.179600
0.171217
0.208525
0.215313
0.200327
0.196007
0.187849
0.217722
0.218390
0.219622
0.218893
0.204716
0.204069
0.192335
0.225229
0.222142
0.195227
0.196615
0.197564
0.231355
0.229080
0.218878
0.217743
0.239066
0.241658
0.241089
0.241516
0.244294
0.242320
0.245932
0.226141
0.221366
0.211619
0.248377
