Full Time (seconds)
0.000810
Incremental Time - I
0.000075
0.000019
0.000021
0.000020
0.000024
0.000026
0.000020
0.000021
0.000020
0.000022
0.000022
0.000099
0.000112
0.000124
0.000129
0.000147
0.000126
0.000128
0.000201
0.000145
0.000152
0.000454
0.000629
0.000767
0.003616
0.003272
0.004043
0.003700
0.004840
0.004410
0.005227
Classification Time - C
0.000369
0.000304
0.000297
0.000299
0.000304
0.000297
0.000298
0.000295
0.000291
0.000298
0.000296
0.000364
0.000355
0.000372
0.000373
0.000383
0.000379
0.000367
0.000378
0.000404
0.000356
0.000495
0.000496
0.000500
0.000661
0.000765
0.000729
0.000771
0.000734
0.000797
0.000801
