Full Time (seconds)
0.000792
Incremental Time - I
0.000165
0.000072
0.000123
0.000245
0.000229
0.000229
0.000243
0.000579
0.000717
0.000822
0.000899
0.001041
0.001079
0.001143
0.001555
0.001579
0.002235
0.002468
0.002059
0.005364
0.006007
0.004354
0.003806
0.003379
0.003252
0.003711
0.003587
0.005330
0.004110
0.004168
0.002744
Classification Time - C
0.000481
0.000330
0.000345
0.000393
0.000388
0.000389
0.000396
0.000391
0.000419
0.000411
0.000407
0.000511
0.000528
0.000534
0.000577
0.000619
0.000715
0.000649
0.000640
0.000690
0.000688
0.000696
0.000721
0.000831
0.000742
0.000771
0.000763
0.000787
0.000812
0.000799
0.000471
