Full Accuracy
91.153847
Accuracy - I
50.000000
57.000004
68.076920
74.384621
76.153847
79.461540
82.153847
83.692307
85.076920
85.923073
86.076920
86.769226
87.692307
87.692307
88.230774
89.076927
89.461540
90.538460
90.307693
91.076920
91.153847
