Full Accuracy
91.153847
Accuracy - I
50.000000
53.000004
65.769234
73.538467
75.461540
77.769234
81.000000
82.769234
84.692307
85.615387
86.230766
86.692307
88.153847
88.384613
88.769234
89.461533
89.692307
90.692307
90.538460
91.230766
91.153847
