Full Time (seconds)
0.122635
Time - I
0.004437
0.009509
0.013737
0.017942
0.022541
0.026407
0.030445
0.034431
0.038604
0.042897
0.042329
0.052597
0.059154
0.064668
0.070629
0.077238
0.058553
0.062827
0.067152
0.076568
0.089843
