Full Time (seconds)
0.107000
Time - I
0.004567
0.008772
0.013128
0.017650
0.021878
0.026021
0.032494
0.035448
0.041809
0.045996
0.050597
0.057658
0.053605
0.063918
0.069085
0.070186
0.085628
0.088447
0.094634
0.101432
0.107050
