Full Time (seconds)
0.106219
Time - I
0.003938
0.008022
0.012044
0.016128
0.020144
0.024314
0.028291
0.033314
0.037503
0.041550
0.044566
0.050462
0.056483
0.062454
0.070769
0.075503
0.045272
0.048291
0.051077
0.099840
0.105379
