Full Time (seconds)
0.105843
Time - I
0.003954
0.008067
0.012163
0.012254
0.015100
0.028942
0.028332
0.032485
0.036456
0.040681
0.049360
0.050984
0.056446
0.062557
0.068993
0.074445
0.081130
0.086757
0.093152
0.099101
0.105703
