Full Time (seconds)
0.105197
Time - I
0.003916
0.008404
0.012201
0.016340
0.020512
0.024336
0.028509
0.018164
0.019813
0.022749
0.024246
0.027758
0.030777
0.034694
0.056573
0.059787
0.064542
0.086854
0.093426
0.101506
0.105405
