Full Time (seconds)
0.091986
Time - I
0.003380
0.008002
0.012316
0.016296
0.020249
0.024270
0.028325
0.033367
0.036825
0.040546
0.045917
0.050456
0.056608
0.068915
0.068681
0.077088
0.089644
0.086828
0.092991
0.099037
0.105277
