Full Time (seconds)
0.002939
Time - I
0.000483
0.000521
0.000564
0.000676
0.000618
0.000629
0.000660
0.000692
0.000768
0.000789
0.000832
0.000947
0.001003
0.001066
0.001141
0.001249
0.001304
0.001378
0.001503
0.001518
0.001600
0.001749
0.001872
0.002079
0.002178
0.002305
0.002440
0.002587
0.002788
0.002922
0.003015
