Full Time (seconds)
0.187112
Time - I
0.002259
0.003448
0.004677
0.004288
0.005073
0.005844
0.006853
0.010211
0.010787
0.011521
0.012769
0.013702
0.015284
0.016321
0.017307
0.018838
0.019941
0.020861
0.022310
0.023412
0.024514
0.027340
0.026997
0.028089
0.029920
0.030561
0.031603
0.033746
0.034082
0.037844
0.040471
0.037615
0.038771
0.040193
0.041206
0.042360
0.043700
0.044760
0.046567
0.047317
0.048331
0.050109
0.051882
0.051920
0.052933
0.054503
0.055926
0.056439
0.057824
0.059939
0.060429
0.061538
0.063238
0.065466
0.065940
0.066042
0.096436
0.069337
0.069683
0.070886
0.072181
0.074683
0.074435
0.076769
0.077536
0.079346
0.079709
0.080509
0.084520
0.082777
0.083939
0.084937
0.086418
0.088736
0.088533
0.089926
0.091438
0.092089
0.093461
0.094584
0.095645
0.097831
0.100102
0.100326
0.102249
0.102024
0.103044
0.104354
0.106424
0.108109
0.107769
0.108735
0.110990
0.111521
0.114801
0.113421
0.116701
0.116345
0.117401
0.118396
0.119888
0.120433
0.122095
0.123030
0.124072
0.128711
0.126586
0.127524
0.128965
0.129918
0.131652
0.132537
0.133606
0.134612
0.136053
0.138428
0.138191
0.139555
0.140695
0.141815
0.143588
0.144097
0.145717
0.146805
0.148212
0.148903
0.150216
0.151318
0.152287
0.154169
0.154960
0.156367
0.157397
0.160880
0.160035
0.162789
0.150279
0.153427
0.166126
0.166650
0.166931
0.167886
0.169387
0.172633
0.161727
0.159279
0.160601
0.161619
0.163669
0.163752
0.164685
0.154592
0.156762
0.156077
0.157418
0.170250
0.171939
0.172924
0.173303
0.176613
0.175724
0.180107
0.195206
0.193917
0.195217
0.196202
0.102990
0.168058
0.200078
0.201022
0.201828
0.203610
0.206617
0.205954
0.207432
0.209012
0.209392
0.212079
0.195258
0.205998
0.214034
0.216652
0.216092
0.187944
0.219122
0.219618
0.221024
0.217283
0.223412
0.219719
0.225566
0.209364
0.209785
0.197933
0.197779
0.235066
0.228291
0.232824
0.201662
0.236549
0.231217
0.220324
0.221975
0.222426
0.207669
0.208904
0.209629
0.210970
0.211586
0.212543
0.212627
