Full Time (seconds)
0.157852
Time - I
0.002246
0.003391
0.004536
0.006044
0.006423
0.007164
0.007850
0.008953
0.009997
0.011416
0.012524
0.013622
0.015082
0.016161
0.017439
0.018660
0.019909
0.021093
0.022407
0.023297
0.024460
0.026192
0.026889
0.028235
0.029830
0.031152
0.031584
0.032938
0.033990
0.035567
0.037216
0.038029
0.038907
0.040700
0.041205
0.042239
0.043677
0.044710
0.045898
0.047677
0.048802
0.049754
0.050787
0.052159
0.053338
0.054371
0.055767
0.056465
0.057954
0.059851
0.061357
0.062394
0.063118
0.063543
0.064958
0.066016
0.067027
0.068528
0.070738
0.070981
0.073210
0.074250
0.075722
0.075745
0.076700
0.077811
0.079911
0.080169
0.082303
0.084162
0.084464
0.084823
0.086263
0.087782
0.088411
0.090830
0.092262
0.092151
0.093318
0.094590
0.096081
0.098737
0.099971
0.099569
0.102351
0.101759
0.103905
0.104046
0.106335
0.106862
0.108128
0.108674
0.110158
0.111248
0.112381
0.113531
0.115539
0.116138
0.116874
0.118142
0.119870
0.120368
0.121841
0.123312
0.123936
0.125352
0.128056
0.128013
0.129423
0.130541
0.131025
0.132472
0.133423
0.135129
0.136074
0.136991
0.138127
0.139704
0.141029
0.141534
0.144176
0.145156
0.146422
0.149497
0.147631
0.149126
0.150225
0.151568
0.153004
0.153737
0.154783
0.155843
0.157403
0.158328
0.159854
0.160803
0.162362
0.162898
0.164739
0.166079
0.167025
0.167718
0.169858
0.169978
0.172611
0.173099
0.173942
0.174988
0.176467
0.177176
0.178969
0.179676
0.180566
0.181956
0.183510
0.184611
0.185467
0.187232
0.189510
0.191146
0.191258
0.191236
0.192684
0.196274
0.194819
0.196495
0.197469
0.198798
0.201451
0.200787
0.205567
0.203399
0.206275
0.205398
0.198599
0.191972
0.193405
0.194282
0.196081
0.197667
0.183380
0.184826
0.185723
0.188704
0.187206
0.189969
0.192936
0.200798
0.206428
0.207625
0.210871
0.194304
0.201029
0.196246
0.199578
0.198354
0.199815
0.200206
0.188284
0.191348
0.179162
0.241420
0.240009
0.241044
0.242579
0.243908
0.126104
0.124595
0.124398
0.129449
0.131734
