Full Accuracy
76.822220
Accuracy - I
50.000000
66.288887
66.599998
67.222221
65.777779
65.155556
64.644447
64.533333
64.644447
64.599998
64.422218
65.111115
65.800003
65.777779
65.444443
65.222221
65.466667
65.666672
66.511116
66.622223
66.622223
67.333336
71.466667
73.666672
73.777779
75.666664
76.066666
76.355560
77.244446
77.111115
76.822220
