Full Time (seconds)
0.016404
Time - I
0.002333
0.003169
0.003979
0.004801
0.005606
0.006485
0.007200
0.008107
0.008817
0.009682
0.010394
0.010803
0.011296
0.011561
0.012000
0.013082
0.013362
0.013820
0.013577
0.013935
0.014551
0.014784
0.014896
0.015802
0.015886
0.015936
0.016101
0.015831
0.015905
0.016216
0.016439
