Full Time (seconds)
0.115758
Incremental Time - I
0.000141
0.000045
0.000060
0.000080
0.000068
0.000080
0.000106
0.000045
0.000067
0.000073
0.000092
0.000099
0.000128
0.000114
0.000127
0.000167
0.000135
0.000140
0.000169
0.000149
0.000156
0.000247
0.000171
0.000183
0.000234
0.000193
0.000193
0.000255
0.000220
0.000250
0.000293
0.000228
0.000232
0.000301
0.000265
0.000246
0.000330
0.000281
0.000285
0.000405
0.000471
0.000430
0.000515
0.000481
0.000467
0.000281
0.000228
0.000232
0.000518
0.000402
0.000509
0.000601
0.000486
0.000345
0.000618
0.000520
0.000512
0.000390
0.000334
0.000336
0.000404
0.000345
0.000347
0.000713
0.000366
0.000591
0.000729
0.000601
0.000651
0.000751
0.000617
0.000612
0.000764
0.000627
0.000689
0.000776
0.000646
0.000665
0.000400
0.000338
0.000335
0.000407
0.000434
0.000431
0.000536
0.000746
0.000738
0.000908
0.000744
0.000726
0.000895
0.000773
0.000747
0.000963
0.000401
0.000399
0.000491
0.000401
0.000786
0.000612
0.000503
0.000820
0.001064
0.000834
0.000804
0.001048
0.000843
0.000855
0.001086
0.000873
0.000509
0.000581
0.000491
0.000486
0.000620
0.000562
0.000956
0.001160
0.000924
0.000902
0.001171
0.000515
0.000537
0.000593
0.000463
0.000468
0.000631
0.000587
0.000542
0.001280
0.001043
0.000742
0.000922
0.000740
0.000881
0.001307
0.000716
0.000684
0.000879
0.000742
0.000963
0.001072
0.000931
0.000653
0.001184
0.000957
0.000999
0.001426
0.001180
0.001098
0.001359
0.000490
0.001002
0.000577
0.000413
0.000408
0.000520
0.001195
0.001239
0.001279
0.000692
0.000646
0.000864
0.000699
0.001294
0.001604
0.000827
0.000774
0.000968
0.000899
0.000839
0.001042
0.000850
0.000837
0.001096
0.000858
0.000891
0.001166
0.001026
0.000915
0.001045
0.000884
0.000844
0.001132
0.000867
0.000856
0.001806
0.001412
0.001437
0.001555
0.000931
0.001358
0.000858
0.001087
0.000610
0.000784
0.000705
0.000649
0.000835
0.000758
0.001548
0.001977
0.001347
0.001342
0.001676
0.000674
0.000634
0.000796
0.000688
0.000738
0.000822
Classification Time - I
0.003254
0.004441
0.006033
0.007237
0.008392
0.009985
0.010371
0.011146
0.011945
0.013208
0.014359
0.016022
0.017137
0.023808
0.020456
0.020986
0.022224
0.023831
0.024852
0.026046
0.027683
0.029221
0.029947
0.031490
0.032741
0.029275
0.035637
0.036836
0.038067
0.039232
0.042008
0.043436
0.045554
0.044211
0.045265
0.047457
0.048836
0.049119
0.051074
0.051987
0.053142
0.055162
0.055814
0.056684
0.027993
0.028562
0.030097
0.044598
0.063580
0.064616
0.066211
0.067453
0.068510
0.070245
0.071592
0.072615
0.046313
0.045046
0.045795
0.046855
0.047492
0.080247
0.081805
0.086609
0.084228
0.085945
0.089380
0.088331
0.089737
0.091220
0.091773
0.093260
0.095192
0.095814
0.097297
0.098995
0.046021
0.046857
0.047344
0.047891
0.063064
0.063772
0.064592
0.065290
0.110085
0.112526
0.112473
0.114075
0.114952
0.117490
0.117507
0.118584
0.058447
0.058269
0.058933
0.059582
0.073675
0.128696
0.076793
0.109223
0.130110
0.132075
0.132950
0.134350
0.136359
0.137170
0.138665
0.139510
0.081586
0.077245
0.074807
0.075415
0.076131
0.088340
0.088966
0.149440
0.150964
0.152034
0.153270
0.154605
0.068578
0.068043
0.068340
0.071854
0.080986
0.083064
0.082060
0.165463
0.166811
0.113185
0.112541
0.113694
0.123410
0.172388
0.114960
0.110759
0.113761
0.118638
0.121634
0.149901
0.145792
0.146294
0.147107
0.148248
0.160043
0.187763
0.189390
0.188996
0.176717
0.178804
0.166287
0.071139
0.064917
0.065063
0.065473
0.065909
0.202758
0.203835
0.104544
0.103023
0.106116
0.113691
0.115376
0.210862
0.211812
0.124983
0.124914
0.135569
0.137214
0.140248
0.138892
0.141519
0.140329
0.142876
0.151713
0.150607
0.227095
0.144229
0.139221
0.140884
0.140093
0.140323
0.140988
0.149109
0.237576
0.238702
0.241349
0.240098
0.208299
0.217812
0.106600
0.105957
0.102906
0.103188
0.106011
0.112166
0.112407
0.115347
0.256144
0.257362
0.250022
0.222354
0.223823
0.224664
0.094111
0.096901
0.095894
0.113747
0.111696
0.119344
