Full Accuracy
96.615387
Accuracy - I
cat: testS_0.svm.acc: No such file or directory
73.230774
80.692307
86.615387
89.230766
91.769234
91.846153
92.846153
93.230774
93.615379
93.461540
94.153847
95.076927
95.461533
95.461533
96.000000
95.538460
95.846153
95.846153
96.538460
96.769234
