Full Accuracy
96.615387
Accuracy - I
cat: testS_0.svm.acc: No such file or directory
69.307693
79.307693
87.230774
89.538460
92.153847
92.769226
93.769226
94.076927
93.846153
94.000000
94.538460
95.769234
96.000000
96.000000
96.076927
95.692307
96.000000
96.000000
96.461540
96.615387
