Full Time (seconds)
0.081033
Incremental Time - I
0.015886
0.002259
0.003484
0.005650
0.010622
0.012025
0.014826
0.028179
0.017030
0.026335
0.034825
0.027478
0.034926
0.037390
0.058594
0.046479
0.054104
0.054102
0.058777
0.087952
0.063864
Classification Time - C
0.031077
0.030251
0.026830
0.035615
0.045268
0.046327
0.045861
0.051647
0.055424
0.059839
0.057518
0.059186
0.044314
0.060244
0.064583
0.068657
0.111669
0.099456
0.079368
0.081685
