Full Time (seconds)
0.002948
Time - I
0.000945
0.001046
0.001058
0.001417
0.001187
0.001350
0.001353
0.001425
0.001491
0.001554
0.001585
0.001671
0.001743
0.001810
0.001844
0.001983
0.001984
0.002045
0.002129
0.002201
0.002247
0.002353
0.002403
0.002449
0.002546
0.002621
0.002667
0.002750
0.002808
0.002866
0.002981
