Full Time (seconds)
0.014344
Incremental Time - I
0.000372
0.000611
0.001158
0.002514
0.002148
0.002508
0.003207
0.003418
0.003918
0.004406
0.004892
0.005149
0.005569
0.005662
0.006306
0.006503
0.006969
0.007060
0.007593
0.007848
0.008089
0.009832
0.010853
0.012328
0.013266
0.014429
0.015471
0.016535
0.017439
0.018378
0.019356
Classification Time - C
0.002099
0.002888
0.004368
0.005947
0.005230
0.005472
0.005682
0.005753
0.005783
0.005829
0.005832
0.006159
0.006455
0.006589
0.007791
0.007210
0.007388
0.007438
0.007737
0.007917
0.008536
0.008954
0.009514
0.012233
0.010803
0.011531
0.012651
0.012800
0.013375
0.013864
0.014282
