Full Time (seconds)
0.014706
Incremental Time - I
0.001320
0.000043
0.000043
0.000046
0.000050
0.000043
0.000044
0.000046
0.000046
0.000047
0.000059
0.001020
0.002082
0.003192
0.003724
0.004691
0.005111
0.005875
0.006733
0.007444
0.007713
0.009332
0.010507
0.011807
0.012912
0.013720
0.015267
0.016269
0.017221
0.017846
0.018984
Classification Time - C
0.003237
0.001163
0.001177
0.001161
0.001161
0.001149
0.001147
0.001153
0.001155
0.001148
0.001149
0.002155
0.003391
0.004288
0.005089
0.005847
0.006495
0.006891
0.007326
0.007768
0.008007
0.008836
0.009632
0.010416
0.011010
0.011848
0.012434
0.013365
0.013607
0.013838
0.014659
