Full Time (seconds)
0.371379
Time - I
0.205221
0.273910
0.268124
0.274597
0.302783
0.345292
0.345386
0.266854
0.374204
0.417429
0.375410
0.433463
0.382933
0.303713
0.443949
0.468659
0.295159
0.441347
0.456635
0.308236
0.468774
