Full Time (seconds)
0.451779
Time - I
0.014766
0.058564
0.102494
0.144000
0.186507
0.197989
0.305836
0.326212
0.356948
0.401405
0.428412
0.376149
0.319903
0.420012
0.453372
0.421402
0.450697
0.450772
0.466301
0.457708
0.419185
