Full Time (seconds)
0.457409
Time - I
0.250182
0.280950
0.313813
0.320550
0.364300
0.367266
0.350196
0.443945
0.405671
0.493981
0.460284
0.555027
0.538662
0.593017
0.656687
0.692568
0.467995
0.758235
0.763186
0.651691
0.538937
