Full Time (seconds)
0.127385
Incremental Time - I
0.157080
0.016326
0.027827
0.038872
0.052217
0.023082
0.068893
0.104826
0.110102
0.120753
0.110057
0.111898
0.132580
0.213727
0.212871
0.192422
0.281583
0.110446
0.120308
0.146762
0.160688
Classification Time - C
0.092772
0.117228
0.130417
0.144892
0.052657
0.174989
0.180684
0.194032
0.206176
0.213480
0.153015
0.160970
0.253983
0.232794
0.192295
0.279244
0.102637
0.107744
0.124837
0.130091
