Full Time (seconds)
0.014780
Incremental Time - I
0.000368
0.000593
0.001188
0.001656
0.002170
0.002470
0.003232
0.003439
0.003857
0.004428
0.004892
0.005110
0.005582
0.005799
0.006366
0.006421
0.007096
0.007183
0.007845
0.007820
0.008059
0.009726
0.011030
0.012518
0.013325
0.014527
0.015605
0.016681
0.017769
0.018701
0.019743
Classification Time - C
0.002460
0.002891
0.004372
0.004913
0.005222
0.005482
0.005683
0.005755
0.005775
0.005824
0.005856
0.006120
0.006438
0.006690
0.006891
0.006976
0.007368
0.007524
0.007752
0.007932
0.007929
0.008950
0.009491
0.010194
0.010955
0.011793
0.012294
0.012851
0.013816
0.013817
0.014414
