Full Time (seconds)
0.005670
Incremental Time - I
0.000627
0.000052
0.000049
0.000053
0.000056
0.000052
0.000053
0.000058
0.000069
0.000064
0.000071
0.000080
0.000097
0.000107
0.000112
0.000111
0.000119
0.000125
0.000122
0.000126
0.000129
0.000267
0.000252
0.000270
0.002265
0.001968
0.002065
0.001791
0.002119
0.001827
0.001949
Classification Time - I
0.000614
0.000655
0.000700
0.000740
0.000790
0.000867
0.000885
0.000949
0.001024
0.001092
0.001520
0.001308
0.001428
0.001552
0.001651
0.001770
0.001914
0.002008
0.002128
0.002491
0.002519
0.002726
0.002923
0.003219
0.003405
0.003640
0.003885
0.004211
0.004469
0.004751
