Full Time (seconds)
0.458047
Time - I
0.219826
0.227883
0.270226
0.252371
0.261342
0.276901
0.288857
0.296224
0.350124
0.329938
0.317571
0.347067
0.357305
0.421420
0.381042
0.392549
0.409599
0.476962
0.370407
0.400696
0.365449
