Full Time (seconds)
0.105090
Time - I
0.004133
0.004697
0.005454
0.006231
0.006962
0.007725
0.008462
0.009258
0.010002
0.010757
0.011552
0.012240
0.012970
0.013741
0.014726
0.015469
0.015959
0.017481
0.017660
0.018529
0.019026
0.019785
0.020854
0.021679
0.021989
0.023379
0.023457
0.024607
0.026095
0.026180
0.026521
0.027847
0.028497
0.028971
0.029531
0.030291
0.031370
0.032001
0.032528
0.033303
0.034076
0.035383
0.035451
0.036320
0.036969
0.038977
0.039370
0.039473
0.039947
0.040707
0.041832
0.042243
0.043366
0.043766
0.045263
0.045176
0.047461
0.048220
0.049003
0.048987
0.049240
0.049539
0.051347
0.050247
0.050852
0.051040
0.052607
0.051729
0.053755
0.053093
0.053037
0.053551
0.054305
0.055577
0.055711
0.057328
0.058231
0.058259
0.058791
0.069041
0.060670
0.061096
0.062881
0.062802
0.064280
0.064103
0.065426
0.066683
0.066308
0.067871
0.067786
0.070476
0.069294
0.070044
0.070877
0.071847
0.072322
0.073205
0.073799
0.075626
0.075342
0.076641
0.078290
0.078615
0.078337
0.079029
0.079802
0.080768
0.081280
0.084201
0.083511
0.083889
0.084161
0.085474
0.086462
0.087060
0.088095
0.088157
0.089021
0.089569
0.090639
0.091524
0.091788
0.092945
0.093849
0.094243
0.095364
0.095661
0.096550
0.097493
0.099197
0.098508
0.100701
0.100120
0.100855
0.103982
0.102645
0.103130
0.103939
0.104649
0.105687
