Full Time (seconds)
0.035787
Incremental Time - I
0.065093
0.000781
0.000763
0.000952
0.000830
0.001123
0.000890
0.000934
0.001028
0.001053
0.001137
0.001300
0.001257
0.001307
0.001355
0.001365
0.001711
0.001746
0.001809
0.001949
0.001985
Classification Time - I
0.008674
0.008976
0.010116
0.011287
0.012314
0.013383
0.014504
0.015496
0.016577
0.019398
0.018698
0.019751
0.023336
0.022116
0.022974
0.024465
0.026144
0.030194
0.027678
0.028839
