Full Time (seconds)
0.201570
Time - I
0.009185
0.039863
0.042999
0.057841
0.070890
0.096206
0.151954
0.118339
0.145564
0.134329
0.143138
0.164809
0.229801
0.238934
0.234402
0.240468
0.236210
0.236432
0.238785
0.227534
0.235543
