Full Accuracy
93.000000
Accuracy - I
50.000000
56.692307
69.000000
73.153847
76.923080
81.076927
84.153847
84.538460
86.230766
87.307693
87.923080
88.923080
89.846153
90.538460
90.923080
91.461540
91.923073
92.153847
92.923073
93.076920
93.000000
