Full Time (seconds)
0.083163
Time - I
0.005893
0.009364
0.013793
0.018903
0.017909
0.021012
0.029052
0.033118
0.037553
0.041394
0.045287
0.051169
0.057967
0.068939
0.077571
0.077443
0.068884
0.087904
0.103656
0.100214
0.088482
