Full Time (seconds)
0.108891
Time - I
0.004335
0.008508
0.012724
0.019006
0.020832
0.025294
0.028991
0.033891
0.037610
0.041207
0.045303
0.051304
0.057342
0.063755
0.069709
0.078059
0.076183
0.078202
0.083472
0.100072
0.106957
