Full Time (seconds)
0.107321
Time - I
0.004265
0.010663
0.012611
0.016734
0.020832
0.024875
0.028967
0.033036
0.038233
0.042445
0.045493
0.048263
0.061334
0.065076
0.069710
0.075821
0.082023
0.089283
0.094676
0.074979
0.107423
