Full Time (seconds)
0.097801
Time - I
0.004172
0.007902
0.012753
0.018452
0.021960
0.025872
0.034517
0.033236
0.038473
0.043155
0.045852
0.052448
0.057475
0.063804
0.075798
0.083988
0.086669
0.088316
0.094449
0.100825
0.106842
