Full Time (seconds)
0.249081
Time - I
0.002245
0.003391
0.004810
0.006055
0.006867
0.007155
0.007861
0.008974
0.009988
0.013152
0.013611
0.014531
0.015161
0.016355
0.017886
0.019869
0.019739
0.022738
0.023564
0.025196
0.024593
0.025855
0.027228
0.028247
0.029379
0.030506
0.031566
0.032995
0.037466
0.035246
0.036566
0.038340
0.040384
0.040522
0.043615
0.043940
0.045714
0.046310
0.046452
0.047213
0.051111
0.052168
0.053212
0.053903
0.052941
0.054494
0.055868
0.057041
0.058816
0.059727
0.063010
0.063375
0.063203
0.064326
0.067857
0.068045
0.069133
0.071398
0.071774
0.072690
0.074142
0.076225
0.076833
0.078264
0.079187
0.079849
0.081582
0.083154
0.083851
0.084988
0.085053
0.085727
0.087175
0.088344
0.089109
0.089850
0.095466
0.093035
0.093387
0.094455
0.095672
0.096986
0.098608
0.101233
0.102774
0.103552
0.150130
0.106462
0.106735
0.108196
0.109053
0.108695
0.111594
0.114316
0.114827
0.115820
0.117623
0.125281
0.118619
0.120092
0.121356
0.122531
0.123576
0.124518
0.124359
0.126217
0.127663
0.128760
0.130772
0.137404
0.134891
0.136384
0.136796
0.146050
0.139294
0.141354
0.141789
0.143316
0.141141
0.143394
0.147084
0.147669
0.145539
0.148853
0.150949
0.152942
0.154608
0.157910
0.155949
0.149779
0.145810
0.156245
0.148662
0.149470
0.162271
0.163010
0.167313
0.154171
0.165882
0.168265
0.171547
0.169776
0.172103
0.174214
0.175465
0.175582
0.162918
0.165828
0.166820
0.167504
0.179304
0.157875
0.181920
0.182478
0.185913
0.187834
0.187700
0.186195
0.177194
0.175908
0.165017
0.166702
0.165330
0.171616
0.182926
0.180745
0.172912
0.211570
0.205200
0.203337
0.205002
0.177714
0.204810
0.193169
0.179886
0.181050
0.210649
0.183914
0.194272
0.198955
0.188814
0.185824
0.175011
0.176786
0.183914
0.180591
0.169708
0.170641
0.170679
0.242171
0.229665
0.231638
0.230824
0.230024
0.235004
0.232342
0.240003
0.238428
0.235502
0.236205
0.243423
0.239940
0.246659
0.237436
0.243693
0.243664
0.320966
0.246267
0.253065
0.255324
0.249427
