Full Time (seconds)
0.163170
Time - I
0.002215
0.002675
0.003434
0.004219
0.005943
0.006798
0.010378
0.009304
0.009946
0.011424
0.013070
0.013719
0.015181
0.017046
0.018093
0.018581
0.019746
0.020724
0.022142
0.023248
0.024328
0.026721
0.026806
0.029184
0.030083
0.030420
0.032305
0.034865
0.034412
0.035608
0.037599
0.037462
0.038676
0.041537
0.042616
0.043691
0.043871
0.046268
0.046695
0.047317
0.049666
0.049675
0.054176
0.051934
0.052843
0.054640
0.055280
0.057269
0.057958
0.065246
0.059872
0.062993
0.063185
0.065271
0.067175
0.066022
0.068642
0.068543
0.069500
0.070724
0.072512
0.074070
0.074720
0.077135
0.083212
0.077844
0.080316
0.080420
0.083480
0.084477
0.092840
0.085413
0.093144
0.089602
0.088291
0.096658
0.093212
0.093158
0.098231
0.097445
0.096787
0.096951
0.099910
0.099781
0.103292
0.101998
0.103072
0.104494
0.107477
0.107795
0.107599
0.109501
0.111749
0.112900
0.121326
0.114820
0.116929
0.118980
0.118304
0.121154
0.122398
0.122314
0.125124
0.125514
0.125344
0.127733
0.128931
0.127390
0.130816
0.129773
0.131696
0.132851
0.133550
0.136801
0.135982
0.136967
0.140015
0.139427
0.142085
0.141532
0.142890
0.144966
0.147329
0.149109
0.150115
0.153138
0.149982
0.153914
0.156546
0.156210
0.143850
0.145660
0.158408
0.159087
0.160384
0.164521
0.169269
0.162774
0.166307
0.169841
0.171073
0.168957
0.173265
0.175427
0.184887
0.176949
0.177220
0.170204
0.166065
0.160494
0.157735
0.151461
0.148956
0.185946
0.187610
0.187580
0.189502
0.190776
0.192118
0.193227
0.193642
0.193364
0.194111
0.197511
0.195689
0.199600
0.201663
0.202635
0.202771
0.205267
0.205699
0.198333
0.204104
0.206926
0.209534
0.194240
0.195365
0.183247
0.183984
0.229909
0.216255
0.233640
0.215798
0.217896
0.220597
0.224370
0.222297
0.194507
0.196235
0.194831
0.226146
0.226992
0.236478
0.225220
0.215505
0.206264
0.201139
0.189263
0.190948
0.179351
0.182475
0.170458
0.173473
0.171293
0.175079
0.175746
0.179274
0.168019
0.167973
0.168549
0.169661
