Full Accuracy
94.000000
Accuracy - I
50.000000
74.615387
79.384621
84.615387
86.923073
89.769234
89.846153
90.230766
90.461540
91.230766
91.384613
92.384621
93.384613
93.692307
93.846153
94.153847
94.230774
94.230774
94.461533
94.923080
94.846153
