Full Time (seconds)
0.131252
Incremental Time - I
0.002349
0.000353
0.000569
0.000810
0.001176
0.001497
0.001538
0.001790
0.001976
0.002829
0.002604
0.004068
0.004669
0.005115
0.005833
0.005279
0.006027
0.007594
0.008150
0.007484
0.007975
Classification Time - I
0.010104
0.015412
0.020469
0.023044
0.030345
0.032491
0.037035
0.041657
0.050076
0.054798
0.063983
0.069775
0.077391
0.076457
0.078945
0.093816
0.107990
0.111602
0.109742
0.124877
