Full Time (seconds)
0.244567
Time - I
0.002147
0.003192
0.004259
0.005678
0.006730
0.007792
0.009209
0.010276
0.011347
0.012825
0.013815
0.014889
0.016285
0.017352
0.018411
0.019821
0.020928
0.022149
0.023355
0.023899
0.024415
0.025491
0.026588
0.027242
0.028803
0.029704
0.030799
0.032186
0.033322
0.034513
0.036050
0.037124
0.037862
0.039843
0.040331
0.042341
0.042808
0.043926
0.044895
0.046739
0.047422
0.048432
0.050110
0.051000
0.052002
0.053448
0.054390
0.055474
0.056984
0.057979
0.059041
0.060659
0.062155
0.062578
0.063984
0.065107
0.066112
0.067956
0.068597
0.070427
0.072245
0.072125
0.073207
0.075408
0.075737
0.076743
0.078300
0.080192
0.080853
0.081715
0.084247
0.083807
0.085242
0.086363
0.088956
0.089511
0.089864
0.091005
0.092376
0.093521
0.102287
0.095899
0.098590
0.099211
0.101750
0.102374
0.101528
0.104156
0.104006
0.105053
0.106568
0.109075
0.109955
0.112005
0.111139
0.112749
0.114033
0.114717
0.115704
0.117799
0.118184
0.120325
0.121124
0.121733
0.122808
0.124288
0.125174
0.127590
0.130048
0.131186
0.129834
0.131266
0.133885
0.133389
0.134777
0.135978
0.138641
0.137741
0.128651
0.130144
0.141594
0.142882
0.145486
0.145487
0.146450
0.147627
0.148952
0.150467
0.151127
0.147707
0.141852
0.142749
0.144177
0.145477
0.146468
0.147384
0.148718
0.149220
0.151164
0.151479
0.152534
0.154657
0.154746
0.156235
0.157052
0.158661
0.158976
0.162476
0.149765
0.153695
0.163597
0.164721
0.165908
0.166750
0.168239
0.168876
0.167641
0.158804
0.160281
0.162015
0.163578
0.162872
0.164170
0.165087
0.167136
0.197673
0.187315
0.197039
0.187498
0.184075
0.185859
0.189883
0.205577
0.206280
0.207961
0.207327
0.207707
0.201413
0.203430
0.213851
0.202331
0.200668
0.198774
0.202204
0.188779
0.190270
0.190650
0.190984
0.192484
0.193281
0.195080
0.193629
0.194205
0.195126
0.234032
0.230329
0.231684
0.232267
0.215815
0.213497
0.202676
0.241650
0.238877
0.239326
0.222190
0.219733
0.212106
0.209898
0.226693
0.246395
0.247855
