Full Time (seconds)
0.412625
Time - I
0.014742
0.056530
0.102639
0.143943
0.246007
0.257677
0.279051
0.320604
0.389329
0.412115
0.451047
0.427915
0.445972
0.453596
0.470018
0.452654
0.389507
0.395942
0.411479
0.378916
0.438112
