Full Time (seconds)
0.452562
Time - I
0.218065
0.241999
0.264126
0.285435
0.305252
0.344311
0.360199
0.366741
0.393162
0.414618
0.437462
0.424234
0.390498
0.369866
0.388181
0.442945
0.483760
0.467351
0.461575
0.461256
0.475392
