Full Accuracy
71.022224
Accuracy - I
50.000000
50.000000
50.000000
50.000000
50.000000
50.000000
50.000000
50.000000
50.000000
50.000000
50.000000
58.533333
60.955555
61.355556
62.000000
61.977776
63.644444
63.488888
63.822220
64.622215
64.955551
67.466667
70.066666
71.977776
71.666664
72.044441
72.066673
72.000000
71.955559
72.022224
71.466667
