Full Time (seconds)
0.032354
Incremental Time - I
0.011392
0.000370
0.000476
0.001521
0.001577
0.001695
0.001787
0.001914
0.002019
0.002149
0.002220
0.001355
0.001247
0.001320
0.001375
0.001385
0.001328
0.001411
0.001415
0.001412
0.001442
0.001767
0.001782
0.001799
0.001833
0.001919
0.001991
0.002032
0.002153
0.002151
0.002093
Classification Time - I
0.005257
0.006200
0.007439
0.008882
0.010421
0.012062
0.013525
0.015045
0.016437
0.017911
0.018199
0.018580
0.019615
0.020040
0.019806
0.020462
0.020659
0.020724
0.021091
0.021582
0.022329
0.023013
0.023734
0.024953
0.025152
0.026115
0.027915
0.027942
0.028271
0.029104
