Full Time (seconds)
0.033787
Incremental Time - I
0.006420
0.000372
0.000477
0.001499
0.001370
0.001594
0.001811
0.001915
0.002338
0.001633
0.002348
0.001718
0.001626
0.001740
0.001172
0.001809
0.001910
0.001924
0.001980
0.001859
0.001947
0.001440
0.001424
0.001463
0.001517
0.001547
0.001461
0.001482
0.001668
0.001094
0.001563
Classification Time - I
0.005023
0.006354
0.007548
0.009106
0.010536
0.012059
0.013680
0.016368
0.017039
0.018428
0.018673
0.020619
0.020225
0.021061
0.021789
0.022886
0.023524
0.025070
0.025291
0.025681
0.026266
0.027025
0.026962
0.027221
0.027901
0.028889
0.029988
0.030245
0.030422
0.032274
