Full Accuracy
91.153847
Accuracy - I
50.000000
50.923080
52.538460
53.769230
53.769230
53.846157
53.846157
53.846157
53.846157
53.846157
53.846157
54.076923
54.769238
55.076927
55.615383
56.384617
56.846153
57.307690
57.461540
57.461540
57.615387
57.692307
58.692307
59.153843
59.692307
59.923077
60.076923
60.461540
60.769230
61.000000
61.076920
62.076920
64.615387
64.846153
64.846153
64.846153
64.923080
64.923080
64.846153
64.846153
64.846153
64.923080
66.230766
67.153847
67.538467
67.692307
67.692307
67.769226
68.076927
68.153847
68.153847
68.846146
70.538460
71.076927
71.384613
71.384613
71.538460
71.538460
71.692307
71.769234
71.846161
72.076920
73.384613
73.769226
74.461540
74.538460
74.615387
75.076920
75.153847
75.153847
75.153847
75.769226
76.692307
77.000008
77.076927
77.461540
77.384613
77.615387
78.000000
78.000000
78.230766
78.307693
78.538460
79.230766
79.307693
79.384613
79.461540
80.000000
80.076920
80.153847
80.307693
80.384621
80.538467
81.692307
82.307693
82.615387
82.538460
82.769234
82.846153
83.076927
82.923073
84.307686
84.846153
86.076920
86.307693
86.307693
86.307693
86.307693
86.307693
86.384613
86.461540
86.384621
86.846153
87.307693
87.846153
88.000000
88.230774
88.153847
88.384613
88.615379
88.692307
88.538460
88.538460
88.538460
88.307693
88.307693
88.230774
88.230774
88.153847
88.153847
88.153847
89.615387
90.307693
91.230766
91.307693
91.230766
91.153847
91.076920
91.153847
91.307693
91.153847
