Full Time (seconds)
0.107184
Time - I
0.004543
0.005899
0.006359
0.007293
0.008236
0.008950
0.009735
0.010495
0.011872
0.012101
0.013052
0.015212
0.016341
0.017499
0.018024
0.017998
0.017491
0.018114
0.018845
0.019536
0.020329
0.016700
0.014303
0.022626
0.023939
0.024349
0.019839
0.027485
0.028353
0.030147
0.030964
0.031296
0.029513
0.030855
0.031576
0.034175
0.032710
0.034426
0.035112
0.035022
0.035869
0.036626
0.037290
0.039237
0.038821
0.039666
0.040450
0.044390
0.044603
0.028203
0.028260
0.028288
0.031037
0.029677
0.047864
0.048510
0.049307
0.048619
0.050845
0.050519
0.055934
0.051731
0.052498
0.056509
0.054213
0.054857
0.056323
0.056326
0.056970
0.059862
0.058817
0.060003
0.061501
0.061114
0.061904
0.067895
0.063220
0.064083
0.069527
0.065695
0.066242
0.066728
0.070496
0.068658
0.069516
0.070123
0.070995
0.056968
0.059471
0.058933
0.073487
0.074390
0.075670
0.075709
0.077937
0.078180
0.078943
0.079249
0.080254
0.080552
0.081093
0.082047
0.082657
0.089542
0.088343
0.085603
0.086158
0.087497
0.087445
0.087939
0.052875
0.088946
0.089939
0.090263
0.090197
0.090673
0.090973
0.060840
0.063694
0.092027
0.092751
0.093076
0.094001
0.067192
0.067480
0.067844
0.068537
0.099608
0.098524
0.111771
0.112647
0.101025
0.101885
0.114911
0.113330
0.066086
0.106357
0.105795
0.106052
0.106756
0.111789
