Full Accuracy
87.985962
Accuracy - I
50.000000
50.000000
50.000000
50.000000
50.000000
50.000000
50.000000
50.000000
50.000000
50.000000
50.000000
76.740822
82.286430
85.575119
87.335266
88.582253
89.001587
88.935318
88.573784
88.234344
87.985962
