Full Time (seconds)
0.105284
Time - I
0.003928
0.009444
0.012107
0.016279
0.020216
0.025244
0.028426
0.032360
0.038812
0.041680
0.045318
0.050571
0.057548
0.063501
0.070187
0.077109
0.083462
0.090478
0.096244
0.103006
0.115724
