Full Time (seconds)
0.002850
Time - I
0.000418
0.000546
0.000659
0.000778
0.000892
0.000988
0.001225
0.001463
0.001387
0.001429
0.001525
0.001699
0.001784
0.001879
0.001974
0.002089
0.002413
0.002349
0.002489
0.002703
0.003075
