Full Time (seconds)
0.003048
Time - I
0.000510
0.000576
0.000645
0.000700
0.000772
0.000832
0.000895
0.000972
0.001031
0.001095
0.001210
0.001197
0.001231
0.001253
0.001304
0.001306
0.001347
0.001426
0.001442
0.001502
0.001885
0.002941
0.003199
0.002210
0.002150
0.002236
0.002366
0.002843
0.002648
0.003105
0.002943
