Full Time (seconds)
0.002746
Time - I
0.000578
0.000505
0.000572
0.000615
0.000689
0.000977
0.000798
0.000877
0.000936
0.001174
0.001057
0.001087
0.001124
0.001159
0.001271
0.001191
0.001259
0.001309
0.001340
0.001399
0.001415
0.001561
0.001694
0.001891
0.002029
0.002097
0.002251
0.002420
0.002592
0.002690
0.002832
