Full Time (seconds)
0.002801
Time - I
0.000822
0.000885
0.000955
0.001519
0.001111
0.001176
0.001188
0.001711
0.001381
0.001401
0.001471
0.001512
0.001603
0.001661
0.001753
0.001775
0.002367
0.001949
0.001953
0.002154
0.002085
0.002190
0.002252
0.002536
0.002352
0.002446
0.002555
0.003178
0.002625
0.004689
0.002771
