Full Time (seconds)
0.015883
Time - I
0.002071
0.002827
0.003637
0.004409
0.005170
0.006032
0.006765
0.014989
0.008356
0.009212
0.010530
0.010593
0.010631
0.011176
0.011484
0.012191
0.012245
0.012732
0.013093
0.013558
0.014740
0.014077
0.015016
0.015224
0.015358
0.015736
0.015004
0.015510
0.015941
0.015720
0.016730
