Full Time (seconds)
0.016867
Time - I
0.002061
0.003157
0.003635
0.004401
0.005192
0.005955
0.006773
0.007539
0.008405
0.009253
0.010193
0.010397
0.010637
0.010633
0.010808
0.010978
0.011203
0.011303
0.011623
0.012212
0.012334
0.012338
0.013478
0.014163
0.013469
0.014299
0.014789
0.014985
0.015104
0.015577
0.016690
