Full Time (seconds)
0.016496
Time - I
0.002333
0.003174
0.004466
0.004787
0.005655
0.006441
0.007246
0.008066
0.008912
0.009621
0.010648
0.011268
0.011547
0.011551
0.011965
0.012736
0.013115
0.013386
0.013542
0.013941
0.017007
0.015384
0.015476
0.015601
0.015653
0.015477
0.016266
0.015857
0.016345
0.016331
0.016504
