Full Time (seconds)
0.141895
Incremental Time - I
0.001394
0.000088
0.000099
0.000104
0.000113
0.000117
0.000127
0.000137
0.000147
0.000158
0.000163
0.000171
0.000181
0.000193
0.000198
0.000209
0.000231
0.000223
0.000227
0.000245
0.000253
0.002301
0.002314
0.002328
0.002147
0.001983
0.002132
0.002168
0.001713
0.002354
0.002281
0.002133
0.002051
0.002233
0.002055
0.001983
0.002011
0.001961
0.001743
0.001777
0.001780
0.002156
0.002321
0.002301
0.002392
0.002361
0.002323
0.002365
0.002057
0.002496
0.002097
0.002434
0.001881
0.002556
0.002553
0.002513
0.002535
0.002523
0.002581
0.002426
0.002765
0.002690
0.002724
0.002156
0.002513
0.002634
0.002538
0.002304
0.002648
0.002392
0.001281
0.002572
0.001738
0.002577
0.002603
0.002753
0.002637
0.002724
0.002635
0.002974
0.003009
0.002620
0.002072
0.002033
0.002002
0.002597
0.002984
0.003059
0.002982
0.002593
0.002323
0.002305
0.002207
0.002894
0.003029
0.003142
0.002592
0.002435
0.003135
0.002466
0.002286
0.003076
0.003233
0.002573
0.002346
0.002336
0.002246
0.002333
0.003043
0.003154
0.002685
0.002347
0.002162
0.002988
0.003328
0.003283
0.002780
0.002390
0.002333
0.002243
0.002995
0.003543
0.002774
0.002558
0.002604
0.002434
0.002487
0.002138
0.002915
0.003214
0.003231
0.003494
0.003274
0.003301
0.003246
0.002440
0.002666
0.002566
0.003169
0.002763
0.002572
Classification Time - I
0.005774
0.006722
0.007632
0.008589
0.009518
0.010461
0.011447
0.012573
0.013621
0.014864
0.015776
0.016835
0.017758
0.018642
0.019457
0.020373
0.021202
0.021589
0.022505
0.024137
0.025147
0.025688
0.026888
0.027003
0.028873
0.029914
0.029922
0.030889
0.032270
0.033744
0.033071
0.033546
0.033858
0.035399
0.035027
0.036395
0.036998
0.037593
0.038178
0.038758
0.038437
0.040734
0.041898
0.042664
0.042200
0.043159
0.044398
0.046589
0.047806
0.046990
0.048653
0.049922
0.050154
0.052519
0.053539
0.053098
0.054160
0.055563
0.055554
0.056356
0.057323
0.058644
0.061131
0.060028
0.060917
0.061905
0.062852
0.063874
0.064731
0.067821
0.067656
0.067484
0.069313
0.069372
0.070582
0.071235
0.072298
0.073826
0.074640
0.075278
0.076452
0.076910
0.078340
0.079276
0.079716
0.081627
0.081728
0.082395
0.083339
0.084638
0.085241
0.086231
0.087603
0.088964
0.089168
0.090081
0.091094
0.092349
0.092294
0.093645
0.094530
0.095282
0.096130
0.097616
0.098346
0.099376
0.100053
0.100809
0.101494
0.103112
0.104396
0.104152
0.105790
0.106635
0.107362
0.109080
0.108594
0.110124
0.110718
0.111630
0.113850
0.114091
0.114290
0.115260
0.116456
0.117227
0.117890
0.102149
0.092313
0.112448
0.122804
0.123390
0.123663
0.124226
0.125232
0.126866
0.127614
0.128433
0.128980
0.130680
