Full Time (seconds)
0.833185
Incremental Time - I
0.033542
0.006343
0.017287
0.028594
0.038871
0.049340
0.053037
0.056110
0.080133
0.078546
0.071680
0.004811
0.002966
0.002907
0.002984
0.002781
0.005246
0.005114
0.005701
0.005375
0.005430
Classification Time - I
0.113252
0.176185
0.246846
0.330129
0.360784
0.454529
0.544762
0.621699
0.583791
0.776379
0.714265
0.433681
0.384190
0.331773
0.791834
0.807932
0.772762
0.671783
0.691351
0.346794
