Full Time (seconds)
0.463034
Time - I
0.016209
0.061989
0.115620
0.149254
0.193310
0.240827
0.237655
0.266149
0.362575
0.410112
0.449840
0.477337
0.463571
0.396824
0.360558
0.468516
0.448787
0.461541
0.473652
0.467343
0.476970
