Full Accuracy
76.822220
Accuracy - I
50.000000
60.400002
64.622223
66.622231
68.844444
70.088890
71.755562
72.733330
73.488892
74.844444
74.155556
74.333336
74.622223
74.488892
74.955551
75.466667
76.755554
76.266663
76.022217
76.711113
76.822220
