Full Accuracy
79.5333
Accuracy - I
42.8
50
61.9
62.6
61.3
59.1
57.8
56.2
55.2
55.2
54.1
56.0667
56.0667
56.0667
59.7333
66.9778
69
70.3556
70.9778
72.1111
72.2222
74.5111
76.7111
77.5778
78.8222
79.0444
79.0222
78.9111
79.0222
79.7333
79.5333
