Full Time (seconds)
0.014802
Incremental Time - I
0.001328
0.000041
0.000045
0.000048
0.000044
0.000043
0.000046
0.000045
0.000047
0.000046
0.000060
0.001029
0.002125
0.003145
0.003743
0.004627
0.005041
0.005951
0.006733
0.007600
0.007651
0.009176
0.010533
0.011972
0.013002
0.013931
0.015250
0.016026
0.017133
0.018086
0.019089
Classification Time - C
0.003249
0.001162
0.001154
0.001151
0.001184
0.001153
0.001148
0.001163
0.001153
0.001160
0.001151
0.002188
0.003393
0.004296
0.005101
0.005835
0.006246
0.007286
0.007326
0.007713
0.008030
0.008988
0.009588
0.010444
0.010957
0.011850
0.012658
0.013233
0.013454
0.014287
0.014328
