Full Time (seconds)
1.177873
Incremental Time - I
0.784019
0.019833
0.023002
0.024581
0.027432
0.030035
0.031144
0.033215
0.021330
0.039910
0.041176
0.033619
0.034382
0.036754
0.039140
0.037927
0.025896
0.042383
0.039055
0.044369
0.022960
Classification Time - I
0.400218
0.441027
0.488214
0.533959
0.556435
0.631669
0.615571
0.699326
0.738767
0.790329
0.806416
0.862781
0.819539
0.687816
0.630211
0.859563
0.924419
0.862047
0.533985
0.915704
