Full Time (seconds)
0.014722
Incremental Time - I
0.001356
0.000043
0.000044
0.000047
0.000048
0.000043
0.000045
0.000044
0.000045
0.000048
0.000042
0.001533
0.002074
0.003186
0.003782
0.004647
0.005008
0.005940
0.006757
0.007591
0.007723
0.009388
0.010364
0.011971
0.012966
0.013985
0.015017
0.016290
0.017204
0.017958
0.019358
Classification Time - C
0.003265
0.001160
0.001149
0.001150
0.001161
0.001163
0.001151
0.001149
0.001150
0.001150
0.001155
0.002183
0.003379
0.004285
0.005105
0.006235
0.006282
0.006888
0.007277
0.007662
0.007919
0.008962
0.009631
0.010441
0.010812
0.011458
0.012640
0.012972
0.013448
0.013875
0.014425
