Full Time (seconds)
0.362668
Incremental Time - I
0.000118
0.000038
0.000037
0.000036
0.000252
0.000298
0.000416
0.000696
0.000798
0.001006
0.001507
0.001664
0.001895
0.002469
0.002724
0.003149
0.003650
0.004123
0.004515
0.005421
0.005747
0.006171
0.006867
0.007436
0.007973
0.009073
0.009674
0.010197
0.011687
0.011512
0.012604
0.014352
0.014336
0.014727
0.016758
0.016809
0.017687
0.019256
0.019987
0.021672
0.022838
0.023616
0.024636
0.026441
0.027284
0.028888
0.030519
0.031228
0.034090
0.036326
0.034994
0.036045
0.040968
0.042001
0.041668
0.046316
0.047419
0.046507
0.050948
0.052338
0.054090
0.053817
0.054720
0.060117
0.063034
0.060326
0.062296
0.065586
0.066442
0.072917
0.071312
0.072237
0.074491
0.079952
0.080852
0.085696
0.087652
0.085337
0.087212
0.090396
0.097816
0.093836
0.097818
0.099611
0.100133
0.110597
0.109579
0.115235
0.111766
0.112740
0.113973
0.125996
0.120383
0.122180
0.126914
0.128037
0.129303
0.142471
0.136997
0.139792
0.144673
0.146295
0.149662
0.154058
0.155488
0.156708
0.161293
0.163293
0.166296
0.171313
0.172844
0.174522
0.179400
0.191649
0.185103
0.190397
0.192420
0.204746
0.204355
0.200307
0.205569
0.211402
0.213557
0.216895
0.236889
0.224450
0.227081
0.232566
0.234905
0.238108
0.244371
0.246622
0.250513
0.254405
0.258323
0.260367
0.267843
0.269610
0.270746
0.287092
0.278756
0.279204
0.279280
0.290126
0.294999
0.299725
0.292227
0.309391
0.312694
0.306279
0.341514
0.327089
0.330804
0.331050
0.341510
0.338203
0.345702
0.352452
0.360730
0.372871
0.352441
0.369724
0.374384
0.387490
0.385509
0.391051
0.310079
0.389868
0.406358
0.355257
0.398600
0.397305
0.419930
0.428355
0.346942
0.371606
0.440710
0.445811
0.325748
0.345636
0.465791
0.379476
0.474607
0.471529
0.346081
0.419513
0.337326
0.501137
0.484348
0.491186
0.510809
0.378710
0.514615
0.458234
0.541631
0.536761
0.515202
0.393316
0.535866
0.568013
0.543539
0.330263
0.303804
0.277138
0.332762
0.568156
0.564580
0.319350
0.498285
0.377096
0.314078
Classification Time - C
cat: testS_0.svm.time: No such file or directory
cat: test1II_0000.svm.time: No such file or directory
cat: test1II_0001.svm.time: No such file or directory
cat: test1II_0002.svm.time: No such file or directory
cat: test2II_0000.svm.time: No such file or directory
cat: test2II_0001.svm.time: No such file or directory
cat: test2II_0002.svm.time: No such file or directory
cat: test3II_0000.svm.time: No such file or directory
cat: test3II_0001.svm.time: No such file or directory
cat: test3II_0002.svm.time: No such file or directory
cat: test4II_0000.svm.time: No such file or directory
cat: test4II_0001.svm.time: No such file or directory
cat: test4II_0002.svm.time: No such file or directory
cat: test5II_0000.svm.time: No such file or directory
cat: test5II_0001.svm.time: No such file or directory
cat: test5II_0002.svm.time: No such file or directory
cat: test6II_0000.svm.time: No such file or directory
cat: test6II_0001.svm.time: No such file or directory
cat: test6II_0002.svm.time: No such file or directory
cat: test7II_0000.svm.time: No such file or directory
0.087230
0.088326
0.090159
0.091074
0.091498
0.092916
0.094008
cat: test9II_0002.svm.time: No such file or directory
cat: test10II_0000.svm.time: No such file or directory
cat: test10II_0001.svm.time: No such file or directory
cat: test10II_0002.svm.time: No such file or directory
0.103383
0.104381
0.106380
0.106972
0.108501
0.109960
0.111807
0.112510
0.118472
0.116768
0.118495
0.120380
0.121747
0.126898
0.129490
cat: test16II_0000.svm.time: No such file or directory
cat: test16II_0001.svm.time: No such file or directory
cat: test16II_0002.svm.time: No such file or directory
cat: test17II_0000.svm.time: No such file or directory
cat: test17II_0001.svm.time: No such file or directory
cat: test17II_0002.svm.time: No such file or directory
cat: test18II_0000.svm.time: No such file or directory
cat: test18II_0001.svm.time: No such file or directory
cat: test18II_0002.svm.time: No such file or directory
cat: test19II_0000.svm.time: No such file or directory
cat: test19II_0001.svm.time: No such file or directory
cat: test19II_0002.svm.time: No such file or directory
cat: test20II_0000.svm.time: No such file or directory
cat: test20II_0001.svm.time: No such file or directory
cat: test20II_0002.svm.time: No such file or directory
cat: test21II_0000.svm.time: No such file or directory
cat: test21II_0001.svm.time: No such file or directory
cat: test21II_0002.svm.time: No such file or directory
cat: test22II_0000.svm.time: No such file or directory
cat: test22II_0001.svm.time: No such file or directory
cat: test22II_0002.svm.time: No such file or directory
cat: test23II_0000.svm.time: No such file or directory
cat: test23II_0001.svm.time: No such file or directory
cat: test23II_0002.svm.time: No such file or directory
cat: test24II_0000.svm.time: No such file or directory
cat: test24II_0001.svm.time: No such file or directory
cat: test24II_0002.svm.time: No such file or directory
cat: test25II_0000.svm.time: No such file or directory
cat: test25II_0001.svm.time: No such file or directory
cat: test25II_0002.svm.time: No such file or directory
cat: test26II_0000.svm.time: No such file or directory
cat: test26II_0001.svm.time: No such file or directory
cat: test26II_0002.svm.time: No such file or directory
cat: test27II_0000.svm.time: No such file or directory
cat: test27II_0001.svm.time: No such file or directory
cat: test27II_0002.svm.time: No such file or directory
cat: test28II_0000.svm.time: No such file or directory
cat: test28II_0001.svm.time: No such file or directory
cat: test28II_0002.svm.time: No such file or directory
cat: test29II_0000.svm.time: No such file or directory
cat: test29II_0001.svm.time: No such file or directory
cat: test29II_0002.svm.time: No such file or directory
cat: test30II_0000.svm.time: No such file or directory
cat: test30II_0001.svm.time: No such file or directory
cat: test30II_0002.svm.time: No such file or directory
cat: test31II_0000.svm.time: No such file or directory
cat: test31II_0001.svm.time: No such file or directory
cat: test31II_0002.svm.time: No such file or directory
cat: test32II_0000.svm.time: No such file or directory
cat: test32II_0001.svm.time: No such file or directory
cat: test32II_0002.svm.time: No such file or directory
cat: test33II_0000.svm.time: No such file or directory
cat: test33II_0001.svm.time: No such file or directory
cat: test33II_0002.svm.time: No such file or directory
cat: test34II_0000.svm.time: No such file or directory
cat: test34II_0001.svm.time: No such file or directory
cat: test34II_0002.svm.time: No such file or directory
0.217956
0.219513
0.226103
0.223299
0.224660
0.226748
0.211206
0.230475
0.238784
0.228988
0.218811
0.238645
cat: test39II_0000.svm.time: No such file or directory
cat: test39II_0001.svm.time: No such file or directory
cat: test39II_0002.svm.time: No such file or directory
cat: test40II_0000.svm.time: No such file or directory
cat: test40II_0001.svm.time: No such file or directory
cat: test40II_0002.svm.time: No such file or directory
cat: test41II_0000.svm.time: No such file or directory
cat: test41II_0001.svm.time: No such file or directory
cat: test41II_0002.svm.time: No such file or directory
cat: test42II_0000.svm.time: No such file or directory
cat: test42II_0001.svm.time: No such file or directory
cat: test42II_0002.svm.time: No such file or directory
cat: test43II_0000.svm.time: No such file or directory
cat: test43II_0001.svm.time: No such file or directory
cat: test43II_0002.svm.time: No such file or directory
cat: test44II_0000.svm.time: No such file or directory
cat: test44II_0001.svm.time: No such file or directory
cat: test44II_0002.svm.time: No such file or directory
cat: test45II_0000.svm.time: No such file or directory
cat: test45II_0001.svm.time: No such file or directory
cat: test45II_0002.svm.time: No such file or directory
cat: test46II_0000.svm.time: No such file or directory
cat: test46II_0001.svm.time: No such file or directory
cat: test46II_0002.svm.time: No such file or directory
0.287899
0.253817
0.249703
0.266755
0.299095
0.263089
0.261170
0.267871
0.265522
0.261850
0.273501
0.272164
0.313053
0.283605
0.269668
0.323065
0.283186
0.324489
0.323970
0.284227
0.331248
0.275323
0.270805
0.336487
0.339004
0.339263
0.201676
0.343286
0.291824
0.200245
0.353466
0.294034
0.288299
0.301512
0.205133
0.252451
0.359387
0.360628
0.216629
0.248153
0.369784
0.212157
0.374010
0.373288
0.216417
0.255838
0.199501
0.252633
0.385594
0.344933
0.388844
0.234991
0.393729
0.230786
0.395877
0.349616
0.241328
0.242836
0.405978
0.329043
0.407538
0.248170
0.238078
0.229491
0.213983
0.279038
0.259169
0.245435
0.216209
0.248666
0.218596
0.444367
