Full Time (seconds)
0.118018
Time - I
0.004017
0.008004
0.013242
0.018352
0.022259
0.025287
0.028392
0.032349
0.036521
0.034781
0.044538
0.050919
0.056913
0.062624
0.068640
0.075210
0.081437
0.086628
0.095912
0.099415
0.115943
