Full Time (seconds)
0.106752
Time - I
0.003931
0.007995
0.012037
0.016393
0.020129
0.018597
0.028347
0.032405
0.036422
0.040549
0.049821
0.055309
0.041884
0.070122
0.073643
0.049638
0.055669
0.064333
0.104107
0.109393
0.077752
