Full Time (seconds)
0.131501
Incremental Time - I
0.000311
0.000442
0.000547
0.000693
0.000805
0.000914
0.000775
0.000839
0.000934
0.000986
0.001035
0.001698
0.001976
0.002352
0.002506
0.002887
0.003164
0.003375
0.003578
0.003800
0.004061
0.005522
0.006183
0.006615
0.007031
0.007256
0.007810
0.008125
0.009429
0.009578
0.010258
0.011617
0.011592
0.012170
0.012499
0.012644
0.013043
0.012904
0.012707
0.013399
0.013425
0.015920
0.015759
0.017168
0.017801
0.017660
0.018054
0.017924
0.018651
0.019141
0.018877
0.020095
0.020573
0.020089
0.020370
0.021466
0.020997
0.021898
0.022425
0.022897
0.023706
0.025291
0.026473
0.026451
0.027996
0.028198
0.029284
0.028373
0.029149
0.030402
0.029966
0.033836
0.033363
0.035838
0.036241
0.036631
0.038143
0.038830
0.039518
0.038713
0.041213
0.045625
0.046486
0.045426
0.047014
0.049920
0.049144
0.050586
0.053999
0.051914
0.052191
0.057514
0.056927
0.059966
0.058408
0.059327
0.060170
0.062638
0.062925
0.062157
0.061999
0.066737
0.074034
0.070420
0.071696
0.079402
0.073891
0.071520
0.074892
0.075900
0.073884
0.081082
0.093836
0.086115
0.083625
0.085248
0.089259
0.086234
0.086983
0.087523
0.091837
0.085461
0.093923
0.095020
0.097518
0.096411
0.097905
0.099712
0.102423
0.099503
0.099579
0.104502
0.106066
0.107345
0.107207
0.108461
0.109857
0.110823
0.122940
0.113808
0.113813
Classification Time - C
cat: testS_0.svm.time: No such file or directory
cat: test1II_0000.svm.time: No such file or directory
cat: test1II_0001.svm.time: No such file or directory
cat: test1II_0002.svm.time: No such file or directory
cat: test1II_0003.svm.time: No such file or directory
cat: test1II_0004.svm.time: No such file or directory
cat: test1II_0005.svm.time: No such file or directory
cat: test1II_0006.svm.time: No such file or directory
cat: test1II_0007.svm.time: No such file or directory
cat: test1II_0008.svm.time: No such file or directory
cat: test1II_0009.svm.time: No such file or directory
cat: test2II_0000.svm.time: No such file or directory
cat: test2II_0001.svm.time: No such file or directory
cat: test2II_0002.svm.time: No such file or directory
cat: test2II_0003.svm.time: No such file or directory
cat: test2II_0004.svm.time: No such file or directory
cat: test2II_0005.svm.time: No such file or directory
cat: test2II_0006.svm.time: No such file or directory
cat: test2II_0007.svm.time: No such file or directory
cat: test2II_0008.svm.time: No such file or directory
cat: test2II_0009.svm.time: No such file or directory
cat: test3II_0000.svm.time: No such file or directory
cat: test3II_0001.svm.time: No such file or directory
cat: test3II_0002.svm.time: No such file or directory
cat: test3II_0003.svm.time: No such file or directory
cat: test3II_0004.svm.time: No such file or directory
cat: test3II_0005.svm.time: No such file or directory
cat: test3II_0006.svm.time: No such file or directory
cat: test3II_0007.svm.time: No such file or directory
cat: test3II_0008.svm.time: No such file or directory
cat: test3II_0009.svm.time: No such file or directory
cat: test4II_0000.svm.time: No such file or directory
cat: test4II_0001.svm.time: No such file or directory
cat: test4II_0002.svm.time: No such file or directory
cat: test4II_0003.svm.time: No such file or directory
cat: test4II_0004.svm.time: No such file or directory
cat: test4II_0005.svm.time: No such file or directory
cat: test4II_0006.svm.time: No such file or directory
cat: test4II_0007.svm.time: No such file or directory
cat: test4II_0008.svm.time: No such file or directory
cat: test4II_0009.svm.time: No such file or directory
cat: test5II_0000.svm.time: No such file or directory
cat: test5II_0001.svm.time: No such file or directory
cat: test5II_0002.svm.time: No such file or directory
cat: test5II_0003.svm.time: No such file or directory
cat: test5II_0004.svm.time: No such file or directory
cat: test5II_0005.svm.time: No such file or directory
cat: test5II_0006.svm.time: No such file or directory
cat: test5II_0007.svm.time: No such file or directory
cat: test5II_0008.svm.time: No such file or directory
cat: test5II_0009.svm.time: No such file or directory
cat: test6II_0000.svm.time: No such file or directory
cat: test6II_0001.svm.time: No such file or directory
cat: test6II_0002.svm.time: No such file or directory
cat: test6II_0003.svm.time: No such file or directory
cat: test6II_0004.svm.time: No such file or directory
cat: test6II_0005.svm.time: No such file or directory
cat: test6II_0006.svm.time: No such file or directory
cat: test6II_0007.svm.time: No such file or directory
cat: test6II_0008.svm.time: No such file or directory
cat: test6II_0009.svm.time: No such file or directory
cat: test7II_0000.svm.time: No such file or directory
cat: test7II_0001.svm.time: No such file or directory
cat: test7II_0002.svm.time: No such file or directory
cat: test7II_0003.svm.time: No such file or directory
cat: test7II_0004.svm.time: No such file or directory
cat: test7II_0005.svm.time: No such file or directory
cat: test7II_0006.svm.time: No such file or directory
cat: test7II_0007.svm.time: No such file or directory
cat: test7II_0008.svm.time: No such file or directory
cat: test7II_0009.svm.time: No such file or directory
cat: test8II_0000.svm.time: No such file or directory
cat: test8II_0001.svm.time: No such file or directory
cat: test8II_0002.svm.time: No such file or directory
cat: test8II_0003.svm.time: No such file or directory
cat: test8II_0004.svm.time: No such file or directory
cat: test8II_0005.svm.time: No such file or directory
cat: test8II_0006.svm.time: No such file or directory
cat: test8II_0007.svm.time: No such file or directory
cat: test8II_0008.svm.time: No such file or directory
cat: test8II_0009.svm.time: No such file or directory
cat: test9II_0000.svm.time: No such file or directory
cat: test9II_0001.svm.time: No such file or directory
cat: test9II_0002.svm.time: No such file or directory
cat: test9II_0003.svm.time: No such file or directory
cat: test9II_0004.svm.time: No such file or directory
cat: test9II_0005.svm.time: No such file or directory
cat: test9II_0006.svm.time: No such file or directory
cat: test9II_0007.svm.time: No such file or directory
cat: test9II_0008.svm.time: No such file or directory
cat: test9II_0009.svm.time: No such file or directory
cat: test10II_0000.svm.time: No such file or directory
cat: test10II_0001.svm.time: No such file or directory
cat: test10II_0002.svm.time: No such file or directory
cat: test10II_0003.svm.time: No such file or directory
cat: test10II_0004.svm.time: No such file or directory
cat: test10II_0005.svm.time: No such file or directory
cat: test10II_0006.svm.time: No such file or directory
cat: test10II_0007.svm.time: No such file or directory
cat: test10II_0008.svm.time: No such file or directory
cat: test10II_0009.svm.time: No such file or directory
0.102028
0.102118
0.102963
0.100616
0.101679
0.101828
0.102207
0.104511
0.103746
0.103219
0.107391
0.106442
0.108245
0.109384
0.109557
0.111953
0.111789
0.112391
0.113457
0.111362
0.117501
0.118732
0.119631
0.122193
0.123384
0.122356
0.124749
0.123497
0.124736
0.123358
0.126954
0.127803
0.128619
0.128820
0.130976
0.129916
0.130609
0.134183
0.130908
0.131914
