Full Accuracy
94.000000
Accuracy - I
50.000000
72.999992
77.692314
82.000000
85.923073
88.923080
88.923080
89.538460
89.692307
90.769234
91.076920
92.000000
93.153847
93.615379
93.769226
94.076927
94.230774
94.230774
94.461533
94.923080
94.846153
