Full Time (seconds)
0.141315
Incremental Time - I
0.001391
0.000321
0.000608
0.000799
0.001102
0.001207
0.001399
0.001565
0.001861
0.002384
0.002672
0.005478
0.004735
0.005244
0.005625
0.006339
0.006887
0.007463
0.008050
0.008726
0.009146
Classification Time - I
0.010122
0.015316
0.020473
0.020475
0.024282
0.028173
0.033913
0.038338
0.050517
0.055057
0.066445
0.074331
0.083711
0.091187
0.093022
0.107495
0.106899
0.114669
0.122236
0.130580
