Full Time (seconds)
0.141348
Incremental Time - I
0.001721
0.000322
0.000567
0.000808
0.001295
0.001405
0.001364
0.001520
0.001738
0.001927
0.002138
0.004169
0.004755
0.005123
0.005639
0.006295
0.005988
0.006447
0.008077
0.010129
0.010344
Classification Time - I
0.010025
0.015057
0.019984
0.025187
0.028174
0.028386
0.032412
0.036230
0.040185
0.054967
0.063067
0.069568
0.076811
0.091986
0.092836
0.087987
0.116513
0.126800
0.124059
0.141291
