Full Time (seconds)
0.140969
Incremental Time - I
0.004066
0.000243
0.000424
0.000607
0.001032
0.001140
0.001711
0.001934
0.002269
0.002441
0.002632
0.004173
0.004783
0.005330
0.005733
0.006254
0.006928
0.007542
0.008092
0.008681
0.009244
Classification Time - I
0.007549
0.011397
0.015177
0.019009
0.030595
0.035427
0.040635
0.045631
0.051167
0.056017
0.063396
0.073811
0.080978
0.087430
0.093441
0.101425
0.109785
0.116454
0.124266
0.133525
