Full Accuracy
94.923080
Accuracy - I
50.000000
53.076923
53.307693
53.615387
53.615387
53.615387
53.615387
53.615387
53.615387
53.615387
53.615387
55.384617
55.923073
57.230770
57.307690
57.384617
57.461536
57.461536
57.461536
57.461536
57.461536
59.384613
59.923077
60.538464
60.846157
61.076920
61.153847
61.153847
61.230774
61.307693
61.307693
65.000000
65.153847
65.153847
65.153847
65.076920
65.076920
65.076920
65.076920
65.076920
65.076920
67.846153
68.076927
68.384621
68.384621
68.461540
68.461540
68.538460
68.461540
68.461540
68.461540
70.461540
70.846153
71.153847
71.307693
71.384613
71.384613
71.384613
71.923080
71.923080
71.923080
74.615387
75.230774
75.153847
75.384613
75.384613
75.384613
75.384613
75.384613
75.384613
75.384613
77.076927
77.461540
78.307693
78.307693
78.384613
79.076920
79.153847
79.153847
79.153847
79.153847
79.769226
80.538467
81.076927
81.230766
81.153847
81.307693
81.307693
81.307693
81.538460
81.615379
83.461540
83.769234
84.461540
84.538460
84.769234
84.846153
84.846153
85.076920
85.076920
85.153847
87.769226
88.153847
88.153847
88.461533
88.692307
88.692307
88.769234
88.769234
88.769234
88.923080
90.076920
91.076920
91.307693
91.461540
91.461540
91.307693
91.384613
91.384613
91.384613
91.615387
94.769226
94.846153
95.076927
94.923080
95.000000
94.923080
94.846153
94.846153
94.846153
94.846153
94.846153
94.846153
94.923080
94.923080
94.923080
94.923080
94.923080
94.923080
94.923080
94.923080
