Full Accuracy
94.923080
Accuracy - I
50.000000
53.846157
53.846149
53.846157
53.846157
53.846149
53.846157
53.846157
53.846157
53.846157
53.846157
55.615383
56.153851
57.538460
57.615383
57.615383
57.692307
57.692307
57.692307
57.692307
57.692307
59.615387
60.076923
60.769230
61.076920
61.307693
61.384617
61.384617
61.461536
61.538464
61.538464
65.153847
65.230766
65.307693
65.307693
65.307693
65.307693
65.307693
65.307693
65.307693
65.307693
68.076927
68.307693
68.615379
68.615379
68.692307
68.692307
68.769226
68.692307
68.692307
68.692307
71.230766
71.923080
72.153847
72.307693
72.384613
72.384613
72.384613
72.384613
72.384613
72.384613
75.153847
75.769234
75.692307
75.923080
75.923080
75.923080
75.923080
75.923080
75.923080
75.923080
77.615387
78.000000
78.846153
78.846153
78.923073
79.615387
79.692307
79.692307
79.692307
79.692307
80.307693
81.076927
81.615379
81.769226
81.692307
81.846153
81.846153
81.846153
82.076927
82.153847
83.384613
83.615387
84.230766
84.384613
84.538460
84.615387
84.769234
85.000000
85.307693
85.384613
88.000000
88.384613
88.384613
88.692307
88.923080
88.923080
89.000000
89.000000
89.000000
89.153847
90.307693
91.307693
91.538460
91.692314
91.692314
91.538460
91.615387
91.615387
91.615387
91.846153
91.769234
91.769234
91.769234
91.692314
91.692314
91.692314
91.769234
91.769234
91.692314
91.692314
94.538460
95.000000
95.000000
95.076927
95.000000
95.000000
95.000000
95.000000
95.000000
94.923080
