Full Accuracy
94.923080
Accuracy - I
50.000000
53.538460
53.769230
53.692307
53.692307
53.692310
53.692307
53.692307
53.692307
53.692307
53.692307
55.461536
56.000000
57.461540
57.461540
57.538460
57.538460
57.538460
57.461536
57.461536
57.461536
59.384613
59.923077
60.538464
60.846157
61.076920
61.153847
61.153847
61.230766
61.307693
61.307693
64.769234
65.000000
64.923080
64.923080
64.923080
64.923080
64.923080
64.923080
64.923080
64.923080
67.692307
67.923073
68.230766
68.230766
68.230766
68.153847
68.230766
68.153847
68.153847
68.153847
71.153847
71.692307
71.846153
72.000000
72.000000
72.000000
72.000000
72.000000
72.000000
72.000000
73.769226
74.384621
75.000000
75.076927
75.076927
74.846153
75.076920
75.076920
75.076920
75.076920
76.769234
77.153847
78.000000
78.000000
78.076920
78.769234
78.846153
78.846153
78.846153
78.846153
79.384621
80.153847
80.692307
80.846153
80.769226
80.923073
80.923073
80.923073
81.153847
81.230774
83.153847
83.461540
84.076920
84.153847
84.384613
84.461540
84.461540
84.692307
84.692307
84.769234
87.384621
87.769226
87.769226
88.000000
88.153847
88.153847
88.153847
88.153847
88.153847
88.307693
88.230774
88.153847
88.153847
88.384613
88.384613
88.384613
88.461533
88.538460
88.538460
88.538460
91.692307
91.769234
92.000000
91.769234
91.846153
91.769234
91.692307
91.692307
91.692307
91.692314
94.538460
95.000000
95.000000
95.076927
95.000000
95.000000
95.000000
95.000000
95.000000
94.923080
