Full Time (seconds)
0.105638
Time - I
0.003922
0.004682
0.005421
0.006196
0.006937
0.007722
0.008428
0.009262
0.009958
0.010762
0.011573
0.011851
0.012152
0.012446
0.013061
0.013307
0.013615
0.014072
0.014830
0.015075
0.015591
0.016052
0.017205
0.017980
0.018803
0.019541
0.019683
0.021516
0.021662
0.022003
0.008270
0.008797
0.010018
0.010328
0.010644
0.010943
0.011248
0.011955
0.012143
0.012589
0.012917
0.031436
0.031717
0.032472
0.033499
0.033973
0.034759
0.035494
0.036301
0.037019
0.037706
0.038558
0.039210
0.040739
0.040739
0.041523
0.042274
0.043173
0.043755
0.045030
0.045290
0.046289
0.046894
0.047989
0.048355
0.049042
0.049787
0.050537
0.051281
0.052637
0.053178
0.053526
0.054225
0.055084
0.056608
0.056512
0.057267
0.058470
0.058861
0.059517
0.060626
0.061010
0.062933
0.062989
0.063257
0.064008
0.066184
0.065871
0.066288
0.067001
0.068166
0.068553
0.069667
0.071426
0.071410
0.071950
0.072318
0.073042
0.074226
0.074559
0.076690
0.076074
0.078356
0.077641
0.079668
0.079360
0.079735
0.082021
0.081256
0.082190
0.082774
0.084037
0.084284
0.085337
0.090377
0.086655
0.087463
0.088031
0.088878
0.090090
0.090241
0.091551
0.091979
0.092521
0.093224
0.094167
0.095013
0.104098
0.097896
0.097014
0.097820
0.098648
0.099332
0.100106
0.102620
0.101928
0.104393
0.103111
0.104291
0.104592
0.105789
