Full Time (seconds)
0.105270
Time - I
0.003947
0.002345
0.002675
0.003071
0.003399
0.003810
0.004170
0.004496
0.004889
0.005257
0.005631
0.005979
0.006350
0.006700
0.007545
0.007451
0.007829
0.008192
0.008542
0.018469
0.019521
0.009682
0.010048
0.010837
0.010791
0.011169
0.011507
0.011870
0.024963
0.026498
0.027259
0.027351
0.028442
0.028708
0.029479
0.030254
0.030976
0.031779
0.032467
0.033807
0.034064
0.034721
0.036605
0.036738
0.036994
0.038449
0.038509
0.040483
0.039963
0.040812
0.042576
0.042263
0.042990
0.043856
0.044464
0.045254
0.046010
0.046727
0.048055
0.049806
0.049006
0.049730
0.050695
0.051819
0.052024
0.053363
0.053918
0.054336
0.056191
0.055745
0.056530
0.057254
0.058090
0.060391
0.061618
0.060830
0.060971
0.061695
0.064592
0.065314
0.066031
0.064705
0.067958
0.066302
0.066995
0.069937
0.068405
0.069601
0.069963
0.070828
0.071532
0.072181
0.072041
0.074703
0.072697
0.072985
0.073750
0.074932
0.074491
0.074818
0.076247
0.076011
0.078236
0.078018
0.078593
0.079174
0.079888
0.080533
0.082560
0.082056
0.082790
0.083641
0.084294
0.085131
0.086333
0.086609
0.087331
0.087985
0.089019
0.094806
0.090411
0.091869
0.093537
0.092534
0.094564
0.094802
0.095150
0.098406
0.096383
0.097361
0.098367
0.099253
0.099278
0.102246
0.100837
0.101532
0.104723
0.105789
0.115384
0.104645
0.105332
