Full Time (seconds)
0.108994
Time - I
0.003917
0.002265
0.002642
0.002998
0.003388
0.007687
0.008420
0.009228
0.009939
0.010730
0.011500
0.012262
0.013023
0.013805
0.014466
0.015360
0.016034
0.016724
0.017500
0.019333
0.009262
0.009662
0.009986
0.010307
0.010750
0.011107
0.011473
0.011831
0.012207
0.012626
0.012995
0.013547
0.013706
0.031266
0.029592
0.031034
0.031469
0.031763
0.015855
0.016214
0.017081
0.017010
0.035663
0.036357
0.037036
0.037774
0.038567
0.039251
0.043137
0.040826
0.041515
0.042345
0.020956
0.021762
0.021728
0.022113
0.022484
0.046807
0.048358
0.052113
0.049418
0.050378
0.050514
0.051469
0.052115
0.026337
0.026157
0.026527
0.026970
0.027192
0.056845
0.060703
0.062198
0.063281
0.065451
0.066277
0.066203
0.030128
0.063442
0.030925
0.031364
0.031491
0.072688
0.071543
0.074892
0.070341
0.070009
0.032475
0.032782
0.032964
0.033093
0.068589
0.069556
0.071216
0.070827
0.073836
0.072753
0.073160
0.036210
0.036492
0.036912
0.037129
0.083265
0.083387
0.086438
0.085100
0.088537
0.039372
0.039901
0.040181
0.040601
0.083497
0.084431
0.086164
0.086344
0.086542
0.042631
0.043135
0.043697
0.043907
0.090344
0.091138
0.092645
0.092879
0.093411
0.046043
0.046490
0.046803
0.047048
0.047411
0.098567
0.098521
0.100870
0.100217
0.049420
0.049684
0.050466
0.050494
0.050767
0.104857
0.105749
