Full Time (seconds)
0.143548
Incremental Time - I
0.001925
0.000089
0.000103
0.000107
0.000112
0.000114
0.000124
0.000130
0.000143
0.000154
0.000157
0.000176
0.000175
0.000199
0.000206
0.000214
0.000221
0.000225
0.000231
0.000246
0.000254
0.000122
0.000511
0.000292
0.000290
0.000296
0.000340
0.000481
0.000521
0.000351
0.000525
0.000643
0.000491
0.000472
0.000471
0.000485
0.000486
0.000504
0.000669
0.000543
0.000525
0.000736
0.000754
0.000748
0.000630
0.000584
0.000590
0.000621
0.000590
0.000607
0.000606
0.000650
0.000833
0.000645
0.000834
0.000684
0.000700
0.000693
0.000705
0.000699
0.000718
0.000873
0.000919
0.000930
0.000915
0.000822
0.000789
0.000758
0.000949
0.000831
0.000782
0.000962
0.000986
0.000996
0.000920
0.000868
0.000873
0.000867
0.000909
0.000886
0.001058
0.001086
0.000960
0.000937
0.000929
0.000941
0.000951
0.001135
0.001159
0.000977
0.000974
0.001024
0.001008
0.001052
0.001167
0.001028
0.001214
0.001081
0.001076
0.001098
0.001097
0.001213
0.001224
0.001292
0.001147
0.001147
0.001160
0.001135
0.001126
0.001279
0.001334
0.001240
0.001240
0.001203
0.001235
0.001324
0.001355
0.001351
0.001322
0.001273
0.001215
0.001263
0.001229
0.001367
0.001309
0.001282
0.001282
0.001402
0.001416
0.001477
0.001367
0.001409
0.001419
0.001522
0.001693
0.001523
0.001453
0.001447
0.001443
0.001523
0.001536
Classification Time - I
0.005773
0.006672
0.007630
0.008563
0.009502
0.010491
0.011498
0.012586
0.013445
0.014449
0.015455
0.016444
0.017626
0.018212
0.018998
0.019887
0.021313
0.022304
0.022596
0.023561
0.023896
0.024736
0.024761
0.025087
0.026211
0.026834
0.027446
0.027323
0.027821
0.028338
0.030114
0.030063
0.031953
0.031945
0.034153
0.033808
0.034828
0.035749
0.036742
0.038014
0.038937
0.039584
0.041337
0.041414
0.043855
0.043353
0.044229
0.045139
0.046121
0.047136
0.048623
0.054026
0.053485
0.054429
0.053680
0.052697
0.054460
0.054842
0.060719
0.056458
0.060890
0.062759
0.061473
0.064096
0.062051
0.062061
0.063736
0.067891
0.064858
0.070133
0.067235
0.067745
0.069027
0.069594
0.070842
0.071549
0.072346
0.078216
0.074827
0.075291
0.076136
0.077161
0.078438
0.080442
0.083084
0.080806
0.082023
0.082929
0.084328
0.086085
0.085543
0.086379
0.090501
0.088785
0.089703
0.089868
0.091386
0.093897
0.092763
0.093559
0.094904
0.095560
0.096199
0.098159
0.098145
0.100783
0.100765
0.101728
0.101788
0.103537
0.104496
0.104694
0.105598
0.106541
0.107372
0.108966
0.109845
0.109717
0.115046
0.111779
0.113981
0.114627
0.114420
0.120040
0.120544
0.117578
0.126976
0.119696
0.120102
0.121129
0.123051
0.127912
0.123486
0.124617
0.125586
0.127366
0.132441
0.133277
0.129625
0.130401
