Full Time (seconds)
0.143059
Incremental Time - I
0.001388
0.000087
0.000097
0.000104
0.000113
0.000149
0.000125
0.000175
0.000149
0.000150
0.000160
0.000225
0.000177
0.000193
0.000198
0.000221
0.000217
0.000222
0.000231
0.000246
0.000265
0.000597
0.000461
0.000462
0.000458
0.000443
0.000466
0.000499
0.000644
0.000642
0.000663
0.000488
0.000513
0.000382
0.000470
0.000509
0.000554
0.000512
0.000532
0.000493
0.000493
0.000658
0.000671
0.000777
0.000732
0.000700
0.000725
0.000761
0.000714
0.000754
0.000791
0.000836
0.000773
0.000783
0.000796
0.000874
0.000881
0.000834
0.000803
0.000875
0.000880
0.000916
0.000903
0.000936
0.000900
0.000958
0.000883
0.000897
0.000925
0.000992
0.000966
0.000960
0.001013
0.001034
0.000998
0.001068
0.000971
0.000914
0.001016
0.001078
0.001062
0.001080
0.001091
0.001132
0.001139
0.001144
0.001146
0.001138
0.001168
0.001193
0.001187
0.001179
0.001206
0.001187
0.001193
0.001181
0.001213
0.001208
0.001225
0.001267
0.001295
0.001303
0.001180
0.001198
0.001261
0.001278
0.001261
0.001201
0.001132
0.001153
0.001304
0.001318
0.001305
0.001341
0.001306
0.001261
0.001371
0.001346
0.001410
0.001412
0.001402
0.001332
0.001335
0.001281
0.001387
0.001411
0.001402
0.001366
0.001346
0.001350
0.001475
0.001482
0.001476
0.001426
0.001410
0.001386
0.001552
0.001556
0.001503
0.001491
0.001451
Classification Time - I
0.005765
0.006704
0.007628
0.008554
0.009498
0.010482
0.011465
0.014046
0.013552
0.014406
0.015743
0.016407
0.019111
0.018167
0.018944
0.019798
0.020639
0.021610
0.022491
0.023435
0.025149
0.025171
0.026267
0.027077
0.027987
0.028975
0.030016
0.030854
0.031759
0.033095
0.033133
0.034604
0.034962
0.035436
0.035088
0.035153
0.035796
0.037609
0.037325
0.038742
0.038321
0.040080
0.040385
0.041270
0.042184
0.044103
0.045541
0.045329
0.046015
0.046876
0.048823
0.049011
0.051541
0.050699
0.051711
0.053169
0.054554
0.054752
0.055997
0.057233
0.059431
0.059286
0.059615
0.060138
0.060963
0.062099
0.063786
0.064063
0.064723
0.065720
0.066570
0.067441
0.068631
0.069482
0.070377
0.071896
0.073281
0.074693
0.074098
0.075464
0.078862
0.077033
0.078037
0.079269
0.080469
0.080818
0.082641
0.082342
0.083528
0.084863
0.085646
0.086194
0.087952
0.087954
0.090138
0.091210
0.090712
0.091645
0.092986
0.093265
0.095704
0.095848
0.099755
0.097040
0.100403
0.099480
0.099896
0.100804
0.101991
0.102805
0.103560
0.104332
0.105580
0.106135
0.106954
0.107877
0.109479
0.110168
0.110647
0.111417
0.112754
0.113123
0.114507
0.115345
0.115953
0.116885
0.117908
0.119866
0.120058
0.120756
0.121495
0.123656
0.123550
0.124253
0.125765
0.126952
0.127567
0.129565
0.129032
0.130130
