Full Time (seconds)
0.143369
Incremental Time - I
0.005882
0.000090
0.000100
0.000101
0.000114
0.000114
0.000128
0.000137
0.000135
0.000154
0.000155
0.000173
0.000181
0.000197
0.000205
0.000219
0.000220
0.000224
0.000230
0.000247
0.000253
0.000623
0.000458
0.000440
0.000450
0.000479
0.000483
0.000478
0.000500
0.000520
0.000625
0.000533
0.000526
0.000547
0.000555
0.000557
0.000573
0.000728
0.000740
0.000708
0.000728
0.000765
0.000779
0.000719
0.000668
0.000660
0.000671
0.000655
0.000670
0.000786
0.000836
0.000558
0.000593
0.000587
0.000522
0.000462
0.000549
0.000524
0.000537
0.000675
0.000707
0.000897
0.000884
0.000822
0.000801
0.000801
0.000801
0.000812
0.000830
0.000924
0.000951
0.000952
0.000920
0.000887
0.000857
0.000863
0.000884
0.000909
0.001006
0.001078
0.001023
0.001028
0.000956
0.000967
0.000932
0.000944
0.000980
0.001112
0.001135
0.001032
0.000983
0.001001
0.001025
0.001000
0.001206
0.001182
0.001216
0.001126
0.001096
0.001074
0.001152
0.001167
0.001160
0.001266
0.001180
0.001261
0.001205
0.001211
0.001163
0.001325
0.001222
0.001379
0.001295
0.001273
0.001247
0.001228
0.001375
0.001292
0.001394
0.001407
0.001351
0.001260
0.001312
0.001295
0.001426
0.001447
0.001326
0.001324
0.001354
0.001329
0.001421
0.001502
0.001454
0.001411
0.001441
0.001535
0.001554
0.001530
0.001558
0.001501
0.001450
Classification Time - I
0.005808
0.006734
0.007681
0.008625
0.009615
0.010490
0.011528
0.012485
0.013595
0.014397
0.015727
0.016385
0.017263
0.018574
0.018933
0.019774
0.020635
0.021622
0.022487
0.023648
0.024259
0.024972
0.025901
0.026916
0.027843
0.029328
0.030643
0.030697
0.031576
0.032573
0.033303
0.034181
0.035108
0.036634
0.037413
0.038948
0.040281
0.039883
0.040823
0.042612
0.042698
0.044267
0.045051
0.045511
0.047013
0.047469
0.048572
0.049555
0.050373
0.051154
0.051641
0.051944
0.052471
0.052699
0.053072
0.053656
0.054419
0.054718
0.055550
0.056247
0.056858
0.057681
0.058641
0.059596
0.060845
0.061424
0.062332
0.063624
0.064197
0.065465
0.066079
0.067130
0.067927
0.068873
0.070342
0.070711
0.072401
0.073359
0.074161
0.074511
0.075700
0.076392
0.077378
0.078184
0.079439
0.081613
0.080898
0.082391
0.083290
0.083783
0.084777
0.086525
0.087583
0.087741
0.088698
0.089474
0.090770
0.091301
0.092741
0.093612
0.094979
0.094948
0.096554
0.097453
0.097594
0.098543
0.099618
0.100753
0.101774
0.102308
0.104114
0.104013
0.106901
0.106375
0.106926
0.108269
0.108804
0.109218
0.111432
0.111833
0.112950
0.113538
0.115787
0.114949
0.116702
0.116628
0.118834
0.119744
0.119589
0.120487
0.121737
0.122340
0.123726
0.123961
0.125078
0.126721
0.127064
0.133230
0.130784
0.132091
