Full Time (seconds)
0.143111
Incremental Time - I
0.004053
0.000089
0.000103
0.000102
0.000111
0.000119
0.000128
0.000134
0.000141
0.000158
0.000157
0.000180
0.000176
0.000198
0.000202
0.000215
0.000216
0.000221
0.000235
0.000247
0.000255
0.000630
0.000548
0.000494
0.000512
0.000593
0.000649
0.000648
0.000672
0.000596
0.000645
0.000586
0.000502
0.000513
0.000522
0.000702
0.000671
0.000705
0.000590
0.000578
0.000586
0.000778
0.000619
0.000624
0.000655
0.000704
0.000727
0.000644
0.000823
0.000822
0.000711
0.000741
0.000709
0.000707
0.000888
0.000909
0.000797
0.000777
0.000787
0.000784
0.000779
0.000817
0.000787
0.000959
0.000892
0.000838
0.001002
0.000981
0.000937
0.000908
0.000887
0.000868
0.001036
0.001075
0.000968
0.000896
0.000923
0.000955
0.000998
0.001113
0.001119
0.001154
0.001128
0.001197
0.001119
0.001178
0.001161
0.001161
0.001156
0.001210
0.001153
0.001201
0.001148
0.001247
0.001195
0.001211
0.001236
0.001252
0.001305
0.001287
0.001270
0.001236
0.001209
0.001293
0.001245
0.001275
0.001342
0.001331
0.001306
0.001378
0.001288
0.000793
0.000789
0.000787
0.000819
0.000829
0.001007
0.000993
0.000967
0.000942
0.000961
0.001400
0.001389
0.001444
0.001400
0.001479
0.001442
0.001486
0.001509
0.001480
0.001433
0.001512
0.001512
0.001546
0.001531
0.001550
0.001592
0.001479
0.001592
0.001618
0.001605
Classification Time - I
0.005822
0.006649
0.007598
0.008518
0.009453
0.010443
0.003769
0.012413
0.013439
0.014388
0.015393
0.016747
0.017251
0.018144
0.019415
0.019795
0.020618
0.022116
0.023032
0.023313
0.024347
0.025112
0.026348
0.027418
0.029035
0.028864
0.030756
0.031579
0.031886
0.033925
0.034540
0.034296
0.036414
0.037435
0.038016
0.038082
0.039066
0.040330
0.042420
0.041931
0.043337
0.043863
0.046281
0.045781
0.046795
0.048044
0.049395
0.049736
0.050898
0.053203
0.052356
0.055420
0.056209
0.055266
0.056611
0.058221
0.058884
0.060123
0.060064
0.060891
0.062824
0.062790
0.063690
0.064763
0.065498
0.066869
0.067443
0.068246
0.069302
0.070210
0.073746
0.072326
0.074097
0.074003
0.074883
0.076079
0.079500
0.079086
0.079247
0.079732
0.083522
0.081562
0.082715
0.085490
0.087499
0.087189
0.089390
0.090403
0.088544
0.091803
0.090730
0.092460
0.091951
0.093045
0.095735
0.094396
0.095563
0.098289
0.099426
0.098649
0.099521
0.103675
0.100777
0.101823
0.102710
0.104855
0.106273
0.105435
0.106236
0.108286
0.107745
0.108080
0.108877
0.112018
0.113531
0.114066
0.111091
0.115001
0.111030
0.113073
0.112741
0.117987
0.119581
0.119837
0.116479
0.121526
0.122943
0.119230
0.123240
0.121346
0.122642
0.127851
0.124204
0.124996
0.130751
0.126599
0.128981
0.133178
0.134608
0.130725
