Full Time (seconds)
0.290065
Incremental Time - I
0.000061
0.000085
0.000115
0.000156
0.000291
0.000348
0.000458
0.000317
0.000583
0.000900
0.000938
0.001046
0.000637
0.001454
0.001521
0.001759
0.002134
0.002313
0.002483
0.003601
0.003183
0.003457
0.003975
0.004146
0.004435
0.005148
0.005383
0.006845
0.006471
0.006857
0.004290
0.008474
0.010393
0.008823
0.015096
0.005810
0.011994
0.013068
0.016966
0.013264
0.023246
0.022675
0.014785
0.024477
0.016389
0.030027
0.018221
0.025471
0.022692
0.011797
0.020943
0.026463
0.036054
0.039093
0.016991
0.040441
0.028506
0.037121
0.028780
0.052019
0.044942
0.031296
0.049714
0.051982
0.035234
0.043240
0.037434
0.064817
0.056098
0.040465
0.053810
0.066682
0.025084
0.049219
0.073511
0.054037
0.050408
0.051265
0.052907
0.070321
0.064854
0.057537
0.098725
0.066971
0.074436
0.035108
0.073822
0.069317
0.113715
0.099292
0.099867
0.115413
0.091842
0.127288
0.114661
0.076386
0.096938
0.046056
0.117426
0.085492
0.117074
0.090364
0.107307
0.115867
0.097582
0.166670
0.096858
0.113221
0.160880
0.171626
0.118104
0.194830
0.107346
0.109062
0.110944
0.137316
0.115888
0.068065
0.164392
0.205126
0.195913
0.182650
0.203113
0.134940
0.206360
0.137423
0.136627
0.211305
0.138851
0.092962
0.148692
0.191370
0.172157
0.229835
0.165001
0.158475
0.160763
0.179029
0.200092
0.185570
0.210282
0.249371
0.228469
0.153659
0.184735
0.242376
0.196901
0.188142
0.284433
0.193775
0.265270
0.277752
0.198566
0.276481
0.217787
0.283193
0.153949
0.310347
0.295364
0.239546
0.332559
0.221544
0.317215
0.140636
0.242008
0.289482
0.335382
0.256029
0.245421
0.247636
0.182844
0.218733
0.299443
0.340724
0.245341
0.231035
0.306269
0.390411
0.180735
0.296467
0.270103
0.420449
0.235936
0.498846
0.464399
0.216401
0.451451
0.345080
0.401921
0.375112
0.274453
0.249590
0.234486
0.353459
0.242933
0.327671
0.333377
0.330364
0.339074
0.351094
0.349683
0.369408
0.337807
0.369571
0.364463
0.300718
0.362601
0.288619
0.503820
0.394942
0.379896
Classification Time - C
0.056655
0.049008
0.050333
0.065508
0.068916
0.076827
0.023829
0.023833
0.070146
0.202095
0.060099
0.089698
0.076196
0.073267
0.091614
0.060566
0.046551
0.075450
0.066674
0.090760
0.091358
0.059579
0.058567
0.089806
0.109040
0.069410
0.096707
0.090777
0.063594
0.035732
0.085477
0.098351
0.106657
0.067979
0.105515
0.036877
0.108596
0.141521
0.109190
0.092714
0.123484
0.114373
0.152331
0.095944
0.088533
0.082478
0.126707
0.179793
0.089481
0.085849
0.106276
0.092294
0.139394
0.134569
0.047098
0.110697
0.103258
0.150901
0.179502
0.150246
0.149252
0.116602
0.150955
0.145000
0.120874
0.115165
0.167035
0.139495
0.166940
0.161866
0.173229
0.176856
0.060094
0.169447
0.178910
0.175664
0.190153
0.120818
0.075373
0.180977
0.120969
0.152285
0.160039
0.123416
0.128664
0.146127
0.132364
0.215359
0.128330
0.185809
0.191153
0.224078
0.142243
0.165443
0.152301
0.165203
0.133967
0.172013
0.223196
0.203004
0.138562
0.255788
0.140037
0.216355
0.232253
0.137124
0.159962
0.241678
0.117401
0.151050
0.220593
0.164812
0.172841
0.255801
0.180814
0.247877
0.083972
0.202285
0.188051
0.172263
0.221120
0.221507
0.195080
0.139880
0.186678
0.201901
0.138851
0.268266
0.208339
0.117668
0.176671
0.207157
0.178224
0.281829
0.243983
0.124742
0.093554
0.198005
0.163011
0.276604
0.206611
0.280632
0.200420
0.199458
0.193644
0.239858
0.222548
0.232086
0.252705
0.171354
0.200397
0.262784
0.322239
0.196405
0.232532
0.271768
0.319060
0.317755
0.212196
0.215382
0.200621
0.370598
0.212678
0.257578
0.244774
0.175962
0.263457
0.223208
0.340531
0.250618
0.251021
0.226508
0.232604
0.242557
0.167685
0.305006
0.284062
0.232536
0.249963
0.242539
0.254931
0.315725
0.166796
0.311251
0.264143
0.260404
0.238662
0.287554
0.266051
0.287282
0.208948
0.193032
0.256121
0.241843
0.152208
0.266026
0.205515
0.269059
0.272962
0.236273
0.283869
0.221570
0.269478
0.234996
0.255828
0.269953
0.284853
0.291263
0.317602
0.279603
0.356959
