Full Time (seconds)
0.270034
Incremental Time - I
0.000073
0.000087
0.000118
0.000181
0.000166
0.000197
0.000233
0.000434
0.000472
0.000589
0.000836
0.000945
0.001045
0.001388
0.001521
0.001740
0.002132
0.002304
0.002494
0.001775
0.003161
0.003501
0.005195
0.004145
0.004481
0.005600
0.005952
0.005827
0.006362
0.006868
0.010156
0.010039
0.010923
0.008686
0.010702
0.010034
0.014891
0.011465
0.013213
0.012462
0.013949
0.018287
0.016261
0.018505
0.018183
0.016975
0.025843
0.019411
0.019032
0.029120
0.023413
0.023806
0.031902
0.023477
0.013814
0.030952
0.028373
0.030411
0.035333
0.029641
0.032100
0.031683
0.032673
0.037772
0.034855
0.036350
0.037448
0.043576
0.039636
0.023014
0.042406
0.055225
0.046521
0.049610
0.052638
0.054084
0.054521
0.056256
0.069227
0.053542
0.057506
0.064838
0.057627
0.062663
0.059580
0.072965
0.056328
0.047544
0.066086
0.085522
0.077534
0.068929
0.137210
0.082485
0.065741
0.082964
0.089650
0.090579
0.082172
0.090389
0.068453
0.090605
0.094305
0.086000
0.092268
0.104730
0.053500
0.118213
0.108425
0.106538
0.103258
0.122592
0.123116
0.112572
0.130138
0.120806
0.116055
0.116187
0.120217
0.149944
0.120349
0.134043
0.132655
0.133431
0.144729
0.133818
0.136542
0.085638
0.141913
0.140707
0.117634
0.163021
0.158527
0.163429
0.162639
0.150018
0.159018
0.167108
0.174645
0.164780
0.176388
0.174444
0.171930
0.181723
0.166734
0.204682
0.181663
0.145869
0.186774
0.138422
0.199106
0.200062
0.117263
0.221217
0.221744
0.219158
0.209385
0.158591
0.166763
0.227568
0.236304
0.179382
0.232465
0.232638
0.230535
0.241760
0.238321
0.239792
0.261341
0.246854
0.243535
0.234252
0.257808
0.199852
0.242653
0.219996
0.214357
0.272281
0.231339
0.203101
0.247811
0.222304
0.209655
0.243265
0.305539
0.206796
0.251841
0.169949
0.174072
0.195309
0.296884
0.257327
0.262967
0.262563
0.285541
0.258238
0.222568
0.257205
0.270366
0.245753
0.421578
0.479228
0.350061
0.331639
0.429837
0.285189
0.481589
0.389329
0.600423
0.377850
0.263649
Classification Time - C
0.039582
0.038380
0.040822
0.051796
0.052300
0.052812
0.062551
0.065923
0.058680
0.053144
0.053451
0.055203
0.051112
0.069303
0.057161
0.059989
0.069616
0.060159
0.064783
0.073385
0.074332
0.075955
0.073133
0.064883
0.081270
0.068049
0.071594
0.068952
0.035644
0.080905
0.075890
0.076697
0.075506
0.085186
0.087621
0.072815
0.075698
0.076703
0.073445
0.083178
0.083019
0.087713
0.095037
0.104661
0.092701
0.101726
0.091277
0.091592
0.097807
0.085501
0.106492
0.088013
0.101287
0.075051
0.047691
0.109460
0.112588
0.132832
0.104159
0.095566
0.097948
0.109138
0.098922
0.100520
0.101814
0.052915
0.108075
0.110627
0.109324
0.102614
0.127626
0.133858
0.108701
0.109597
0.118882
0.132908
0.060247
0.135338
0.146698
0.123553
0.113605
0.130991
0.128742
0.110865
0.065347
0.118509
0.126956
0.073637
0.140484
0.123250
0.129348
0.064799
0.139319
0.162682
0.072400
0.151030
0.136738
0.109683
0.135186
0.138805
0.072045
0.124761
0.075525
0.128011
0.156957
0.127169
0.111707
0.111586
0.157642
0.153003
0.158939
0.164823
0.093991
0.161688
0.150474
0.164961
0.163514
0.158236
0.083244
0.198195
0.174918
0.120360
0.166809
0.157685
0.172777
0.178036
0.141451
0.135034
0.177949
0.184537
0.222602
0.129667
0.120307
0.136651
0.191646
0.189587
0.195759
0.139602
0.105551
0.151117
0.188045
0.203983
0.099999
0.220157
0.204584
0.202786
0.200927
0.127443
0.158857
0.210924
0.199690
0.204295
0.241636
0.216002
0.213261
0.215927
0.157041
0.222519
0.210704
0.136680
0.192308
0.206246
0.246933
0.204668
0.206350
0.208162
0.181821
0.237389
0.144587
0.153315
0.228063
0.206791
0.230119
0.192921
0.227261
0.213360
0.137921
0.168949
0.166249
0.124851
0.229137
0.240055
0.196508
0.191023
0.224932
0.201605
0.245544
0.249028
0.231359
0.222817
0.202056
0.260867
0.214372
0.276102
0.201856
0.140165
0.138052
0.218194
0.197435
0.370961
0.230439
0.299152
0.158406
0.283748
0.200058
0.400895
0.182332
0.360151
0.438238
0.302358
0.307857
