Full Time (seconds)
0.113456
Incremental Time - I
0.098053
0.009152
0.015633
0.021022
0.027147
0.040010
0.051500
0.069109
0.061037
0.072826
0.063044
0.088460
0.097089
0.065513
0.118484
0.119665
0.145093
0.162284
0.192237
0.183181
0.152476
Classification Time - C
0.057226
0.042705
0.080830
0.085944
0.093912
0.107454
0.076335
0.122136
0.096593
0.132018
0.128936
0.110435
0.126200
0.140350
0.089896
0.132414
0.163470
0.188058
0.120262
0.177570
