Full Time (seconds)
0.250770
Incremental Time - I
cat: testS_0.svm.time: No such file or directory
0.062043
0.153872
0.234181
0.452732
0.392842
Classification Time - C
0.163055
0.221391
0.301733
0.222865
0.443803
