Full Time (seconds)
0.196929
Incremental Time - I
cat: testS_0.svm.time: No such file or directory
0.062253
0.152070
0.261972
0.358174
0.397774
Classification Time - C
0.175785
0.234558
0.252357
0.247065
0.228867
