Full Time (seconds)
0.187428
Incremental Time - I
0.000145
0.000049
0.000074
0.000079
0.000040
0.000059
0.000053
0.000076
0.000086
0.000105
0.000099
0.000100
0.000131
0.000113
0.000125
0.000168
0.000134
0.000141
0.000172
0.000151
0.000160
0.000204
0.000171
0.000181
0.000236
0.000206
0.000203
0.000254
0.000221
0.000221
0.000297
0.000230
0.000235
0.000306
0.000256
0.000254
0.000333
0.000268
0.000272
0.002371
0.000992
0.000947
0.001041
0.000981
0.000984
0.001086
0.000993
0.000990
0.001066
0.001024
0.000997
0.001139
0.001036
0.001025
0.001139
0.001062
0.001036
0.001169
0.001037
0.001067
0.001164
0.001090
0.001093
0.001217
0.001115
0.001114
0.001271
0.001137
0.001123
0.001274
0.001158
0.001145
0.001290
0.001159
0.001157
0.001318
0.001186
0.001186
0.001343
0.001193
0.001208
0.001353
0.001225
0.001220
0.001403
0.001246
0.001238
0.001432
0.001253
0.001250
0.001431
0.001284
0.001269
0.001458
0.001293
0.001288
0.001507
0.001347
0.001337
0.001523
0.001330
0.001330
0.001568
0.001320
0.001309
0.001567
0.001416
0.001399
0.001615
0.001395
0.001405
0.001629
0.001443
0.001443
0.001674
0.001460
0.001458
0.001699
0.001453
0.001434
0.001650
0.001504
0.001505
0.001764
0.001521
0.001454
0.001756
0.001559
0.001538
0.001787
0.001576
0.001590
0.001825
0.001556
0.001541
0.001848
0.001596
0.001579
0.001861
0.001629
0.001599
0.001888
0.001522
0.001570
0.001822
0.001568
0.001533
0.001806
0.001449
0.001460
0.001731
0.001475
0.001468
0.001721
0.001513
0.001496
0.002049
0.001727
0.001725
0.001896
0.001658
0.001536
0.001819
0.001548
0.001588
0.002129
0.001551
0.001550
0.001907
0.001553
0.001537
0.001859
0.001487
0.001470
0.001747
0.001883
0.001685
0.002748
0.002126
0.002011
0.002385
0.002255
0.002128
0.002922
0.002298
0.002001
0.002869
0.002486
0.002286
0.002652
0.002291
0.002332
0.002579
0.002636
0.002391
0.002862
0.002415
0.002018
0.002328
0.002091
0.002393
0.003018
0.002754
0.002646
0.002784
0.002338
0.002147
0.002470
0.002343
0.002011
0.002723
Classification Time - I
0.003256
0.004457
0.006012
0.006432
0.007222
0.007987
0.009190
0.010376
0.012013
0.013163
0.014372
0.015947
0.017398
0.018447
0.019885
0.021044
0.022391
0.023818
0.024892
0.026112
0.027692
0.028871
0.030006
0.031632
0.032778
0.033984
0.035544
0.036757
0.037973
0.039155
0.040329
0.041454
0.043020
0.044227
0.045433
0.046885
0.048480
0.049467
0.050785
0.051991
0.053259
0.054777
0.055929
0.056943
0.058679
0.059754
0.060863
0.063238
0.063730
0.064838
0.066257
0.067867
0.068545
0.070506
0.071239
0.073798
0.074119
0.075458
0.076288
0.078033
0.079163
0.082044
0.083052
0.083580
0.084411
0.086027
0.087023
0.088428
0.091194
0.090815
0.091950
0.093686
0.094515
0.097541
0.098792
0.098841
0.101745
0.103091
0.102376
0.105436
0.105687
0.106419
0.109251
0.108997
0.110196
0.111095
0.112776
0.115869
0.114806
0.116299
0.117950
0.118963
0.120201
0.121163
0.122524
0.124653
0.125216
0.126856
0.127944
0.129294
0.130812
0.132019
0.133459
0.134317
0.136234
0.137093
0.138576
0.139776
0.140737
0.142237
0.143674
0.146828
0.145983
0.147550
0.148946
0.149844
0.151260
0.152156
0.153739
0.155175
0.156387
0.157780
0.158830
0.159560
0.161245
0.165387
0.165539
0.164879
0.166592
0.168121
0.168773
0.170500
0.171495
0.173120
0.174311
0.176043
0.176499
0.180820
0.179154
0.180193
0.182090
0.168832
0.170407
0.171197
0.175565
0.173687
0.174794
0.163477
0.164333
0.165740
0.166643
0.167630
0.168753
0.169935
0.189639
0.200935
0.201999
0.203580
0.192433
0.187951
0.177352
0.179135
0.179999
0.210746
0.211335
0.182971
0.186267
0.185447
0.186583
0.187235
0.181112
0.177149
0.178023
0.221155
0.223125
0.208858
0.202614
0.195818
0.197004
0.198360
0.199363
0.230785
0.231182
0.202668
0.203979
0.237237
0.237514
0.222992
0.212437
0.209390
0.196586
0.247023
0.241189
0.230822
0.216226
0.214111
0.190145
0.188361
0.196102
0.257320
0.258985
0.251512
0.240901
0.225086
0.221032
0.212128
0.203236
0.201352
0.205515
0.203220
