Full Accuracy
91.0433
Accuracy - I
42.1178
77.8451
84.509
87.2767
89.5311
90.4997
90.8806
91.0517
91.4435
91.6836
91.7443
91.7029
91.6781
91.7664
91.5815
91.7001
91.8601
91.6007
91.6007
91.5069
91.0433
