Full Time (seconds)
0.005655
Incremental Time - I
0.001296
0.000090
0.000103
0.000109
0.000124
0.000131
0.000142
0.000152
0.000158
0.000179
0.000191
0.000199
0.000211
0.000422
0.000378
0.000400
0.000454
0.000495
0.000528
0.000539
0.000574
Classification Time - I
0.000784
0.000967
0.001160
0.001324
0.001510
0.001708
0.001892
0.002091
0.002308
0.002453
0.003080
0.002862
0.003045
0.003212
0.003439
0.003752
0.004059
0.004287
0.004693
0.004999
