Full Accuracy
91.153847
Accuracy - I
50.000000
51.384617
61.153847
68.923080
72.923080
75.769234
79.461540
81.923080
84.076920
85.000000
85.615387
86.615387
88.000000
88.307693
88.692307
89.384613
89.615379
90.692307
90.461540
91.076920
91.153847
