Full Accuracy
91.153847
Accuracy - I
50.000000
55.846153
67.769226
71.692314
75.153847
77.846153
80.692307
83.000000
83.923080
84.769234
85.615387
86.769226
87.153847
87.230766
88.230774
88.307693
89.076927
90.153847
90.153847
91.000000
91.153847
