Full Time (seconds)
0.107062
Time - I
0.004421
0.009298
0.013662
0.018497
0.021926
0.026076
0.031752
0.035262
0.039113
0.043710
0.047498
0.054145
0.058649
0.064907
0.070650
0.077140
0.083057
0.095991
0.095505
0.096890
0.100627
