Full Time (seconds)
0.074940
Time - I
0.004558
0.008927
0.013273
0.017339
0.022227
0.025672
0.030996
0.034263
0.038611
0.042114
0.046127
0.052765
0.058461
0.065553
0.070343
0.076525
0.082615
0.089361
0.094614
0.071751
0.077070
