Full Time (seconds)
0.106940
Time - I
0.004680
0.008800
0.013056
0.018099
0.022487
0.025278
0.031169
0.033513
0.039119
0.042981
0.046876
0.052663
0.058059
0.064277
0.073342
0.078958
0.083429
0.091931
0.095250
0.101036
0.106919
