Full Time (seconds)
0.108112
Time - I
0.004416
0.009110
0.013652
0.017774
0.021836
0.026032
0.030132
0.034242
0.038616
0.043048
0.046399
0.053000
0.058515
0.066888
0.070608
0.051416
0.082786
0.088996
0.095425
0.103604
0.108162
