Full Accuracy
96.6154
Accuracy - I
cat: testS_0.svm.acc: No such file or directory
73.2308
80.6923
86.6154
89.2308
91.7692
91.8462
92.8462
93.2308
93.6154
93.4615
94.1538
95.0769
95.4615
95.4615
96
95.5385
95.8462
95.8462
96.5385
96.7692
