Full Time (seconds)
0.133085
Incremental Time - I
cat: testS_0.svm.time: No such file or directory
0.003615
0.006050
0.009318
0.013016
0.017141
0.017492
0.020639
0.024174
0.033633
0.038497
0.048025
0.052199
0.058779
0.067502
0.072947
0.080163
0.089480
0.095507
0.107186
0.117813
Classification Time - C
0.030794
0.038272
0.042212
0.047429
0.052629
0.050230
0.050737
0.068227
0.072905
0.076756
0.082933
0.089604
0.094075
0.101427
0.105762
0.111341
0.114778
0.122977
0.127819
0.106805
