Full Time (seconds)
0.131486
Incremental Time - I
cat: testS_0.svm.time: No such file or directory
0.004029
0.006183
0.009523
0.013234
0.017307
0.022297
0.025955
0.030138
0.034950
0.038331
0.038442
0.052755
0.060260
0.066464
0.076435
0.083774
0.087086
0.096102
0.098899
0.100232
Classification Time - C
0.032290
0.037493
0.043711
0.048819
0.054044
0.060085
0.063942
0.067994
0.073702
0.078290
0.082954
0.089945
0.095723
0.100953
0.105128
0.112563
0.116043
0.122136
0.109464
0.112482
