Full Time (seconds)
0.105124
Incremental Time - I
cat: testS_0.svm.time: No such file or directory
0.003541
0.005775
0.009311
0.012579
0.016521
0.021046
0.027063
0.029661
0.032925
0.038174
0.043581
0.047868
0.055906
0.060989
0.058716
0.067611
0.088179
0.095850
0.107959
0.104744
Classification Time - C
0.034445
0.037193
0.043996
0.048005
0.053247
0.058101
0.063808
0.068619
0.071242
0.078071
0.079507
0.081151
0.082508
0.094485
0.082779
0.112858
0.118647
0.124357
0.128256
0.113207
