Full Time (seconds)
0.098464
Incremental Time - I
cat: testS_0.svm.time: No such file or directory
0.004233
0.006963
0.009793
0.015369
0.017888
0.022638
0.026498
0.022039
0.025207
0.034870
0.045401
0.052877
0.058841
0.061227
0.059382
0.081145
0.087227
0.094377
0.099206
0.088010
Classification Time - C
0.032488
0.037540
0.042563
0.048427
0.053177
0.058483
0.063359
0.048467
0.073499
0.077084
0.083432
0.089743
0.094836
0.080007
0.085153
0.110417
0.116877
0.114535
0.095931
0.100538
