Full Time (seconds)
0.053845
Incremental Time - I
cat: testS_0.svm.time: No such file or directory
0.003461
0.005364
0.009822
0.014191
0.018235
0.024786
0.026101
0.030139
0.034076
0.038790
0.044044
0.031133
0.035138
0.075689
0.074285
0.091137
0.099360
0.108480
0.111765
0.047892
Classification Time - C
0.027871
0.031907
0.043183
0.051688
0.054974
0.059641
0.063936
0.068646
0.073184
0.076949
0.081872
0.051118
0.054401
0.101337
0.118674
0.123730
0.131825
0.126618
0.055396
0.052983
