Full Time (seconds)
0.058771
Incremental Time - I
cat: testS_0.svm.time: No such file or directory
0.003697
0.004699
0.008923
0.012520
0.017149
0.021481
0.025167
0.023995
0.033373
0.032530
0.045021
0.051790
0.057758
0.066128
0.073718
0.081088
0.088576
0.096401
0.107522
0.118519
Classification Time - C
0.032531
0.030118
0.042723
0.047866
0.053179
0.060093
0.063995
0.055281
0.063375
0.068223
0.083206
0.089802
0.094961
0.102417
0.108801
0.114549
0.115833
0.122002
0.127167
0.131468
