Full Time (seconds)
0.032321
Incremental Time - I
0.011564
0.000365
0.000472
0.000862
0.000829
0.000949
0.001039
0.001134
0.001275
0.001398
0.001482
0.000544
0.000529
0.000552
0.000564
0.000582
0.000578
0.000577
0.000633
0.000667
0.000652
0.000979
0.001043
0.001054
0.001078
0.001143
0.001201
0.001248
0.001290
0.001330
0.001331
Classification Time - I
0.004919
0.006165
0.007452
0.008856
0.010358
0.011964
0.013480
0.015209
0.016659
0.018272
0.018209
0.018956
0.019327
0.019882
0.019670
0.020244
0.020621
0.020639
0.021071
0.021458
0.022681
0.023438
0.024068
0.024708
0.025319
0.026532
0.026625
0.027694
0.029544
0.029738
