Full Accuracy
93.000000
Accuracy - I
50.000000
51.384617
53.230770
53.461540
53.538460
53.615387
53.692307
53.692307
53.692307
53.692307
53.692307
54.538460
55.230766
56.153847
56.461536
56.923073
57.384617
57.384617
57.461536
57.461536
57.538460
58.307690
59.230770
59.692307
60.000004
60.307693
60.461540
60.846157
60.846157
61.000000
61.076920
64.769234
64.846153
64.846153
64.846153
64.846153
64.846153
64.769234
64.769234
64.769234
64.769234
65.153847
66.769234
67.307693
67.384621
67.615387
67.615387
67.846153
67.846153
68.000000
68.000000
70.000000
71.000000
71.538460
71.692307
71.692307
71.692307
71.692307
71.692307
71.769234
71.846161
71.846161
71.846161
71.846161
71.846161
71.846161
71.846161
71.769234
72.000000
72.000000
72.000000
73.000000
74.000000
74.538460
74.461540
74.769226
74.923080
75.307693
75.384613
75.307693
75.307693
75.384613
76.000000
76.692307
76.846153
77.000000
77.153847
77.384613
77.538460
77.538460
77.538460
78.230766
78.692307
79.692307
79.846153
80.000000
80.076920
80.307693
80.230766
80.692307
80.769226
82.615379
83.307686
83.538460
83.846153
83.846153
84.076920
84.076920
84.153847
84.153847
84.307686
84.384613
85.000000
85.923073
86.076920
86.307693
86.615387
86.384613
86.384613
86.538467
86.615387
89.692307
89.923080
89.846153
90.307693
90.307693
90.076920
89.923080
89.846153
89.846153
89.846153
91.615387
92.846153
93.076920
92.923073
92.923073
92.923073
93.000000
93.076920
93.076927
93.000000
