Full Accuracy
93.000000
Accuracy - I
50.000000
52.384613
53.153843
53.076923
53.076923
53.076923
53.076923
53.076923
53.076923
53.076923
53.076923
53.923077
54.615383
55.461536
55.769234
56.461536
56.846153
56.846153
56.923073
56.923080
56.923080
57.846153
58.692307
59.153843
59.461540
59.769230
59.923077
60.230766
60.307686
60.461540
60.538464
63.846153
64.153847
64.153847
64.153847
64.000000
64.000000
63.923080
63.923080
63.923080
63.923080
64.538460
66.153847
66.538467
66.769234
67.000000
66.923073
67.153847
67.153847
67.307693
67.307693
69.307693
70.230774
70.769226
70.923080
70.923080
70.923080
70.923080
70.923080
71.000000
71.076927
72.230766
72.769234
72.769234
73.615387
74.000000
73.923073
74.153847
74.076920
74.153847
74.076920
75.076920
76.076927
76.615387
76.538460
76.846153
77.000000
77.384613
77.461540
77.384613
77.384613
77.461540
77.923080
78.692314
78.846153
79.000000
79.076920
79.307693
79.461540
79.461540
79.538460
80.307693
80.692307
81.692307
81.846153
82.000000
82.076927
82.307693
82.230774
82.692307
82.769234
84.538460
85.230766
85.384613
85.692307
85.692307
85.923073
85.923073
86.000000
86.000000
86.076920
86.307693
86.307693
86.384613
86.692307
86.769226
86.769226
86.692307
86.846153
86.615387
86.615387
89.692307
89.923080
89.846153
90.307693
90.307693
90.076920
89.923080
89.846153
89.846153
89.846153
91.615387
92.846153
93.076920
92.923073
92.923073
92.923073
93.000000
93.076920
93.076927
93.000000
