Full Time (seconds)
0.109597
Time - I
0.004261
0.005064
0.005853
0.006656
0.007436
0.008200
0.008983
0.010294
0.010540
0.011442
0.012103
0.012852
0.013853
0.014468
0.015290
0.015762
0.016466
0.017296
0.018323
0.018773
0.019534
0.020993
0.021648
0.021785
0.023217
0.023378
0.024771
0.024808
0.026001
0.027105
0.027541
0.027840
0.028673
0.029436
0.030190
0.030931
0.032678
0.032914
0.033356
0.034044
0.034842
0.035563
0.037378
0.037440
0.038020
0.039133
0.040554
0.041261
0.042085
0.041975
0.042344
0.043196
0.045182
0.045751
0.046396
0.046251
0.046937
0.047618
0.050303
0.050655
0.049833
0.050746
0.051340
0.053700
0.053848
0.054198
0.054399
0.056644
0.057588
0.056797
0.058927
0.059923
0.060743
0.059594
0.060213
0.063317
0.064442
0.063025
0.064084
0.064345
0.064916
0.065395
0.065502
0.066093
0.067009
0.068169
0.069044
0.069678
0.068025
0.068406
0.068644
0.069420
0.070141
0.073226
0.074509
0.072578
0.073682
0.074102
0.075101
0.075415
0.076187
0.079506
0.077516
0.078433
0.079210
0.080434
0.080955
0.081463
0.082334
0.085625
0.083658
0.084451
0.088083
0.086276
0.086844
0.087461
0.091226
0.089005
0.090841
0.091191
0.091627
0.092645
0.092575
0.094592
0.096913
0.098215
0.097022
0.096812
0.097444
0.098120
0.099224
0.099645
0.103651
0.101418
0.101788
0.102737
0.103788
0.107214
0.104780
0.108284
0.110074
