Full Time (seconds)
0.109247
Time - I
0.004317
0.005085
0.005828
0.006665
0.007411
0.008304
0.008931
0.009704
0.010512
0.011227
0.012044
0.012840
0.013496
0.014456
0.015215
0.015703
0.016466
0.017702
0.018017
0.019542
0.019469
0.020508
0.021033
0.022163
0.023050
0.023225
0.024151
0.025007
0.025564
0.026271
0.026989
0.027815
0.029436
0.029407
0.030101
0.031141
0.031574
0.032595
0.033653
0.035084
0.035805
0.036075
0.035779
0.036680
0.035877
0.037282
0.036618
0.037119
0.039089
0.038529
0.038458
0.039155
0.041201
0.040765
0.041483
0.042243
0.042980
0.045058
0.044647
0.045239
0.046052
0.046962
0.047487
0.050266
0.050091
0.051242
0.050906
0.051653
0.052347
0.053066
0.053564
0.056107
0.055181
0.055751
0.058316
0.058251
0.062036
0.058783
0.060872
0.060369
0.061511
0.062247
0.064554
0.066828
0.064750
0.064781
0.065563
0.067211
0.066993
0.070692
0.068493
0.071529
0.070327
0.073169
0.071725
0.072658
0.073103
0.076205
0.076955
0.076560
0.076463
0.076841
0.077746
0.078931
0.080237
0.082595
0.083161
0.081544
0.082091
0.082807
0.083537
0.084384
0.085142
0.088893
0.089973
0.087370
0.087971
0.088863
0.090069
0.093401
0.094218
0.095203
0.092623
0.096641
0.097345
0.095776
0.095716
0.096308
0.100601
0.097822
0.098611
0.102977
0.100531
0.101040
0.102033
0.102255
0.105913
0.105359
0.106674
0.108539
0.106917
