Full Time (seconds)
0.106187
Time - I
0.004344
0.005111
0.006099
0.006691
0.007398
0.008172
0.008915
0.009708
0.010474
0.011262
0.012255
0.012676
0.013639
0.014349
0.015397
0.015737
0.016905
0.017694
0.018464
0.018760
0.019707
0.020797
0.021583
0.021739
0.023143
0.023921
0.024830
0.025071
0.025540
0.027032
0.027814
0.027784
0.029414
0.032056
0.030993
0.031500
0.032589
0.032990
0.033085
0.034036
0.034623
0.035411
0.037235
0.038043
0.038602
0.039575
0.040342
0.041165
0.040689
0.042300
0.043437
0.042922
0.043853
0.045868
0.045574
0.046146
0.046659
0.048679
0.050976
0.053299
0.050249
0.050442
0.051204
0.053665
0.052671
0.053409
0.054241
0.058186
0.055738
0.056509
0.057237
0.057930
0.059085
0.061186
0.062156
0.063050
0.063675
0.064543
0.065282
0.064011
0.065313
0.067914
0.072761
0.066919
0.068963
0.068478
0.071560
0.071661
0.071263
0.073788
0.072801
0.073046
0.074276
0.077206
0.075314
0.076288
0.076748
0.080116
0.081252
0.082959
0.079983
0.083223
0.081486
0.082052
0.085494
0.085139
0.084261
0.087900
0.088542
0.086904
0.087798
0.089852
0.088829
0.090165
0.093302
0.094114
0.091829
0.093620
0.094492
0.094007
0.094855
0.095101
0.098905
0.096167
0.095951
0.096360
0.097207
0.100878
0.097497
0.098914
0.098519
0.099421
0.100516
0.100775
0.103079
0.105974
0.103607
0.107591
0.104622
0.105372
0.106133
