Full Time (seconds)
0.001177
Incremental Time - I
0.000086
0.000076
0.000103
0.000102
0.000113
0.000109
0.000106
0.000099
0.000125
0.000131
0.000140
0.000136
0.000127
0.000123
0.000132
0.000119
0.000130
0.000150
0.011783
0.000139
0.000359
0.000401
0.000414
0.000481
0.002116
0.003234
0.002784
0.004317
0.012071
0.004544
0.004586
Classification Time - C
0.000382
0.000363
0.000375
0.000378
0.000427
0.000368
0.000359
0.000362
0.000381
0.000326
0.000374
0.000381
0.000352
0.000345
0.000344
0.000347
0.000352
0.001049
0.000362
0.000363
0.000317
0.000510
0.000289
0.000281
0.000379
0.000400
0.000710
0.000750
0.000762
0.001164
0.000804
