Full Accuracy
94.000000
Accuracy - I
50.000000
73.461540
79.230766
83.076927
85.153847
88.769234
89.461540
90.000000
90.000000
91.000000
91.384613
92.615387
93.000000
93.000000
93.153847
93.769226
94.000000
93.923080
94.307693
94.769234
94.769226
