Full Time (seconds)
0.142290
Incremental Time - I
0.001728
0.000324
0.000609
0.000807
0.002751
0.002145
0.003136
0.004000
0.004008
0.004191
0.004495
0.006800
0.005546
0.005874
0.006019
0.008017
0.008639
0.009453
0.010111
0.010430
0.010970
Classification Time - I
0.010322
0.015121
0.020367
0.025614
0.032513
0.035486
0.040421
0.045601
0.050027
0.058769
0.067043
0.070015
0.073974
0.084920
0.092981
0.100753
0.108022
0.115634
0.124391
0.131936
