Full Time (seconds)
0.107244
Incremental Time - I
0.001932
0.000261
0.000457
0.000820
0.003003
0.003335
0.003552
0.004105
0.004020
0.004197
0.004357
0.007108
0.006564
0.007620
0.007409
0.007921
0.008683
0.007536
0.007301
0.009508
0.009762
Classification Time - I
0.008066
0.015333
0.020855
0.025347
0.031935
0.035464
0.043942
0.044669
0.049703
0.054647
0.063114
0.073537
0.082248
0.090574
0.099323
0.088108
0.085736
0.094015
0.131665
0.099473
