Full Time (seconds)
0.005684
Incremental Time - I
0.002391
0.000085
0.000091
0.000091
0.000092
0.000109
0.000122
0.000120
0.000118
0.000121
0.000130
0.000129
0.000145
0.000151
0.000151
0.000142
0.000160
0.001937
0.000803
0.000728
0.001039
0.000758
0.001688
0.002177
0.001984
0.001927
0.002139
0.001802
0.001950
0.001950
0.001711
Classification Time - I
0.001366
0.001421
0.001490
0.001569
0.001678
0.001805
0.001878
0.002061
0.002096
0.002216
0.002307
0.002432
0.002567
0.002685
0.002829
0.002945
0.003183
0.003174
0.003443
0.003449
0.003746
0.003671
0.003832
0.004889
0.004071
0.004193
0.004353
0.004484
0.004549
0.004892
