Full Time (seconds)
0.142957
Incremental Time - I
0.004406
0.000332
0.000599
0.000828
0.003071
0.003267
0.003532
0.003792
0.004025
0.004260
0.004577
0.006028
0.006588
0.006579
0.007292
0.008107
0.003950
0.009234
0.009989
0.004347
0.004761
Classification Time - I
0.010101
0.015960
0.020238
0.015757
0.029980
0.034871
0.040927
0.044771
0.049742
0.054415
0.062865
0.069450
0.076683
0.083796
0.091070
0.099746
0.106867
0.115135
0.046451
0.060941
