Full Time (seconds)
0.142002
Incremental Time - I
0.001738
0.000332
0.000583
0.000815
0.003083
0.003173
0.003547
0.002464
0.002056
0.001941
0.002147
0.005504
0.005580
0.005985
0.006377
0.007904
0.007988
0.008347
0.009580
0.009537
0.010111
Classification Time - I
0.010075
0.015332
0.019953
0.025811
0.030633
0.036110
0.023059
0.026755
0.029563
0.031505
0.063062
0.069853
0.077029
0.084793
0.092929
0.100051
0.108607
0.116103
0.133589
0.131493
