Full Time (seconds)
0.142501
Incremental Time - I
0.005894
0.000481
0.000574
0.000859
0.003104
0.002904
0.003561
0.003758
0.002874
0.003955
0.004281
0.006052
0.005042
0.006868
0.007461
0.008041
0.008635
0.009244
0.009669
0.007895
0.010879
Classification Time - I
0.010253
0.015984
0.020481
0.025481
0.030440
0.035449
0.040315
0.046674
0.050304
0.055175
0.063660
0.070450
0.077220
0.084506
0.092306
0.100390
0.107529
0.115958
0.123598
0.131044
