Full Time (seconds)
0.249324
Time - I
0.002234
0.003387
0.004546
0.006043
0.007140
0.008205
0.009658
0.010725
0.011771
0.013306
0.015817
0.016548
0.016863
0.017436
0.018167
0.018639
0.019897
0.021011
0.022203
0.023335
0.026514
0.025856
0.027329
0.027978
0.029377
0.030466
0.031536
0.032915
0.034627
0.035063
0.036507
0.037603
0.038656
0.040067
0.041114
0.042209
0.043660
0.045115
0.045800
0.047126
0.048199
0.049359
0.051152
0.051767
0.052840
0.054272
0.055335
0.056363
0.058071
0.058852
0.059948
0.061353
0.062472
0.064549
0.065518
0.066052
0.067716
0.069589
0.069507
0.070804
0.072124
0.074962
0.074657
0.075548
0.077752
0.078161
0.079166
0.080236
0.081425
0.084159
0.085459
0.084855
0.086242
0.087420
0.088427
0.089750
0.091311
0.092315
0.094289
0.094888
0.095608
0.096980
0.098105
0.099694
0.100521
0.101552
0.102647
0.104013
0.105230
0.106394
0.108783
0.109056
0.109798
0.113056
0.112104
0.113152
0.114649
0.115742
0.116868
0.118798
0.119276
0.122793
0.121672
0.124326
0.125719
0.125366
0.126326
0.128571
0.128843
0.129879
0.130975
0.133411
0.134707
0.134727
0.136740
0.137808
0.139770
0.140238
0.142988
0.142957
0.143273
0.144566
0.145146
0.146610
0.136426
0.142733
0.150452
0.151223
0.153449
0.155442
0.155114
0.155879
0.152879
0.146046
0.149690
0.149539
0.153207
0.162832
0.164695
0.165432
0.166793
0.170027
0.169195
0.170069
0.170707
0.159119
0.161760
0.174908
0.176438
0.177061
0.178653
0.165774
0.166661
0.168281
0.169333
0.170045
0.171241
0.174613
0.176341
0.175145
0.175435
0.176608
0.179941
0.178958
0.179685
0.181035
0.182000
0.169899
0.171093
0.185358
0.195180
0.203363
0.205188
0.205234
0.208918
0.208834
0.211553
0.194182
0.195000
0.182035
0.183030
0.173161
0.173273
0.173938
0.175011
0.175599
0.207565
0.222001
0.205954
0.205545
0.193285
0.220456
0.228168
0.211376
0.212786
0.214224
0.215138
0.215639
0.201566
0.200990
0.189816
0.188393
0.179693
0.242977
0.243400
0.245959
0.226812
0.246545
0.249531
0.248617
0.249954
