Full Time (seconds)
0.215837
Time - I
0.002237
0.003357
0.004481
0.005972
0.007058
0.008143
0.009553
0.010644
0.011713
0.013134
0.014193
0.015347
0.016737
0.017844
0.018882
0.020292
0.021827
0.022527
0.023881
0.024387
0.024953
0.025653
0.026766
0.027776
0.029387
0.030278
0.031324
0.032721
0.033822
0.035390
0.037534
0.037349
0.038460
0.042166
0.043495
0.045236
0.043447
0.044503
0.045593
0.046945
0.048016
0.049086
0.050525
0.051978
0.052630
0.054103
0.055124
0.056144
0.058316
0.059132
0.063300
0.064925
0.067676
0.064298
0.065402
0.066067
0.067490
0.068892
0.070405
0.070414
0.071846
0.072959
0.074055
0.075415
0.076541
0.078489
0.079434
0.079952
0.081651
0.082451
0.084033
0.084709
0.086107
0.088623
0.088306
0.089668
0.091226
0.091663
0.093226
0.095115
0.095282
0.104360
0.097961
0.098935
0.100757
0.103212
0.102627
0.104323
0.106064
0.107823
0.107968
0.108528
0.109509
0.111775
0.111985
0.114399
0.116540
0.115532
0.118071
0.119411
0.120788
0.120673
0.123177
0.122690
0.133224
0.127412
0.126204
0.128694
0.128638
0.119904
0.130865
0.138324
0.142765
0.134693
0.135903
0.137272
0.142152
0.139502
0.140202
0.141553
0.139248
0.132851
0.134347
0.146378
0.147487
0.149988
0.149925
0.151295
0.152130
0.153809
0.154514
0.156766
0.160640
0.158100
0.159198
0.160832
0.161603
0.163011
0.165309
0.165558
0.166277
0.163453
0.156381
0.166832
0.172640
0.173761
0.174920
0.174937
0.178065
0.179962
0.180212
0.165430
0.168503
0.169325
0.179740
0.183987
0.174977
0.174300
0.173608
0.174314
0.189950
0.191057
0.177667
0.178771
0.196090
0.196011
0.197057
0.182761
0.184503
0.187136
0.194988
0.204601
0.204458
0.205779
0.206642
0.208989
0.208842
0.210624
0.211664
0.195856
0.195300
0.184090
0.220641
0.214452
0.201495
0.202815
0.203899
0.205400
0.205768
0.206984
0.216167
0.226606
0.228348
0.227116
0.212476
0.231403
0.227079
0.215399
0.207317
0.202119
0.204635
0.205527
0.191502
0.192804
0.244400
0.230428
0.244420
0.210493
0.246572
0.248993
0.246634
