Full Time (seconds)
0.216219
Time - I
0.002222
0.002605
0.003404
0.004156
0.005266
0.006389
0.007782
0.008843
0.010192
0.011328
0.012463
0.013977
0.014999
0.016151
0.017379
0.018720
0.019818
0.020991
0.022107
0.023425
0.024523
0.026116
0.027223
0.027883
0.030487
0.033059
0.033091
0.032859
0.033952
0.035048
0.036476
0.037819
0.038591
0.040087
0.041028
0.042107
0.046156
0.046819
0.047628
0.047048
0.048148
0.050074
0.050639
0.052200
0.052946
0.054168
0.055186
0.056367
0.057734
0.059733
0.060324
0.061914
0.062300
0.065925
0.064891
0.066403
0.067526
0.068441
0.069421
0.070547
0.071951
0.073140
0.074154
0.075545
0.077549
0.078042
0.079521
0.080626
0.081125
0.082675
0.085176
0.084781
0.086180
0.088036
0.089761
0.090779
0.091108
0.091811
0.094516
0.095264
0.095828
0.096871
0.099492
0.099913
0.100983
0.101657
0.103797
0.105097
0.106241
0.106646
0.107512
0.108590
0.110070
0.113221
0.112140
0.113843
0.116816
0.117226
0.116662
0.119509
0.119637
0.122380
0.123452
0.123587
0.123806
0.125178
0.126711
0.127332
0.128751
0.120194
0.120921
0.126425
0.133344
0.134389
0.135852
0.137740
0.138000
0.139508
0.141213
0.142363
0.143395
0.144013
0.145613
0.146461
0.147648
0.148750
0.150111
0.151127
0.152236
0.153577
0.154695
0.156084
0.158301
0.158993
0.162104
0.161188
0.163728
0.164012
0.166166
0.165222
0.166227
0.170540
0.168922
0.169926
0.174544
0.172719
0.173381
0.175529
0.178000
0.176952
0.180550
0.181878
0.182603
0.170869
0.169310
0.170417
0.171166
0.186526
0.190088
0.191377
0.191478
0.196446
0.188197
0.178799
0.180638
0.181326
0.183062
0.183008
0.184838
0.197399
0.205412
0.203216
0.202124
0.189482
0.189527
0.178220
0.179455
0.180236
0.190254
0.196133
0.186840
0.218690
0.215996
0.217871
0.218475
0.219852
0.220977
0.204933
0.202699
0.192327
0.193687
0.194025
0.187904
0.183202
0.184423
0.187446
0.186666
0.186810
0.177117
0.179189
0.179475
0.182141
0.183028
0.182714
0.174039
0.171672
0.245372
0.195775
0.246838
0.251113
0.239951
