Full Time (seconds)
0.091148
Time - I
0.003957
0.005617
0.005445
0.006323
0.006954
0.007826
0.009616
0.009253
0.010676
0.010714
0.012532
0.012219
0.014048
0.013735
0.015594
0.015223
0.019844
0.016714
0.017504
0.018295
0.019275
0.019828
0.022689
0.021290
0.022935
0.022728
0.025785
0.024273
0.028437
0.027733
0.028249
0.029596
0.027314
0.028933
0.029087
0.028543
0.043651
0.031778
0.031201
0.032265
0.031026
0.031663
0.034671
0.032539
0.035164
0.034481
0.034870
0.035531
0.040013
0.037056
0.040221
0.040178
0.042638
0.043262
0.042066
0.055614
0.042525
0.043101
0.045557
0.044598
0.045776
0.046818
0.047116
0.050738
0.053948
0.065415
0.050045
0.050491
0.052905
0.052069
0.055370
0.058342
0.054332
0.057658
0.059327
0.056588
0.062558
0.058085
0.060520
0.062536
0.067020
0.061315
0.064052
0.067627
0.065439
0.067330
0.065501
0.069087
0.068881
0.072998
0.071995
0.074338
0.069679
0.070699
0.071027
0.077913
0.075931
0.076810
0.081776
0.078239
0.076349
0.076460
0.076856
0.078041
0.078379
0.077240
0.083843
0.081102
0.081325
0.086789
0.082870
0.083784
0.087659
0.089365
0.085815
0.089495
0.092926
0.088447
0.130748
0.090398
0.090172
0.096180
0.095578
0.089713
0.094222
0.094699
0.101602
0.096204
0.096385
0.101887
0.098942
0.098639
0.099702
0.101811
0.100946
0.111809
0.096949
0.098866
0.116014
0.104470
0.093866
