Full Time (seconds)
0.105212
Time - I
0.003952
0.004696
0.005470
0.006239
0.006968
0.007710
0.008486
0.009224
0.009958
0.010726
0.010446
0.012212
0.013019
0.013768
0.016026
0.015526
0.016026
0.015816
0.017491
0.018208
0.018949
0.020643
0.021119
0.022165
0.025604
0.024692
0.023808
0.024189
0.024985
0.025875
0.026527
0.027422
0.028382
0.029175
0.029715
0.030733
0.031530
0.032265
0.032929
0.033939
0.038538
0.035394
0.036373
0.036691
0.037019
0.038535
0.040002
0.040785
0.041188
0.044130
0.042857
0.045814
0.047271
0.044411
0.045527
0.045749
0.047205
0.047303
0.049022
0.050115
0.052355
0.050579
0.050852
0.069282
0.054693
0.057967
0.055867
0.056807
0.055312
0.056213
0.060466
0.071308
0.058003
0.061395
0.061987
0.065250
0.065543
0.063086
0.065150
0.065346
0.064048
0.066805
0.071400
0.069261
0.068925
0.070537
0.069340
0.073343
0.073973
0.072803
0.073458
0.075768
0.077712
0.077566
0.075616
0.075354
0.078278
0.078008
0.085117
0.081945
0.084459
0.079855
0.080984
0.084014
0.085000
0.085715
0.108269
0.086966
0.094109
0.088273
0.090047
0.096439
0.098007
0.092250
0.094098
0.093799
0.093048
0.093735
0.093078
0.093859
0.097786
0.096009
0.095258
0.095605
0.109270
0.098706
0.101230
0.101994
0.100788
0.101419
0.102007
0.102357
0.104684
0.114021
0.112070
0.104498
0.104849
0.103662
0.103545
0.108546
0.105594
