Full Accuracy
91.153847
Accuracy - I
50.000000
53.000004
65.692314
70.615379
75.000000
78.076920
80.384613
82.538460
83.384613
84.923080
85.461540
85.692307
87.307693
88.307693
88.461533
88.923080
89.769234
90.538460
90.307686
91.153847
91.153847
