Full Time (seconds)
0.108323
Time - I
0.004689
0.008840
0.013110
0.017210
0.021294
0.025427
0.030773
0.033630
0.039955
0.041791
0.045797
0.053129
0.060394
0.070367
0.077148
0.081130
0.082272
0.090200
0.101192
0.101505
0.113877
