Full Time (seconds)
0.143183
Incremental Time - I
0.002372
0.000088
0.000099
0.000101
0.000108
0.000118
0.000127
0.000139
0.000145
0.000151
0.000158
0.000090
0.000092
0.000094
0.000095
0.000092
0.000129
0.000132
0.000135
0.000137
0.000141
0.000209
0.000232
0.000231
0.000269
0.000252
0.002413
0.002416
0.001998
0.002051
0.002075
0.001330
0.001157
0.001126
0.001082
0.001876
0.002212
0.002218
0.002176
0.002540
0.002271
0.001649
0.001218
0.001266
0.001287
0.001186
0.001344
0.001331
0.002327
0.002355
0.002398
0.001778
0.001526
0.001412
0.001355
0.001443
0.002431
0.002636
0.002621
0.002422
0.002664
0.001892
0.001435
0.001613
0.001544
0.002397
0.002631
0.002583
0.002766
0.001816
0.001545
0.001613
0.001621
0.002651
0.002837
0.002861
0.002878
0.002080
0.001669
0.001575
0.002608
0.002858
0.002756
0.002925
0.002198
0.001755
0.002704
0.002059
0.001764
0.002746
0.002941
0.002103
0.001972
0.001930
0.002804
0.003058
0.002997
0.002987
0.002293
0.001999
0.001983
0.003025
0.002984
0.003064
0.002454
0.002178
0.001941
0.001844
0.002706
0.003151
0.002171
0.002062
0.002107
0.002028
0.003062
0.003178
0.002427
0.002074
0.002088
0.002969
0.003120
0.003256
0.002444
0.002153
0.002079
0.003063
0.002444
0.002172
0.002083
0.003101
0.003227
0.003381
0.002583
0.002243
0.003136
0.003327
0.003286
0.003422
0.002795
0.002659
0.002345
Classification Time - I
0.005809
0.006729
0.007756
0.008692
0.009664
0.010632
0.011679
0.012640
0.013558
0.014862
0.015182
0.015350
0.016108
0.016579
0.016630
0.017185
0.017697
0.018296
0.018847
0.020077
0.021117
0.021761
0.022225
0.023101
0.024470
0.025333
0.026012
0.026981
0.027810
0.029823
0.030740
0.030715
0.031626
0.032577
0.033506
0.034916
0.036685
0.036401
0.037370
0.038351
0.039730
0.040681
0.041640
0.042586
0.043875
0.044143
0.044960
0.046343
0.046916
0.048464
0.048958
0.049797
0.050758
0.051601
0.052664
0.053569
0.054512
0.055571
0.056446
0.057320
0.058183
0.059129
0.060236
0.061072
0.062018
0.063215
0.064318
0.065211
0.065876
0.067142
0.068695
0.068931
0.070293
0.070767
0.071839
0.072408
0.073353
0.074368
0.075811
0.079164
0.077121
0.078028
0.079698
0.083390
0.081217
0.082526
0.083379
0.083612
0.085259
0.085298
0.086367
0.087808
0.088722
0.089206
0.090129
0.091435
0.092209
0.096611
0.095502
0.094926
0.095556
0.096539
0.097339
0.101239
0.100571
0.104407
0.105087
0.103167
0.103501
0.105153
0.105423
0.106539
0.107198
0.108035
0.108360
0.111615
0.114829
0.110700
0.111997
0.112561
0.113535
0.115468
0.120506
0.116291
0.117469
0.120408
0.119436
0.121986
0.121295
0.121772
0.123426
0.124049
0.124678
0.125479
0.126603
0.128105
0.133868
0.134127
0.135658
0.131454
