Full Time (seconds)
0.150424
Incremental Time - I
0.001758
0.000117
0.000131
0.000103
0.000115
0.000119
0.000130
0.000130
0.000141
0.000205
0.000161
0.000175
0.000180
0.000197
0.000263
0.000278
0.000226
0.000224
0.000304
0.000248
0.000332
0.002081
0.001034
0.001849
0.002279
0.002284
0.002355
0.002326
0.002390
0.002256
0.002244
0.001736
0.001221
0.001854
0.001211
0.001301
0.001270
0.002206
0.002513
0.002280
0.002452
0.002412
0.002479
0.001832
0.001335
0.001631
0.002426
0.002602
0.002566
0.002422
0.002515
0.002460
0.002585
0.002022
0.001490
0.001559
0.001710
0.001533
0.002431
0.002659
0.002666
0.002612
0.001939
0.001897
0.001637
0.001638
0.002591
0.002747
0.002648
0.002756
0.002850
0.002165
0.001917
0.001782
0.002678
0.002869
0.002653
0.002914
0.002142
0.002001
0.001881
0.002721
0.002728
0.002821
0.002851
0.002136
0.001773
0.001891
0.002769
0.002946
0.002885
0.002594
0.001858
0.001654
0.001479
0.002293
0.002614
0.002651
0.002729
0.002052
0.001792
0.002077
0.002778
0.003022
0.002967
0.003038
0.002517
0.002133
0.002213
0.002080
0.002899
0.003185
0.002799
0.002149
0.002157
0.002008
0.002967
0.002338
0.002156
0.002223
0.002204
0.003081
0.003251
0.002569
0.002423
0.002341
0.003077
0.003194
0.003186
0.002643
0.002512
0.002429
0.003380
0.002675
0.003150
0.002565
0.002443
0.002797
0.002388
0.003175
0.002884
Classification Time - I
0.005782
0.007375
0.007634
0.008583
0.009504
0.011167
0.011868
0.013635
0.013428
0.015419
0.015447
0.017653
0.017331
0.018331
0.020128
0.019990
0.022301
0.023398
0.023461
0.024634
0.025920
0.026357
0.026299
0.027285
0.028176
0.029129
0.030112
0.031187
0.031936
0.032883
0.034696
0.036163
0.037604
0.038846
0.038637
0.038881
0.039994
0.040485
0.041332
0.042334
0.043390
0.044887
0.047920
0.048695
0.049821
0.048261
0.049091
0.049826
0.050892
0.051722
0.052744
0.054009
0.057406
0.058380
0.059090
0.060716
0.063052
0.059305
0.060716
0.061174
0.062683
0.065636
0.066807
0.067218
0.065679
0.066638
0.067697
0.068509
0.070193
0.070793
0.076463
0.076581
0.077934
0.074150
0.075333
0.076104
0.077507
0.082238
0.083864
0.079746
0.081293
0.081675
0.083295
0.083792
0.089425
0.092050
0.092576
0.087300
0.088146
0.089371
0.089806
0.095631
0.096884
0.097512
0.090842
0.091192
0.091468
0.092412
0.098774
0.099563
0.099879
0.095112
0.096311
0.097355
0.104289
0.107137
0.106325
0.107454
0.109209
0.102371
0.109321
0.110484
0.111980
0.113902
0.113539
0.108549
0.114992
0.117016
0.118381
0.118709
0.113223
0.113232
0.122153
0.123339
0.124490
0.117303
0.117977
0.119202
0.128319
0.129200
0.127427
0.129873
0.129559
0.131613
0.132779
0.133970
0.135399
0.135435
0.128716
0.129671
