Full Time (seconds)
0.143264
Incremental Time - I
0.005864
0.000088
0.000103
0.000105
0.000114
0.000113
0.000127
0.000129
0.000140
0.000154
0.000155
0.000197
0.000179
0.000196
0.000202
0.000213
0.000218
0.000220
0.000228
0.000246
0.000253
0.001275
0.000965
0.001073
0.002473
0.002397
0.002290
0.002016
0.002279
0.001760
0.001605
0.001454
0.001250
0.001370
0.001284
0.002250
0.002414
0.002456
0.002296
0.002364
0.002209
0.001472
0.001423
0.001353
0.002219
0.002453
0.002493
0.002028
0.002618
0.002561
0.001275
0.001202
0.001207
0.001155
0.001152
0.001161
0.001162
0.001188
0.001205
0.001240
0.001495
0.001459
0.001372
0.001471
0.001421
0.001531
0.001666
0.001656
0.001843
0.001484
0.001868
0.002421
0.002375
0.002111
0.001703
0.001612
0.001585
0.001887
0.002361
0.002135
0.001809
0.002351
0.001646
0.002241
0.002384
0.001991
0.001904
0.001867
0.001501
0.002220
0.002708
0.002004
0.001507
0.002713
0.002709
0.001684
0.001531
0.002831
0.002389
0.002333
0.002712
0.002617
0.002014
0.001825
0.001806
0.001854
0.001903
0.001899
0.001912
0.001872
0.001930
0.002033
0.002277
0.002662
0.002976
0.002967
0.003318
0.002927
0.002998
0.002859
0.002344
0.001718
0.001786
0.002154
0.001820
0.001669
0.002581
0.001914
0.001716
0.002616
0.001805
0.003316
0.002577
0.002263
0.002269
0.002301
0.002259
0.002222
0.002356
0.002273
0.002209
Classification Time - I
0.005797
0.006603
0.007482
0.008388
0.009315
0.010297
0.011290
0.012298
0.013202
0.014213
0.015534
0.016621
0.017316
0.018045
0.018787
0.019785
0.021013
0.021468
0.022337
0.023297
0.024229
0.025218
0.026153
0.027152
0.028737
0.029688
0.030650
0.031005
0.031922
0.032797
0.033743
0.035089
0.036099
0.036630
0.037467
0.038624
0.039774
0.040976
0.041400
0.042369
0.043533
0.044183
0.045062
0.045952
0.047723
0.047917
0.049470
0.050151
0.050786
0.053460
0.052877
0.053613
0.056504
0.055613
0.056490
0.057415
0.060475
0.061405
0.062347
0.063314
0.062456
0.063026
0.063877
0.066485
0.066088
0.068586
0.068031
0.068683
0.071673
0.070956
0.071903
0.072789
0.073227
0.075354
0.075087
0.076256
0.076965
0.077881
0.079285
0.080320
0.081333
0.082592
0.083671
0.083446
0.084526
0.085138
0.086723
0.088831
0.088259
0.089077
0.093501
0.091170
0.092182
0.095473
0.097343
0.095014
0.096087
0.096489
0.097277
0.098530
0.099442
0.100381
0.101552
0.102279
0.103282
0.106980
0.105095
0.110058
0.110760
0.113327
0.108918
0.073683
0.074297
0.074378
0.117144
0.114677
0.113831
0.105017
0.118915
0.116743
0.117279
0.117125
0.118146
0.121410
0.123015
0.119158
0.119507
0.121068
0.120888
0.122807
0.122328
0.123390
0.124044
0.129641
0.125966
0.130240
0.127561
0.128714
0.132609
0.130323
