Full Accuracy
87.330620
Accuracy - I
cat: testS_0.svm.acc: No such file or directory
74.864510
80.713615
84.305641
80.941734
84.705215
86.256615
85.987511
85.717834
84.916214
88.107368
87.571442
87.333603
86.557556
86.286171
87.631699
87.869530
85.572647
86.379967
87.268791
87.393860
