Full Time (seconds)
0.000460
Incremental Time - I
0.000474
0.000212
0.000257
0.000491
0.000523
0.000560
0.000664
0.000631
0.000656
0.000846
0.001005
0.001447
0.001537
0.001883
0.002242
0.003994
0.003047
0.003531
0.004337
0.004281
0.002580
Classification Time - C
0.000482
0.000449
0.000495
0.000492
0.000550
0.000544
0.000520
0.000565
0.000550
0.000627
0.000642
0.000656
0.000712
0.000685
0.000701
0.000773
0.000747
0.000770
0.000444
0.000457
