Full Time (seconds)
0.017277
Time - I
0.002344
0.003198
0.004014
0.004799
0.005629
0.006453
0.007208
0.008345
0.008800
0.009774
0.010684
0.010921
0.011801
0.011898
0.012809
0.012718
0.015199
0.014156
0.014281
0.014101
0.014352
0.015386
0.014849
0.016897
0.015244
0.016121
0.015528
0.015912
0.016797
0.016185
0.017248
