Full Time (seconds)
0.452944
Time - I
0.014636
0.058919
0.057027
0.144443
0.188749
0.228914
0.217542
0.252672
0.358633
0.399086
0.443633
0.461873
0.399812
0.347970
0.449868
0.386256
0.345329
0.415453
0.398820
0.349982
0.312152
