Full Time (seconds)
0.068725
Time - I
0.004282
0.008598
0.012754
0.016856
0.020925
0.025080
0.028983
0.033372
0.038133
0.041909
0.045319
0.051762
0.057507
0.063793
0.070295
0.084312
0.091929
0.097396
0.105339
0.110925
0.117885
