Full Time (seconds)
0.112374
Time - I
0.004239
0.007477
0.012277
0.016983
0.018051
0.022223
0.024988
0.033176
0.037321
0.041384
0.045473
0.052477
0.057486
0.064499
0.069639
0.076231
0.081738
0.088427
0.094060
0.100860
0.106713
