Full Time (seconds)
0.002560
Time - I
0.000700
0.000746
0.000797
0.000890
0.000908
0.000972
0.001033
0.001232
0.001159
0.001595
0.001352
0.002071
0.001411
0.001445
0.001577
0.001567
0.001661
0.001712
0.001778
0.001852
0.001959
0.002293
0.002011
0.002112
0.002184
0.002308
0.002370
0.002364
0.002481
0.002506
0.002849
