Full Time (seconds)
0.106832
Time - I
0.004754
0.005550
0.006351
0.007206
0.007956
0.008750
0.009513
0.010319
0.011102
0.011883
0.012682
0.013407
0.014256
0.015096
0.015785
0.016352
0.017587
0.018343
0.018651
0.019915
0.020128
0.021557
0.021663
0.022431
0.023807
0.024670
0.024632
0.026156
0.026490
0.027762
0.028503
0.029305
0.029449
0.030852
0.031150
0.032188
0.032731
0.033403
0.034270
0.034788
0.036380
0.035828
0.036459
0.036438
0.038457
0.037036
0.037748
0.037893
0.038407
0.039391
0.039581
0.041172
0.042080
0.041865
0.042332
0.044371
0.044226
0.044531
0.046463
0.046443
0.046835
0.016140
0.015662
0.029441
0.035935
0.035762
0.051384
0.052429
0.054509
0.053576
0.054379
0.055067
0.056158
0.058367
0.057375
0.058122
0.058888
0.060410
0.060706
0.061134
0.063007
0.022307
0.030610
0.064282
0.065011
0.066058
0.068601
0.067717
0.068038
0.070938
0.069921
0.072493
0.071983
0.071907
0.072464
0.075663
0.076392
0.074772
0.075556
0.078746
0.079456
0.077743
0.078432
0.079522
0.079975
0.080813
0.086240
0.082552
0.083260
0.083813
0.085388
0.085212
0.085931
0.086796
0.090504
0.089961
0.092391
0.089719
0.091677
0.091184
0.094909
0.092871
0.094235
0.094229
0.094985
0.098284
0.096982
0.097409
0.098085
0.099161
0.099698
0.103918
0.102597
0.105598
0.103665
0.107207
0.104323
0.106533
0.109513
0.108538
0.111461
