Full Time (seconds)
0.107579
Time - I
0.004601
0.005372
0.006161
0.006969
0.007729
0.008511
0.009276
0.010025
0.010858
0.011574
0.012310
0.013347
0.014230
0.014588
0.015321
0.016065
0.017200
0.017602
0.018386
0.019724
0.019832
0.020596
0.021366
0.022186
0.022850
0.023647
0.024359
0.025510
0.025858
0.026612
0.027404
0.028631
0.028943
0.029737
0.030900
0.031800
0.032016
0.032787
0.034633
0.034379
0.036974
0.035921
0.037810
0.037411
0.038231
0.038915
0.039666
0.040417
0.041187
0.041931
0.043117
0.043673
0.044228
0.044954
0.045820
0.046467
0.047263
0.048321
0.049153
0.049517
0.051187
0.052649
0.051775
0.053450
0.053217
0.054007
0.054700
0.055538
0.056266
0.057089
0.058445
0.058530
0.059327
0.060097
0.060991
0.061570
0.062250
0.065137
0.065871
0.065213
0.065353
0.066124
0.067406
0.067617
0.070591
0.070275
0.070095
0.071413
0.071683
0.072569
0.073250
0.073590
0.074428
0.075582
0.075848
0.080748
0.077374
0.078722
0.079352
0.079652
0.081893
0.081799
0.082017
0.082641
0.083288
0.084154
0.086266
0.086388
0.087092
0.094478
0.087742
0.088698
0.092602
0.090610
0.090933
0.091736
0.092502
0.093736
0.093998
0.096762
0.097960
0.095731
0.096079
0.096397
0.096776
0.096944
0.097814
0.097926
0.098157
0.098872
0.100092
0.100379
0.100726
0.101582
0.102681
0.103121
0.103845
0.104563
0.105232
0.106108
0.110657
