Full Time (seconds)
0.106871
Time - I
0.004560
0.005434
0.006303
0.007228
0.008066
0.008875
0.010097
0.010473
0.011267
0.012043
0.012798
0.013635
0.014419
0.015201
0.015890
0.016658
0.017431
0.018234
0.018748
0.019617
0.020875
0.021046
0.021845
0.022600
0.023348
0.024080
0.024939
0.027772
0.028825
0.029857
0.030126
0.031222
0.029513
0.030328
0.031153
0.031912
0.033418
0.033542
0.034321
0.035022
0.036079
0.036543
0.038448
0.038041
0.039164
0.039650
0.040692
0.041121
0.041791
0.042572
0.043372
0.044086
0.044867
0.045635
0.046356
0.047441
0.047897
0.048747
0.050020
0.050116
0.051808
0.053244
0.052845
0.053500
0.053975
0.054803
0.055813
0.056325
0.056907
0.057695
0.058425
0.059477
0.061032
0.061389
0.061483
0.062330
0.062994
0.063749
0.064466
0.072630
0.071979
0.073044
0.067556
0.068327
0.069077
0.069846
0.078127
0.074226
0.072461
0.073233
0.075889
0.074671
0.075001
0.076699
0.076737
0.085270
0.078788
0.079163
0.079650
0.080407
0.081460
0.082222
0.082644
0.083432
0.084149
0.085860
0.085719
0.086844
0.088993
0.088116
0.088656
0.088892
0.100548
0.100539
0.093043
0.091909
0.090898
0.096489
0.092077
0.093984
0.092455
0.093637
0.097015
0.094970
0.095638
0.096172
0.108686
0.097805
0.098889
0.099348
0.100813
0.101102
0.101733
0.102236
0.103193
0.105845
0.104484
0.106092
0.107463
0.106712
0.108021
