Full Time (seconds)
0.448282
Incremental Time - I
0.783653
0.014903
0.012007
0.013963
0.014224
0.014931
0.013378
0.013356
0.014518
0.017856
0.017690
0.017218
0.016410
0.014416
0.015725
0.016477
0.016602
0.016487
0.017110
0.019283
0.019120
Classification Time - I
0.383623
0.259671
0.282794
0.289938
0.286709
0.273468
0.279085
0.650043
0.391104
0.353893
0.332612
0.312220
0.302906
0.314117
0.330069
0.332547
0.337381
0.364582
0.395467
0.945302
