Full Time (seconds)
0.097825
Time - I
0.004326
0.008522
0.012565
0.016718
0.021900
0.024868
0.028925
0.033936
0.042521
0.041381
0.045650
0.051341
0.057437
0.063931
0.069340
0.075270
0.083101
0.088003
0.092547
0.095546
0.098770
