Full Time (seconds)
0.109509
Time - I
0.004301
0.008613
0.013086
0.017031
0.022787
0.027956
0.030327
0.037449
0.039990
0.042038
0.047267
0.059713
0.037448
0.041690
0.071910
0.076898
0.086988
0.089568
0.097274
0.100836
0.106384
