Full Time (seconds)
0.118186
Time - I
0.004315
0.008510
0.012610
0.016765
0.021395
0.025301
0.028980
0.033415
0.037141
0.041230
0.045280
0.052088
0.057557
0.064017
0.074972
0.076039
0.081498
0.088031
0.094697
0.100090
0.106651
