Full Time (seconds)
0.327816
Incremental Time - I
0.035510
0.000034
0.000038
0.000059
0.000055
0.000059
0.000026
0.000026
0.000064
0.000066
0.000066
0.060297
0.104934
0.134162
0.182189
0.193972
0.258697
0.290732
0.322687
0.361711
0.400956
Classification Time - C
0.156243
0.029983
0.047137
0.046087
0.044673
0.046203
0.047641
0.046176
0.045939
0.044699
0.045158
0.140179
0.182620
0.215686
0.235650
0.273133
0.267042
0.289621
0.291623
0.313942
0.320318
