Full Accuracy
87.330620
Accuracy - I
cat: testS_0.svm.acc: No such file or directory
61.813206
69.096985
73.298035
78.396454
82.389488
82.799644
80.740601
80.740601
81.603607
82.413200
85.384926
83.181259
87.236824
86.967712
86.967712
87.712494
86.348000
85.841057
88.582352
87.330620
