Full Time (seconds)
0.013825
Time - I
0.004500
0.005095
0.005618
0.006206
0.006769
0.007408
0.010370
0.009953
0.009384
0.009666
0.010369
0.010673
0.011460
0.011920
0.012649
0.013527
0.013770
0.012081
0.012149
0.012581
0.013100
