Full Time (seconds)
0.014041
Time - I
0.002325
0.003045
0.005248
0.004456
0.005637
0.005779
0.008111
0.009218
0.009954
0.008474
0.011666
0.012251
0.010587
0.011294
0.014447
0.012683
0.013370
0.014071
0.015602
0.016082
0.016400
