Full Time (seconds)
0.019423
Time - I
0.002359
0.003056
0.003804
0.004429
0.006977
0.005802
0.006527
0.007215
0.008328
0.011421
0.009368
0.011523
0.010852
0.011314
0.014584
0.015953
0.014070
0.015529
0.017299
0.017570
0.019485
