Full Time (seconds)
0.461635
Time - I
0.181645
0.198170
0.229268
0.239131
0.252354
0.263016
0.280077
0.197474
0.258665
0.284502
0.281457
0.321844
0.335138
0.334485
0.624175
0.611616
0.309849
0.359476
0.365884
0.348249
0.826962
