Full Time (seconds)
0.321331
Incremental Time - I
0.035812
0.000029
0.000031
0.000033
0.000036
0.000035
0.000062
0.000070
0.000064
0.000061
0.000051
0.032915
0.098631
0.102978
0.163628
0.212648
0.242976
0.278683
0.271218
0.355807
0.225886
Classification Time - C
0.152462
0.021454
0.021545
0.025547
0.025534
0.027133
0.044842
0.045484
0.044815
0.044579
0.024384
0.142392
0.102737
0.170114
0.222025
0.261085
0.272159
0.265355
0.230453
0.270937
0.186350
