Full Time (seconds)
0.015879
Time - I
0.002048
0.002860
0.003600
0.004375
0.005170
0.005987
0.006747
0.007555
0.008410
0.009224
0.010323
0.010091
0.010619
0.010508
0.011060
0.011291
0.011589
0.011305
0.011515
0.011741
0.012531
0.012742
0.013071
0.014970
0.014038
0.014567
0.014222
0.014613
0.015044
0.015440
0.015842
