Full Time (seconds)
0.215133
Incremental Time - I
0.000150
0.000032
0.000045
0.000043
0.000056
0.000070
0.000092
0.000077
0.000082
0.000107
0.000093
0.000106
0.000136
0.000112
0.000125
0.000168
0.000134
0.000144
0.000175
0.000154
0.000165
0.000214
0.000173
0.000183
0.000244
0.000204
0.000206
0.000260
0.000221
0.000216
0.000288
0.000225
0.000233
0.000310
0.000257
0.000255
0.000334
0.000270
0.000271
0.002528
0.001290
0.001068
0.001090
0.001012
0.001031
0.001136
0.001030
0.001025
0.001126
0.001062
0.001071
0.001175
0.001071
0.001078
0.001203
0.001094
0.001081
0.001226
0.001114
0.001102
0.001259
0.001146
0.001137
0.001284
0.001190
0.001196
0.001322
0.001202
0.001178
0.001321
0.001211
0.001227
0.001370
0.001216
0.001218
0.001365
0.001244
0.001223
0.001411
0.001255
0.001279
0.001409
0.001289
0.001272
0.001476
0.001298
0.001336
0.001509
0.001328
0.001308
0.001496
0.001335
0.001268
0.001474
0.001280
0.001356
0.001565
0.001365
0.001362
0.001581
0.001436
0.001371
0.001608
0.001412
0.001372
0.001577
0.001426
0.001440
0.001665
0.001457
0.001434
0.001670
0.001485
0.001469
0.001696
0.001509
0.001485
0.001732
0.001531
0.001485
0.001734
0.001440
0.001478
0.001654
0.001552
0.001524
0.001777
0.001572
0.001537
0.001817
0.001592
0.001608
0.001862
0.001493
0.001595
0.001858
0.001569
0.001601
0.001873
0.001637
0.001611
0.001765
0.001576
0.001569
0.001857
0.001494
0.001524
0.001704
0.001547
0.001479
0.001785
0.001579
0.001488
0.001735
0.001588
0.001529
0.001801
0.001547
0.001542
0.001773
0.001489
0.001513
0.001715
0.001524
0.002120
0.002152
0.001853
0.001828
0.002246
0.001650
0.001601
0.001869
0.001681
0.001905
0.001937
0.001759
0.001636
0.001928
0.001672
0.001701
0.001906
0.001589
0.001589
0.001958
0.001565
0.001534
0.001673
0.001620
0.001603
0.001897
0.001625
0.001866
0.001964
0.001746
0.001730
0.002069
0.001702
0.001666
0.001992
0.001685
0.002065
0.002498
0.002080
0.001949
0.002639
0.001838
0.001868
0.002245
0.001692
0.001669
0.001921
Classification Time - I
0.002449
0.003222
0.004024
0.005221
0.006390
0.007965
0.009160
0.010361
0.011956
0.013280
0.014352
0.016070
0.017423
0.018293
0.020172
0.021385
0.022249
0.024180
0.025363
0.026399
0.027762
0.028944
0.030590
0.032194
0.032904
0.034066
0.035686
0.036863
0.038081
0.039151
0.040283
0.041857
0.043013
0.044971
0.046021
0.046965
0.048888
0.049297
0.050886
0.052023
0.054055
0.054845
0.056861
0.057344
0.058663
0.060954
0.060981
0.062928
0.064678
0.065875
0.066474
0.068757
0.070076
0.070781
0.071391
0.072640
0.075605
0.075301
0.077980
0.079683
0.079718
0.080528
0.083409
0.084193
0.086262
0.087630
0.088702
0.088528
0.090026
0.091606
0.093828
0.095640
0.095077
0.096186
0.097868
0.099117
0.101986
0.101713
0.102888
0.105514
0.105923
0.108871
0.109841
0.109729
0.110588
0.112470
0.115155
0.114770
0.115243
0.117329
0.118209
0.110041
0.111437
0.116781
0.123342
0.127032
0.125898
0.129384
0.128882
0.130073
0.131397
0.132473
0.135946
0.134728
0.139058
0.138073
0.138962
0.139943
0.141108
0.142753
0.143672
0.145601
0.149068
0.148513
0.149278
0.150942
0.154846
0.153327
0.153965
0.158667
0.144698
0.145950
0.159300
0.160234
0.161367
0.165809
0.164196
0.166022
0.167244
0.168603
0.172543
0.167622
0.159073
0.160419
0.161351
0.170568
0.176936
0.178414
0.179602
0.166901
0.168351
0.170022
0.170551
0.160608
0.160789
0.161703
0.163527
0.163892
0.164902
0.169817
0.168269
0.169333
0.169142
0.170237
0.174536
0.174280
0.173840
0.163107
0.164247
0.165263
0.169268
0.209633
0.168279
0.211745
0.215981
0.214124
0.215149
0.217271
0.186896
0.190357
0.188724
0.218772
0.222331
0.192156
0.193639
0.194105
0.189132
0.182956
0.184244
0.185042
0.186649
0.187242
0.177103
0.180941
0.169586
0.173902
0.192806
0.193831
0.195186
0.226714
0.219605
0.198316
0.209398
0.218015
0.201339
0.205018
0.202870
0.197706
0.212548
0.260697
0.259207
0.249000
0.241816
0.226273
0.226879
0.227591
0.213763
0.213169
0.201965
0.224519
