Full Time (seconds)
0.016607
Incremental Time - I
0.000368
0.000583
0.001176
0.001671
0.002175
0.002518
0.003515
0.003418
0.003910
0.004366
0.004810
0.005094
0.005688
0.005777
0.006377
0.006499
0.007105
0.007064
0.007607
0.007704
0.008251
0.009872
0.011045
0.012523
0.013563
0.014434
0.015807
0.016799
0.017567
0.018392
0.019371
Classification Time - C
0.002109
0.002880
0.004356
0.004901
0.005199
0.005485
0.005994
0.005781
0.005791
0.007584
0.005827
0.006145
0.006451
0.006653
0.006914
0.007006
0.007425
0.007473
0.007797
0.008001
0.007959
0.009113
0.009648
0.010459
0.010856
0.011539
0.012701
0.013259
0.013361
0.014034
0.014488
