Full Time (seconds)
0.014662
Incremental Time - I
0.001335
0.000043
0.000043
0.000046
0.000045
0.000043
0.000042
0.000051
0.000050
0.000047
0.000045
0.001025
0.002093
0.003469
0.003771
0.004716
0.005117
0.005878
0.006630
0.007455
0.007567
0.009366
0.010332
0.011761
0.012832
0.013973
0.015193
0.016163
0.016918
0.019651
0.019120
Classification Time - C
0.003241
0.001149
0.001149
0.001149
0.001162
0.001149
0.001479
0.001149
0.001150
0.001149
0.001150
0.002155
0.003402
0.004292
0.005089
0.005841
0.006315
0.006905
0.007351
0.007699
0.007925
0.008808
0.009632
0.010409
0.011287
0.011840
0.012633
0.012852
0.013357
0.014249
0.014623
