Full Time (seconds)
0.014611
Incremental Time - I
0.000380
0.000658
0.001256
0.001838
0.002233
0.002570
0.003036
0.003546
0.004141
0.004562
0.005260
0.006537
0.007700
0.009027
0.009787
0.010980
0.011370
0.012567
0.013563
0.014683
0.014784
0.015337
0.015831
0.016419
0.016675
0.017054
0.016946
0.017648
0.018633
0.018769
0.018992
Classification Time - C
0.002099
0.003022
0.004525
0.005252
0.005506
0.005515
0.005600
0.005705
0.005848
0.005876
0.006026
0.006799
0.007628
0.008329
0.009139
0.009545
0.010183
0.010609
0.011136
0.011896
0.012019
0.012106
0.012622
0.013061
0.013299
0.013588
0.015562
0.013579
0.013916
0.014578
0.014318
