Full Accuracy
96.615387
Accuracy - I
cat: testS_0.svm.acc: No such file or directory
52.769234
53.307693
53.615387
53.615387
53.615387
53.615387
53.615387
53.615387
53.615387
53.615387
55.538456
55.846153
57.230770
57.153847
57.153847
57.153851
57.153847
57.076923
57.076920
57.076923
59.153851
59.692307
60.538460
60.846157
60.846149
60.846149
60.846149
60.846149
60.846149
60.846157
63.692307
64.461533
64.538460
64.461533
64.461533
64.461533
64.461533
64.461533
64.461533
64.461533
67.076920
67.692307
67.769226
67.692307
67.846153
67.846153
67.846153
67.846153
67.846153
67.846153
70.307693
71.307693
71.461540
71.615387
71.615387
71.615387
71.615387
71.615387
71.615387
71.538460
73.846153
74.769226
74.769226
74.692307
74.846153
74.692307
75.000000
74.923080
75.000000
74.923073
76.923080
77.000000
77.769234
77.846153
77.923080
78.692307
78.692307
78.692307
78.692307
78.692307
79.384621
80.384621
81.153847
81.153847
81.153847
81.538460
81.846153
81.846153
81.923073
81.923073
84.153847
84.692307
84.923080
84.923080
85.000000
85.230766
85.307693
85.307693
85.538467
85.538467
88.153847
88.538460
88.769234
89.000000
89.153847
89.153847
89.153847
89.153847
89.153847
89.230766
89.384613
89.384613
89.384613
89.384613
89.615387
89.615387
89.538460
89.538460
89.692307
89.846153
92.615387
92.846153
93.153847
93.230774
93.076920
93.230774
93.230774
93.230774
93.230774
93.230774
96.000000
96.461540
96.538460
96.461540
96.615387
96.692307
96.615387
96.615387
96.615387
96.615387
