Full Accuracy
96.615387
Accuracy - I
cat: testS_0.svm.acc: No such file or directory
52.692307
53.230770
53.615387
53.615387
53.615387
53.615387
53.615387
53.538460
53.538460
53.538460
56.384617
56.692307
57.307690
57.307690
57.307690
57.307690
57.307690
57.307690
57.307690
57.307690
59.461540
59.769230
60.692310
61.000000
61.076920
61.076920
61.076920
61.076920
61.076920
61.076920
64.615387
64.923080
64.923080
64.923080
64.923080
64.923080
64.923080
64.923080
64.923080
64.923080
67.538467
68.076927
68.230766
68.230766
68.384613
68.384613
68.384613
68.384613
68.307693
68.307693
70.846161
71.769234
71.923080
72.076920
72.076920
72.076920
72.076920
72.076920
72.076920
72.076920
72.076920
72.000000
72.000000
72.000000
72.000000
72.000000
72.153847
72.153847
72.153847
72.076920
74.230774
74.153847
75.000000
75.000000
75.076927
75.846153
75.846153
75.846153
75.846153
75.846153
76.923080
77.538460
78.307693
78.538460
78.538460
78.846153
79.153847
79.153847
79.230766
79.230766
81.461540
82.000000
82.230774
82.230774
82.307693
82.538460
82.615387
82.615379
82.846153
82.846153
85.538467
85.846153
86.076920
86.384613
86.615387
86.615387
86.615387
86.615387
86.615387
86.615387
87.230774
88.692307
88.846153
89.153847
89.230766
89.153847
89.230766
89.307693
89.461533
89.769234
92.538467
92.769226
93.076920
93.153847
93.000000
93.153847
93.153847
93.153847
93.153847
93.153847
95.923080
96.384613
96.461540
96.461540
96.615387
96.692307
96.615387
96.615387
96.615387
96.615387
