Full Time (seconds)
0.083930
Incremental Time - I
0.000170
0.000212
0.000205
0.000238
0.000258
0.000304
0.000328
0.000408
0.000411
0.000478
0.000503
0.000928
0.001023
0.001163
0.001410
0.001450
0.001015
0.001104
0.001778
0.002237
0.008459
0.008334
0.003811
0.003600
0.003872
0.004135
0.004147
0.004338
0.004675
0.009648
0.005317
0.006020
0.007170
0.021692
0.008870
0.006578
0.008361
0.007048
0.008072
0.006975
0.010192
0.008536
0.014331
0.016960
0.009181
0.014323
0.010488
0.011327
0.011523
0.011304
0.015450
0.017078
0.014503
0.015301
0.013667
0.015199
0.018264
0.015796
0.015793
0.009664
0.029614
0.019156
0.023267
0.027717
0.034778
0.019545
0.023959
0.019977
0.020496
0.020680
0.033694
0.022846
0.023245
0.025676
0.033683
0.036541
0.032529
0.025640
0.028837
0.028601
0.035973
0.029916
0.042543
0.041796
0.033621
0.032170
0.032846
0.067347
0.040465
0.036003
0.020650
0.048288
0.037929
0.040468
0.048571
0.039385
0.050201
0.066615
0.045657
0.040434
0.049520
0.073156
0.059856
0.052481
0.045329
0.045437
0.048152
0.053528
0.062361
0.055080
0.062615
0.030188
0.059825
0.051507
0.063403
0.064575
0.058916
0.068858
0.067080
0.063461
0.065313
0.052153
0.059548
0.065434
0.055186
0.054903
0.073927
0.086559
0.079687
0.090584
0.060049
0.043542
0.086913
0.068944
0.065963
0.069909
0.071166
0.065543
0.070258
0.080529
0.070091
Classification Time - C
0.023781
0.013693
0.021008
0.023091
0.015617
0.016231
0.016034
0.017171
0.019078
0.018051
0.018082
0.024992
0.029338
0.023315
0.028140
0.032208
0.010638
0.011832
0.024271
0.035235
0.033032
0.045517
0.045635
0.044247
0.037791
0.030900
0.043657
0.029966
0.037900
0.034718
0.029498
0.050058
0.038312
0.051122
0.037918
0.030727
0.035309
0.040390
0.037861
0.053344
0.034332
0.040739
0.032055
0.036034
0.033486
0.045585
0.038947
0.044828
0.046974
0.054539
0.041968
0.047019
0.044339
0.048766
0.038304
0.055104
0.050824
0.050182
0.049817
0.021972
0.043739
0.056626
0.042901
0.060268
0.063115
0.047022
0.062689
0.053613
0.046447
0.052236
0.063037
0.048497
0.054395
0.050760
0.064259
0.049374
0.052115
0.049871
0.050967
0.057288
0.051926
0.054117
0.063884
0.062115
0.071796
0.061871
0.063335
0.063711
0.058907
0.063231
0.032333
0.065662
0.071961
0.064019
0.092079
0.064464
0.065502
0.071361
0.065303
0.070712
0.067521
0.084544
0.072451
0.069037
0.088227
0.076118
0.099022
0.081284
0.075680
0.067956
0.069985
0.040338
0.092749
0.084513
0.085405
0.088711
0.086466
0.081913
0.078823
0.070664
0.094340
0.085267
0.104927
0.077609
0.101859
0.074542
0.085253
0.093346
0.090346
0.111925
0.083413
0.097216
0.101647
0.092845
0.097663
0.080864
0.101722
0.095372
0.081320
0.094709
0.085931
