Full Time (seconds)
0.090768
Incremental Time - I
0.000233
0.000156
0.000178
0.000310
0.000267
0.000296
0.000400
0.000353
0.000327
0.000366
0.000423
0.000754
0.001495
0.001273
0.001200
0.001097
0.001204
0.001229
0.001244
0.001316
0.001499
0.005314
0.002426
0.002601
0.002905
0.002997
0.003168
0.003345
0.003740
0.002461
0.004119
0.004195
0.007333
0.004206
0.004959
0.004294
0.004323
0.002811
0.004499
0.004472
0.004601
0.009443
0.007792
0.006325
0.006608
0.007713
0.007921
0.006685
0.008730
0.009883
0.007353
0.009089
0.011730
0.010601
0.010358
0.012481
0.011147
0.014095
0.022945
0.023201
0.014588
0.024176
0.022391
0.016430
0.016762
0.018921
0.019092
0.009518
0.024675
0.018569
0.025691
0.023186
0.020877
0.034563
0.025342
0.030632
0.022499
0.027102
0.021343
0.023930
0.013354
0.025272
0.046730
0.038242
0.031881
0.036306
0.030571
0.034854
0.036254
0.035640
0.035330
0.034612
0.032124
0.036250
0.045690
0.041544
0.034252
0.043443
0.042310
0.034843
0.035201
0.051679
0.041571
0.053100
0.023268
0.046161
0.047637
0.040303
0.040664
0.043897
0.041548
0.050748
0.046043
0.046785
0.049925
0.056225
0.053530
0.029729
0.054725
0.055357
0.077635
0.063368
0.032772
0.054695
0.069258
0.054262
0.055025
0.063854
0.065510
0.057041
0.064933
0.065387
0.059572
0.059848
0.073493
0.061348
0.037212
0.070564
0.074279
0.079435
0.065983
Classification Time - C
0.038948
0.018890
0.025912
0.018474
0.015430
0.021967
0.031895
0.020074
0.015615
0.016851
0.018407
0.021735
0.021638
0.019444
0.021979
0.024450
0.031787
0.033995
0.034146
0.019704
0.032282
0.024321
0.042602
0.026164
0.028328
0.035484
0.048342
0.025211
0.030727
0.017523
0.045436
0.034926
0.034498
0.033224
0.070868
0.040212
0.028139
0.014128
0.042826
0.030060
0.033632
0.038520
0.043394
0.035470
0.038707
0.036910
0.032450
0.032555
0.036315
0.043419
0.037533
0.046063
0.033973
0.033889
0.042856
0.053605
0.042639
0.041611
0.046636
0.040809
0.044505
0.059093
0.043783
0.058442
0.049121
0.050421
0.023822
0.023532
0.081165
0.054416
0.053685
0.053209
0.059856
0.054988
0.054375
0.059533
0.045010
0.045319
0.051225
0.049336
0.025830
0.068134
0.049691
0.059328
0.058249
0.060764
0.062464
0.055853
0.059869
0.054292
0.061630
0.090633
0.057511
0.060842
0.072232
0.071938
0.032665
0.096227
0.069194
0.060199
0.076334
0.067956
0.071377
0.078398
0.062975
0.073844
0.070509
0.067773
0.076784
0.074020
0.073342
0.106844
0.076413
0.076014
0.067594
0.085623
0.075460
0.071890
0.069485
0.070220
0.091076
0.084551
0.108406
0.086045
0.092563
0.080685
0.086956
0.097639
0.076793
0.100528
0.087468
0.087835
0.090649
0.081231
0.087632
0.094229
0.096374
0.102532
0.110871
0.103750
0.082198
