Full Time (seconds)
0.471693
Time - I
0.014545
0.037683
0.059829
0.095566
0.120393
0.143388
0.148308
0.193032
0.198909
0.223004
0.243490
0.262752
0.321094
0.300772
0.324080
0.357615
0.375124
0.343727
0.411308
0.388894
0.455874
