Full Time (seconds)
0.193718
Incremental Time - I
0.000120
0.000154
0.000205
0.000286
0.000526
0.000625
0.000803
0.001183
0.001338
0.001624
0.002143
0.002216
0.002629
0.002731
0.002923
0.003118
0.003830
0.004098
0.004487
0.005059
0.005384
0.005968
0.006666
0.007162
0.007621
0.008425
0.008993
0.009710
0.010927
0.011542
0.012309
0.013621
0.015254
0.014703
0.016201
0.016799
0.017648
0.019248
0.019978
0.021090
0.022790
0.023590
0.024485
0.026468
0.027264
0.028557
0.030536
0.031180
0.031876
0.033894
0.037265
0.038596
0.038266
0.039346
0.041060
0.043324
0.044150
0.045139
0.047723
0.049336
0.050622
0.053824
0.054272
0.056481
0.059069
0.064726
0.066595
0.066843
0.071028
0.068239
0.071309
0.072703
0.073996
0.077027
0.078209
0.080109
0.083470
0.084759
0.092380
0.096304
0.091502
0.096794
0.096816
0.098200
0.099742
0.103874
0.105078
0.107777
0.111263
0.113417
0.114383
0.119519
0.120123
0.122202
0.126121
0.128615
0.131160
0.129496
0.136949
0.139921
0.138132
0.156142
0.154574
0.164301
0.154924
0.150458
0.164925
0.162404
0.167497
0.176231
0.172195
0.179296
0.179151
0.174379
0.178482
0.189542
0.191849
0.199238
0.201199
0.211411
0.210142
0.211579
0.214062
0.210727
0.214953
0.220214
0.243241
0.243381
0.237243
0.237924
0.243698
0.245198
0.250602
0.255682
0.257776
0.260520
0.268195
0.268414
0.271020
0.272870
0.275300
0.278853
0.279223
0.288103
0.290268
0.301339
0.297547
0.306736
0.313507
0.313715
0.311378
0.326363
0.328951
0.324708
0.326769
0.340994
0.342490
0.352976
0.336200
0.352704
0.367159
0.369996
0.375195
0.383944
0.369641
0.398506
0.380443
0.373919
0.406556
0.434293
0.416152
0.360245
0.427218
0.425518
0.433060
0.423070
0.417445
0.447079
0.448840
0.431304
0.463461
0.478215
0.483190
0.474244
0.449268
0.490741
0.490602
0.474487
0.458142
0.515735
0.511681
0.487211
0.527876
0.537031
0.521402
0.541475
0.561280
0.532502
0.349680
0.568086
0.534210
0.330292
0.306004
0.398987
0.410919
0.558737
0.412389
0.569778
0.535219
0.379047
0.396188
Classification Time - C
cat: testS_0.svm.time: No such file or directory
cat: test1II_0000.svm.time: No such file or directory
cat: test1II_0001.svm.time: No such file or directory
cat: test1II_0002.svm.time: No such file or directory
cat: test2II_0000.svm.time: No such file or directory
cat: test2II_0001.svm.time: No such file or directory
cat: test2II_0002.svm.time: No such file or directory
cat: test3II_0000.svm.time: No such file or directory
cat: test3II_0001.svm.time: No such file or directory
cat: test3II_0002.svm.time: No such file or directory
cat: test4II_0000.svm.time: No such file or directory
cat: test4II_0001.svm.time: No such file or directory
cat: test4II_0002.svm.time: No such file or directory
cat: test5II_0000.svm.time: No such file or directory
cat: test5II_0001.svm.time: No such file or directory
cat: test5II_0002.svm.time: No such file or directory
cat: test6II_0000.svm.time: No such file or directory
cat: test6II_0001.svm.time: No such file or directory
cat: test6II_0002.svm.time: No such file or directory
cat: test7II_0000.svm.time: No such file or directory
0.090128
0.088188
0.090320
0.091079
0.091117
0.092603
0.094371
cat: test9II_0002.svm.time: No such file or directory
cat: test10II_0000.svm.time: No such file or directory
cat: test10II_0001.svm.time: No such file or directory
cat: test10II_0002.svm.time: No such file or directory
0.106123
0.104213
0.105002
0.106604
0.108122
0.110048
0.111450
0.115565
0.115396
0.117116
0.119094
0.120762
0.122176
0.124041
0.125180
cat: test16II_0000.svm.time: No such file or directory
cat: test16II_0001.svm.time: No such file or directory
cat: test16II_0002.svm.time: No such file or directory
cat: test17II_0000.svm.time: No such file or directory
cat: test17II_0001.svm.time: No such file or directory
cat: test17II_0002.svm.time: No such file or directory
cat: test18II_0000.svm.time: No such file or directory
cat: test18II_0001.svm.time: No such file or directory
cat: test18II_0002.svm.time: No such file or directory
cat: test19II_0000.svm.time: No such file or directory
cat: test19II_0001.svm.time: No such file or directory
cat: test19II_0002.svm.time: No such file or directory
cat: test20II_0000.svm.time: No such file or directory
cat: test20II_0001.svm.time: No such file or directory
cat: test20II_0002.svm.time: No such file or directory
cat: test21II_0000.svm.time: No such file or directory
cat: test21II_0001.svm.time: No such file or directory
cat: test21II_0002.svm.time: No such file or directory
cat: test22II_0000.svm.time: No such file or directory
cat: test22II_0001.svm.time: No such file or directory
cat: test22II_0002.svm.time: No such file or directory
cat: test23II_0000.svm.time: No such file or directory
cat: test23II_0001.svm.time: No such file or directory
cat: test23II_0002.svm.time: No such file or directory
cat: test24II_0000.svm.time: No such file or directory
cat: test24II_0001.svm.time: No such file or directory
cat: test24II_0002.svm.time: No such file or directory
cat: test25II_0000.svm.time: No such file or directory
cat: test25II_0001.svm.time: No such file or directory
cat: test25II_0002.svm.time: No such file or directory
cat: test26II_0000.svm.time: No such file or directory
cat: test26II_0001.svm.time: No such file or directory
cat: test26II_0002.svm.time: No such file or directory
cat: test27II_0000.svm.time: No such file or directory
cat: test27II_0001.svm.time: No such file or directory
cat: test27II_0002.svm.time: No such file or directory
cat: test28II_0000.svm.time: No such file or directory
cat: test28II_0001.svm.time: No such file or directory
cat: test28II_0002.svm.time: No such file or directory
cat: test29II_0000.svm.time: No such file or directory
cat: test29II_0001.svm.time: No such file or directory
cat: test29II_0002.svm.time: No such file or directory
cat: test30II_0000.svm.time: No such file or directory
cat: test30II_0001.svm.time: No such file or directory
cat: test30II_0002.svm.time: No such file or directory
cat: test31II_0000.svm.time: No such file or directory
cat: test31II_0001.svm.time: No such file or directory
cat: test31II_0002.svm.time: No such file or directory
cat: test32II_0000.svm.time: No such file or directory
cat: test32II_0001.svm.time: No such file or directory
cat: test32II_0002.svm.time: No such file or directory
cat: test33II_0000.svm.time: No such file or directory
cat: test33II_0001.svm.time: No such file or directory
cat: test33II_0002.svm.time: No such file or directory
cat: test34II_0000.svm.time: No such file or directory
cat: test34II_0001.svm.time: No such file or directory
cat: test34II_0002.svm.time: No such file or directory
0.213744
0.217235
0.224616
0.224042
0.226896
0.232400
0.230115
0.233551
0.233133
0.235064
0.237373
0.239026
cat: test39II_0000.svm.time: No such file or directory
cat: test39II_0001.svm.time: No such file or directory
cat: test39II_0002.svm.time: No such file or directory
cat: test40II_0000.svm.time: No such file or directory
cat: test40II_0001.svm.time: No such file or directory
cat: test40II_0002.svm.time: No such file or directory
cat: test41II_0000.svm.time: No such file or directory
cat: test41II_0001.svm.time: No such file or directory
cat: test41II_0002.svm.time: No such file or directory
cat: test42II_0000.svm.time: No such file or directory
cat: test42II_0001.svm.time: No such file or directory
cat: test42II_0002.svm.time: No such file or directory
cat: test43II_0000.svm.time: No such file or directory
cat: test43II_0001.svm.time: No such file or directory
cat: test43II_0002.svm.time: No such file or directory
cat: test44II_0000.svm.time: No such file or directory
cat: test44II_0001.svm.time: No such file or directory
cat: test44II_0002.svm.time: No such file or directory
cat: test45II_0000.svm.time: No such file or directory
cat: test45II_0001.svm.time: No such file or directory
cat: test45II_0002.svm.time: No such file or directory
cat: test46II_0000.svm.time: No such file or directory
cat: test46II_0001.svm.time: No such file or directory
cat: test46II_0002.svm.time: No such file or directory
0.265829
0.294934
0.250042
0.299314
0.297858
0.254953
0.300130
0.309844
0.258848
0.276760
0.262610
0.313367
0.290880
0.268117
0.275810
0.278908
0.273592
0.296389
0.286415
0.332418
0.281438
0.333969
0.285210
0.292343
0.297629
0.346018
0.354990
0.287271
0.350703
0.307541
0.286885
0.201587
0.359838
0.357405
0.309855
0.365006
0.360295
0.285641
0.362723
0.366015
0.289719
0.369094
0.299310
0.299617
0.380382
0.287726
0.391315
0.371264
0.308167
0.309621
0.390385
0.314672
0.299786
0.359427
0.229216
0.229919
0.382448
0.347143
0.243555
0.251516
0.411483
0.227245
0.200892
0.186998
0.255165
0.417825
0.319074
0.431330
0.428993
0.227241
0.290761
0.238902
