Full Time (seconds)
0.002562
Time - I
0.000339
0.000363
0.000404
0.000423
0.000444
0.000460
0.000502
0.000514
0.000552
0.000583
0.000625
0.000675
0.000733
0.000810
0.000473
0.001019
0.000988
0.001238
0.001119
0.001184
0.001256
0.001374
0.001486
0.001631
0.001737
0.001899
0.001990
0.002140
0.002287
0.002428
0.002584
