Full Time (seconds)
0.002563
Time - I
0.000697
0.000907
0.000801
0.001171
0.001647
0.000957
0.001897
0.002005
0.002208
0.002262
0.001291
0.001330
0.001384
0.001445
0.001531
0.002005
0.001646
0.001708
0.001811
0.001834
0.001895
0.001945
0.002039
0.002108
0.002141
0.002209
0.002273
0.002331
0.002858
0.002474
0.002560
