Full Accuracy
80.035912
Accuracy - I
cat: testS_0.svm.acc: No such file or directory
50.000000
50.000000
50.000000
50.000000
50.000000
50.000000
50.000000
50.000000
50.000000
50.000000
52.856171
58.917522
63.604187
69.095673
71.645546
73.931847
74.629868
76.438995
79.337891
80.035912
