Full Time (seconds)
0.124910
Incremental Time - I
0.000283
0.007687
0.026589
0.053120
0.051945
0.051794
0.113828
0.133865
0.127794
0.157686
0.174088
0.162278
0.180206
0.201940
0.180118
0.193163
0.204555
0.203782
0.202901
0.196714
0.206015
Classification Time - C
0.012011
0.059486
0.062922
0.070208
0.074233
0.048431
0.100597
0.122364
0.099466
0.114871
0.104625
0.112457
0.118878
0.117138
0.105806
0.116506
0.116101
0.131788
0.103655
0.116455
0.127258
