Full Time (seconds)
0.000799
Incremental Time - I
0.000105
0.000073
0.000085
0.000094
0.000114
0.000101
0.000097
0.000099
0.000130
0.000136
0.000141
0.000145
0.000114
0.000127
0.000125
0.000120
0.000122
0.000148
0.000131
0.000139
0.000134
0.000385
0.000605
0.000767
0.003523
0.003297
0.003920
0.003760
0.007042
0.004701
0.004575
Classification Time - C
0.000392
0.000367
0.000367
0.000372
0.000405
0.000375
0.000360
0.000369
0.000373
0.000378
0.000377
0.000367
0.000349
0.000356
0.000349
0.000348
0.000345
0.000359
0.000361
0.000352
0.000341
0.000496
0.000481
0.000505
0.000670
0.000712
0.000720
0.000753
0.000804
0.000832
0.000786
