Full Time (seconds)
0.005641
Incremental Time - I
0.001317
0.000061
0.000067
0.000073
0.000077
0.000091
0.000094
0.000092
0.000102
0.000102
0.000101
0.000071
0.000074
0.000071
0.000071
0.000098
0.000085
0.000087
0.000092
0.000125
0.000097
0.000233
0.000265
0.000267
0.001737
0.001658
0.001715
0.001744
0.001764
0.001740
0.001789
Classification Time - I
0.000727
0.000810
0.000891
0.000980
0.001090
0.001261
0.001295
0.001419
0.001623
0.001655
0.001698
0.001939
0.001777
0.001808
0.002138
0.002031
0.002015
0.002240
0.002160
0.002227
0.002506
0.002861
0.002940
0.003201
0.003410
0.003663
0.004004
0.004176
0.004544
0.004721
