Full Time (seconds)
0.260849
Incremental Time - I
0.000063
0.000099
0.000118
0.000186
0.000371
0.000361
0.000513
0.000497
0.000551
0.000822
0.000840
0.000916
0.000774
0.001375
0.001582
0.001791
0.002142
0.002312
0.002450
0.003390
0.003576
0.003925
0.004144
0.004170
0.004448
0.005047
0.005513
0.006218
0.006519
0.011333
0.007744
0.008168
0.011086
0.011063
0.010530
0.010757
0.010622
0.024275
0.012162
0.012950
0.014037
0.014111
0.015689
0.022729
0.024778
0.017658
0.018151
0.019718
0.019764
0.029314
0.032791
0.026620
0.026174
0.024388
0.024178
0.039500
0.037267
0.066782
0.056480
0.052011
0.039136
0.041918
0.042194
0.037912
0.036893
0.036738
0.038258
0.043813
0.041039
0.030891
0.064698
0.044042
0.045285
0.047202
0.047885
0.054170
0.056492
0.058341
0.066376
0.068952
0.060851
0.057597
0.066021
0.067667
0.101067
0.061549
0.104175
0.091830
0.095577
0.098396
0.101636
0.069621
0.071166
0.115505
0.084642
0.077127
0.115307
0.080495
0.085886
0.135242
0.095543
0.124385
0.130142
0.107463
0.146277
0.055804
0.109735
0.100534
0.135991
0.142149
0.121958
0.105740
0.140170
0.167149
0.111277
0.144905
0.117548
0.129183
0.081135
0.148739
0.137853
0.265025
0.195385
0.153402
0.322500
0.148478
0.135639
0.235372
0.291242
0.208240
0.144397
0.164526
0.245907
0.386448
0.226502
0.191773
0.214633
0.104650
0.191252
0.221314
0.180551
0.194449
0.469115
0.226077
0.176415
0.218764
0.316803
0.192770
0.247982
0.217774
0.157644
0.153337
0.174378
0.243250
0.214967
0.277572
0.252705
0.205230
0.184707
0.218113
0.184811
0.263398
0.218162
0.213487
0.204936
0.334052
0.237850
0.279356
0.241452
0.285657
0.304582
0.329323
0.292062
0.345263
0.259360
0.288281
0.268136
0.288182
0.336803
0.227279
0.294652
0.175810
0.311036
0.298797
0.304274
0.374567
0.416701
0.345982
0.282369
0.324411
0.298930
0.329834
0.315918
0.425530
0.347423
0.360142
0.342357
0.361532
0.351312
0.601149
0.445648
0.348500
0.351066
0.354868
0.378834
0.334534
0.418775
0.377410
0.511516
0.643577
0.424505
Classification Time - C
0.044248
0.038124
0.032832
0.030853
0.065239
0.046425
0.038089
0.045290
0.049269
0.055913
0.049362
0.031121
0.031696
0.032684
0.059286
0.048526
0.062510
0.067873
0.073105
0.066733
0.064933
0.051909
0.058977
0.060572
0.040081
0.101248
0.113572
0.086429
0.070943
0.064149
0.061719
0.070061
0.061888
0.062734
0.076370
0.089118
0.098653
0.124540
0.091450
0.103512
0.120479
0.099636
0.086242
0.078444
0.081453
0.093155
0.080420
0.059444
0.126045
0.102713
0.090640
0.104978
0.084928
0.104195
0.046523
0.109667
0.088542
0.113894
0.091291
0.115432
0.090803
0.092219
0.106954
0.096553
0.128716
0.104068
0.103625
0.105916
0.078294
0.092436
0.150823
0.169277
0.109967
0.107769
0.110489
0.175013
0.109592
0.110978
0.152577
0.161220
0.115328
0.119221
0.138631
0.117774
0.190121
0.189262
0.183563
0.183088
0.184201
0.122549
0.127405
0.128866
0.123626
0.130444
0.134538
0.134466
0.207865
0.135627
0.162437
0.139494
0.138529
0.147395
0.158483
0.167708
0.149291
0.158102
0.159279
0.220981
0.199084
0.200021
0.157708
0.153163
0.168497
0.155472
0.089172
0.204512
0.187676
0.157401
0.096911
0.280683
0.162797
0.219871
0.203524
0.466740
0.277385
0.260432
0.299306
0.414045
0.381833
0.264177
0.239059
0.179421
0.164053
0.229775
0.182956
0.195580
0.193588
0.197792
0.263178
0.333803
0.193846
0.192880
0.242745
0.180693
0.146030
0.286040
0.197457
0.198020
0.213154
0.175646
0.209847
0.145338
0.180134
0.194308
0.187299
0.246201
0.242094
0.181676
0.286050
0.157919
0.203923
0.115255
0.219542
0.206581
0.282432
0.286906
0.218925
0.196145
0.144694
0.120341
0.249462
0.236099
0.229399
0.229528
0.232545
0.224404
0.243196
0.271908
0.240483
0.247981
0.170492
0.150373
0.251678
0.284496
0.296864
0.130167
0.239953
0.274300
0.348379
0.254456
0.253412
0.289331
0.256864
0.219324
0.255979
0.181906
0.280486
0.241439
0.278225
0.325023
0.267978
0.286199
0.267816
0.244635
0.284898
0.144293
0.286077
0.281734
0.285016
0.252151
0.287698
