Full Time (seconds)
0.364689
Incremental Time - I
0.000063
0.000090
0.000115
0.000158
0.000164
0.000212
0.000157
0.000355
0.000527
0.000500
0.000848
0.000972
0.001125
0.001344
0.001564
0.001734
0.002147
0.002358
0.002422
0.002912
0.003191
0.003475
0.003325
0.008131
0.005043
0.005281
0.004766
0.005873
0.003735
0.007350
0.007589
0.009133
0.006897
0.009068
0.010566
0.011640
0.010112
0.009440
0.010459
0.013182
0.013465
0.014548
0.015115
0.008980
0.024585
0.016885
0.018239
0.019295
0.019554
0.020719
0.022562
0.021951
0.054288
0.026551
0.027618
0.026484
0.026832
0.028391
0.032540
0.033939
0.038335
0.039645
0.036485
0.033280
0.034883
0.047887
0.040622
0.039952
0.054217
0.046057
0.050738
0.087161
0.045477
0.051672
0.037675
0.053699
0.057276
0.060675
0.054074
0.053623
0.066191
0.092383
0.092734
0.059147
0.065751
0.063056
0.063100
0.064600
0.074555
0.067071
0.070629
0.071726
0.081503
0.078014
0.093364
0.098337
0.082764
0.084708
0.082236
0.084075
0.085929
0.112030
0.115603
0.109794
0.091777
0.116126
0.105548
0.165526
0.194934
0.148985
0.113131
0.126500
0.128648
0.123589
0.153379
0.123616
0.138213
0.160231
0.122764
0.136428
0.161335
0.139732
0.184410
0.170248
0.180777
0.112812
0.148689
0.155300
0.186956
0.143408
0.172162
0.183807
0.150378
0.159428
0.167187
0.180821
0.177745
0.232443
0.200860
0.163365
0.179990
0.222944
0.250602
0.180622
0.176318
0.222688
0.299224
0.205366
0.187259
0.184703
0.211544
0.215242
0.336883
0.346785
0.204111
0.206718
0.210277
0.357708
0.216885
0.364584
0.318771
0.226106
0.260633
0.228374
0.229167
0.251163
0.266204
0.425681
0.357317
0.442698
0.459218
0.164816
0.264847
0.301403
0.295154
0.316374
0.208051
0.261707
0.183532
0.295707
0.277182
0.288369
0.285536
0.289849
0.291393
0.295851
0.299689
0.301292
0.318557
0.308464
0.184591
0.448161
0.343408
0.197710
0.352676
0.441333
0.399554
0.341268
0.412638
0.277595
0.390701
0.405462
0.452319
0.200170
0.440386
0.233866
0.360278
0.454727
0.382516
0.365692
0.527840
Classification Time - C
0.032913
0.066384
0.039746
0.044581
0.048884
0.022251
0.022865
0.033833
0.034067
0.035026
0.098245
0.072184
0.067457
0.055354
0.058722
0.047441
0.061570
0.054565
0.055803
0.079682
0.087546
0.064218
0.112156
0.042508
0.054939
0.077432
0.044400
0.069076
0.033154
0.063881
0.101186
0.082254
0.111451
0.065424
0.065499
0.066294
0.068472
0.058173
0.065310
0.069189
0.077526
0.073797
0.056435
0.058479
0.079974
0.113959
0.096449
0.130491
0.092016
0.088288
0.087045
0.062203
0.100609
0.089901
0.087942
0.108917
0.103607
0.135826
0.091810
0.135440
0.090299
0.102357
0.106546
0.116575
0.099440
0.140366
0.112796
0.102533
0.104325
0.125157
0.122719
0.145742
0.116849
0.127703
0.057805
0.149054
0.141926
0.115456
0.096600
0.162296
0.168144
0.129341
0.170258
0.125814
0.119610
0.157528
0.136259
0.121387
0.126947
0.136503
0.127724
0.135383
0.136919
0.140636
0.143285
0.186092
0.132098
0.075181
0.196678
0.212344
0.154080
0.188220
0.175781
0.158320
0.143165
0.171123
0.149125
0.237128
0.276447
0.195999
0.152124
0.154034
0.158429
0.150284
0.172255
0.167462
0.186521
0.165940
0.247352
0.240649
0.281142
0.188988
0.197379
0.240536
0.122211
0.175920
0.170957
0.245034
0.210064
0.198536
0.197660
0.214927
0.187213
0.209730
0.264259
0.192816
0.189930
0.191520
0.096958
0.189874
0.189584
0.145811
0.196428
0.190107
0.173207
0.107595
0.205885
0.221461
0.115581
0.327269
0.341663
0.217699
0.203842
0.333799
0.209331
0.212897
0.186679
0.216353
0.216652
0.330245
0.295525
0.216267
0.258641
0.225226
0.143355
0.212012
0.279527
0.373794
0.384042
0.328155
0.316860
0.248258
0.239454
0.324093
0.297823
0.296202
0.276726
0.259090
0.242305
0.267148
0.240054
0.240492
0.271891
0.240878
0.241565
0.198587
0.247898
0.249274
0.241127
0.249645
0.150445
0.270581
0.246527
0.134648
0.297407
0.275892
0.302426
0.205310
0.278875
0.411396
0.299584
0.271353
0.277856
0.306374
0.228771
0.145773
0.270524
0.327235
0.283382
0.282823
0.307817
