Full Time (seconds)
0.304723
Incremental Time - I
0.000181
0.000046
0.000051
0.000020
0.000349
0.000190
0.000578
0.000516
0.000465
0.000669
0.000938
0.000912
0.001043
0.001306
0.001526
0.001732
0.002142
0.002288
0.002503
0.001718
0.003182
0.003725
0.003984
0.004176
0.004452
0.006122
0.008948
0.007470
0.007948
0.007708
0.007767
0.014195
0.016525
0.009844
0.010155
0.010889
0.013955
0.011429
0.011866
0.012689
0.013642
0.015870
0.014643
0.021766
0.022025
0.017857
0.019186
0.037306
0.028965
0.011693
0.023133
0.027036
0.036947
0.029022
0.025454
0.014749
0.026349
0.031628
0.038687
0.033512
0.032197
0.032461
0.033103
0.035052
0.041916
0.039576
0.039804
0.039624
0.027272
0.083683
0.044140
0.084380
0.046859
0.027628
0.077332
0.074347
0.060306
0.065819
0.063186
0.058652
0.082007
0.068947
0.071249
0.065190
0.061567
0.067384
0.036837
0.097441
0.070966
0.071645
0.064473
0.104912
0.097753
0.085991
0.083710
0.109357
0.097060
0.084557
0.085878
0.127645
0.100093
0.049859
0.093755
0.092566
0.063376
0.097617
0.099103
0.157523
0.181448
0.134112
0.160312
0.143381
0.126919
0.127662
0.063878
0.133646
0.122752
0.066801
0.178450
0.162795
0.173353
0.149875
0.141205
0.162435
0.138026
0.136670
0.139373
0.142252
0.198839
0.166424
0.160560
0.154669
0.169161
0.088787
0.134777
0.217085
0.187185
0.367443
0.179928
0.189625
0.173431
0.174897
0.196459
0.176873
0.257323
0.270703
0.249207
0.276048
0.189698
0.183520
0.214460
0.198018
0.297771
0.209679
0.224834
0.263544
0.220843
0.242403
0.294306
0.272411
0.236565
0.253500
0.216824
0.231309
0.185766
0.320700
0.506433
0.246883
0.265358
0.261343
0.262618
0.256895
0.187557
0.225455
0.305786
0.214684
0.326474
0.226483
0.293159
0.292365
0.240532
0.395773
0.399850
0.314764
0.302367
0.277137
0.247034
0.253080
0.290003
0.312228
0.278143
0.321389
0.386197
0.285819
0.367046
0.525909
0.273073
0.309629
0.328196
0.323811
0.421049
0.411452
0.336641
0.372914
0.369492
0.419695
0.309276
0.401789
0.397878
0.470990
0.577639
Classification Time - C
0.104346
0.096035
0.088165
0.043870
0.080603
0.050658
0.050647
0.066124
0.071175
0.037451
0.063275
0.064403
0.086418
0.060142
0.086233
0.064596
0.067153
0.057066
0.028292
0.044087
0.074475
0.084660
0.071989
0.085013
0.081622
0.069005
0.091263
0.079596
0.071623
0.105973
0.092293
0.088051
0.106358
0.106969
0.092085
0.108845
0.068337
0.062263
0.118139
0.079345
0.086978
0.111469
0.073368
0.084859
0.103714
0.083614
0.085810
0.080775
0.096949
0.090067
0.157938
0.057375
0.119559
0.111350
0.094424
0.047653
0.110655
0.087610
0.099966
0.101158
0.125355
0.103503
0.078334
0.115170
0.105253
0.105867
0.108609
0.144607
0.098973
0.138214
0.116192
0.121525
0.110580
0.058753
0.138152
0.176893
0.139010
0.122522
0.151934
0.123227
0.116047
0.146510
0.135346
0.142332
0.125949
0.150734
0.127273
0.209359
0.173811
0.157357
0.193393
0.161864
0.193898
0.207402
0.174742
0.139889
0.176567
0.190609
0.137151
0.170613
0.191823
0.186059
0.161386
0.174446
0.096494
0.151237
0.177688
0.150690
0.216755
0.208452
0.171643
0.175543
0.173478
0.185349
0.160016
0.155712
0.183040
0.204946
0.168951
0.198086
0.207017
0.186258
0.246391
0.190399
0.252022
0.169922
0.112316
0.170219
0.211908
0.219902
0.187406
0.183760
0.225673
0.101386
0.143363
0.095361
0.263849
0.184566
0.268240
0.268980
0.308326
0.268026
0.207078
0.109682
0.353260
0.163206
0.226618
0.197241
0.203940
0.211161
0.258996
0.192481
0.301858
0.203141
0.190435
0.246788
0.167554
0.180867
0.252776
0.203981
0.217171
0.297429
0.231740
0.213744
0.196282
0.379721
0.339199
0.311519
0.162928
0.230084
0.243718
0.207897
0.200623
0.313680
0.236592
0.152961
0.179683
0.184731
0.191054
0.278814
0.290164
0.155691
0.306780
0.259337
0.260244
0.247103
0.291123
0.249477
0.253439
0.254390
0.178052
0.154093
0.317278
0.262632
0.235915
0.156438
0.243777
0.333297
0.261335
0.234698
0.271142
0.308971
0.285263
0.277890
0.237643
0.337755
0.322397
0.281715
0.291071
0.357598
0.338443
