Full Accuracy
67.243813
Accuracy - I
50.000000
72.904114
72.061478
71.853752
71.404747
69.160690
68.540825
68.512192
67.956398
67.514679
67.336533
67.336533
65.961838
67.507401
67.877769
67.592827
67.265175
67.720978
67.678261
67.243813
67.243813
