Full Time (seconds)
0.134649
Incremental Time - I
0.005855
0.000085
0.000100
0.000104
0.000116
0.000109
0.000130
0.000135
0.000137
0.000150
0.000157
0.000168
0.000181
0.000190
0.000207
0.000208
0.000212
0.000219
0.000225
0.000243
0.000247
0.000504
0.000449
0.000507
0.000453
0.000462
0.000456
0.000483
0.000482
0.000485
0.000485
0.000543
0.000518
0.000540
0.000521
0.000548
0.000544
0.000538
0.000547
0.000582
0.000567
0.000404
0.000384
0.000367
0.000380
0.000407
0.000433
0.000453
0.000437
0.000452
0.000490
0.000818
0.000829
0.000677
0.000642
0.000711
0.000717
0.000696
0.000705
0.000701
0.000747
0.000809
0.000783
0.000958
0.000760
0.000762
0.000769
0.000794
0.000815
0.000825
0.000794
0.000805
0.000861
0.000835
0.000801
0.001012
0.000831
0.000879
0.000839
0.000898
0.000888
0.000953
0.000947
0.000895
0.000925
0.000945
0.000950
0.000989
0.000949
0.000979
0.000967
0.001049
0.001076
0.001026
0.000861
0.000875
0.000858
0.000889
0.001063
0.001086
0.001110
0.001116
0.001115
0.001129
0.001086
0.001115
0.001142
0.001079
0.001152
0.001011
0.001147
0.001181
0.001559
0.001204
0.001555
0.000973
0.000989
0.000887
0.001292
0.001266
0.001190
0.001266
0.001282
0.001293
0.001290
0.001304
0.001315
0.001395
0.001403
0.001369
0.001309
0.001367
0.001418
0.001519
0.001796
0.001409
0.001563
0.001434
0.001492
0.001440
0.001471
Classification Time - I
0.006396
0.006579
0.007511
0.007902
0.009394
0.010370
0.011391
0.012342
0.013454
0.014318
0.015332
0.016350
0.017378
0.018157
0.021138
0.019686
0.020525
0.021486
0.023371
0.023205
0.024206
0.025337
0.025939
0.027228
0.027953
0.028821
0.028990
0.030819
0.031596
0.032593
0.033910
0.034487
0.037834
0.036095
0.037459
0.038568
0.039735
0.040196
0.041146
0.042152
0.042453
0.042844
0.046022
0.046423
0.048292
0.047187
0.049692
0.049941
0.049952
0.050716
0.051506
0.048706
0.053622
0.050626
0.051884
0.052845
0.055364
0.054493
0.062428
0.060593
0.057125
0.062183
0.064262
0.064566
0.062645
0.064010
0.065849
0.069674
0.065026
0.065549
0.066834
0.067767
0.074899
0.073666
0.075221
0.076597
0.072304
0.072479
0.074192
0.077933
0.076459
0.077903
0.083876
0.079405
0.080199
0.080642
0.081490
0.084734
0.090271
0.091568
0.092847
0.086591
0.087870
0.072115
0.071432
0.074214
0.091372
0.086264
0.093185
0.094137
0.094803
0.097028
0.096372
0.097343
0.106789
0.099074
0.107225
0.097132
0.094086
0.112393
0.086721
0.112333
0.113961
0.089458
0.086101
0.086520
0.108806
0.109710
0.111129
0.091554
0.112615
0.113313
0.113141
0.108208
0.109601
0.110264
0.111375
0.111872
0.112994
0.113704
0.114494
0.125096
0.125975
0.127325
0.117722
0.128843
0.129611
0.130939
0.131227
0.132077
