Full Time (seconds)
0.141359
Incremental Time - I
0.004407
0.000086
0.000102
0.000099
0.000111
0.000119
0.000123
0.000130
0.000140
0.000146
0.000157
0.000168
0.000178
0.000193
0.000198
0.000209
0.000213
0.000204
0.000222
0.000239
0.000251
0.000459
0.000426
0.000443
0.000500
0.000480
0.000480
0.000514
0.000513
0.000483
0.000495
0.000510
0.000524
0.000521
0.000514
0.000533
0.000536
0.000530
0.000567
0.000578
0.000558
0.000632
0.000670
0.000626
0.000624
0.000643
0.000652
0.000652
0.000566
0.000541
0.000546
0.000805
0.000647
0.000719
0.000831
0.000770
0.000722
0.000764
0.000774
0.000732
0.000755
0.000435
0.000454
0.000469
0.000449
0.000442
0.000599
0.000551
0.000594
0.000540
0.000594
0.000836
0.000846
0.000848
0.000803
0.000864
0.000865
0.000848
0.001329
0.000880
0.000880
0.000999
0.000959
0.000888
0.000974
0.000860
0.000968
0.000948
0.001008
0.000967
0.001045
0.001011
0.000974
0.001014
0.001005
0.001021
0.001029
0.001045
0.000715
0.000707
0.000705
0.001221
0.001102
0.001163
0.001082
0.001129
0.001149
0.001110
0.000761
0.000794
0.000839
0.000894
0.000860
0.001591
0.001197
0.000983
0.000887
0.000884
0.001243
0.001211
0.000885
0.001240
0.001268
0.001213
0.001299
0.001249
0.001218
0.001186
0.001299
0.001280
0.001327
0.001256
0.001216
0.001201
0.001401
0.001378
0.001365
0.001377
0.001390
0.001416
0.001427
Classification Time - I
0.007061
0.007888
0.007679
0.008555
0.009533
0.010497
0.011476
0.012485
0.013427
0.014417
0.015644
0.016911
0.017340
0.018174
0.019042
0.020655
0.020674
0.021632
0.022430
0.022843
0.022616
0.023179
0.026055
0.027081
0.028034
0.028975
0.029920
0.031175
0.031682
0.032714
0.036245
0.037553
0.036944
0.038369
0.041351
0.038291
0.039255
0.040199
0.044705
0.042527
0.043033
0.042080
0.044912
0.047421
0.047509
0.047906
0.048791
0.041178
0.040880
0.043456
0.051766
0.050954
0.050549
0.055345
0.056291
0.057244
0.058344
0.059085
0.061687
0.061204
0.061433
0.061802
0.062579
0.058375
0.062762
0.063404
0.064182
0.064478
0.065098
0.065545
0.066618
0.067589
0.068390
0.069405
0.072741
0.059740
0.072180
0.073135
0.074024
0.074946
0.083116
0.077565
0.077847
0.078820
0.079616
0.083709
0.081418
0.085735
0.084106
0.085685
0.085540
0.073177
0.094380
0.070317
0.088924
0.090642
0.090771
0.060916
0.058455
0.062292
0.094455
0.066200
0.097138
0.065092
0.098283
0.069711
0.066598
0.067297
0.076123
0.072510
0.073197
0.111976
0.112156
0.114943
0.081973
0.076260
0.080017
0.118306
0.082594
0.111382
0.114586
0.113745
0.121418
0.115200
0.112246
0.107936
0.127126
0.119013
0.119856
0.120542
0.111071
0.109390
0.123128
0.124453
0.125213
0.126335
0.127570
0.127839
0.141138
0.141433
