Full Accuracy
76.577774
Accuracy - I
50.000000
57.000000
62.888889
68.622223
70.088890
71.888885
73.422226
74.599998
75.400002
76.777779
77.200005
76.622223
77.466667
77.177780
77.333328
77.155556
77.111115
77.111115
77.688889
77.288887
76.577774
