Full Time (seconds)
0.141655
Incremental Time - I
0.004076
0.000330
0.000575
0.000816
0.003078
0.003313
0.003540
0.003143
0.002497
0.002535
0.002712
0.005837
0.006632
0.007077
0.007693
0.007521
0.007895
0.008288
0.009976
0.010395
0.010684
Classification Time - I
0.010080
0.015216
0.020253
0.025493
0.030391
0.035241
0.034728
0.039117
0.043278
0.055821
0.063310
0.070548
0.078204
0.085499
0.096261
0.101235
0.112202
0.116817
0.124535
0.131761
