Full Time (seconds)
0.074756
Incremental Time - I
0.005885
0.000328
0.000574
0.000821
0.003046
0.003238
0.003516
0.003824
0.002604
0.003954
0.004483
0.006063
0.006587
0.006947
0.007528
0.008151
0.009793
0.004402
0.004171
0.004316
0.004593
Classification Time - I
0.010106
0.017123
0.021944
0.027320
0.030885
0.038466
0.023691
0.048174
0.050127
0.055244
0.062996
0.069689
0.077869
0.084777
0.092898
0.041978
0.045530
0.049643
0.054266
0.054568
