Full Time (seconds)
0.103543
Time - I
0.003907
0.004766
0.005428
0.004603
0.006944
0.009072
0.006036
0.009413
0.010137
0.010991
0.011692
0.012433
0.013163
0.013949
0.014699
0.015911
0.016294
0.017164
0.017978
0.018726
0.019262
0.019374
0.019659
0.019984
0.022540
0.020436
0.023710
0.021394
0.022349
0.022603
0.023068
0.024595
0.024651
0.025554
0.026211
0.026826
0.028029
0.028410
0.029313
0.029861
0.031571
0.032407
0.034086
0.033012
0.034233
0.035608
0.036044
0.036218
0.037668
0.038676
0.040080
0.038543
0.041186
0.040456
0.041178
0.041875
0.045150
0.044784
0.047943
0.046639
0.047978
0.046489
0.052074
0.047783
0.048306
0.053396
0.052264
0.052886
0.056666
0.054657
0.054676
0.056311
0.056623
0.055229
0.061788
0.060814
0.060313
0.061337
0.061578
0.061118
0.086547
0.061054
0.066099
0.062579
0.063659
0.065825
0.070712
0.065559
0.068591
0.069015
0.071179
0.071697
0.071306
0.073406
0.074177
0.074838
0.074327
0.074969
0.073728
0.074556
0.075287
0.078670
0.079432
0.078064
0.078296
0.079202
0.079779
0.081005
0.081815
0.083006
0.083085
0.084093
0.084358
0.087687
0.090910
0.091651
0.116759
0.088492
0.088783
0.089680
0.092665
0.090963
0.095035
0.096959
0.097740
0.104055
0.098059
0.097468
0.096377
0.104904
0.098570
0.098854
0.109379
0.100360
0.112300
0.111610
0.113371
0.103075
0.103894
0.108981
0.109460
