Full Time (seconds)
0.102639
Time - I
0.003949
0.004678
0.005419
0.006197
0.006934
0.007808
0.008436
0.009214
0.009961
0.010722
0.011470
0.011781
0.012290
0.012364
0.012668
0.012925
0.013440
0.012884
0.013258
0.013908
0.014045
0.014963
0.015829
0.017458
0.018227
0.019204
0.019714
0.020701
0.021284
0.022412
0.022718
0.024425
0.025035
0.025745
0.026169
0.026886
0.030020
0.028867
0.029268
0.030426
0.030453
0.031096
0.031791
0.033200
0.033589
0.032728
0.032533
0.033006
0.037727
0.036973
0.037948
0.038620
0.039261
0.039903
0.041229
0.041493
0.042406
0.044618
0.043841
0.045326
0.046701
0.046077
0.046920
0.051168
0.048763
0.049379
0.051356
0.054625
0.052913
0.051944
0.052831
0.053520
0.054387
0.059582
0.058946
0.060003
0.059501
0.058040
0.059250
0.059499
0.060477
0.095273
0.062184
0.062549
0.069583
0.064723
0.064839
0.067638
0.067102
0.067278
0.075569
0.068584
0.070537
0.072305
0.070778
0.078988
0.076971
0.082796
0.071826
0.068714
0.075340
0.077750
0.076842
0.077528
0.080866
0.079219
0.079999
0.075742
0.075046
0.078480
0.092261
0.093065
0.087771
0.085118
0.086310
0.086508
0.087873
0.099204
0.089172
0.100946
0.082154
0.078027
0.081000
0.092516
0.093309
0.086008
0.081373
0.086648
0.082531
0.109806
0.110956
0.111141
0.110299
0.113074
0.101339
0.111380
0.102293
0.103961
0.118230
0.099986
0.097112
