Full Accuracy
73.846413
Accuracy - I
50.000000
50.000000
50.000000
50.698025
51.680981
53.903206
58.283581
58.611225
59.351967
62.728024
64.430367
64.800735
67.571472
68.248138
68.312210
69.337891
70.712578
71.624184
71.624184
72.713936
73.846413
