Full Time (seconds)
0.463686
Time - I
0.219453
0.228490
0.239812
0.279100
0.264656
0.278941
0.301055
0.313091
0.220347
0.235831
0.218327
0.232802
0.209242
0.421494
0.416665
0.379561
0.318747
0.301245
0.290444
0.441346
0.473931
