Full Time (seconds)
0.358066
Time - I
0.014591
0.038331
0.059584
0.082696
0.104292
0.127195
0.163072
0.171400
0.194242
0.223254
0.225384
0.227727
0.233481
0.249374
0.222278
0.393379
0.395882
0.392393
0.462407
0.441018
0.399015
