Full Time (seconds)
0.003176
Time - I
0.000943
0.000993
0.001697
0.001121
0.001183
0.001265
0.001319
0.001385
0.001492
0.001539
0.001888
0.001741
0.001710
0.001792
0.001862
0.001941
0.001985
0.002073
0.002134
0.002455
0.002254
0.002612
0.002416
0.003342
0.002653
0.002600
0.002678
0.002709
0.002802
0.002863
0.002949
