mean_accFULL,stdev_accFULL, mean_timeFULL, stdev_timeFULL
85.581192,0,0.002025,0
mean_accI,stdev_accI
50.0,0.0
50.0,0.0
50.0,0.0
50.0,0.0
50.0,0.0
50.0,0.0
66.513428,0.0
71.772415,0.0
71.772415,0.0
71.772415,0.0
71.299721,0.0
84.485886,0.0
86.460571,0.0
86.047432,0.0
84.238518,0.0
85.581192,0.0
mean_timeI,stdev_timeI
0.000437,0.0
0.000416,0.0
0.0007,0.0
0.00048,0.0
0.000543,0.0
0.000916,0.0
0.000682,0.0
0.000806,0.0
0.001534,0.0
0.001003,0.0
0.001418,0.0
0.001369,0.0
0.002557,0.0
0.001726,0.0
0.002234,0.0
0.002112,0.0
