mean_accFULL,stdev_accFULL, mean_timeFULL, stdev_timeFULL
84.561043,0,0.007211,0
mean_accI,stdev_accI
50.0,0.0
50.0,0.0
50.0,0.0
50.0,0.0
50.0,0.0
50.0,0.0
71.772415,0.0
71.299721,0.0
71.299721,0.0
71.299721,0.0
71.299721,0.0
84.372543,0.0
84.557297,0.0
84.713623,0.0
84.529778,0.0
84.798309,0.0
mean_timeI,stdev_timeI
0.000813,0.0
9.9e-05,0.0
5.8e-05,0.0
6.8e-05,0.0
9.5e-05,0.0
8e-05,0.0
0.000125,0.0
0.000211,0.0
0.000244,0.0
0.000195,0.0
0.000281,0.0
0.000601,0.0
0.000574,0.0
0.000674,0.0
0.000725,0.0
0.001054,0.0
mean_timeC,stdev_timeC
0.000991,0.0
0.001042,0.0
0.001224,0.0
0.001522,0.0
0.001553,0.0
0.001945,0.0
0.002173,0.0
0.002633,0.0
0.002771,0.0
0.003168,0.0
0.003835,0.0
0.004208,0.0
0.005283,0.0
0.005349,0.0
0.006328,0.0
