Full Time (seconds)
0.005662
Incremental Time - I
0.002386
0.000086
0.000090
0.000094
0.000094
0.000106
0.000129
0.000114
0.000117
0.000110
0.000122
0.000119
0.000136
0.000148
0.000162
0.000138
0.000158
0.000431
0.000313
0.000302
0.000309
0.000462
0.000327
0.000337
0.000312
0.000449
0.000359
0.000339
0.000359
0.000307
0.000415
Classification Time - I
0.001342
0.001422
0.001472
0.001563
0.001684
0.001786
0.001875
0.001988
0.002101
0.002225
0.002018
0.002120
0.002568
0.002658
0.002804
0.002967
0.003073
0.003187
0.003296
0.003414
0.003569
0.003655
0.003823
0.003933
0.005053
0.004140
0.004289
0.004489
0.004561
0.004694
