Full Time (seconds)
0.458410
Time - I
0.016464
0.061835
0.106107
0.149440
0.196874
0.261025
0.281819
0.322650
0.371529
0.410495
0.455095
0.453173
0.458904
0.454164
0.454169
0.461932
0.485888
0.448140
0.457110
0.465103
0.421746
