Full Time (seconds)
0.032823
Incremental Time - I
0.011411
0.000368
0.000478
0.001578
0.001628
0.001740
0.001822
0.001946
0.002077
0.002123
0.002227
0.001366
0.001339
0.001362
0.001304
0.001348
0.001384
0.001409
0.001468
0.001405
0.001409
0.001820
0.001852
0.001790
0.001904
0.001962
0.002051
0.002068
0.002139
0.002133
0.002213
Classification Time - I
0.004924
0.006202
0.007473
0.009006
0.010505
0.012191
0.013820
0.015460
0.016430
0.018547
0.018857
0.019221
0.019820
0.019650
0.020346
0.020747
0.021169
0.020982
0.021116
0.021536
0.022348
0.023190
0.023674
0.024568
0.026243
0.026135
0.027271
0.028149
0.028489
0.028988
