Full Accuracy
79.533333
Accuracy - I
cat: testS_0.svm.acc: No such file or directory
50.000000
50.000000
50.000000
50.000000
50.000000
50.000000
50.000000
63.800003
68.511108
71.422226
73.355553
75.755554
76.244446
76.977776
77.222221
77.622223
78.177780
79.022224
79.244446
79.533333
