Full Time (seconds)
0.770863
Time - I
0.255346
0.288752
0.319008
0.346722
0.387596
0.382494
0.430309
0.458995
0.520494
0.550238
0.501491
0.459737
0.448212
0.459355
0.653453
0.724477
0.631067
0.584668
0.664247
0.817364
0.572299
