Full Time (seconds)
0.001479
Incremental Time - I
0.000993
0.000352
0.000696
0.001198
0.001493
0.001546
0.001612
0.002706
0.003028
0.003135
0.002481
0.008683
0.003990
0.004755
0.005462
0.008804
0.005956
0.007734
0.007107
0.008946
0.011106
Classification Time - C
0.000718
0.000738
0.000814
0.000828
0.001031
0.000857
0.000912
0.000893
0.000941
0.001197
0.001626
0.001073
0.001101
0.001811
0.001943
0.001165
0.001216
0.001444
0.001447
0.001348
