Full Time (seconds)
0.106931
Time - I
0.004421
0.009402
0.013752
0.017771
0.021906
0.026050
0.030639
0.034941
0.038365
0.043315
0.049124
0.052680
0.058577
0.064698
0.073001
0.076638
0.078085
0.078720
0.095678
0.101778
0.107834
