Full Time (seconds)
0.107555
Time - I
0.004503
0.006076
0.009053
0.017719
0.021964
0.025939
0.030080
0.034935
0.038261
0.024166
0.026559
0.029951
0.033448
0.064734
0.071424
0.076676
0.083016
0.089793
0.095740
0.101390
0.107456
