Full Accuracy
96.6154
Accuracy - I
cat: testS_0.svm.acc: No such file or directory
73.6923
81.0769
84.5385
86.5385
89.1538
90.7692
91.2308
91.6923
91.8462
92.9231
93.6154
94.2308
94.6923
95.0769
95.7692
95.9231
96.3846
96.5385
96.8462
96.7692
