Full Time (seconds)
0.124781
Incremental Time - I
cat: testS_0.svm.time: No such file or directory
0.003201
0.005587
0.008561
0.012379
0.016599
0.021139
0.025393
0.029313
0.033445
0.038973
0.044427
0.053462
0.059418
0.065877
0.073854
0.081662
0.087583
0.099304
0.108381
0.114410
Classification Time - C
0.033754
0.037531
0.042146
0.048220
0.053317
0.059285
0.063588
0.069256
0.072987
0.077840
0.083009
0.090143
0.095716
0.101665
0.106457
0.113018
0.117181
0.125271
0.127667
0.133459
