Full Time (seconds)
0.133468
Incremental Time - I
cat: testS_0.svm.time: No such file or directory
0.003592
0.006069
0.009342
0.013083
0.017106
0.021880
0.025581
0.029638
0.033537
0.038883
0.045449
0.052070
0.057558
0.067481
0.075601
0.079981
0.088629
0.095772
0.108015
0.114859
Classification Time - C
0.030704
0.037520
0.042220
0.047122
0.052342
0.059416
0.063422
0.067687
0.073205
0.078025
0.082821
0.089994
0.094517
0.102243
0.106542
0.112866
0.116302
0.123946
0.128346
0.131371
