Full Time (seconds)
0.142782
Incremental Time - I
0.006968
0.000058
0.000056
0.000056
0.000060
0.000061
0.000028
0.000029
0.000032
0.000033
0.000088
0.000129
0.000138
0.000146
0.000154
0.000170
0.000177
0.000192
0.000192
0.000206
0.000222
0.000211
0.000224
0.000238
0.000245
0.000248
0.000931
0.000590
0.000543
0.000550
0.000555
0.000560
0.000572
0.000599
0.000609
0.000592
0.000602
0.000622
0.000629
0.000914
0.000876
0.000972
0.000785
0.000711
0.000714
0.001018
0.001070
0.000824
0.000740
0.000742
0.000756
0.001527
0.001105
0.000887
0.000802
0.001142
0.001046
0.001160
0.000944
0.000857
0.000859
0.001228
0.001156
0.000945
0.000885
0.001274
0.001048
0.000928
0.000934
0.001251
0.001201
0.001071
0.001259
0.001274
0.001064
0.001033
0.001018
0.001037
0.001294
0.001273
0.001291
0.001171
0.001050
0.001075
0.001424
0.001211
0.001133
0.001117
0.001112
0.001128
0.001391
0.001438
0.001452
0.001280
0.001254
0.001266
0.001470
0.001479
0.001380
0.001259
0.001198
0.001265
0.001565
0.001532
0.001408
0.001247
0.001255
0.001287
0.001253
0.001310
0.001631
0.001432
0.001586
0.001456
0.001401
0.001373
0.001615
0.001721
0.001528
0.001746
0.001510
0.001440
0.001482
0.001663
0.001467
0.001755
0.001491
0.001510
0.001485
0.001447
0.001778
0.001854
0.001632
0.001503
0.001576
0.001551
0.001772
0.001813
0.001676
0.001609
0.001559
Classification Time - I
0.005295
0.005650
0.006021
0.002138
0.002266
0.002460
0.002643
0.002841
0.003037
0.009723
0.010636
0.011759
0.012578
0.013638
0.014433
0.015292
0.016157
0.017597
0.018014
0.018956
0.019972
0.020778
0.022018
0.022623
0.023624
0.025375
0.025607
0.026773
0.027414
0.028637
0.029980
0.030139
0.031846
0.032102
0.033018
0.034249
0.036073
0.035858
0.037595
0.037778
0.039101
0.041104
0.040718
0.042110
0.043197
0.044147
0.044346
0.045539
0.046275
0.048883
0.048429
0.049188
0.050193
0.051139
0.052448
0.052949
0.053952
0.055623
0.057307
0.058686
0.057574
0.058553
0.061559
0.060514
0.061367
0.062282
0.063230
0.064618
0.065069
0.068341
0.067190
0.068262
0.068975
0.072346
0.071091
0.071974
0.072868
0.074389
0.074453
0.076355
0.076586
0.078107
0.078497
0.079548
0.080399
0.080956
0.082266
0.083684
0.084070
0.084938
0.085613
0.086769
0.087552
0.088973
0.089592
0.090199
0.091729
0.091989
0.093364
0.093689
0.098383
0.096704
0.096865
0.097666
0.098309
0.099280
0.100211
0.102178
0.102731
0.103086
0.103891
0.105690
0.105619
0.106408
0.107908
0.108098
0.109044
0.110483
0.111066
0.111920
0.113069
0.113510
0.116182
0.116014
0.116861
0.117512
0.118657
0.124094
0.120318
0.121809
0.121968
0.123133
0.124166
0.124681
0.125750
0.127376
0.127301
0.132377
0.129859
0.130263
