Full Time (seconds)
0.142324
Incremental Time - I
0.004744
0.000088
0.000103
0.000106
0.000114
0.000115
0.000127
0.000132
0.000138
0.000149
0.000156
0.000175
0.000178
0.000193
0.000213
0.000215
0.000220
0.000223
0.000228
0.000244
0.000252
0.000932
0.000738
0.000621
0.000590
0.000593
0.000618
0.000607
0.000834
0.000922
0.000927
0.000708
0.000681
0.000681
0.000685
0.000677
0.000684
0.000684
0.001002
0.000966
0.001109
0.001069
0.000994
0.000884
0.000838
0.000827
0.000794
0.000841
0.001091
0.001121
0.001123
0.001191
0.001194
0.001165
0.001029
0.000947
0.000945
0.000937
0.001224
0.001303
0.001272
0.001293
0.001290
0.001132
0.001004
0.000998
0.001001
0.001230
0.001352
0.001305
0.001371
0.001377
0.001164
0.001185
0.001157
0.001152
0.001319
0.001378
0.001377
0.001401
0.001285
0.000742
0.000737
0.000701
0.000975
0.001006
0.001191
0.000979
0.000844
0.000853
0.000899
0.001429
0.001540
0.001533
0.001358
0.001277
0.001278
0.001283
0.001281
0.001482
0.001594
0.001425
0.001339
0.001290
0.001303
0.001295
0.001523
0.001624
0.001395
0.001369
0.001356
0.001348
0.001361
0.001671
0.001461
0.001415
0.001401
0.001374
0.001717
0.001686
0.001670
0.001503
0.001412
0.001465
0.001673
0.001704
0.001573
0.001468
0.001445
0.001429
0.001684
0.001815
0.001657
0.001513
0.001510
0.001794
0.001890
0.001820
0.001787
0.001626
0.001616
Classification Time - I
0.005792
0.006655
0.007605
0.008570
0.009580
0.010540
0.011542
0.012474
0.013481
0.014457
0.015803
0.016450
0.017368
0.018658
0.019509
0.020430
0.020758
0.022320
0.022860
0.023533
0.025223
0.026157
0.027173
0.027411
0.029190
0.029758
0.030291
0.031249
0.032525
0.033332
0.035087
0.034915
0.037007
0.037957
0.038200
0.038766
0.041005
0.040731
0.041689
0.042605
0.043485
0.044902
0.046989
0.046358
0.047388
0.049681
0.050802
0.050161
0.051143
0.054022
0.053535
0.054042
0.054928
0.056029
0.059029
0.057675
0.058755
0.059749
0.060922
0.061598
0.062394
0.063458
0.064659
0.065277
0.068432
0.069350
0.067993
0.069043
0.070415
0.070848
0.071815
0.075229
0.073739
0.074647
0.075545
0.076851
0.078036
0.078368
0.079310
0.080490
0.080739
0.081202
0.084257
0.082241
0.082575
0.083986
0.083475
0.087090
0.084658
0.085077
0.086432
0.086965
0.088041
0.089264
0.089890
0.090944
0.091751
0.093000
0.093206
0.094158
0.095583
0.096814
0.096963
0.100577
0.098832
0.100238
0.100732
0.101791
0.104851
0.103525
0.107978
0.109648
0.106732
0.106920
0.107988
0.109359
0.113998
0.110401
0.111721
0.117120
0.112904
0.115531
0.118957
0.115734
0.117393
0.117833
0.123747
0.119892
0.124038
0.121502
0.122689
0.123129
0.128058
0.125245
0.125980
0.129409
0.128258
0.128682
0.129689
0.130882
