Full Time (seconds)
0.142101
Incremental Time - I
0.002358
0.000092
0.000098
0.000102
0.000108
0.000117
0.000126
0.000142
0.000142
0.000150
0.000163
0.000097
0.000093
0.000097
0.000096
0.000094
0.000128
0.000133
0.000139
0.000137
0.000137
0.000214
0.000234
0.000242
0.000248
0.000244
0.000901
0.000827
0.000858
0.000902
0.000825
0.000891
0.000863
0.000984
0.000604
0.000589
0.000638
0.000928
0.001019
0.001012
0.000901
0.000980
0.001051
0.001008
0.000937
0.000997
0.000947
0.000728
0.000772
0.001072
0.001069
0.001152
0.001047
0.001091
0.001095
0.001191
0.001017
0.000853
0.000842
0.001126
0.001164
0.001168
0.001241
0.001189
0.001167
0.000936
0.000901
0.001170
0.001272
0.001229
0.001230
0.001347
0.001354
0.001175
0.001107
0.001045
0.001328
0.001382
0.001351
0.001400
0.001242
0.001084
0.001070
0.001399
0.001435
0.001208
0.001099
0.001087
0.001111
0.001443
0.001486
0.001276
0.001140
0.001164
0.001204
0.001499
0.001563
0.001456
0.001358
0.001253
0.001211
0.001535
0.001551
0.001573
0.001364
0.001263
0.001277
0.001392
0.001649
0.001454
0.001286
0.001346
0.001636
0.001630
0.001716
0.001532
0.001365
0.001385
0.001629
0.001617
0.001673
0.001624
0.001449
0.001369
0.001639
0.001792
0.001528
0.001430
0.001708
0.001773
0.001608
0.001484
0.001509
0.001748
0.001828
0.001820
0.001704
0.001562
0.001603
0.001827
0.001866
Classification Time - I
0.005783
0.006768
0.007719
0.008691
0.009653
0.010673
0.011640
0.012587
0.013806
0.014632
0.014983
0.015371
0.016227
0.016192
0.016925
0.017107
0.017726
0.018295
0.018880
0.019423
0.021228
0.021273
0.022398
0.023796
0.024043
0.025051
0.026003
0.026974
0.027841
0.028950
0.030054
0.030698
0.031635
0.032969
0.033530
0.034485
0.035512
0.036426
0.037358
0.038639
0.039251
0.041047
0.041421
0.042326
0.043084
0.044005
0.046155
0.045972
0.046898
0.049616
0.048875
0.050269
0.051096
0.052033
0.054608
0.054296
0.055363
0.055600
0.056538
0.057378
0.058275
0.059931
0.060103
0.063396
0.062023
0.062974
0.064398
0.064844
0.066354
0.066908
0.067657
0.068549
0.070416
0.070482
0.071764
0.072316
0.073326
0.075142
0.076196
0.076122
0.077219
0.078183
0.079008
0.080316
0.081819
0.081630
0.085797
0.084163
0.084444
0.085313
0.090109
0.087513
0.088215
0.089132
0.090228
0.091003
0.092322
0.096541
0.094141
0.095010
0.095493
0.096615
0.097344
0.098285
0.099676
0.100021
0.101375
0.102120
0.102700
0.104323
0.104623
0.105493
0.107115
0.107941
0.108762
0.109624
0.109947
0.111180
0.111590
0.112717
0.113661
0.118151
0.115530
0.116357
0.117945
0.118408
0.119021
0.120788
0.121089
0.122298
0.123191
0.123747
0.128236
0.125603
0.126932
0.127962
0.128806
0.129102
0.130174
0.131571
