Full Accuracy
91.153847
Accuracy - I
50.000000
52.230770
53.000004
53.076923
52.923077
52.846153
52.846153
52.769234
52.538460
52.461540
52.461536
52.384613
53.230770
53.769238
54.307693
55.153847
55.615383
56.000000
56.153847
56.153847
56.153847
56.230770
57.076923
57.461540
58.076923
58.307690
58.461536
58.846153
59.230770
59.384613
59.461540
62.153847
63.153847
63.230770
63.230770
63.230770
63.230766
63.307697
63.307697
63.307697
63.307697
63.384617
64.692307
65.538460
65.846153
66.000000
66.000000
66.153847
66.461540
66.461540
66.384613
66.923073
68.615379
69.307693
69.692307
69.846153
69.923080
70.000000
70.000000
70.153847
70.230774
70.307693
72.076920
72.461540
73.000000
73.076920
73.230766
73.538467
73.461540
73.461540
73.461540
73.538467
73.846153
73.846153
73.846153
73.923073
74.307693
74.384613
74.461540
74.461540
74.461540
74.538460
74.769226
75.461540
75.538460
75.615387
75.692307
76.307693
76.384613
76.461533
76.615387
76.769234
77.153847
78.461540
78.923073
79.461540
79.461540
79.615387
79.692307
79.692307
79.538460
80.923073
81.461540
82.692307
82.923080
82.923080
82.923080
82.923080
82.923080
83.000000
83.076927
82.923080
83.461540
83.923080
84.461540
84.615387
84.846153
84.769234
85.000000
85.230766
85.307693
88.461533
88.461533
88.461533
88.461533
88.538460
88.461533
88.230774
88.230774
88.153847
88.153847
89.615387
90.307693
91.230766
91.307693
91.230766
91.153847
91.076920
91.153847
91.307693
91.153847
