Full Time (seconds)
0.109899
Time - I
0.004553
0.004867
0.005164
0.005541
0.005920
0.006301
0.006767
0.007190
0.007699
0.008183
0.008650
0.009372
0.010157
0.010925
0.011690
0.012410
0.013238
0.014105
0.014697
0.015685
0.016502
0.016935
0.018152
0.018958
0.019713
0.020543
0.020732
0.021493
0.022958
0.022929
0.023926
0.025070
0.025359
0.026179
0.027814
0.028747
0.029429
0.029439
0.031102
0.031399
0.032655
0.033426
0.033301
0.034161
0.035084
0.035480
0.036260
0.037141
0.037750
0.038520
0.039743
0.041291
0.040883
0.041849
0.042365
0.043356
0.044235
0.044673
0.046823
0.046335
0.048219
0.049049
0.049837
0.050290
0.049961
0.051686
0.051561
0.052734
0.053211
0.053748
0.054533
0.056867
0.055841
0.056661
0.057574
0.058186
0.059295
0.060595
0.061117
0.062008
0.062357
0.062660
0.065396
0.066227
0.065484
0.066292
0.066435
0.069324
0.068977
0.069238
0.071665
0.070168
0.071565
0.071901
0.075019
0.073318
0.074235
0.074888
0.076560
0.077382
0.077977
0.077783
0.078609
0.080594
0.080209
0.081063
0.082205
0.084244
0.083523
0.084094
0.084749
0.085598
0.086537
0.087211
0.087578
0.089614
0.089887
0.089817
0.091530
0.091918
0.092315
0.092881
0.095838
0.094813
0.096122
0.097068
0.097244
0.097634
0.098166
0.100076
0.100732
0.100546
0.102598
0.102118
0.103397
0.104381
0.110494
0.105549
0.107106
0.108340
0.107783
