Full Time (seconds)
0.099397
Time - I
0.004254
0.005775
0.005889
0.006742
0.007470
0.010763
0.009376
0.009832
0.010608
0.013148
0.012507
0.013127
0.013600
0.014364
0.015160
0.015786
0.016539
0.017674
0.018594
0.018853
0.019785
0.020910
0.021265
0.020665
0.022603
0.023382
0.024162
0.024255
0.026051
0.026415
0.028472
0.030344
0.028691
0.029544
0.030563
0.033893
0.032430
0.032590
0.033885
0.037095
0.034839
0.035638
0.039337
0.056341
0.057282
0.056881
0.040716
0.040823
0.041913
0.045091
0.042724
0.045472
0.047098
0.044678
0.045572
0.046224
0.046952
0.048206
0.053895
0.052528
0.050013
0.051908
0.051743
0.053145
0.054631
0.055430
0.056499
0.051000
0.051747
0.053754
0.062250
0.057717
0.058511
0.058376
0.059380
0.059090
0.059470
0.067604
0.065133
0.052622
0.053103
0.062447
0.062704
0.063492
0.064745
0.065339
0.062759
0.066901
0.067636
0.068570
0.069677
0.069940
0.070638
0.071646
0.078576
0.073186
0.076011
0.074416
0.074773
0.082572
0.076735
0.083367
0.080300
0.078830
0.079407
0.080274
0.081411
0.081881
0.085620
0.083194
0.089836
0.084534
0.091448
0.087071
0.087748
0.088550
0.092041
0.089656
0.089999
0.091697
0.092082
0.092693
0.093856
0.087877
0.090182
0.090708
0.095961
0.097736
0.098190
0.098136
0.098885
0.102077
0.102238
0.104827
0.103744
0.108468
0.103573
0.104278
0.106165
0.105800
0.106553
