Full Time (seconds)
0.105953
Time - I
0.004257
0.005144
0.005945
0.006749
0.007443
0.008681
0.009092
0.010194
0.010534
0.011290
0.012019
0.013282
0.013516
0.014309
0.015068
0.015860
0.016728
0.017281
0.018058
0.020979
0.020178
0.021050
0.021604
0.023038
0.023212
0.023590
0.024465
0.027855
0.025645
0.027926
0.032274
0.043378
0.029118
0.030397
0.030308
0.034852
0.033198
0.032464
0.033968
0.034284
0.034793
0.036267
0.037930
0.041044
0.038366
0.039215
0.039650
0.042181
0.041082
0.046460
0.042429
0.046044
0.044561
0.045571
0.050079
0.046169
0.047729
0.047717
0.048447
0.049628
0.052018
0.051184
0.056512
0.057192
0.053760
0.055716
0.054548
0.055303
0.058292
0.057412
0.059346
0.058492
0.061908
0.060107
0.065469
0.061370
0.066559
0.062748
0.063441
0.070263
0.065071
0.069686
0.065701
0.071184
0.066209
0.066524
0.072523
0.067465
0.070760
0.069821
0.068708
0.076551
0.071524
0.071187
0.072133
0.073831
0.073436
0.074537
0.081882
0.075999
0.079496
0.079757
0.078172
0.078699
0.079590
0.085019
0.080814
0.087639
0.082609
0.092760
0.084063
0.085305
0.085261
0.089815
0.090256
0.091789
0.088209
0.095667
0.089951
0.090575
0.097553
0.092020
0.093933
0.093889
0.094333
0.098675
0.097294
0.098708
0.101061
0.101452
0.101092
0.099564
0.100684
0.102190
0.102530
0.111975
0.108387
0.106136
0.105284
0.114702
0.106233
