Full Time (seconds)
0.092578
Time - I
0.004267
0.005047
0.005804
0.006687
0.007722
0.008150
0.009685
0.009651
0.010453
0.011973
0.012024
0.012690
0.013443
0.014494
0.015032
0.015908
0.016498
0.018734
0.018665
0.018715
0.020020
0.020206
0.021093
0.022496
0.022504
0.026283
0.023982
0.026592
0.029711
0.026402
0.027196
0.031144
0.028863
0.031047
0.030328
0.031038
0.032626
0.032439
0.033353
0.034976
0.035021
0.035511
0.037930
0.056134
0.039650
0.058374
0.043988
0.039947
0.041058
0.045498
0.042967
0.043272
0.046335
0.044898
0.047747
0.046447
0.046784
0.054529
0.052507
0.049068
0.051295
0.050142
0.050373
0.051057
0.051174
0.051295
0.051915
0.053984
0.055614
0.054760
0.054216
0.056478
0.059422
0.059402
0.056543
0.061010
0.060234
0.058832
0.062405
0.060485
0.065929
0.063091
0.062525
0.065938
0.064226
0.065286
0.065648
0.066398
0.068833
0.076008
0.069193
0.070763
0.072489
0.071077
0.072352
0.072362
0.069424
0.075523
0.074662
0.082098
0.076579
0.076913
0.080442
0.082555
0.079120
0.080708
0.080701
0.081869
0.082130
0.084779
0.083581
0.085033
0.093504
0.088744
0.086797
0.088135
0.092085
0.089427
0.089983
0.090417
0.091560
0.092853
0.092846
0.095196
0.095711
0.096799
0.095927
0.096770
0.103152
0.098237
0.098655
0.099814
0.111261
0.101588
0.111761
0.109138
0.101038
0.104042
0.109301
0.116297
0.106328
