Full Accuracy
94.000000
Accuracy - I
50.000000
53.076923
53.307693
53.615387
53.615387
53.615387
53.615387
53.615387
53.615387
53.615387
53.615387
55.384617
55.923080
57.230770
57.307690
57.384617
57.461536
57.461536
57.461536
57.461536
57.461536
59.384613
59.923077
60.538464
60.846157
61.076920
61.153847
61.153847
61.230766
61.307693
61.307693
65.000000
65.153847
65.153847
65.153847
65.076920
65.076927
65.076920
65.076920
65.076920
65.076920
67.846146
68.076927
68.384613
68.384613
68.461540
68.461540
68.538460
68.461540
68.461540
68.461540
70.461540
70.846161
71.153847
71.307693
71.384613
71.384613
71.384613
71.923080
71.923080
71.923080
74.615387
75.230774
75.153847
75.384613
75.384613
75.384613
75.384613
75.384613
75.384613
75.384613
77.076927
77.461540
78.307693
78.307693
78.384613
79.076920
79.153847
79.153847
79.153847
79.153847
79.769226
80.538467
81.076927
81.230766
81.153847
81.307693
81.307693
81.307693
81.538460
81.615379
83.461540
83.769234
84.461540
84.538460
84.769234
84.461540
84.615387
84.846153
85.000000
85.076920
87.692307
88.076927
88.000000
88.384613
88.615387
88.615387
88.692307
88.692307
88.692307
88.846153
90.000000
91.000000
91.230766
91.307693
91.307693
91.153847
91.230766
91.230766
91.230766
91.461540
94.615379
94.692307
94.923080
94.769226
94.769226
94.692307
94.615379
94.615379
94.615379
94.615379
94.615379
94.615379
94.692307
94.692307
94.692307
94.692307
94.692307
94.692307
94.692307
94.692307
