Full Time (seconds)
0.131136
Incremental Time - I
0.000299
0.000289
0.000336
0.000374
0.000406
0.000468
0.000457
0.000532
0.000583
0.000581
0.000592
0.001332
0.001531
0.001820
0.002010
0.002357
0.002601
0.002745
0.002516
0.002701
0.002878
0.004285
0.004939
0.005367
0.005732
0.006229
0.006610
0.006572
0.007491
0.007604
0.008063
0.009703
0.009698
0.010042
0.010036
0.010678
0.010581
0.010485
0.011101
0.010872
0.011316
0.013326
0.013525
0.014499
0.015152
0.014812
0.015143
0.018006
0.018214
0.016383
0.016926
0.020513
0.020695
0.022129
0.022526
0.024375
0.024339
0.025261
0.027141
0.027154
0.028610
0.031220
0.032799
0.032388
0.033658
0.034170
0.034988
0.033869
0.034479
0.035009
0.035523
0.038852
0.039584
0.043021
0.043703
0.044316
0.043102
0.045524
0.045347
0.045264
0.048157
0.050968
0.053909
0.052364
0.056014
0.055347
0.058547
0.064854
0.060375
0.058758
0.059608
0.063287
0.067614
0.065850
0.066986
0.067616
0.070620
0.068633
0.070581
0.069768
0.072969
0.073357
0.070580
0.072625
0.071408
0.071738
0.074708
0.072463
0.074503
0.076309
0.073199
0.078419
0.080406
0.082370
0.083844
0.084622
0.088550
0.085498
0.089479
0.090150
0.087987
0.092039
0.093630
0.094379
0.095543
0.096407
0.096732
0.098057
0.100995
0.098489
0.099874
0.118287
0.105321
0.119799
0.121545
0.122816
0.110119
0.111723
0.111106
0.112181
0.112858
Classification Time - C
cat: testS_0.svm.time: No such file or directory
cat: test1II_0000.svm.time: No such file or directory
cat: test1II_0001.svm.time: No such file or directory
cat: test1II_0002.svm.time: No such file or directory
cat: test1II_0003.svm.time: No such file or directory
cat: test1II_0004.svm.time: No such file or directory
cat: test1II_0005.svm.time: No such file or directory
cat: test1II_0006.svm.time: No such file or directory
cat: test1II_0007.svm.time: No such file or directory
cat: test1II_0008.svm.time: No such file or directory
cat: test1II_0009.svm.time: No such file or directory
cat: test2II_0000.svm.time: No such file or directory
cat: test2II_0001.svm.time: No such file or directory
cat: test2II_0002.svm.time: No such file or directory
cat: test2II_0003.svm.time: No such file or directory
cat: test2II_0004.svm.time: No such file or directory
cat: test2II_0005.svm.time: No such file or directory
cat: test2II_0006.svm.time: No such file or directory
cat: test2II_0007.svm.time: No such file or directory
cat: test2II_0008.svm.time: No such file or directory
cat: test2II_0009.svm.time: No such file or directory
cat: test3II_0000.svm.time: No such file or directory
cat: test3II_0001.svm.time: No such file or directory
cat: test3II_0002.svm.time: No such file or directory
cat: test3II_0003.svm.time: No such file or directory
cat: test3II_0004.svm.time: No such file or directory
cat: test3II_0005.svm.time: No such file or directory
cat: test3II_0006.svm.time: No such file or directory
cat: test3II_0007.svm.time: No such file or directory
cat: test3II_0008.svm.time: No such file or directory
cat: test3II_0009.svm.time: No such file or directory
cat: test4II_0000.svm.time: No such file or directory
cat: test4II_0001.svm.time: No such file or directory
cat: test4II_0002.svm.time: No such file or directory
cat: test4II_0003.svm.time: No such file or directory
cat: test4II_0004.svm.time: No such file or directory
cat: test4II_0005.svm.time: No such file or directory
cat: test4II_0006.svm.time: No such file or directory
cat: test4II_0007.svm.time: No such file or directory
cat: test4II_0008.svm.time: No such file or directory
cat: test4II_0009.svm.time: No such file or directory
cat: test5II_0000.svm.time: No such file or directory
cat: test5II_0001.svm.time: No such file or directory
cat: test5II_0002.svm.time: No such file or directory
cat: test5II_0003.svm.time: No such file or directory
cat: test5II_0004.svm.time: No such file or directory
cat: test5II_0005.svm.time: No such file or directory
cat: test5II_0006.svm.time: No such file or directory
cat: test5II_0007.svm.time: No such file or directory
cat: test5II_0008.svm.time: No such file or directory
cat: test5II_0009.svm.time: No such file or directory
cat: test6II_0000.svm.time: No such file or directory
cat: test6II_0001.svm.time: No such file or directory
cat: test6II_0002.svm.time: No such file or directory
cat: test6II_0003.svm.time: No such file or directory
cat: test6II_0004.svm.time: No such file or directory
cat: test6II_0005.svm.time: No such file or directory
cat: test6II_0006.svm.time: No such file or directory
cat: test6II_0007.svm.time: No such file or directory
cat: test6II_0008.svm.time: No such file or directory
cat: test6II_0009.svm.time: No such file or directory
cat: test7II_0000.svm.time: No such file or directory
cat: test7II_0001.svm.time: No such file or directory
cat: test7II_0002.svm.time: No such file or directory
cat: test7II_0003.svm.time: No such file or directory
cat: test7II_0004.svm.time: No such file or directory
cat: test7II_0005.svm.time: No such file or directory
cat: test7II_0006.svm.time: No such file or directory
cat: test7II_0007.svm.time: No such file or directory
cat: test7II_0008.svm.time: No such file or directory
cat: test7II_0009.svm.time: No such file or directory
cat: test8II_0000.svm.time: No such file or directory
cat: test8II_0001.svm.time: No such file or directory
cat: test8II_0002.svm.time: No such file or directory
cat: test8II_0003.svm.time: No such file or directory
cat: test8II_0004.svm.time: No such file or directory
cat: test8II_0005.svm.time: No such file or directory
cat: test8II_0006.svm.time: No such file or directory
cat: test8II_0007.svm.time: No such file or directory
cat: test8II_0008.svm.time: No such file or directory
cat: test8II_0009.svm.time: No such file or directory
cat: test9II_0000.svm.time: No such file or directory
cat: test9II_0001.svm.time: No such file or directory
cat: test9II_0002.svm.time: No such file or directory
cat: test9II_0003.svm.time: No such file or directory
cat: test9II_0004.svm.time: No such file or directory
cat: test9II_0005.svm.time: No such file or directory
cat: test9II_0006.svm.time: No such file or directory
cat: test9II_0007.svm.time: No such file or directory
cat: test9II_0008.svm.time: No such file or directory
cat: test9II_0009.svm.time: No such file or directory
0.110346
0.101249
0.111283
0.099486
0.100233
0.100379
0.101262
0.101148
0.101484
0.103219
0.102287
0.102433
0.102639
0.104163
0.104423
0.102709
0.103156
0.104650
0.102931
0.103736
0.106324
0.106560
0.109626
0.110649
0.110837
0.111897
0.127731
0.113452
0.115275
0.114635
0.118292
0.118393
0.119878
0.119957
0.121383
0.122230
0.123199
0.123072
0.123535
0.122948
0.127906
0.127418
0.128197
0.145685
0.131419
0.131782
0.132220
0.132641
0.132143
0.130952
