Full Time (seconds)
0.115697
Incremental Time - I
0.000274
0.000256
0.000284
0.000418
0.000475
0.000520
0.000570
0.000608
0.000579
0.000671
0.000705
0.001257
0.001420
0.001724
0.001763
0.002002
0.002113
0.002257
0.002311
0.002386
0.002641
0.004104
0.004465
0.004701
0.005152
0.005551
0.005858
0.006174
0.006775
0.007293
0.007689
0.007781
0.007839
0.007852
0.007641
0.008010
0.008042
0.008349
0.007978
0.007934
0.008520
0.010310
0.010392
0.011703
0.012197
0.011570
0.011984
0.012341
0.012883
0.013215
0.013615
0.016194
0.017526
0.017783
0.019077
0.019787
0.020531
0.020695
0.022121
0.022665
0.023938
0.026425
0.026641
0.026692
0.028181
0.027471
0.029193
0.028620
0.029018
0.030580
0.029899
0.032916
0.034840
0.035657
0.037582
0.036937
0.036916
0.038242
0.038197
0.038818
0.040365
0.045804
0.044917
0.045480
0.048758
0.050237
0.049331
0.050667
0.052801
0.053510
0.052010
0.055500
0.057214
0.057991
0.058495
0.061110
0.061645
0.060464
0.061034
0.061652
0.062421
0.067744
0.067940
0.069713
0.070422
0.070411
0.071807
0.072037
0.072246
0.073616
0.073946
0.080104
0.081682
0.082905
0.084366
0.086465
0.086296
0.086273
0.086892
0.088259
0.089493
0.093649
0.095204
0.097358
0.096160
0.099724
0.097006
0.098211
0.098744
0.099734
0.099760
0.104392
0.106575
0.108386
0.099557
0.110851
0.109966
0.111299
0.111966
0.112645
0.113707
Classification Time - C
cat: testS_0.svm.time: No such file or directory
cat: test1II_0000.svm.time: No such file or directory
cat: test1II_0001.svm.time: No such file or directory
cat: test1II_0002.svm.time: No such file or directory
cat: test1II_0003.svm.time: No such file or directory
cat: test1II_0004.svm.time: No such file or directory
cat: test1II_0005.svm.time: No such file or directory
cat: test1II_0006.svm.time: No such file or directory
cat: test1II_0007.svm.time: No such file or directory
cat: test1II_0008.svm.time: No such file or directory
cat: test1II_0009.svm.time: No such file or directory
cat: test2II_0000.svm.time: No such file or directory
cat: test2II_0001.svm.time: No such file or directory
cat: test2II_0002.svm.time: No such file or directory
cat: test2II_0003.svm.time: No such file or directory
cat: test2II_0004.svm.time: No such file or directory
cat: test2II_0005.svm.time: No such file or directory
cat: test2II_0006.svm.time: No such file or directory
cat: test2II_0007.svm.time: No such file or directory
cat: test2II_0008.svm.time: No such file or directory
cat: test2II_0009.svm.time: No such file or directory
cat: test3II_0000.svm.time: No such file or directory
cat: test3II_0001.svm.time: No such file or directory
cat: test3II_0002.svm.time: No such file or directory
cat: test3II_0003.svm.time: No such file or directory
cat: test3II_0004.svm.time: No such file or directory
cat: test3II_0005.svm.time: No such file or directory
cat: test3II_0006.svm.time: No such file or directory
cat: test3II_0007.svm.time: No such file or directory
cat: test3II_0008.svm.time: No such file or directory
cat: test3II_0009.svm.time: No such file or directory
cat: test4II_0000.svm.time: No such file or directory
cat: test4II_0001.svm.time: No such file or directory
cat: test4II_0002.svm.time: No such file or directory
cat: test4II_0003.svm.time: No such file or directory
cat: test4II_0004.svm.time: No such file or directory
cat: test4II_0005.svm.time: No such file or directory
cat: test4II_0006.svm.time: No such file or directory
cat: test4II_0007.svm.time: No such file or directory
cat: test4II_0008.svm.time: No such file or directory
cat: test4II_0009.svm.time: No such file or directory
cat: test5II_0000.svm.time: No such file or directory
cat: test5II_0001.svm.time: No such file or directory
cat: test5II_0002.svm.time: No such file or directory
cat: test5II_0003.svm.time: No such file or directory
cat: test5II_0004.svm.time: No such file or directory
cat: test5II_0005.svm.time: No such file or directory
cat: test5II_0006.svm.time: No such file or directory
cat: test5II_0007.svm.time: No such file or directory
cat: test5II_0008.svm.time: No such file or directory
cat: test5II_0009.svm.time: No such file or directory
cat: test6II_0000.svm.time: No such file or directory
cat: test6II_0001.svm.time: No such file or directory
cat: test6II_0002.svm.time: No such file or directory
cat: test6II_0003.svm.time: No such file or directory
cat: test6II_0004.svm.time: No such file or directory
cat: test6II_0005.svm.time: No such file or directory
cat: test6II_0006.svm.time: No such file or directory
cat: test6II_0007.svm.time: No such file or directory
cat: test6II_0008.svm.time: No such file or directory
cat: test6II_0009.svm.time: No such file or directory
cat: test7II_0000.svm.time: No such file or directory
cat: test7II_0001.svm.time: No such file or directory
cat: test7II_0002.svm.time: No such file or directory
cat: test7II_0003.svm.time: No such file or directory
cat: test7II_0004.svm.time: No such file or directory
cat: test7II_0005.svm.time: No such file or directory
cat: test7II_0006.svm.time: No such file or directory
cat: test7II_0007.svm.time: No such file or directory
cat: test7II_0008.svm.time: No such file or directory
cat: test7II_0009.svm.time: No such file or directory
cat: test8II_0000.svm.time: No such file or directory
cat: test8II_0001.svm.time: No such file or directory
cat: test8II_0002.svm.time: No such file or directory
cat: test8II_0003.svm.time: No such file or directory
cat: test8II_0004.svm.time: No such file or directory
cat: test8II_0005.svm.time: No such file or directory
cat: test8II_0006.svm.time: No such file or directory
cat: test8II_0007.svm.time: No such file or directory
cat: test8II_0008.svm.time: No such file or directory
cat: test8II_0009.svm.time: No such file or directory
cat: test9II_0000.svm.time: No such file or directory
cat: test9II_0001.svm.time: No such file or directory
cat: test9II_0002.svm.time: No such file or directory
cat: test9II_0003.svm.time: No such file or directory
cat: test9II_0004.svm.time: No such file or directory
cat: test9II_0005.svm.time: No such file or directory
cat: test9II_0006.svm.time: No such file or directory
cat: test9II_0007.svm.time: No such file or directory
cat: test9II_0008.svm.time: No such file or directory
cat: test9II_0009.svm.time: No such file or directory
cat: test10II_0000.svm.time: No such file or directory
cat: test10II_0001.svm.time: No such file or directory
cat: test10II_0002.svm.time: No such file or directory
cat: test10II_0003.svm.time: No such file or directory
cat: test10II_0004.svm.time: No such file or directory
cat: test10II_0005.svm.time: No such file or directory
cat: test10II_0006.svm.time: No such file or directory
cat: test10II_0007.svm.time: No such file or directory
cat: test10II_0008.svm.time: No such file or directory
cat: test10II_0009.svm.time: No such file or directory
0.101225
0.101291
0.101385
0.100683
0.101215
0.102075
0.102343
0.104988
0.104139
0.103263
0.105781
0.106593
0.108246
0.108627
0.110004
0.108735
0.103205
0.112846
0.114804
0.114574
0.117664
0.120103
0.120778
0.120768
0.121677
0.122384
0.122973
0.123867
0.123277
0.123054
0.126978
0.129251
0.128013
0.118681
0.129174
0.129723
0.130359
0.130329
0.131224
0.120945
