Full Time (seconds)
0.198275
Time - I
0.002133
0.003204
0.004263
0.005672
0.006736
0.007799
0.009250
0.010299
0.011385
0.012758
0.013866
0.014887
0.016316
0.017351
0.018455
0.019915
0.020934
0.021963
0.023389
0.023713
0.024969
0.025554
0.026621
0.027564
0.029130
0.029777
0.031929
0.032219
0.033881
0.034368
0.035723
0.036788
0.037859
0.039633
0.040301
0.041594
0.042840
0.043939
0.045006
0.047023
0.047894
0.048544
0.050028
0.052266
0.052419
0.053398
0.054510
0.055617
0.057007
0.058005
0.059110
0.060630
0.062242
0.063554
0.064344
0.065058
0.071482
0.068059
0.069789
0.070468
0.072459
0.072569
0.074406
0.074625
0.075771
0.077428
0.078291
0.079771
0.080299
0.081855
0.083122
0.084018
0.085635
0.086893
0.088192
0.088802
0.089966
0.091428
0.092397
0.093444
0.094513
0.095851
0.097016
0.099672
0.099606
0.100878
0.101806
0.103183
0.104925
0.105184
0.106956
0.107585
0.109546
0.112228
0.113280
0.112220
0.113642
0.115201
0.115699
0.118576
0.118847
0.121489
0.120864
0.121853
0.124274
0.126088
0.125290
0.126479
0.128663
0.128753
0.132467
0.131524
0.134055
0.135833
0.136685
0.137576
0.137013
0.138884
0.141399
0.140622
0.141975
0.143192
0.144146
0.146098
0.146453
0.150045
0.150904
0.150001
0.151813
0.155245
0.154583
0.156575
0.157205
0.157243
0.158701
0.159516
0.161719
0.164622
0.165143
0.166251
0.165334
0.166753
0.167861
0.168777
0.170408
0.171899
0.172327
0.174190
0.175536
0.176956
0.177438
0.178820
0.184316
0.170194
0.167920
0.183055
0.184766
0.185335
0.186920
0.188001
0.190780
0.189961
0.192479
0.192726
0.193677
0.194831
0.181106
0.182753
0.183193
0.186968
0.185133
0.183413
0.174008
0.175456
0.176206
0.207185
0.207717
0.179279
0.183221
0.181112
0.218433
0.217028
0.214837
0.216629
0.220005
0.221204
0.221166
0.220876
0.204923
0.207997
0.195774
0.194976
0.197927
0.228396
0.229340
0.233367
0.232788
0.236722
0.216724
0.212921
0.202494
0.196830
0.204539
0.245273
0.242244
0.241624
0.224279
0.227059
0.228852
0.215204
0.209726
