Full Time (seconds)
0.097027
Time - I
0.003948
0.004699
0.005449
0.006214
0.006971
0.007720
0.008469
0.009253
0.010000
0.010735
0.011567
0.012312
0.013141
0.013961
0.014998
0.015605
0.016393
0.017044
0.018088
0.019161
0.019549
0.020305
0.020479
0.021144
0.022650
0.023337
0.024198
0.024385
0.025252
0.025703
0.026998
0.027279
0.027947
0.029656
0.030378
0.030362
0.030957
0.032179
0.033094
0.033259
0.033966
0.035373
0.035513
0.036245
0.037365
0.037781
0.038497
0.040933
0.039964
0.041509
0.041983
0.042053
0.043857
0.043715
0.044492
0.045317
0.047386
0.046764
0.047739
0.049795
0.048973
0.049687
0.049537
0.049948
0.051806
0.052083
0.052717
0.051364
0.053196
0.054514
0.054612
0.053475
0.055959
0.055947
0.056384
0.058450
0.059216
0.059215
0.060581
0.061467
0.062453
0.063033
0.063849
0.062991
0.065750
0.066278
0.066677
0.067899
0.068417
0.069140
0.069926
0.070736
0.069338
0.072446
0.074971
0.074333
0.073462
0.075540
0.073682
0.077611
0.079838
0.078551
0.079209
0.080193
0.078241
0.081819
0.081574
0.083240
0.081769
0.085049
0.085590
0.085152
0.084259
0.084955
0.086076
0.088008
0.090436
0.091068
0.091825
0.089438
0.090194
0.091991
0.091749
0.095719
0.094146
0.094932
0.098020
0.096397
0.097556
0.100539
0.101370
0.100844
0.099243
0.101762
0.104391
0.102154
0.102167
0.103524
0.103935
0.108728
0.101330
