Full Time (seconds)
0.105994
Time - I
0.003896
0.004649
0.005445
0.006286
0.006915
0.007670
0.008451
0.009224
0.009980
0.010696
0.011448
0.012464
0.013012
0.013779
0.014503
0.015562
0.015995
0.016816
0.017493
0.018347
0.019474
0.020252
0.020475
0.021198
0.021924
0.022668
0.023469
0.024222
0.024999
0.025849
0.026589
0.027305
0.028084
0.028827
0.029534
0.031114
0.030936
0.031719
0.032398
0.034303
0.034114
0.035024
0.035580
0.036301
0.037114
0.037834
0.038629
0.039344
0.041311
0.040701
0.042282
0.043670
0.042944
0.043719
0.044838
0.045420
0.046246
0.046887
0.047605
0.048905
0.048791
0.050343
0.050484
0.052735
0.053942
0.053173
0.053723
0.054235
0.055077
0.055952
0.057273
0.057800
0.057020
0.057532
0.057748
0.058151
0.058395
0.059006
0.059583
0.061619
0.060547
0.062011
0.063711
0.063768
0.064151
0.063976
0.064744
0.065408
0.066303
0.068069
0.067650
0.071099
0.069162
0.070313
0.073755
0.071391
0.072834
0.073789
0.076313
0.078410
0.077708
0.078897
0.079233
0.077468
0.078147
0.079853
0.082396
0.083291
0.081092
0.081847
0.082712
0.088449
0.086928
0.089949
0.086452
0.086806
0.089326
0.088809
0.090767
0.089563
0.091117
0.091319
0.091702
0.092933
0.093388
0.094136
0.094973
0.095964
0.096485
0.097103
0.098478
0.098478
0.099220
0.100006
0.100761
0.101411
0.102740
0.102954
0.103705
0.104713
0.105530
