Full Time (seconds)
0.105216
Time - I
0.003920
0.004212
0.004530
0.004825
0.005152
0.005449
0.005989
0.006350
0.006804
0.007252
0.007708
0.008445
0.009227
0.009976
0.010717
0.011453
0.012209
0.012951
0.013735
0.014622
0.015189
0.016390
0.017175
0.017950
0.018729
0.018916
0.020290
0.021044
0.021831
0.022628
0.023386
0.024047
0.024671
0.024974
0.026333
0.027209
0.027184
0.028226
0.029493
0.030180
0.030290
0.031918
0.032421
0.032554
0.033249
0.034518
0.034698
0.035514
0.036280
0.036963
0.037720
0.038837
0.040142
0.041212
0.042251
0.041476
0.042894
0.042908
0.044973
0.045295
0.045476
0.046534
0.046752
0.047723
0.048188
0.048938
0.051330
0.051701
0.052871
0.053696
0.053069
0.056066
0.055277
0.056865
0.057057
0.056535
0.057506
0.059469
0.058608
0.061443
0.062457
0.061852
0.062717
0.062604
0.065343
0.065381
0.065592
0.065650
0.067066
0.069307
0.069900
0.070672
0.069796
0.070564
0.070903
0.072761
0.072391
0.073050
0.074307
0.074851
0.076262
0.076137
0.078349
0.079176
0.080044
0.079414
0.080851
0.080888
0.083287
0.081870
0.083615
0.084383
0.084161
0.084906
0.086124
0.086732
0.087257
0.088236
0.090123
0.094905
0.090559
0.093971
0.091840
0.092449
0.093356
0.094360
0.099035
0.098300
0.099378
0.099608
0.101942
0.099582
0.101298
0.100508
0.100689
0.101361
0.103002
0.106443
0.104259
0.105596
0.105712
