Full Accuracy
94.923080
Accuracy - I
50.000000
71.000000
77.000000
83.230766
85.000000
89.000000
90.000000
90.538460
90.538460
91.153847
91.384613
92.461540
93.461540
93.692307
93.538460
94.230774
94.384613
94.384613
94.538460
95.000000
94.923080
