Full Time (seconds)
0.108845
Time - I
0.004135
0.008280
0.012109
0.016162
0.020262
0.024525
0.028200
0.032710
0.037595
0.040428
0.045737
0.050617
0.062621
0.063016
0.077205
0.076033
0.084421
0.087334
0.095973
0.102051
0.097200
