Full Time (seconds)
0.109059
Time - I
0.003978
0.007982
0.012051
0.016291
0.020356
0.024870
0.028399
0.033018
0.036902
0.040571
0.045502
0.050531
0.057523
0.062887
0.068536
0.074770
0.081550
0.087270
0.096800
0.099280
0.106057
