Full Time (seconds)
0.105203
Time - I
0.003950
0.008048
0.012174
0.016556
0.020932
0.021396
0.024266
0.028545
0.032198
0.036249
0.039373
0.043268
0.052877
0.062516
0.040446
0.076979
0.081132
0.090628
0.093343
0.059420
0.106114
