Full Time (seconds)
0.435989
Incremental Time - I
cat: testS_0.svm.time: No such file or directory
0.061669
0.151089
0.242856
0.447453
0.574032
Classification Time - C
0.169006
0.221674
0.301775
0.367512
0.435842
