Full Accuracy
84.798309
Accuracy - I
50.000000
78.167786
77.425591
79.059204
83.150002
81.453857
85.300560
85.841759
86.316864
85.511826
85.480568
84.973618
84.973618
83.990997
83.183685
83.183685
84.497940
85.036156
85.305252
85.305252
84.798309
