Full Time (seconds)
0.002912
Time - I
0.000340
0.000440
0.000538
0.000640
0.000886
0.001002
0.001171
0.001067
0.001152
0.001252
0.001336
0.001455
0.001686
0.001877
0.001773
0.002221
0.002432
0.002653
0.002318
0.002414
0.002549
