Full Time (seconds)
0.141520
Incremental Time - I
0.001924
0.000094
0.000035
0.000112
0.000116
0.000114
0.000129
0.000138
0.000147
0.000157
0.000160
0.000179
0.000177
0.000199
0.000200
0.000215
0.000217
0.000223
0.000229
0.000246
0.000257
0.000129
0.000782
0.000692
0.000788
0.000408
0.000447
0.000725
0.000483
0.000527
0.000459
0.000573
0.000580
0.000932
0.000950
0.000710
0.000944
0.000936
0.000691
0.000624
0.000640
0.001047
0.001039
0.001081
0.001052
0.000838
0.000727
0.000721
0.000742
0.000746
0.000741
0.001157
0.001106
0.001116
0.001107
0.001188
0.000987
0.000853
0.000826
0.001102
0.001210
0.001163
0.001204
0.000975
0.000874
0.000882
0.000877
0.000927
0.001280
0.001296
0.001012
0.000971
0.000959
0.001019
0.000983
0.001266
0.001299
0.001275
0.001356
0.001182
0.001028
0.001053
0.001026
0.001032
0.001083
0.001406
0.001380
0.001222
0.001156
0.001146
0.001161
0.001153
0.001412
0.001438
0.001260
0.001197
0.001211
0.001218
0.001221
0.001557
0.001353
0.001564
0.001353
0.001262
0.001265
0.001526
0.001618
0.001455
0.001304
0.001313
0.001289
0.001568
0.001397
0.001343
0.001369
0.001379
0.001385
0.001293
0.001392
0.001647
0.001383
0.001448
0.001397
0.001396
0.001689
0.001730
0.001491
0.001434
0.001443
0.001497
0.001520
0.001493
0.001534
0.001523
0.001591
0.001554
0.001584
0.001514
0.001546
0.001809
0.001641
Classification Time - I
0.005764
0.006683
0.007601
0.008536
0.009500
0.010485
0.011517
0.012521
0.013475
0.014439
0.015496
0.016451
0.017300
0.018677
0.019017
0.020405
0.020726
0.021725
0.022559
0.023620
0.023897
0.024389
0.024669
0.025064
0.025456
0.025987
0.027495
0.028046
0.027812
0.029321
0.030099
0.031080
0.031084
0.031934
0.032972
0.033881
0.034791
0.035781
0.037278
0.037821
0.038946
0.039814
0.040453
0.041746
0.042335
0.044829
0.044479
0.045865
0.046830
0.047217
0.048183
0.049285
0.049926
0.051285
0.052244
0.053971
0.054980
0.054754
0.055744
0.056957
0.057979
0.058359
0.059704
0.060370
0.061204
0.062822
0.062957
0.064067
0.065220
0.065793
0.066719
0.067936
0.068870
0.069621
0.070665
0.071413
0.072810
0.073594
0.074329
0.075183
0.076155
0.077272
0.077957
0.079067
0.079810
0.080974
0.081541
0.083501
0.083455
0.084590
0.085801
0.086327
0.087374
0.088435
0.089816
0.090438
0.091098
0.091705
0.092501
0.094232
0.094393
0.095445
0.096450
0.097689
0.098809
0.103074
0.100204
0.105043
0.102176
0.102652
0.103450
0.105895
0.105766
0.106715
0.108091
0.112753
0.109138
0.109714
0.110681
0.112908
0.112647
0.114584
0.114185
0.115168
0.116114
0.118864
0.122968
0.119734
0.120350
0.121823
0.121667
0.122750
0.124200
0.124458
0.125964
0.126462
0.128955
0.128191
0.129002
0.130279
