Full Time (seconds)
0.014758
Incremental Time - I
0.002092
0.000700
0.001108
0.002304
0.002381
0.002962
0.005681
0.004856
0.005394
0.006328
0.007126
0.008423
0.009579
0.010649
0.011785
0.013326
0.011399
0.015360
0.016796
0.018696
0.019653
Classification Time - C
0.002666
0.003504
0.004530
0.005411
0.006244
0.006832
0.007562
0.008373
0.008870
0.009499
0.011019
0.010658
0.011308
0.011772
0.009863
0.012865
0.013432
0.013599
0.014608
0.014700
