Full Time (seconds)
0.255409
Incremental Time - I
0.217310
0.025525
0.042143
0.050068
0.065571
0.079982
0.095216
0.103721
0.124451
0.148192
0.139538
0.174858
0.134367
0.141825
0.233937
0.259409
0.259419
0.298962
0.328514
0.372851
0.383284
Classification Time - C
0.088634
0.182796
0.123712
0.139865
0.146524
0.161163
0.161245
0.185688
0.207036
0.212040
0.220310
0.159495
0.175714
0.247514
0.338620
0.229025
0.283566
0.294730
0.289816
0.367762
