Full Accuracy
96.615387
Accuracy - I
cat: testS_0.svm.acc: No such file or directory
73.692307
81.076920
84.538460
86.538460
89.153847
90.769234
91.230766
91.692307
91.846153
92.923073
93.615379
94.230774
94.692307
95.076927
95.769234
95.923080
96.384613
96.538460
96.846153
96.769234
