Full Time (seconds)
0.081394
Incremental Time - I
0.014514
0.002270
0.003878
0.005559
0.008719
0.010423
0.032716
0.016440
0.017384
0.020914
0.025003
0.033662
0.034431
0.036690
0.036677
0.041496
0.027271
0.030560
0.041170
0.153321
0.071886
Classification Time - C
0.020224
0.027680
0.031866
0.038311
0.035249
0.047345
0.050408
0.049565
0.055145
0.048781
0.060715
0.062274
0.067120
0.067930
0.041079
0.037665
0.040253
0.124757
0.216941
0.093626
