Full Time (seconds)
0.002991
Time - I
0.000928
0.001036
0.001102
0.001177
0.001217
0.001278
0.001319
0.001420
0.001458
0.001529
0.001584
0.001687
0.001707
0.001841
0.001872
0.002391
0.001989
0.002044
0.002135
0.002195
0.002279
0.002328
0.002404
0.002468
0.002535
0.002622
0.002942
0.002732
0.002800
0.002900
0.002999
