Full Time (seconds)
0.323351
Time - I
0.216776
0.243733
0.260619
0.280916
0.302706
0.330275
0.362905
0.377036
0.350032
0.345927
0.314433
0.282035
0.444092
0.382330
0.438876
0.424266
0.445368
0.473864
0.454763
0.517869
0.375665
