Full Time (seconds)
0.108706
Time - I
0.003897
0.004645
0.005411
0.006191
0.007089
0.007698
0.008438
0.009216
0.009942
0.010675
0.011754
0.012597
0.013050
0.013668
0.014579
0.015196
0.015944
0.016887
0.018807
0.018703
0.018900
0.020754
0.020931
0.021170
0.022019
0.022751
0.024152
0.024689
0.024950
0.025870
0.026512
0.028095
0.028001
0.029296
0.029567
0.030683
0.030932
0.032669
0.032698
0.033830
0.034029
0.035149
0.035995
0.036764
0.037290
0.043357
0.038591
0.039510
0.040662
0.040986
0.041424
0.042767
0.043607
0.043860
0.044859
0.047819
0.046029
0.047284
0.048010
0.048267
0.050553
0.049742
0.050520
0.051219
0.052986
0.053161
0.053647
0.054222
0.056547
0.055772
0.056964
0.056595
0.057128
0.057417
0.057711
0.058760
0.058467
0.058932
0.060368
0.059796
0.060180
0.061237
0.065250
0.062763
0.067901
0.064116
0.064817
0.066115
0.066974
0.066957
0.068072
0.068639
0.070041
0.070434
0.070959
0.071503
0.072647
0.075361
0.073727
0.074596
0.075632
0.076640
0.076740
0.078470
0.080205
0.078993
0.079685
0.083044
0.083187
0.082955
0.082764
0.083595
0.084199
0.085027
0.088581
0.086725
0.088064
0.088156
0.097631
0.091233
0.090622
0.094214
0.096098
0.092498
0.096826
0.094000
0.095807
0.099341
0.096193
0.100305
0.101032
0.098431
0.099284
0.102787
0.104254
0.104973
0.104027
0.103912
0.104593
0.108621
0.106094
