Full Time (seconds)
0.105159
Time - I
0.003926
0.004662
0.005428
0.006187
0.006953
0.007716
0.008473
0.009233
0.009942
0.010738
0.011523
0.012198
0.013095
0.013776
0.014451
0.015180
0.016386
0.016769
0.017454
0.018206
0.019490
0.020191
0.020618
0.021157
0.022015
0.022651
0.024051
0.024501
0.025438
0.025923
0.026476
0.027131
0.027955
0.028985
0.029947
0.030298
0.030976
0.032194
0.032493
0.033668
0.034065
0.035131
0.035980
0.037059
0.037072
0.038959
0.038647
0.039254
0.040053
0.040757
0.042428
0.042116
0.042820
0.042882
0.042884
0.043114
0.043479
0.044285
0.045382
0.045082
0.046691
0.046752
0.047452
0.047536
0.048473
0.049040
0.050785
0.050835
0.051444
0.052535
0.052665
0.053520
0.055558
0.055344
0.057195
0.056456
0.057291
0.058632
0.059932
0.061724
0.060378
0.062961
0.067867
0.064654
0.065228
0.064124
0.065353
0.066400
0.067146
0.069143
0.069975
0.070956
0.071833
0.070611
0.071053
0.073952
0.074602
0.075334
0.074673
0.074239
0.077774
0.076610
0.076704
0.077600
0.079018
0.079367
0.082624
0.082187
0.084713
0.082735
0.085439
0.083609
0.084655
0.086772
0.085730
0.089645
0.087323
0.090898
0.088839
0.089511
0.090780
0.093534
0.094995
0.095653
0.094539
0.095561
0.105670
0.096093
0.096868
0.100337
0.101002
0.098523
0.102478
0.100829
0.101312
0.105022
0.103061
0.106895
0.104487
0.109851
0.105227
