Full Time (seconds)
0.105742
Time - I
0.003943
0.004688
0.005428
0.006203
0.006936
0.007709
0.008457
0.009231
0.009996
0.010752
0.011466
0.011784
0.012177
0.012370
0.012669
0.013193
0.013536
0.013932
0.014332
0.015970
0.015373
0.016396
0.018108
0.017963
0.018804
0.019543
0.020309
0.021102
0.021555
0.022564
0.024809
0.023520
0.027215
0.025113
0.026223
0.026566
0.027297
0.028881
0.029615
0.030023
0.030343
0.031067
0.031901
0.032602
0.033707
0.034611
0.035313
0.036633
0.036288
0.037188
0.038544
0.039709
0.041557
0.040026
0.042212
0.041583
0.042288
0.043128
0.043760
0.044528
0.045353
0.046469
0.048087
0.047888
0.048241
0.049325
0.049827
0.057169
0.055388
0.056450
0.058651
0.053550
0.055979
0.056777
0.055878
0.057104
0.058002
0.058618
0.059162
0.064334
0.060289
0.061175
0.063784
0.062511
0.069242
0.066565
0.072038
0.073395
0.067211
0.067083
0.069721
0.068463
0.076337
0.078641
0.072199
0.071568
0.072772
0.075413
0.076377
0.074545
0.075477
0.076047
0.081668
0.078081
0.080858
0.079030
0.079898
0.083591
0.081799
0.082225
0.083144
0.086303
0.084333
0.087856
0.086289
0.086485
0.087800
0.089012
0.088892
0.091157
0.090292
0.094638
0.093457
0.093095
0.093985
0.094070
0.094763
0.098688
0.096538
0.097684
0.098192
0.098549
0.101788
0.103498
0.100791
0.105918
0.103081
0.113863
0.103705
0.108193
0.106770
