Full Time (seconds)
0.109021
Time - I
0.003950
0.004689
0.005464
0.006219
0.006948
0.007701
0.008447
0.009211
0.009992
0.010746
0.011546
0.012319
0.012945
0.013675
0.015211
0.016078
0.016405
0.018597
0.019286
0.018647
0.019004
0.019737
0.020706
0.021320
0.022699
0.026053
0.023526
0.024243
0.026316
0.026427
0.027110
0.027602
0.028506
0.028802
0.029676
0.030323
0.030996
0.031801
0.033184
0.033493
0.034042
0.034797
0.034629
0.034960
0.039316
0.040723
0.039951
0.037008
0.041176
0.037297
0.037730
0.038533
0.039477
0.040481
0.041711
0.041982
0.042971
0.043284
0.044658
0.044566
0.045309
0.046026
0.046768
0.047824
0.048330
0.049373
0.050024
0.050879
0.051287
0.052086
0.053319
0.054116
0.054517
0.055012
0.055898
0.056951
0.057445
0.059245
0.059493
0.059512
0.060823
0.061502
0.062145
0.062534
0.064346
0.064630
0.066912
0.065453
0.066203
0.067477
0.068245
0.069492
0.069261
0.070397
0.070727
0.071666
0.072897
0.073490
0.074106
0.074530
0.075232
0.076125
0.076839
0.077698
0.078398
0.079078
0.080217
0.080508
0.081447
0.082319
0.082765
0.084543
0.084530
0.085324
0.085859
0.087004
0.087270
0.088920
0.088924
0.097595
0.090870
0.101315
0.106282
0.092554
0.093934
0.093985
0.094991
0.096504
0.096308
0.097093
0.097806
0.099571
0.099297
0.101122
0.101174
0.101589
0.102336
0.103724
0.104589
0.105192
0.106397
