Full Time (seconds)
0.016486
Time - I
0.002328
0.003196
0.004006
0.004844
0.005662
0.006454
0.007235
0.008116
0.008848
0.009770
0.010690
0.010652
0.011148
0.011481
0.011294
0.011408
0.012001
0.012189
0.012722
0.012290
0.013208
0.012916
0.013217
0.013569
0.015064
0.015119
0.015919
0.015955
0.016581
0.016980
0.016457
