Full Time (seconds)
0.016448
Time - I
0.004425
0.004850
0.005203
0.005596
0.005995
0.006410
0.006808
0.007225
0.007669
0.008053
0.008486
0.010523
0.010181
0.009759
0.009976
0.010393
0.010814
0.011226
0.011620
0.012539
0.012592
0.012860
0.013340
0.013611
0.014055
0.014363
0.014960
0.015129
0.015733
0.015977
0.016401
