Full Accuracy
76.577774
Accuracy - I
50.000000
62.044449
68.355553
75.266663
75.711113
76.422218
77.622223
77.377777
76.755554
77.644440
76.733330
76.422218
75.777779
75.577774
76.800003
76.377777
76.288895
76.333328
76.422218
76.955559
76.577774
