Full Time (seconds)
0.017671
Time - I
0.002603
0.003561
0.004373
0.005233
0.006075
0.006952
0.007708
0.008581
0.009394
0.010329
0.013713
0.011435
0.013975
0.011880
0.011749
0.011950
0.012113
0.012493
0.015689
0.012752
0.013530
0.014307
0.013742
0.014163
0.014569
0.014913
0.015362
0.015756
0.016418
0.017439
0.017035
