Full Time (seconds)
0.017870
Time - I
0.002624
0.003485
0.004407
0.005176
0.006117
0.006882
0.007999
0.008628
0.009345
0.010137
0.010906
0.011649
0.011707
0.012076
0.012458
0.013074
0.013857
0.013687
0.014929
0.014872
0.014984
0.015349
0.015472
0.015946
0.016188
0.015922
0.016100
0.016959
0.016595
0.017317
0.017109
