Full Time (seconds)
0.179884
Incremental Time - I
0.049368
0.030995
0.038591
0.066288
0.064435
0.063454
0.062902
0.091295
0.104984
0.111247
0.118162
0.121175
0.131687
0.144423
0.138420
0.096654
0.203563
0.175491
0.185908
0.188037
0.207506
Classification Time - C
0.148038
0.076767
0.093653
0.096120
0.117642
0.140354
0.116524
0.158955
0.136437
0.140264
0.160972
0.206078
0.156805
0.156843
0.158993
0.092835
0.176831
0.201409
0.186407
0.100193
0.181739
