Full Time (seconds)
0.187655
Time - I
0.002256
0.003366
0.004479
0.005960
0.007083
0.008134
0.009551
0.010620
0.011830
0.013119
0.014219
0.015306
0.017068
0.017796
0.018845
0.020290
0.021361
0.022529
0.024010
0.024284
0.025012
0.025637
0.026970
0.027767
0.029740
0.030306
0.031347
0.033640
0.033863
0.034862
0.036611
0.037348
0.038428
0.039939
0.040963
0.042420
0.043456
0.044550
0.045613
0.046983
0.048486
0.049135
0.050518
0.051599
0.052962
0.054134
0.055206
0.056284
0.057665
0.058695
0.060157
0.061190
0.062688
0.063307
0.065280
0.065822
0.067451
0.068285
0.069373
0.071144
0.072530
0.073259
0.074469
0.075476
0.076954
0.077729
0.078956
0.081116
0.082033
0.082485
0.083533
0.086166
0.086038
0.087220
0.088219
0.089589
0.091023
0.092195
0.093243
0.094281
0.095773
0.096676
0.097868
0.099345
0.100691
0.101413
0.102829
0.103830
0.104917
0.106109
0.107404
0.108412
0.109470
0.111405
0.114110
0.113096
0.115554
0.115501
0.116596
0.118014
0.120541
0.122061
0.126026
0.124145
0.123672
0.125324
0.126166
0.127165
0.129594
0.129672
0.130877
0.132241
0.133358
0.134323
0.135737
0.137318
0.138692
0.141604
0.141003
0.141393
0.142859
0.146424
0.144961
0.146281
0.147868
0.148492
0.151579
0.151026
0.152406
0.153516
0.154594
0.155605
0.157429
0.158072
0.159572
0.160547
0.162320
0.165506
0.164649
0.165071
0.167024
0.167549
0.169939
0.169820
0.172015
0.172177
0.173274
0.174795
0.175724
0.176887
0.165914
0.165487
0.166798
0.167704
0.169297
0.169745
0.165115
0.159826
0.161116
0.161861
0.163093
0.163670
0.164898
0.165851
0.167054
0.167997
0.168932
0.169796
0.170961
0.171862
0.172701
0.163603
0.204160
0.205092
0.207200
0.211495
0.209199
0.212550
0.212608
0.214804
0.197325
0.198773
0.184756
0.186038
0.174577
0.175856
0.176545
0.177776
0.178303
0.179877
0.180281
0.181526
0.182182
0.183512
0.183955
0.186481
0.188123
0.187100
0.190326
0.205462
0.205227
0.178787
0.179963
0.182567
0.184668
0.182082
0.185730
0.183993
0.186480
0.186788
0.187926
