Full Time (seconds)
0.211782
Time - I
0.002202
0.003368
0.004486
0.006000
0.007123
0.008244
0.009703
0.010729
0.011777
0.013209
0.014323
0.015407
0.017282
0.017926
0.019281
0.020426
0.021067
0.021689
0.022463
0.023742
0.024592
0.025797
0.027133
0.027969
0.029349
0.031685
0.033272
0.032917
0.033973
0.035584
0.036783
0.038116
0.038623
0.040047
0.041146
0.044735
0.045856
0.047166
0.048784
0.051648
0.048580
0.049467
0.050874
0.051817
0.052832
0.054243
0.058364
0.060276
0.060756
0.059052
0.063987
0.061307
0.062526
0.063643
0.064955
0.070882
0.067714
0.071191
0.074556
0.075525
0.073010
0.073374
0.074137
0.080923
0.082376
0.083269
0.083862
0.086416
0.081321
0.082799
0.089880
0.092184
0.092931
0.087994
0.088827
0.090800
0.090922
0.092920
0.094416
0.094404
0.096146
0.097689
0.098130
0.099187
0.100354
0.103234
0.103351
0.104057
0.104966
0.106087
0.107548
0.109854
0.110717
0.113143
0.112134
0.122168
0.114726
0.115819
0.117401
0.118350
0.128736
0.129763
0.121768
0.133017
0.134190
0.135339
0.135803
0.137772
0.135072
0.128726
0.129288
0.141455
0.143524
0.145408
0.146659
0.148670
0.148870
0.139494
0.143150
0.143233
0.143467
0.146746
0.145817
0.147467
0.149057
0.149320
0.150141
0.153085
0.154045
0.154485
0.154651
0.156907
0.159965
0.159962
0.159221
0.160677
0.162392
0.165604
0.164202
0.167356
0.166381
0.170775
0.176994
0.169952
0.171259
0.172992
0.176467
0.168295
0.164598
0.164746
0.166817
0.166196
0.168686
0.167964
0.156807
0.157926
0.185794
0.174551
0.187705
0.190789
0.190255
0.192729
0.194886
0.193960
0.196969
0.184129
0.184323
0.183056
0.200018
0.200737
0.202103
0.203349
0.205276
0.204618
0.190702
0.205755
0.208903
0.197704
0.197899
0.184273
0.183608
0.187414
0.187974
0.186287
0.218446
0.219028
0.203900
0.206318
0.205932
0.209186
0.225613
0.226863
0.228629
0.228400
0.213524
0.214197
0.214611
0.216158
0.239517
0.236083
0.237739
0.238724
0.221223
0.217004
0.207561
0.210571
0.209382
0.210626
0.241859
0.244361
0.213616
