Full Time (seconds)
0.240530
Time - I
0.002231
0.002623
0.003391
0.004151
0.005246
0.006323
0.007774
0.008839
0.010130
0.012210
0.013038
0.014377
0.015051
0.017191
0.017359
0.018728
0.019839
0.020983
0.022480
0.023412
0.024308
0.025730
0.026801
0.027900
0.029743
0.030373
0.031439
0.032866
0.034205
0.035502
0.036871
0.037820
0.038607
0.040955
0.041673
0.042317
0.043521
0.044597
0.046379
0.047044
0.050742
0.052124
0.051170
0.051993
0.052768
0.054560
0.055955
0.056350
0.058348
0.058800
0.059844
0.061217
0.062763
0.064205
0.064872
0.065886
0.067784
0.068595
0.070642
0.071407
0.072477
0.074235
0.074146
0.075663
0.076555
0.078610
0.079987
0.080051
0.081211
0.083113
0.089147
0.085228
0.086085
0.087234
0.088883
0.095347
0.096450
0.099575
0.093286
0.101280
0.102760
0.104439
0.105960
0.106559
0.100350
0.109260
0.104577
0.104027
0.105080
0.108315
0.107780
0.109937
0.111079
0.111402
0.112130
0.114267
0.114881
0.117670
0.117668
0.118397
0.119224
0.120878
0.121735
0.123191
0.125105
0.125310
0.126155
0.127340
0.129212
0.132226
0.131545
0.132263
0.133269
0.134867
0.136757
0.138555
0.138039
0.139360
0.140806
0.141577
0.145676
0.145205
0.147522
0.146723
0.147582
0.149259
0.150029
0.151686
0.152247
0.153539
0.154587
0.155708
0.157987
0.158237
0.159738
0.160645
0.162188
0.162636
0.164604
0.165222
0.166784
0.167637
0.169388
0.170097
0.169280
0.159151
0.159997
0.161578
0.162697
0.163330
0.164639
0.165962
0.166586
0.158096
0.157171
0.158608
0.159293
0.163266
0.161355
0.159647
0.152111
0.152888
0.155349
0.154760
0.166655
0.167899
0.168998
0.170315
0.171526
0.172011
0.173569
0.176293
0.176688
0.179163
0.167310
0.168305
0.168127
0.168149
0.169467
0.169940
0.166760
0.161759
0.164014
0.163642
0.200980
0.203013
0.217383
0.222357
0.222993
0.225260
0.227168
0.228511
0.226410
0.211345
0.214221
0.233613
0.233419
0.234015
0.237998
0.236743
0.077433
0.077868
0.169803
0.244010
0.242552
0.243333
0.234806
0.210757
0.247268
0.252430
0.249204
