Full Accuracy
94.000000
Accuracy - I
50.000000
53.615387
53.846157
53.846157
53.846157
53.846157
53.846157
53.846157
53.846157
53.846157
53.846157
55.615383
56.076920
57.461536
57.538460
57.538460
57.615383
57.615383
57.615387
57.692307
57.692307
59.615387
60.076923
60.615383
60.923080
61.153847
61.307693
61.307693
61.384617
61.538464
61.538464
61.538464
61.538464
61.538464
61.538464
61.538464
61.538464
61.538464
61.538464
61.538464
61.538464
64.307693
64.538460
64.846153
64.846153
64.923080
64.923080
65.000000
64.923080
64.923080
64.923080
68.000000
68.461540
68.615379
68.769226
68.769226
68.769226
68.769226
68.769226
68.769226
68.769226
71.538460
72.153847
72.076920
72.307693
72.307693
72.307693
72.307693
72.307693
72.307693
72.307693
74.000000
74.384613
75.230774
75.230774
75.307693
76.000000
76.076927
76.076927
76.076927
76.076927
76.692307
77.461540
78.000000
78.153839
78.076920
78.230766
78.230766
78.230766
78.461540
78.538460
80.461540
80.769226
81.384621
81.461540
81.692307
81.384621
81.538460
81.769234
81.923073
82.000000
84.615387
85.000000
84.923080
85.307693
85.538467
85.538467
85.615387
85.615387
85.615387
85.769234
86.923073
87.923080
88.153847
88.230774
88.230774
88.076927
88.153847
88.153847
88.153847
88.384613
91.538460
91.615387
91.846153
91.615387
91.615387
91.538460
91.461540
91.461540
91.461540
91.461540
94.307693
94.769234
94.769234
94.846153
94.769234
94.769234
94.769234
94.769234
94.769234
94.692307
