Full Time (seconds)
0.146619
Incremental Time - I
0.004726
0.000126
0.000101
0.000105
0.000141
0.000117
0.000128
0.000129
0.000136
0.000146
0.000156
0.000168
0.000189
0.000214
0.000209
0.000230
0.000217
0.000221
0.000265
0.000245
0.000251
0.000650
0.000457
0.000455
0.000500
0.000502
0.000493
0.000532
0.000517
0.000559
0.000546
0.000557
0.000541
0.000559
0.000600
0.000582
0.000584
0.000585
0.000607
0.000634
0.000617
0.000670
0.000654
0.000705
0.000635
0.000645
0.000623
0.000734
0.000639
0.000660
0.000668
0.000698
0.000697
0.000696
0.000709
0.000922
0.000888
0.000747
0.000748
0.000773
0.000737
0.000753
0.000774
0.000779
0.000912
0.000788
0.000806
0.000784
0.000808
0.000805
0.000821
0.000862
0.000870
0.000874
0.000858
0.000866
0.000870
0.000890
0.000987
0.001232
0.001365
0.000547
0.000537
0.000519
0.000509
0.000513
0.000642
0.000706
0.000709
0.000653
0.000686
0.000988
0.001005
0.000980
0.001050
0.001030
0.001416
0.001047
0.001108
0.001076
0.001075
0.001072
0.001083
0.001287
0.001125
0.001135
0.001109
0.001105
0.001112
0.001169
0.001120
0.001194
0.001157
0.001186
0.001178
0.001191
0.001238
0.001125
0.001177
0.001151
0.001199
0.001119
0.001184
0.001285
0.001045
0.001380
0.001001
0.001268
0.001218
0.001232
0.001289
0.001383
0.001380
0.001378
0.001372
0.001534
0.001390
0.001440
0.001427
0.001492
0.001419
Classification Time - I
0.006095
0.006891
0.007752
0.008677
0.011405
0.012409
0.011499
0.012483
0.013617
0.017438
0.015471
0.017090
0.017349
0.018770
0.019042
0.019852
0.020759
0.023666
0.025477
0.024682
0.027495
0.027432
0.027218
0.027375
0.029039
0.029283
0.030281
0.041863
0.034601
0.035169
0.036524
0.037531
0.036676
0.036832
0.038018
0.038886
0.039691
0.040669
0.044759
0.046275
0.045395
0.047284
0.047620
0.046565
0.047573
0.050053
0.049398
0.052027
0.056065
0.052190
0.053000
0.058133
0.059776
0.056303
0.056841
0.058170
0.062045
0.059718
0.060668
0.061820
0.062658
0.066319
0.064350
0.067365
0.070198
0.072299
0.074191
0.068996
0.069831
0.070847
0.071754
0.072786
0.075913
0.081361
0.081629
0.080717
0.077814
0.079105
0.082842
0.080320
0.080617
0.084317
0.084999
0.086212
0.084684
0.082776
0.083398
0.087823
0.088197
0.088941
0.090179
0.089305
0.088705
0.089537
0.092563
0.094485
0.098280
0.092929
0.093583
0.094886
0.095200
0.096257
0.104341
0.098047
0.103024
0.104102
0.105993
0.101454
0.104657
0.104046
0.108178
0.111951
0.108371
0.106878
0.108656
0.102937
0.105048
0.106177
0.102803
0.112319
0.113292
0.139864
0.109897
0.094984
0.116845
0.100543
0.111315
0.115675
0.124452
0.126176
0.126232
0.128955
0.124310
0.124936
0.128327
0.127291
0.128878
0.128571
0.130841
0.134460
