Full Time (seconds)
0.141033
Incremental Time - I
0.001738
0.000086
0.000097
0.000104
0.000114
0.000110
0.000129
0.000128
0.000142
0.000146
0.000163
0.000174
0.000179
0.000166
0.000226
0.000206
0.000216
0.000192
0.000228
0.000240
0.000256
0.000510
0.000500
0.000429
0.000446
0.000446
0.000444
0.000463
0.000470
0.000477
0.000411
0.000504
0.000513
0.000539
0.000511
0.000540
0.000566
0.000588
0.000499
0.000579
0.000518
0.001046
0.000584
0.000645
0.000631
0.000678
0.000642
0.000840
0.000673
0.000650
0.000671
0.000693
0.000708
0.000728
0.000718
0.000705
0.000732
0.000732
0.000758
0.000728
0.000736
0.000796
0.000762
0.000820
0.000819
0.000817
0.000798
0.000811
0.000858
0.000808
0.000840
0.000889
0.000857
0.000891
0.000898
0.001198
0.000883
0.000945
0.000949
0.000937
0.001145
0.000963
0.000774
0.000976
0.001027
0.001009
0.001001
0.001002
0.000988
0.001000
0.001093
0.000607
0.000555
0.000573
0.000552
0.000582
0.000755
0.000646
0.000617
0.000928
0.000757
0.001082
0.001376
0.001121
0.001098
0.001114
0.001157
0.001119
0.001133
0.001154
0.001172
0.001064
0.001182
0.001150
0.001243
0.001228
0.001240
0.001254
0.001232
0.001252
0.001248
0.001308
0.001126
0.001261
0.001228
0.001292
0.001363
0.001139
0.001406
0.001377
0.001379
0.001532
0.001462
0.001459
0.001411
0.001480
0.001352
0.001540
0.001542
0.001538
0.001479
Classification Time - I
0.005749
0.006684
0.007609
0.007957
0.009486
0.010460
0.011519
0.012442
0.013872
0.014607
0.015633
0.017611
0.017485
0.018174
0.019173
0.017685
0.021739
0.023230
0.024084
0.023585
0.024670
0.025299
0.026714
0.027396
0.028272
0.026034
0.030217
0.031214
0.031917
0.035340
0.033811
0.036441
0.038517
0.037756
0.037824
0.039915
0.039465
0.040376
0.041417
0.043146
0.046757
0.044107
0.048276
0.049464
0.050250
0.049770
0.049048
0.050887
0.051108
0.057202
0.052941
0.056450
0.054698
0.055518
0.056623
0.057890
0.056952
0.059362
0.060463
0.061159
0.060727
0.058317
0.068770
0.065679
0.070115
0.066958
0.067641
0.068421
0.074313
0.071058
0.076916
0.077199
0.073427
0.081255
0.075330
0.082019
0.077880
0.080701
0.085499
0.084097
0.080795
0.069778
0.082626
0.083763
0.084866
0.087879
0.086564
0.089676
0.088074
0.089549
0.089327
0.089639
0.090123
0.090592
0.091175
0.091830
0.073451
0.073997
0.093759
0.093396
0.101728
0.112168
0.096211
0.096995
0.097993
0.098927
0.105536
0.100783
0.106559
0.102377
0.111922
0.104460
0.106175
0.106079
0.114794
0.109213
0.109170
0.109476
0.110477
0.119706
0.121828
0.142272
0.116567
0.115940
0.116518
0.116973
0.125887
0.119520
0.120316
0.124360
0.121673
0.122415
0.128725
0.137009
0.135826
0.126680
0.127328
0.140521
0.129469
0.130458
