Full Time (seconds)
0.108889
Time - I
0.003935
0.004702
0.005447
0.006220
0.006948
0.007720
0.008465
0.009221
0.009984
0.010716
0.011523
0.012193
0.012983
0.013726
0.014473
0.015208
0.016475
0.016707
0.017430
0.018210
0.018960
0.020052
0.020478
0.021639
0.022379
0.022767
0.023484
0.024242
0.025961
0.025716
0.026473
0.027707
0.028871
0.029161
0.029638
0.030290
0.031051
0.031746
0.032772
0.033461
0.035093
0.034747
0.035507
0.036287
0.037473
0.037790
0.038496
0.040489
0.041323
0.040746
0.042511
0.043616
0.043054
0.044321
0.047726
0.048991
0.051756
0.051365
0.047511
0.048425
0.049065
0.049947
0.052203
0.051498
0.052054
0.052764
0.053938
0.054244
0.055225
0.057551
0.058388
0.058186
0.058544
0.058807
0.060358
0.060498
0.061293
0.067295
0.064567
0.063505
0.064493
0.064817
0.065478
0.066240
0.067667
0.067873
0.068694
0.069294
0.070550
0.071088
0.071467
0.072261
0.073069
0.073758
0.075175
0.075411
0.076056
0.077274
0.077720
0.078555
0.082045
0.079713
0.083207
0.083901
0.081986
0.083008
0.083410
0.087108
0.085476
0.088735
0.089568
0.087435
0.088759
0.089007
0.090266
0.090683
0.091579
0.094983
0.092726
0.093646
0.093953
0.094314
0.095026
0.098328
0.095353
0.096422
0.096105
0.096721
0.097272
0.097868
0.097793
0.098720
0.099877
0.099989
0.102588
0.104345
0.102318
0.103055
0.103743
0.105041
0.105313
