Full Time (seconds)
0.105866
Time - I
0.003893
0.004663
0.005398
0.006200
0.006926
0.007696
0.008423
0.009140
0.009942
0.010709
0.011439
0.012166
0.013034
0.014165
0.014557
0.015161
0.016174
0.016730
0.017402
0.018726
0.018948
0.019674
0.020409
0.021172
0.021964
0.022706
0.023530
0.024779
0.024960
0.025696
0.026458
0.027195
0.028005
0.028970
0.029727
0.030676
0.030952
0.031698
0.032551
0.033314
0.034051
0.035169
0.035638
0.036992
0.037385
0.037950
0.038536
0.039228
0.039989
0.040708
0.042330
0.042295
0.042989
0.044722
0.044443
0.045209
0.045943
0.048236
0.047878
0.049742
0.049030
0.050251
0.052065
0.052933
0.053279
0.053372
0.055300
0.055944
0.056735
0.057551
0.057913
0.057160
0.057102
0.057585
0.057666
0.058681
0.058838
0.058822
0.059479
0.062684
0.060672
0.060995
0.061842
0.066069
0.065225
0.064046
0.066908
0.065595
0.066263
0.068264
0.069081
0.069382
0.069948
0.071344
0.070837
0.073809
0.072307
0.072957
0.073739
0.075097
0.075351
0.076732
0.078243
0.077460
0.078289
0.081641
0.080103
0.080982
0.081592
0.082111
0.084481
0.083926
0.087090
0.084980
0.086566
0.089240
0.090190
0.087990
0.089376
0.090341
0.093438
0.091848
0.095218
0.097793
0.096508
0.095586
0.095901
0.096142
0.098024
0.100556
0.098551
0.101743
0.102444
0.100426
0.100895
0.101512
0.105762
0.103058
0.105868
0.108437
0.109014
