Full Time (seconds)
0.094016
Incremental Time - I
0.005115
0.000231
0.000570
0.000797
0.001303
0.001418
0.001644
0.001885
0.002125
0.002374
0.002584
0.004120
0.002839
0.005205
0.005726
0.006219
0.005462
0.004582
0.004954
0.005303
0.005560
Classification Time - I
0.010024
0.015004
0.020007
0.025206
0.030218
0.035335
0.040329
0.045424
0.050388
0.055477
0.062920
0.070589
0.077514
0.084919
0.092642
0.061077
0.067945
0.073035
0.077169
0.090124
