Full Time (seconds)
0.141085
Incremental Time - I
0.001754
0.000318
0.000572
0.000806
0.001702
0.001036
0.001143
0.001282
0.001455
0.001715
0.001857
0.003461
0.004713
0.005200
0.004324
0.004744
0.005275
0.005645
0.008141
0.008665
0.008509
Classification Time - I
0.010533
0.016515
0.021429
0.026122
0.020151
0.024195
0.027673
0.032291
0.036495
0.040283
0.048483
0.069419
0.056631
0.063575
0.069131
0.075230
0.108411
0.115820
0.123458
0.132145
