Full Time (seconds)
0.016677
Time - I
0.002049
0.003013
0.003369
0.004024
0.004668
0.005336
0.006083
0.006715
0.008532
0.008109
0.012359
0.011918
0.010313
0.011209
0.011648
0.013793
0.013621
0.013754
0.014514
0.015751
0.015920
