Full Time (seconds)
0.002977
Time - I
0.000307
0.000479
0.000507
0.000578
0.000604
0.000629
0.000657
0.000696
0.000807
0.000779
0.000831
0.000931
0.001031
0.001072
0.001141
0.001229
0.001335
0.001388
0.001503
0.001671
0.001589
0.001745
0.001931
0.002014
0.002153
0.002341
0.002461
0.002673
0.002717
0.002873
0.003056
