Full Time (seconds)
0.105264
Time - I
0.003957
0.007992
0.012290
0.016683
0.020208
0.024276
0.028496
0.033544
0.039333
0.040552
0.044612
0.054668
0.057388
0.064592
0.068571
0.074823
0.081475
0.086829
0.096875
0.101149
0.110961
