Full Time (seconds)
0.108961
Time - I
0.003996
0.008028
0.012495
0.016507
0.021753
0.024943
0.028512
0.032323
0.036715
0.040431
0.044506
0.050504
0.056871
0.066951
0.068958
0.074545
0.087660
0.091654
0.093483
0.099721
0.115646
