Full Time (seconds)
0.108811
Time - I
0.003932
0.008005
0.012066
0.016340
0.020259
0.024717
0.028349
0.032315
0.036678
0.040815
0.044493
0.051332
0.058117
0.063590
0.072722
0.077249
0.081323
0.091757
0.093128
0.099639
0.109306
