Full Time (seconds)
0.002771
Time - I
0.000417
0.000568
0.000659
0.000771
0.000966
0.001016
0.001140
0.001232
0.001447
0.001407
0.001555
0.001617
0.002446
0.001925
0.001963
0.002109
0.002213
0.002470
0.002694
0.002630
0.002763
