Full Time (seconds)
0.000796
Incremental Time - I
0.000492
0.000132
0.000184
0.000242
0.000218
0.000349
0.000321
0.000751
0.000974
0.001497
0.001481
0.001692
0.001294
0.004050
0.003198
0.007598
0.003546
0.003599
0.003921
0.004744
0.004368
Classification Time - C
0.000417
0.000456
0.000519
0.000452
0.000480
0.000483
0.000487
0.000552
0.000615
0.000620
0.000606
0.000595
0.000654
0.000670
0.000768
0.000703
0.000726
0.000844
0.000770
0.000792
