Full Time (seconds)
0.000794
Incremental Time - I
0.000388
0.000170
0.000436
0.000439
0.000495
0.000777
0.001092
0.000747
0.000918
0.001057
0.001389
0.001488
0.001293
0.001545
0.002855
0.004068
0.004696
0.005262
0.005445
0.005131
0.004472
Classification Time - C
0.000447
0.000458
0.000542
0.000546
0.000512
0.000530
0.000528
0.000550
0.000664
0.000572
0.000565
0.000573
0.000620
0.000634
0.000691
0.000689
0.000708
0.000787
0.000773
0.000808
