Full Time (seconds)
0.000787
Incremental Time - I
0.000480
0.000219
0.000184
0.000496
0.000523
0.000560
0.000661
0.000635
0.000660
0.000856
0.000957
0.001461
0.001273
0.001890
0.002235
0.004012
0.003087
0.003554
0.004345
0.004279
0.004233
Classification Time - C
0.000485
0.000277
0.000493
0.000489
0.000539
0.000551
0.000566
0.000560
0.000594
0.000617
0.000645
0.000611
0.000663
0.000678
0.000745
0.000728
0.000772
0.000760
0.000778
0.000792
