Full Accuracy
71.022224
Accuracy - I
50.000000
60.666664
63.022224
64.622223
66.311111
67.199997
68.755554
71.355553
71.222221
72.844444
72.488884
72.377777
71.911110
71.866669
71.866669
70.577774
70.377777
70.533333
70.622223
70.400002
70.866669
