Full Time (seconds)
0.028117
Incremental Time - I
0.063062
0.002515
0.002219
0.002320
0.002307
0.002065
0.002128
0.002251
0.002424
0.002854
0.002643
0.002798
0.002806
0.002572
0.002715
0.002705
0.003349
0.003705
0.003020
0.003546
0.003715
Classification Time - I
0.007960
0.008967
0.010150
0.011268
0.012295
0.013325
0.014649
0.015702
0.016642
0.017714
0.018748
0.019605
0.021360
0.021639
0.023027
0.023944
0.025261
0.026442
0.028897
0.034791
