Full Time (seconds)
0.005654
Incremental Time - I
0.000635
0.000049
0.000048
0.000050
0.000058
0.000053
0.000052
0.000053
0.000069
0.000067
0.000068
0.000083
0.000093
0.000105
0.000105
0.000106
0.000122
0.000116
0.000118
0.000126
0.000125
0.000230
0.000260
0.000266
0.001977
0.001394
0.000976
0.001094
0.001371
0.001354
0.001332
Classification Time - I
0.000611
0.000666
0.000702
0.000741
0.000789
0.000857
0.000889
0.000949
0.001018
0.001118
0.001195
0.001319
0.001415
0.001543
0.001677
0.001792
0.001912
0.002002
0.002117
0.002266
0.002512
0.002702
0.002908
0.003175
0.003421
0.003648
0.003957
0.004273
0.004587
0.004737
