Full Time (seconds)
0.005268
Incremental Time - I
0.001297
0.000062
0.000067
0.000073
0.000076
0.000090
0.000091
0.000089
0.000099
0.000109
0.000104
0.000075
0.000069
0.000071
0.000070
0.000073
0.000085
0.000091
0.000092
0.000094
0.000098
0.000224
0.000250
0.000270
0.002277
0.002088
0.002117
0.002020
0.001963
0.001532
0.001467
Classification Time - I
0.000720
0.000846
0.000885
0.000975
0.001082
0.001191
0.001295
0.001466
0.001566
0.001687
0.001710
0.001730
0.001776
0.001845
0.001857
0.001972
0.002072
0.002068
0.002170
0.002263
0.002492
0.002662
0.002916
0.003153
0.003385
0.003635
0.003759
0.003873
0.004277
0.004437
