Full Accuracy
91.115028
Accuracy - I
cat: testS_0.svm.acc: No such file or directory
81.382523
87.025520
88.027214
89.972633
89.969948
90.339706
90.400436
91.197929
91.313843
91.189697
91.203468
91.142738
91.068230
91.139969
91.101334
91.421371
91.217163
91.178528
91.159210
91.115028
