Full Time (seconds)
0.133399
Incremental Time - I
0.000276
0.000304
0.000410
0.000415
0.000461
0.000495
0.000586
0.000624
0.000692
0.000723
0.000779
0.001477
0.001648
0.001979
0.002094
0.002795
0.002468
0.002594
0.002616
0.002660
0.002827
0.004285
0.004803
0.005421
0.005607
0.006239
0.006186
0.006526
0.007033
0.007822
0.008244
0.009170
0.009617
0.010033
0.010020
0.010753
0.010677
0.010897
0.010695
0.011257
0.011344
0.013775
0.014006
0.014452
0.015449
0.015271
0.015018
0.015738
0.016323
0.016689
0.016569
0.019672
0.021322
0.022390
0.023137
0.023958
0.024925
0.024970
0.025751
0.027654
0.027895
0.031621
0.031455
0.032379
0.032489
0.034080
0.033580
0.033817
0.035521
0.034912
0.036650
0.039691
0.039392
0.042382
0.042371
0.043628
0.044647
0.044423
0.044709
0.045645
0.046229
0.051070
0.051501
0.052270
0.054387
0.055292
0.058524
0.057723
0.057934
0.058921
0.061726
0.059097
0.061610
0.059903
0.062290
0.063130
0.062798
0.063357
0.063373
0.061687
0.061696
0.067024
0.068684
0.068086
0.071488
0.069830
0.071035
0.071493
0.072005
0.072870
0.074578
0.078881
0.083600
0.085885
0.083571
0.087682
0.085423
0.086419
0.087238
0.087321
0.091669
0.094388
0.097470
0.098457
0.095908
0.100197
0.096658
0.097164
0.099575
0.099084
0.099583
0.104228
0.105935
0.106518
0.107650
0.108557
0.114032
0.110790
0.115594
0.112367
0.117745
Classification Time - C
cat: testS_0.svm.time: No such file or directory
cat: test1II_0000.svm.time: No such file or directory
cat: test1II_0001.svm.time: No such file or directory
cat: test1II_0002.svm.time: No such file or directory
cat: test1II_0003.svm.time: No such file or directory
cat: test1II_0004.svm.time: No such file or directory
cat: test1II_0005.svm.time: No such file or directory
cat: test1II_0006.svm.time: No such file or directory
cat: test1II_0007.svm.time: No such file or directory
cat: test1II_0008.svm.time: No such file or directory
cat: test1II_0009.svm.time: No such file or directory
cat: test2II_0000.svm.time: No such file or directory
cat: test2II_0001.svm.time: No such file or directory
cat: test2II_0002.svm.time: No such file or directory
cat: test2II_0003.svm.time: No such file or directory
cat: test2II_0004.svm.time: No such file or directory
cat: test2II_0005.svm.time: No such file or directory
cat: test2II_0006.svm.time: No such file or directory
cat: test2II_0007.svm.time: No such file or directory
cat: test2II_0008.svm.time: No such file or directory
cat: test2II_0009.svm.time: No such file or directory
cat: test3II_0000.svm.time: No such file or directory
cat: test3II_0001.svm.time: No such file or directory
cat: test3II_0002.svm.time: No such file or directory
cat: test3II_0003.svm.time: No such file or directory
cat: test3II_0004.svm.time: No such file or directory
cat: test3II_0005.svm.time: No such file or directory
cat: test3II_0006.svm.time: No such file or directory
cat: test3II_0007.svm.time: No such file or directory
cat: test3II_0008.svm.time: No such file or directory
cat: test3II_0009.svm.time: No such file or directory
cat: test4II_0000.svm.time: No such file or directory
cat: test4II_0001.svm.time: No such file or directory
cat: test4II_0002.svm.time: No such file or directory
cat: test4II_0003.svm.time: No such file or directory
cat: test4II_0004.svm.time: No such file or directory
cat: test4II_0005.svm.time: No such file or directory
cat: test4II_0006.svm.time: No such file or directory
cat: test4II_0007.svm.time: No such file or directory
cat: test4II_0008.svm.time: No such file or directory
cat: test4II_0009.svm.time: No such file or directory
cat: test5II_0000.svm.time: No such file or directory
cat: test5II_0001.svm.time: No such file or directory
cat: test5II_0002.svm.time: No such file or directory
cat: test5II_0003.svm.time: No such file or directory
cat: test5II_0004.svm.time: No such file or directory
cat: test5II_0005.svm.time: No such file or directory
cat: test5II_0006.svm.time: No such file or directory
cat: test5II_0007.svm.time: No such file or directory
cat: test5II_0008.svm.time: No such file or directory
cat: test5II_0009.svm.time: No such file or directory
cat: test6II_0000.svm.time: No such file or directory
cat: test6II_0001.svm.time: No such file or directory
cat: test6II_0002.svm.time: No such file or directory
cat: test6II_0003.svm.time: No such file or directory
cat: test6II_0004.svm.time: No such file or directory
cat: test6II_0005.svm.time: No such file or directory
cat: test6II_0006.svm.time: No such file or directory
cat: test6II_0007.svm.time: No such file or directory
cat: test6II_0008.svm.time: No such file or directory
cat: test6II_0009.svm.time: No such file or directory
cat: test7II_0000.svm.time: No such file or directory
cat: test7II_0001.svm.time: No such file or directory
cat: test7II_0002.svm.time: No such file or directory
cat: test7II_0003.svm.time: No such file or directory
cat: test7II_0004.svm.time: No such file or directory
cat: test7II_0005.svm.time: No such file or directory
cat: test7II_0006.svm.time: No such file or directory
cat: test7II_0007.svm.time: No such file or directory
cat: test7II_0008.svm.time: No such file or directory
cat: test7II_0009.svm.time: No such file or directory
cat: test8II_0000.svm.time: No such file or directory
cat: test8II_0001.svm.time: No such file or directory
cat: test8II_0002.svm.time: No such file or directory
cat: test8II_0003.svm.time: No such file or directory
cat: test8II_0004.svm.time: No such file or directory
cat: test8II_0005.svm.time: No such file or directory
cat: test8II_0006.svm.time: No such file or directory
cat: test8II_0007.svm.time: No such file or directory
cat: test8II_0008.svm.time: No such file or directory
cat: test8II_0009.svm.time: No such file or directory
cat: test9II_0000.svm.time: No such file or directory
cat: test9II_0001.svm.time: No such file or directory
cat: test9II_0002.svm.time: No such file or directory
cat: test9II_0003.svm.time: No such file or directory
cat: test9II_0004.svm.time: No such file or directory
cat: test9II_0005.svm.time: No such file or directory
cat: test9II_0006.svm.time: No such file or directory
cat: test9II_0007.svm.time: No such file or directory
cat: test9II_0008.svm.time: No such file or directory
cat: test9II_0009.svm.time: No such file or directory
cat: test10II_0000.svm.time: No such file or directory
cat: test10II_0001.svm.time: No such file or directory
cat: test10II_0002.svm.time: No such file or directory
cat: test10II_0003.svm.time: No such file or directory
cat: test10II_0004.svm.time: No such file or directory
cat: test10II_0005.svm.time: No such file or directory
cat: test10II_0006.svm.time: No such file or directory
cat: test10II_0007.svm.time: No such file or directory
cat: test10II_0008.svm.time: No such file or directory
cat: test10II_0009.svm.time: No such file or directory
0.101753
0.101004
0.101912
0.101912
0.103105
0.102090
0.102925
0.103244
0.104695
0.104777
0.107388
0.106871
0.108492
0.108503
0.111116
0.112600
0.113296
0.114196
0.113739
0.119892
0.117763
0.118059
0.119111
0.122005
0.121733
0.122115
0.122829
0.122897
0.125290
0.125144
0.126601
0.129408
0.127888
0.128833
0.131016
0.131540
0.132395
0.131105
0.132506
0.130821
