Full Time (seconds)
0.131241
Incremental Time - I
0.000312
0.000383
0.000379
0.000452
0.000492
0.000581
0.000632
0.000778
0.000777
0.000890
0.000978
0.001671
0.001855
0.002145
0.002354
0.002719
0.003015
0.003253
0.003329
0.003590
0.003866
0.005438
0.005948
0.006137
0.006739
0.007242
0.007563
0.007767
0.008704
0.009113
0.009515
0.011139
0.011151
0.011248
0.011905
0.011711
0.012575
0.012432
0.012668
0.012419
0.012870
0.015213
0.015096
0.016528
0.016356
0.016530
0.017317
0.017418
0.017318
0.017845
0.018148
0.021493
0.022534
0.023477
0.024506
0.024914
0.026646
0.027917
0.027690
0.029316
0.029691
0.033444
0.033641
0.033716
0.034582
0.035131
0.035579
0.035828
0.036333
0.036838
0.037277
0.040780
0.041700
0.043708
0.044268
0.044496
0.044846
0.045566
0.046998
0.047190
0.048339
0.053266
0.053971
0.054328
0.055877
0.057280
0.058760
0.060225
0.060427
0.063460
0.064118
0.022224
0.069943
0.060907
0.068882
0.069836
0.071051
0.071634
0.072636
0.072066
0.073440
0.077879
0.079012
0.080869
0.080228
0.084595
0.085788
0.082871
0.083350
0.085035
0.089136
0.089765
0.086677
0.087046
0.087246
0.088236
0.089629
0.088785
0.088348
0.088438
0.092167
0.092906
0.097940
0.095377
0.100295
0.096684
0.097270
0.097914
0.098690
0.099305
0.099829
0.104943
0.105873
0.106441
0.107744
0.110132
0.110249
0.115637
0.111603
0.115120
0.113805
Classification Time - C
cat: testS_0.svm.time: No such file or directory
cat: test1II_0000.svm.time: No such file or directory
cat: test1II_0001.svm.time: No such file or directory
cat: test1II_0002.svm.time: No such file or directory
cat: test1II_0003.svm.time: No such file or directory
cat: test1II_0004.svm.time: No such file or directory
cat: test1II_0005.svm.time: No such file or directory
cat: test1II_0006.svm.time: No such file or directory
cat: test1II_0007.svm.time: No such file or directory
cat: test1II_0008.svm.time: No such file or directory
cat: test1II_0009.svm.time: No such file or directory
cat: test2II_0000.svm.time: No such file or directory
cat: test2II_0001.svm.time: No such file or directory
cat: test2II_0002.svm.time: No such file or directory
cat: test2II_0003.svm.time: No such file or directory
cat: test2II_0004.svm.time: No such file or directory
cat: test2II_0005.svm.time: No such file or directory
cat: test2II_0006.svm.time: No such file or directory
cat: test2II_0007.svm.time: No such file or directory
cat: test2II_0008.svm.time: No such file or directory
cat: test2II_0009.svm.time: No such file or directory
cat: test3II_0000.svm.time: No such file or directory
cat: test3II_0001.svm.time: No such file or directory
cat: test3II_0002.svm.time: No such file or directory
cat: test3II_0003.svm.time: No such file or directory
cat: test3II_0004.svm.time: No such file or directory
cat: test3II_0005.svm.time: No such file or directory
cat: test3II_0006.svm.time: No such file or directory
cat: test3II_0007.svm.time: No such file or directory
cat: test3II_0008.svm.time: No such file or directory
cat: test3II_0009.svm.time: No such file or directory
cat: test4II_0000.svm.time: No such file or directory
cat: test4II_0001.svm.time: No such file or directory
cat: test4II_0002.svm.time: No such file or directory
cat: test4II_0003.svm.time: No such file or directory
cat: test4II_0004.svm.time: No such file or directory
cat: test4II_0005.svm.time: No such file or directory
cat: test4II_0006.svm.time: No such file or directory
cat: test4II_0007.svm.time: No such file or directory
cat: test4II_0008.svm.time: No such file or directory
cat: test4II_0009.svm.time: No such file or directory
cat: test5II_0000.svm.time: No such file or directory
cat: test5II_0001.svm.time: No such file or directory
cat: test5II_0002.svm.time: No such file or directory
cat: test5II_0003.svm.time: No such file or directory
cat: test5II_0004.svm.time: No such file or directory
cat: test5II_0005.svm.time: No such file or directory
cat: test5II_0006.svm.time: No such file or directory
cat: test5II_0007.svm.time: No such file or directory
cat: test5II_0008.svm.time: No such file or directory
cat: test5II_0009.svm.time: No such file or directory
cat: test6II_0000.svm.time: No such file or directory
cat: test6II_0001.svm.time: No such file or directory
cat: test6II_0002.svm.time: No such file or directory
cat: test6II_0003.svm.time: No such file or directory
cat: test6II_0004.svm.time: No such file or directory
cat: test6II_0005.svm.time: No such file or directory
cat: test6II_0006.svm.time: No such file or directory
cat: test6II_0007.svm.time: No such file or directory
cat: test6II_0008.svm.time: No such file or directory
cat: test6II_0009.svm.time: No such file or directory
cat: test7II_0000.svm.time: No such file or directory
cat: test7II_0001.svm.time: No such file or directory
cat: test7II_0002.svm.time: No such file or directory
cat: test7II_0003.svm.time: No such file or directory
cat: test7II_0004.svm.time: No such file or directory
cat: test7II_0005.svm.time: No such file or directory
cat: test7II_0006.svm.time: No such file or directory
cat: test7II_0007.svm.time: No such file or directory
cat: test7II_0008.svm.time: No such file or directory
cat: test7II_0009.svm.time: No such file or directory
cat: test8II_0000.svm.time: No such file or directory
cat: test8II_0001.svm.time: No such file or directory
cat: test8II_0002.svm.time: No such file or directory
cat: test8II_0003.svm.time: No such file or directory
cat: test8II_0004.svm.time: No such file or directory
cat: test8II_0005.svm.time: No such file or directory
cat: test8II_0006.svm.time: No such file or directory
cat: test8II_0007.svm.time: No such file or directory
cat: test8II_0008.svm.time: No such file or directory
cat: test8II_0009.svm.time: No such file or directory
cat: test9II_0000.svm.time: No such file or directory
cat: test9II_0001.svm.time: No such file or directory
cat: test9II_0002.svm.time: No such file or directory
cat: test9II_0003.svm.time: No such file or directory
cat: test9II_0004.svm.time: No such file or directory
cat: test9II_0005.svm.time: No such file or directory
cat: test9II_0006.svm.time: No such file or directory
cat: test9II_0007.svm.time: No such file or directory
cat: test9II_0008.svm.time: No such file or directory
cat: test9II_0009.svm.time: No such file or directory
0.099080
0.100490
0.100243
0.101148
0.102031
0.101837
0.103548
0.103147
0.103912
0.104843
0.106049
0.107794
0.107696
0.107517
0.109480
0.110357
0.110871
0.111568
0.110154
0.110309
0.110583
0.112441
0.111820
0.111817
0.113699
0.112367
0.114126
0.113447
0.113267
0.115091
0.118683
0.118600
0.119236
0.121109
0.121623
0.124171
0.123168
0.125187
0.123100
0.125384
0.126438
0.127433
0.127982
0.130728
0.129702
0.129814
0.130715
0.130265
0.131028
0.133127
