Full Time (seconds)
0.133279
Incremental Time - I
0.000268
0.000290
0.000448
0.000478
0.000512
0.000515
0.000598
0.000696
0.000659
0.000741
0.000857
0.001390
0.001609
0.002006
0.001966
0.002152
0.002364
0.002487
0.002566
0.002737
0.002911
0.004217
0.004804
0.005161
0.005567
0.005910
0.006239
0.006584
0.007122
0.007395
0.008138
0.009069
0.009590
0.009538
0.009795
0.010059
0.010743
0.010645
0.010822
0.010683
0.010705
0.012914
0.013599
0.014553
0.015098
0.014387
0.014603
0.014710
0.015890
0.016445
0.016250
0.019337
0.020292
0.021530
0.022760
0.023174
0.023842
0.024547
0.026058
0.026178
0.028159
0.030777
0.031675
0.031380
0.031808
0.031959
0.033195
0.032859
0.033720
0.033963
0.034436
0.038596
0.038324
0.041345
0.041229
0.043628
0.041810
0.042529
0.043206
0.043896
0.044971
0.049585
0.051203
0.051460
0.052946
0.054846
0.056010
0.057008
0.057839
0.057519
0.060230
0.061446
0.063663
0.064078
0.064715
0.067538
0.066935
0.069404
0.067455
0.069263
0.071209
0.074113
0.074189
0.078087
0.076080
0.080028
0.078766
0.078606
0.082399
0.080394
0.080975
0.086989
0.091500
0.090460
0.092334
0.096163
0.093543
0.097404
0.094853
0.098648
0.096250
0.096639
0.096860
0.096539
0.099879
0.097279
0.102080
0.097954
0.099197
0.099281
0.100205
0.104826
0.106079
0.106767
0.106642
0.108267
0.109720
0.111151
0.111472
0.112570
0.113565
Classification Time - C
cat: testS_0.svm.time: No such file or directory
cat: test1II_0000.svm.time: No such file or directory
cat: test1II_0001.svm.time: No such file or directory
cat: test1II_0002.svm.time: No such file or directory
cat: test1II_0003.svm.time: No such file or directory
cat: test1II_0004.svm.time: No such file or directory
cat: test1II_0005.svm.time: No such file or directory
cat: test1II_0006.svm.time: No such file or directory
cat: test1II_0007.svm.time: No such file or directory
cat: test1II_0008.svm.time: No such file or directory
cat: test1II_0009.svm.time: No such file or directory
cat: test2II_0000.svm.time: No such file or directory
cat: test2II_0001.svm.time: No such file or directory
cat: test2II_0002.svm.time: No such file or directory
cat: test2II_0003.svm.time: No such file or directory
cat: test2II_0004.svm.time: No such file or directory
cat: test2II_0005.svm.time: No such file or directory
cat: test2II_0006.svm.time: No such file or directory
cat: test2II_0007.svm.time: No such file or directory
cat: test2II_0008.svm.time: No such file or directory
cat: test2II_0009.svm.time: No such file or directory
cat: test3II_0000.svm.time: No such file or directory
cat: test3II_0001.svm.time: No such file or directory
cat: test3II_0002.svm.time: No such file or directory
cat: test3II_0003.svm.time: No such file or directory
cat: test3II_0004.svm.time: No such file or directory
cat: test3II_0005.svm.time: No such file or directory
cat: test3II_0006.svm.time: No such file or directory
cat: test3II_0007.svm.time: No such file or directory
cat: test3II_0008.svm.time: No such file or directory
cat: test3II_0009.svm.time: No such file or directory
cat: test4II_0000.svm.time: No such file or directory
cat: test4II_0001.svm.time: No such file or directory
cat: test4II_0002.svm.time: No such file or directory
cat: test4II_0003.svm.time: No such file or directory
cat: test4II_0004.svm.time: No such file or directory
cat: test4II_0005.svm.time: No such file or directory
cat: test4II_0006.svm.time: No such file or directory
cat: test4II_0007.svm.time: No such file or directory
cat: test4II_0008.svm.time: No such file or directory
cat: test4II_0009.svm.time: No such file or directory
cat: test5II_0000.svm.time: No such file or directory
cat: test5II_0001.svm.time: No such file or directory
cat: test5II_0002.svm.time: No such file or directory
cat: test5II_0003.svm.time: No such file or directory
cat: test5II_0004.svm.time: No such file or directory
cat: test5II_0005.svm.time: No such file or directory
cat: test5II_0006.svm.time: No such file or directory
cat: test5II_0007.svm.time: No such file or directory
cat: test5II_0008.svm.time: No such file or directory
cat: test5II_0009.svm.time: No such file or directory
cat: test6II_0000.svm.time: No such file or directory
cat: test6II_0001.svm.time: No such file or directory
cat: test6II_0002.svm.time: No such file or directory
cat: test6II_0003.svm.time: No such file or directory
cat: test6II_0004.svm.time: No such file or directory
cat: test6II_0005.svm.time: No such file or directory
cat: test6II_0006.svm.time: No such file or directory
cat: test6II_0007.svm.time: No such file or directory
cat: test6II_0008.svm.time: No such file or directory
cat: test6II_0009.svm.time: No such file or directory
cat: test7II_0000.svm.time: No such file or directory
cat: test7II_0001.svm.time: No such file or directory
cat: test7II_0002.svm.time: No such file or directory
cat: test7II_0003.svm.time: No such file or directory
cat: test7II_0004.svm.time: No such file or directory
cat: test7II_0005.svm.time: No such file or directory
cat: test7II_0006.svm.time: No such file or directory
cat: test7II_0007.svm.time: No such file or directory
cat: test7II_0008.svm.time: No such file or directory
cat: test7II_0009.svm.time: No such file or directory
cat: test8II_0000.svm.time: No such file or directory
cat: test8II_0001.svm.time: No such file or directory
cat: test8II_0002.svm.time: No such file or directory
cat: test8II_0003.svm.time: No such file or directory
cat: test8II_0004.svm.time: No such file or directory
cat: test8II_0005.svm.time: No such file or directory
cat: test8II_0006.svm.time: No such file or directory
cat: test8II_0007.svm.time: No such file or directory
cat: test8II_0008.svm.time: No such file or directory
cat: test8II_0009.svm.time: No such file or directory
cat: test9II_0000.svm.time: No such file or directory
cat: test9II_0001.svm.time: No such file or directory
cat: test9II_0002.svm.time: No such file or directory
cat: test9II_0003.svm.time: No such file or directory
cat: test9II_0004.svm.time: No such file or directory
cat: test9II_0005.svm.time: No such file or directory
cat: test9II_0006.svm.time: No such file or directory
cat: test9II_0007.svm.time: No such file or directory
cat: test9II_0008.svm.time: No such file or directory
cat: test9II_0009.svm.time: No such file or directory
0.095894
0.098665
0.099687
0.099881
0.100699
0.100860
0.102423
0.101735
0.102570
0.102845
0.107682
0.106821
0.109040
0.108062
0.108801
0.108636
0.110580
0.109938
0.110199
0.111516
0.112188
0.114413
0.114404
0.114547
0.115551
0.116818
0.118464
0.119052
0.120245
0.120966
0.123082
0.121766
0.121711
0.121537
0.124540
0.125354
0.122424
0.122650
0.126561
0.123435
0.126589
0.127742
0.128597
0.128505
0.129973
0.129794
0.130464
0.130221
0.132483
0.133118
