Full Accuracy
94.000000
Accuracy - I
50.000000
73.846153
79.307693
82.923080
84.923080
89.307693
90.076920
90.615387
90.384613
91.384613
91.692314
92.923073
93.461540
93.538460
93.307693
93.769226
94.000000
93.923080
94.384613
94.846153
94.769226
