Full Time (seconds)
0.141539
Incremental Time - I
0.005868
0.000329
0.000571
0.000816
0.002730
0.002173
0.002915
0.003490
0.003884
0.003955
0.004229
0.005475
0.005464
0.005946
0.006457
0.007611
0.008477
0.009116
0.009717
0.009777
0.010349
Classification Time - I
0.010064
0.015285
0.020866
0.026066
0.030232
0.035166
0.039907
0.044776
0.049745
0.054826
0.062009
0.070263
0.076846
0.083904
0.091534
0.099360
0.107067
0.114431
0.122237
0.130065
