Full Time (seconds)
0.142138
Incremental Time - I
0.001404
0.000324
0.000583
0.000806
0.002749
0.002154
0.003002
0.003406
0.003177
0.003825
0.004179
0.005745
0.005870
0.006062
0.006627
0.007278
0.008305
0.008434
0.009146
0.009709
0.010203
Classification Time - I
0.010128
0.015568
0.020480
0.026197
0.030289
0.035028
0.040150
0.044588
0.049563
0.054783
0.061752
0.069383
0.076571
0.086844
0.091676
0.099621
0.107242
0.114404
0.122192
0.135595
