Full Time (seconds)
0.143182
Incremental Time - I
0.004723
0.000328
0.000576
0.000832
0.002733
0.002044
0.002343
0.002522
0.003437
0.003994
0.004380
0.005741
0.005963
0.006221
0.006612
0.007078
0.007796
0.008441
0.009355
0.009806
0.010110
Classification Time - I
0.009996
0.015567
0.020895
0.025865
0.030069
0.036425
0.040204
0.044889
0.049932
0.054787
0.062268
0.069515
0.076914
0.084723
0.091911
0.099258
0.107803
0.115549
0.128085
0.130593
