Full Time (seconds)
0.316514
Time - I
0.250368
0.279460
0.311202
0.349854
0.384337
0.382251
0.444346
0.492648
0.519522
0.536420
0.575857
0.564857
0.627627
0.413824
0.609181
0.718634
0.574853
0.392363
0.348600
0.357244
0.355158
