Full Time (seconds)
0.456615
Time - I
0.014620
0.059015
0.103823
0.152359
0.211664
0.232197
0.287992
0.314273
0.356691
0.408348
0.458665
0.443001
0.447843
0.451800
0.390151
0.339796
0.321785
0.262436
0.369919
0.369535
0.460799
