Full Time (seconds)
0.135514
Incremental Time - I
0.006603
0.003269
0.007805
0.020485
0.022776
0.040809
0.051697
0.066396
0.060483
0.061023
0.071875
0.092938
0.106379
0.106464
0.116232
0.134363
0.166184
0.175036
0.160933
0.194702
0.223180
Classification Time - C
0.036424
0.056611
0.046309
0.057763
0.059006
0.076202
0.069276
0.075687
0.080685
0.088408
0.083719
0.094441
0.109455
0.108796
0.110598
0.102792
0.155506
0.136962
0.088712
0.130900
