Full Time (seconds)
0.014464
Incremental Time - I
0.001397
0.000469
0.000737
0.001025
0.002277
0.002929
0.003632
0.004494
0.005380
0.006559
0.007139
0.008403
0.009619
0.010730
0.011764
0.012986
0.014181
0.015455
0.016545
0.018365
0.019413
Classification Time - C
0.001663
0.002310
0.002922
0.005384
0.006203
0.006924
0.007688
0.008367
0.008832
0.009422
0.010215
0.010660
0.011253
0.011870
0.012396
0.012847
0.013303
0.013451
0.014112
0.014900
