Full Time (seconds)
0.105436
Time - I
0.003891
0.004669
0.005411
0.006187
0.006910
0.007719
0.008570
0.009211
0.009948
0.010694
0.011439
0.012314
0.012932
0.013742
0.014548
0.015196
0.015949
0.016709
0.017399
0.018199
0.019202
0.019909
0.020765
0.021564
0.022255
0.023085
0.023463
0.024206
0.024958
0.025758
0.026476
0.027550
0.028444
0.028727
0.029458
0.030297
0.031430
0.031771
0.033874
0.033410
0.034632
0.034799
0.035930
0.036199
0.037005
0.038068
0.039215
0.040507
0.040019
0.040724
0.042006
0.042733
0.043796
0.044023
0.045162
0.045883
0.046507
0.047086
0.047713
0.048417
0.048984
0.049715
0.051692
0.051931
0.052096
0.052797
0.053574
0.054281
0.055003
0.056788
0.056747
0.056757
0.058544
0.057309
0.057853
0.057990
0.058511
0.059728
0.059284
0.059778
0.060330
0.060964
0.062284
0.062585
0.064179
0.063977
0.064827
0.065420
0.066242
0.067744
0.067851
0.068786
0.069387
0.070411
0.070727
0.071966
0.072435
0.073371
0.073808
0.074512
0.076923
0.076645
0.078083
0.077509
0.078274
0.080207
0.080452
0.080556
0.081313
0.082470
0.083511
0.084014
0.087093
0.085749
0.085905
0.087261
0.087152
0.088052
0.095068
0.089779
0.090803
0.091640
0.091730
0.093329
0.093230
0.094502
0.094810
0.095614
0.096343
0.097012
0.097730
0.098476
0.099226
0.101810
0.101307
0.102598
0.102611
0.103562
0.103747
0.104545
0.105309
