Full Time (seconds)
0.105386
Time - I
0.003916
0.004677
0.005441
0.006192
0.006940
0.007712
0.008468
0.009205
0.010071
0.010732
0.011519
0.012324
0.013783
0.013897
0.014737
0.015582
0.015964
0.017517
0.017516
0.018754
0.019529
0.020618
0.020095
0.020479
0.021019
0.020847
0.021539
0.021820
0.021818
0.022939
0.023484
0.024183
0.025076
0.025611
0.025729
0.026471
0.028072
0.028872
0.028739
0.029824
0.030554
0.031900
0.031833
0.033042
0.034218
0.035096
0.035045
0.040090
0.036365
0.037139
0.038574
0.039813
0.039248
0.041270
0.042048
0.041950
0.042562
0.044343
0.046269
0.045553
0.045244
0.045988
0.047093
0.047451
0.049786
0.050628
0.051140
0.051037
0.051298
0.051867
0.052938
0.054857
0.054803
0.056294
0.058233
0.056423
0.057898
0.058993
0.059855
0.061374
0.060365
0.061235
0.061858
0.064470
0.063612
0.065688
0.065010
0.067983
0.066778
0.068599
0.068629
0.070815
0.069180
0.072211
0.071476
0.072460
0.074012
0.075370
0.075415
0.075920
0.075491
0.076052
0.078676
0.079675
0.085428
0.081827
0.082628
0.080988
0.081632
0.084701
0.082559
0.083504
0.084298
0.085170
0.092364
0.086524
0.096649
0.088740
0.090764
0.092867
0.099158
0.092018
0.101694
0.108819
0.093264
0.094259
0.098155
0.095516
0.106280
0.107895
0.097736
0.099393
0.102605
0.103718
0.101116
0.101662
0.102515
0.103850
0.104412
0.108374
0.108356
