Full Time (seconds)
0.105695
Time - I
0.003933
0.004686
0.005435
0.006359
0.006937
0.007684
0.008497
0.009216
0.010027
0.010715
0.011537
0.011866
0.012194
0.012444
0.012768
0.013096
0.013572
0.013836
0.014549
0.014829
0.015558
0.016369
0.017159
0.017453
0.018622
0.018931
0.019902
0.021070
0.021854
0.022888
0.023444
0.024181
0.025571
0.024911
0.026538
0.026454
0.028044
0.028918
0.029149
0.029744
0.031151
0.032026
0.032733
0.032712
0.033891
0.034541
0.035283
0.036059
0.037412
0.038150
0.037870
0.038542
0.040838
0.040603
0.042018
0.042000
0.043755
0.042953
0.043749
0.044812
0.046622
0.047453
0.048187
0.047839
0.048572
0.050727
0.051326
0.052095
0.052506
0.053035
0.054408
0.055245
0.055968
0.055107
0.057516
0.058506
0.057308
0.057924
0.059203
0.061720
0.060317
0.062906
0.063514
0.062426
0.063181
0.066029
0.066799
0.065467
0.066462
0.069357
0.067701
0.070355
0.069854
0.070235
0.070778
0.071501
0.072655
0.073121
0.076136
0.076986
0.075984
0.076079
0.079453
0.077602
0.080202
0.081815
0.082616
0.083584
0.083958
0.082113
0.084301
0.086202
0.084536
0.085855
0.088512
0.087783
0.088095
0.090882
0.091725
0.089515
0.090963
0.094108
0.091849
0.095537
0.093163
0.095366
0.096939
0.099055
0.103966
0.097887
0.101596
0.098619
0.099485
0.100237
0.101391
0.102336
0.101764
0.108044
0.106807
0.104353
0.111676
