Full Time (seconds)
0.209330
Incremental Time - I
0.114957
0.000073
0.000082
0.000088
0.000085
0.000087
0.000090
0.000097
0.000095
0.000098
0.000103
0.020014
0.045661
0.062521
0.087256
0.095395
0.104599
0.126007
0.156529
0.330512
0.305641
Classification Time - C
0.151319
0.012287
0.012315
0.012316
0.012305
0.012314
0.012331
0.012338
0.012827
0.012319
0.012333
0.024191
0.036642
0.048105
0.059219
0.065722
0.071630
0.085499
0.095417
0.204246
0.208794
