Full Accuracy
87.036766
Accuracy - I
50.000000
62.370346
69.144646
73.601067
75.811348
77.861603
78.766701
80.022232
82.458809
82.999672
83.038315
84.291084
84.440094
85.254135
85.899834
86.360657
86.804924
87.414764
87.326477
86.942932
87.036766
