Full Time (seconds)
0.434358
Incremental Time - I
0.450605
0.005231
0.005044
0.008514
0.008732
0.005093
0.005276
0.005594
0.005884
0.006109
0.005944
0.016607
0.017879
0.017040
0.050954
0.033413
0.030550
0.031406
0.030928
0.029249
0.030441
Classification Time - I
0.162685
0.165636
0.298521
0.320311
0.165186
0.171305
0.182246
0.196017
0.185036
0.191338
0.211095
0.236117
0.227721
0.655549
0.423144
0.389948
0.407702
0.405731
0.377096
0.385284
