Full Accuracy
91.153847
Accuracy - I
50.000000
51.307690
52.846153
53.615387
53.692307
53.769230
53.615387
53.538460
53.538460
53.384613
53.384621
53.461540
54.307693
54.692303
55.230766
55.923073
56.230770
56.846153
57.000000
57.076923
57.230770
57.538460
58.538460
58.615387
59.153851
59.384613
59.615387
60.000004
60.384613
60.615383
60.692303
62.923080
63.923080
63.769234
63.769234
63.769234
63.769234
63.769234
63.769234
63.769234
63.769234
63.769234
65.076920
65.923080
66.307693
66.461533
66.461533
66.615387
66.923073
66.923073
66.923073
67.692307
69.307693
70.000000
70.461540
70.538460
70.615387
70.615387
70.615379
70.692307
70.769234
70.923080
72.307693
72.692307
73.461540
73.538460
73.615387
74.000000
74.076920
74.076920
74.076920
74.846153
75.769226
76.230774
76.230774
76.615387
76.615387
76.769234
77.076927
77.076927
77.230766
77.307693
77.538460
78.230766
78.307693
78.384613
78.461540
79.076920
79.153847
79.230766
79.384621
79.307693
79.307693
79.461540
79.692307
79.692307
79.769226
79.692307
79.615387
79.615387
79.538460
80.923073
81.461540
82.692307
82.923080
82.923080
82.923080
82.923080
82.923080
83.000000
83.076927
82.923080
83.461540
83.923080
84.461540
84.615387
84.846153
84.769234
85.000000
85.230766
85.307693
88.461533
88.461533
88.461533
88.461533
88.538460
88.461533
88.230774
88.230774
88.153847
88.153847
89.615387
90.307693
91.230766
91.307693
91.230766
91.153847
91.076920
91.153847
91.307693
91.153847
