Full Time (seconds)
0.106812
Time - I
0.004654
0.005500
0.006289
0.007276
0.007922
0.008741
0.009529
0.010306
0.011139
0.011881
0.012687
0.013458
0.014147
0.014845
0.015584
0.016394
0.017502
0.017914
0.018619
0.019382
0.020112
0.021533
0.021667
0.022779
0.023114
0.024052
0.024642
0.026155
0.026900
0.027678
0.027867
0.028598
0.029276
0.031004
0.031868
0.032687
0.032879
0.033243
0.035025
0.034770
0.036598
0.036286
0.037262
0.039008
0.039761
0.040557
0.041349
0.041009
0.042907
0.043946
0.045103
0.044467
0.046000
0.045368
0.047549
0.046870
0.047596
0.049898
0.050651
0.051555
0.050615
0.053146
0.052150
0.053206
0.053669
0.056125
0.055294
0.055989
0.056982
0.059371
0.060095
0.058972
0.059816
0.062378
0.063137
0.063915
0.064867
0.065482
0.064289
0.066101
0.067850
0.066654
0.069503
0.070179
0.071035
0.069408
0.071826
0.074056
0.073025
0.073296
0.074870
0.075895
0.074212
0.076726
0.076911
0.074747
0.077120
0.078330
0.076871
0.079473
0.083575
0.085699
0.086561
0.080989
0.080450
0.081494
0.082216
0.082518
0.083490
0.087257
0.089663
0.085441
0.086477
0.086896
0.087579
0.089825
0.089080
0.089959
0.091037
0.092073
0.092972
0.094090
0.094233
0.098743
0.097164
0.095973
0.097057
0.100150
0.114285
0.098944
0.100185
0.101634
0.101915
0.102085
0.103785
0.106101
0.106497
0.107275
0.105778
0.107168
0.107567
