Full Time (seconds)
0.110060
Time - I
0.004456
0.005421
0.006379
0.007308
0.008196
0.009026
0.010164
0.010679
0.011472
0.012340
0.012972
0.013344
0.013555
0.013949
0.014349
0.014512
0.014946
0.015408
0.016074
0.016461
0.017113
0.017920
0.018234
0.019036
0.019800
0.020980
0.022148
0.021984
0.022815
0.023769
0.024892
0.025301
0.026109
0.026745
0.028200
0.028498
0.029885
0.030239
0.032832
0.031513
0.035897
0.033059
0.034373
0.034506
0.035276
0.036419
0.040792
0.037510
0.038336
0.039049
0.040359
0.041025
0.041387
0.042521
0.047444
0.047668
0.044388
0.045137
0.045862
0.046574
0.047349
0.050033
0.050096
0.049700
0.050487
0.052067
0.055551
0.058285
0.053476
0.054179
0.056584
0.057035
0.058330
0.057186
0.057979
0.058792
0.059754
0.060495
0.061644
0.061874
0.062722
0.063177
0.063883
0.067115
0.072774
0.066520
0.066977
0.069926
0.068587
0.071479
0.070018
0.072862
0.072715
0.072290
0.075340
0.073731
0.078177
0.075837
0.076963
0.076854
0.078079
0.078548
0.079258
0.080464
0.084865
0.081225
0.082121
0.083835
0.086276
0.084426
0.085801
0.085894
0.088927
0.089200
0.088113
0.091929
0.089532
0.090403
0.091096
0.091841
0.094180
0.093702
0.097227
0.096302
0.096055
0.096465
0.097526
0.098747
0.102737
0.101192
0.100758
0.101061
0.102474
0.103051
0.106868
0.104069
0.105161
0.105548
0.107955
0.107063
0.112777
