Full Time (seconds)
0.108289
Time - I
0.004586
0.005421
0.006277
0.007184
0.007998
0.008854
0.009650
0.010480
0.011646
0.011973
0.012775
0.013585
0.014397
0.015008
0.015814
0.016514
0.017284
0.018436
0.018994
0.019886
0.020291
0.021624
0.021746
0.009259
0.009505
0.009880
0.010192
0.010541
0.010828
0.011131
0.011142
0.011436
0.025982
0.026543
0.026770
0.027499
0.030738
0.034407
0.034640
0.035553
0.036494
0.036633
0.038363
0.038026
0.039850
0.039508
0.042009
0.041859
0.041752
0.043879
0.043615
0.044842
0.044830
0.045911
0.047761
0.049118
0.049266
0.048750
0.049510
0.051604
0.051620
0.052650
0.052425
0.054136
0.053979
0.054784
0.057117
0.058048
0.057011
0.059472
0.058433
0.060985
0.060295
0.061157
0.061632
0.062959
0.063283
0.063639
0.064578
0.065726
0.065873
0.067253
0.067712
0.069916
0.069146
0.069806
0.072680
0.072530
0.072638
0.074475
0.074318
0.076606
0.077418
0.076177
0.078894
0.079813
0.077929
0.080562
0.082152
0.082826
0.083763
0.084371
0.084047
0.082775
0.082162
0.085155
0.083063
0.088578
0.083780
0.084304
0.084823
0.085574
0.086236
0.087020
0.087770
0.088529
0.091187
0.089972
0.090744
0.091520
0.092348
0.093188
0.094690
0.096310
0.096976
0.096211
0.096901
0.097609
0.099144
0.099099
0.099864
0.100594
0.101720
0.102226
0.102921
0.104018
0.104372
0.107201
0.105945
0.110545
0.107944
