Full Time (seconds)
0.107318
Time - I
0.004563
0.005409
0.006256
0.007177
0.007964
0.008754
0.009555
0.010407
0.011156
0.011888
0.012743
0.013419
0.014300
0.015178
0.015674
0.016786
0.017649
0.018592
0.019034
0.020265
0.020798
0.020990
0.022268
0.022711
0.023392
0.024498
0.024949
0.025651
0.026442
0.027215
0.028052
0.029386
0.029460
0.031110
0.031973
0.032014
0.032759
0.033904
0.034417
0.035175
0.035630
0.036719
0.037175
0.039133
0.040247
0.039761
0.040833
0.041259
0.042302
0.042594
0.043757
0.044260
0.044672
0.046127
0.046294
0.047375
0.048110
0.048890
0.049231
0.050406
0.051822
0.051702
0.054024
0.053248
0.055457
0.055041
0.055322
0.056077
0.056824
0.057720
0.058648
0.058573
0.058839
0.059268
0.059563
0.060032
0.060626
0.060652
0.061174
0.063555
0.062067
0.062774
0.063898
0.066434
0.066307
0.065843
0.068695
0.067588
0.070352
0.069911
0.071832
0.070999
0.071089
0.072678
0.073248
0.073910
0.076849
0.077315
0.075829
0.079124
0.079845
0.078622
0.079377
0.081955
0.084278
0.080928
0.082915
0.083633
0.083319
0.085778
0.084754
0.086073
0.088616
0.086796
0.088105
0.089735
0.089450
0.090439
0.091253
0.092473
0.093180
0.093803
0.096103
0.097787
0.096748
0.096298
0.097401
0.100895
0.099300
0.100356
0.099851
0.102352
0.102259
0.102241
0.104549
0.105722
0.104798
0.107238
0.106842
0.108490
0.111166
