Full Time (seconds)
0.174844
Time - I
0.214192
0.236949
0.273168
0.279121
0.294681
0.315080
0.293793
0.303911
0.353328
0.275889
0.264417
0.260555
0.247367
0.226697
0.227867
0.218790
0.210409
0.203899
0.197042
0.194396
0.186541
