Full Accuracy
93.000000
Accuracy - I
50.000000
57.615383
71.230766
75.307693
77.923080
82.384613
84.230766
84.538460
86.307693
87.230774
87.846153
88.846153
90.000000
90.846153
91.153847
91.615387
92.076920
92.384613
93.000000
93.153847
93.000000
