Full Time (seconds)
0.106395
Time - I
0.004173
0.008500
0.012694
0.016910
0.021359
0.024964
0.029399
0.033101
0.038112
0.041612
0.045277
0.044275
0.050055
0.068991
0.069312
0.075639
0.081579
0.094323
0.094110
0.100218
0.106462
