Full Time (seconds)
0.002776
Time - I
0.000442
0.000509
0.000559
0.000614
0.000668
0.000735
0.000798
0.000987
0.000940
0.000993
0.001059
0.001085
0.001110
0.001134
0.001164
0.001238
0.001241
0.001090
0.001311
0.001355
0.001396
0.001532
0.001676
0.001820
0.001942
0.002067
0.002194
0.002330
0.002511
0.002642
0.002753
