Full Time (seconds)
0.020936
Time - I
0.004465
0.004813
0.005202
0.005629
0.006006
0.006468
0.006827
0.007263
0.007622
0.008207
0.008625
0.008867
0.009256
0.009822
0.010047
0.010506
0.011438
0.011666
0.011650
0.012553
0.013020
0.012903
0.013206
0.013881
0.014697
0.014420
0.014802
0.015589
0.015604
0.016243
0.016440
