Full Time (seconds)
0.016442
Time - I
0.002350
0.003187
0.004058
0.004823
0.005656
0.006451
0.007240
0.008386
0.011758
0.010815
0.013196
0.010583
0.013132
0.013453
0.011202
0.011716
0.012043
0.011812
0.012002
0.012266
0.012971
0.013497
0.013222
0.013572
0.013981
0.014436
0.014789
0.015988
0.015615
0.016290
0.017282
