Full Time (seconds)
0.033142
Incremental Time - I
0.063023
0.000570
0.000523
0.000675
0.000821
0.000852
0.000880
0.001169
0.001068
0.001086
0.001239
0.001221
0.001498
0.001291
0.001352
0.001380
0.001688
0.002005
0.001948
0.002012
0.002053
Classification Time - I
0.005406
0.006051
0.009031
0.011277
0.012262
0.013554
0.014536
0.015828
0.017020
0.017539
0.018584
0.021119
0.020688
0.021706
0.023077
0.024188
0.025279
0.026852
0.028525
0.029727
