Full Time (seconds)
0.444228
Time - I
0.132849
0.201114
0.229366
0.268925
0.273230
0.108953
0.361513
0.394705
0.418255
0.402715
0.492056
0.467510
0.561972
0.501906
0.326476
0.413007
0.374530
0.724114
0.581590
0.499281
0.743117
