Full Accuracy
84.561043
Accuracy - I
50.000000
84.837532
85.234413
83.806816
82.527954
85.212158
85.687706
85.687706
85.418030
84.882103
85.956238
85.956238
86.525719
83.721893
84.228836
84.197571
85.543098
85.543098
85.574364
85.574364
85.067421
