Full Time (seconds)
0.005675
Incremental Time - I
0.000613
0.000083
0.000095
0.000106
0.000117
0.000131
0.000141
0.000194
0.000161
0.000171
0.000186
0.000276
0.000222
0.000447
0.000387
0.000399
0.000424
0.000585
0.000514
0.000523
0.000595
Classification Time - I
0.000762
0.000946
0.001152
0.001340
0.001457
0.001627
0.001835
0.002012
0.002173
0.002338
0.002521
0.002756
0.002942
0.003107
0.003364
0.003566
0.003895
0.004213
0.004519
0.004834
