Full Time (seconds)
0.002807
Time - I
0.000413
0.000578
0.000515
0.000494
0.000534
0.000546
0.000572
0.000651
0.000656
0.000684
0.000727
0.000822
0.000869
0.000950
0.001027
0.001103
0.001175
0.001232
0.001303
0.001365
0.001459
0.001573
0.001765
0.001856
0.002259
0.002128
0.002225
0.002400
0.002526
0.003112
0.002801
