Full Time (seconds)
0.005660
Incremental Time - I
0.000623
0.000085
0.000098
0.000110
0.000116
0.000130
0.000145
0.000146
0.000161
0.000172
0.000184
0.000189
0.000221
0.000490
0.000409
0.000443
0.000414
0.000457
0.000500
0.000533
0.000547
Classification Time - I
0.000772
0.000946
0.001150
0.001297
0.001884
0.001629
0.001820
0.002011
0.002193
0.002347
0.002509
0.002724
0.002983
0.003141
0.003334
0.003617
0.003888
0.004207
0.004508
0.004832
