Full Time (seconds)
0.363331
Time - I
0.014691
0.039003
0.060293
0.086348
0.103863
0.128954
0.151281
0.169878
0.191705
0.183300
0.199624
0.264843
0.284238
0.299931
0.292878
0.362430
0.349107
0.363318
0.414738
0.437478
0.416710
