Full Time (seconds)
0.052317
Time - I
0.004575
0.002594
0.003001
0.003410
0.003802
0.004211
0.004590
0.005011
0.005379
0.005739
0.006101
0.006465
0.006850
0.007207
0.007594
0.007922
0.008305
0.008670
0.009057
0.009454
0.009787
0.010132
0.010501
0.010931
0.011239
0.011650
0.012007
0.012389
0.012767
0.013075
0.013490
0.013874
0.014279
0.014706
0.015137
0.015645
0.015790
0.016139
0.016565
0.016891
0.017560
0.017652
0.018082
0.018379
0.018756
0.019214
0.019459
0.019945
0.020248
0.020698
0.044638
0.021382
0.021835
0.022372
0.022433
0.022856
0.023186
0.023567
0.023916
0.024380
0.024658
0.025389
0.025424
0.025791
0.026241
0.026471
0.026908
0.027307
0.058439
0.028015
0.028340
0.028690
0.029402
0.029468
0.029937
0.030117
0.030525
0.030861
0.031443
0.031772
0.068128
0.067257
0.032825
0.033168
0.033476
0.033848
0.034694
0.034611
0.035019
0.035353
0.035864
0.036062
0.036486
0.036959
0.081345
0.038067
0.037994
0.038203
0.039741
0.038995
0.040056
0.039707
0.039739
0.040043
0.040357
0.040097
0.040354
0.040526
0.040900
0.041165
0.041710
0.042055
0.042112
0.042528
0.042744
0.043168
0.043973
0.043662
0.044479
0.044774
0.044936
0.045396
0.045975
0.046372
0.046551
0.046779
0.047332
0.047974
0.047849
0.048303
0.048655
0.049153
0.049704
0.049689
0.050322
0.050372
0.050912
0.051289
0.051642
0.108061
0.052713
