Full Time (seconds)
0.052421
Time - I
0.004656
0.002593
0.003001
0.003373
0.003742
0.004138
0.004488
0.004885
0.005228
0.005671
0.005986
0.006380
0.006794
0.007113
0.007516
0.007843
0.008213
0.008653
0.008921
0.009432
0.009672
0.010073
0.010447
0.010853
0.011213
0.011614
0.011917
0.012301
0.012612
0.013060
0.013401
0.013529
0.013765
0.013964
0.014082
0.014240
0.014334
0.014566
0.014842
0.015056
0.015286
0.015684
0.015980
0.016438
0.016883
0.017241
0.017444
0.017791
0.018267
0.018661
0.019068
0.019343
0.019712
0.020125
0.020933
0.020952
0.021155
0.021518
0.021950
0.022450
0.022758
0.022997
0.023930
0.023749
0.024186
0.024555
0.024967
0.025268
0.025661
0.025993
0.026792
0.026708
0.027083
0.027564
0.028014
0.028268
0.028737
0.029106
0.029269
0.029633
0.030407
0.030419
0.030922
0.031323
0.032145
0.031887
0.032139
0.032689
0.033248
0.033435
0.033640
0.034140
0.034502
0.034719
0.035286
0.035627
0.035976
0.036459
0.036800
0.037046
0.037382
0.038000
0.038229
0.038722
0.038790
0.039338
0.039545
0.040070
0.040427
0.041056
0.041058
0.041610
0.041995
0.042424
0.042646
0.043084
0.043882
0.043517
0.044130
0.044456
0.045040
0.046123
0.045495
0.045976
0.046377
0.046948
0.046866
0.047378
0.048081
0.048092
0.048729
0.048904
0.049845
0.049692
0.050169
0.050505
0.050959
0.051506
0.051351
0.051992
0.052431
