Full Time (seconds)
0.052390
Time - I
0.004455
0.002565
0.003006
0.003456
0.003868
0.004233
0.004645
0.005016
0.005413
0.005779
0.006195
0.006308
0.006440
0.006580
0.006924
0.006884
0.007168
0.007331
0.007672
0.007809
0.008028
0.008427
0.008787
0.009186
0.009512
0.009894
0.010258
0.010587
0.010959
0.011314
0.011738
0.012153
0.012614
0.012885
0.013249
0.013653
0.014055
0.014426
0.014820
0.015164
0.015523
0.015949
0.016286
0.016630
0.016983
0.017548
0.017740
0.018212
0.018460
0.018841
0.019217
0.019582
0.020050
0.020302
0.020735
0.021134
0.021501
0.021867
0.022718
0.022571
0.022946
0.023282
0.023643
0.024020
0.024341
0.024742
0.025228
0.025507
0.026025
0.026347
0.026797
0.027109
0.027420
0.027667
0.028270
0.028555
0.028897
0.029251
0.029757
0.029961
0.030761
0.030677
0.031255
0.031447
0.031748
0.068254
0.033376
0.033074
0.033699
0.033597
0.033975
0.034235
0.034993
0.035332
0.035625
0.035901
0.036274
0.036838
0.036969
0.037397
0.037983
0.038089
0.038718
0.038884
0.039318
0.039622
0.039841
0.040739
0.040816
0.041217
0.041663
0.041813
0.042239
0.042743
0.043189
0.043146
0.043636
0.044015
0.044675
0.049312
0.045265
0.045638
0.045753
0.046412
0.046895
0.047039
0.047533
0.048132
0.048073
0.048815
0.049073
0.049089
0.050426
0.050093
0.050168
0.050649
0.051206
0.051728
0.052118
0.052300
0.052648
