Full Time (seconds)
0.002833
Time - I
0.000417
0.000455
0.000467
0.000496
0.000522
0.000565
0.000573
0.000605
0.000643
0.000741
0.000779
0.000860
0.001040
0.000959
0.001046
0.001468
0.001176
0.001382
0.001319
0.001445
0.001575
0.001646
0.001723
0.001833
0.003213
0.002102
0.002262
0.002393
0.002564
0.002684
0.003235
