Full Time (seconds)
0.002790
Time - I
0.000829
0.000936
0.000991
0.001050
0.001063
0.001131
0.001246
0.001257
0.001579
0.001441
0.001518
0.001496
0.001614
0.001838
0.001851
0.001771
0.001823
0.001899
0.002187
0.002049
0.002082
0.002163
0.002250
0.002293
0.002357
0.002490
0.002482
0.002562
0.002625
0.002701
0.002797
