Full Time (seconds)
0.002610
Time - I
0.000697
0.000748
0.000798
0.000854
0.000895
0.000963
0.001042
0.001083
0.001156
0.001210
0.001274
0.001333
0.001815
0.001462
0.002716
0.001569
0.001654
0.001716
0.001799
0.001825
0.002851
0.001964
0.003655
0.002095
0.002170
0.002217
0.002284
0.002353
0.002392
0.002483
0.002561
