Full Time (seconds)
0.002548
Time - I
0.000356
0.000402
0.000455
0.000506
0.000552
0.000614
0.000677
0.000794
0.000803
0.000865
0.000982
0.000949
0.001034
0.000998
0.001043
0.001067
0.001152
0.001137
0.001165
0.001200
0.000709
0.001383
0.001517
0.001645
0.001766
0.001153
0.001994
0.002157
0.002270
0.002442
0.002552
