Full Time (seconds)
0.032432
Incremental Time - I
0.063129
0.001331
0.001293
0.001291
0.001260
0.001333
0.001328
0.001430
0.001466
0.001541
0.001491
0.001585
0.001584
0.001631
0.001604
0.001729
0.001703
0.001662
0.001642
0.001755
0.001842
0.001867
0.001585
0.001884
0.001840
0.001373
0.002419
0.002032
0.002056
0.002016
0.002144
Classification Time - I
0.007662
0.008355
0.009089
0.009733
0.010451
0.012606
0.012691
0.014276
0.014446
0.014749
0.015440
0.015939
0.016768
0.017456
0.018158
0.018484
0.019272
0.020210
0.020646
0.022160
0.022904
0.023933
0.024194
0.024990
0.027407
0.026021
0.026686
0.028373
0.029231
0.029432
