Full Time (seconds)
0.109933
Time - I
0.004299
0.004593
0.004897
0.005329
0.005580
0.005894
0.006349
0.006877
0.007296
0.007782
0.008255
0.009017
0.009750
0.010503
0.011303
0.012074
0.012819
0.013458
0.014409
0.015245
0.016069
0.016517
0.017492
0.018466
0.018921
0.020014
0.020365
0.021191
0.021878
0.023110
0.023386
0.024244
0.024876
0.026453
0.026547
0.027345
0.028109
0.028697
0.030289
0.030562
0.031228
0.031968
0.032519
0.034365
0.035024
0.035059
0.036648
0.036591
0.037288
0.038150
0.038528
0.039487
0.041223
0.040810
0.042844
0.042642
0.043363
0.043836
0.045514
0.049321
0.046473
0.047304
0.047892
0.049140
0.049190
0.051522
0.050624
0.052231
0.052232
0.053160
0.054002
0.055013
0.056879
0.055841
0.058911
0.057341
0.058046
0.059256
0.060033
0.060777
0.061606
0.062529
0.064644
0.063362
0.066797
0.064839
0.067806
0.066971
0.068449
0.068345
0.069170
0.071654
0.070152
0.071852
0.072075
0.072895
0.073365
0.074670
0.075208
0.078410
0.078638
0.080032
0.080222
0.079170
0.082941
0.080284
0.081252
0.082893
0.082630
0.085754
0.083703
0.085939
0.086081
0.086709
0.087793
0.090519
0.091287
0.090191
0.089338
0.092920
0.093657
0.092682
0.094460
0.093496
0.095002
0.095024
0.096553
0.097523
0.100589
0.099968
0.099037
0.100153
0.101013
0.102192
0.101687
0.106115
0.104447
0.104009
0.105640
0.107510
0.107362
