Full Time (seconds)
0.105956
Time - I
0.004308
0.005144
0.005851
0.006657
0.007397
0.008327
0.008923
0.009759
0.010541
0.011325
0.012071
0.012853
0.013550
0.014456
0.015113
0.016154
0.016580
0.017328
0.018483
0.018849
0.019712
0.020698
0.021104
0.021947
0.022688
0.023453
0.024460
0.024898
0.025712
0.026454
0.027329
0.027781
0.029145
0.029349
0.030420
0.031473
0.032076
0.032806
0.033418
0.034207
0.034947
0.035683
0.036497
0.037576
0.038021
0.038668
0.040461
0.041222
0.041379
0.042169
0.042538
0.043230
0.044335
0.044830
0.045585
0.046345
0.047024
0.047570
0.048278
0.048987
0.050103
0.050911
0.054626
0.052459
0.053655
0.053861
0.054752
0.056799
0.056752
0.056860
0.057767
0.058534
0.059973
0.060147
0.060738
0.062542
0.062219
0.063965
0.065366
0.064100
0.066924
0.065960
0.067428
0.067537
0.068265
0.068965
0.069210
0.072618
0.070792
0.071529
0.076626
0.073535
0.074400
0.074659
0.076664
0.076123
0.077038
0.078329
0.078881
0.079601
0.080452
0.081047
0.081997
0.084865
0.082850
0.086400
0.084986
0.085788
0.087262
0.086937
0.088013
0.088087
0.088918
0.090295
0.091001
0.092067
0.092575
0.093520
0.093391
0.094623
0.095084
0.096425
0.097808
0.097914
0.097989
0.099591
0.099703
0.100298
0.101571
0.102793
0.103236
0.104824
0.103644
0.103414
0.103604
0.104953
0.105239
0.105905
0.105526
0.109448
0.107306
