Full Time (seconds)
0.212167
Incremental Time - I
cat: testS_0.svm.time: No such file or directory
0.061728
0.150767
0.246086
0.336643
0.562490
Classification Time - C
0.162306
0.219078
0.231533
0.383031
0.230083
