Full Time (seconds)
0.187649
Incremental Time - I
0.019294
0.000025
0.000028
0.000029
0.000029
0.000033
0.000039
0.000034
0.000031
0.000040
0.000034
0.052084
0.056717
0.123742
0.071128
0.108835
0.126563
0.153926
0.155870
0.163374
0.176042
Classification Time - C
0.130558
0.032353
0.034835
0.035384
0.035481
0.031610
0.028158
0.016791
0.034275
0.033916
0.035692
0.046986
0.128444
0.133783
0.165491
0.127137
0.171313
0.442069
0.124564
0.124650
0.136913
