Full Time (seconds)
0.032583
Incremental Time - I
0.006432
0.000364
0.000460
0.000817
0.000814
0.000937
0.001042
0.001135
0.001282
0.001401
0.001502
0.000881
0.000901
0.000917
0.000961
0.001001
0.001076
0.001116
0.001134
0.001187
0.001191
0.000691
0.000688
0.000699
0.000712
0.000725
0.000745
0.000734
0.000823
0.000837
0.000839
Classification Time - I
0.005012
0.006344
0.007546
0.009047
0.010675
0.012134
0.013741
0.015623
0.017043
0.018617
0.019370
0.020147
0.020460
0.021280
0.022337
0.022687
0.024006
0.024647
0.025612
0.026096
0.026127
0.027077
0.027040
0.027246
0.027669
0.028676
0.028403
0.028785
0.029114
0.029619
