Full Time (seconds)
0.105992
Time - I
0.004287
0.005114
0.005997
0.006732
0.007650
0.008327
0.009077
0.009838
0.010632
0.011412
0.012161
0.012861
0.013760
0.014375
0.015556
0.015990
0.016831
0.017639
0.018147
0.019059
0.019797
0.020498
0.021519
0.021927
0.022695
0.023738
0.024193
0.024869
0.025656
0.027061
0.027144
0.027954
0.028753
0.029527
0.030366
0.031080
0.032133
0.033124
0.033338
0.034374
0.035562
0.036754
0.036381
0.037185
0.037935
0.039442
0.039447
0.040315
0.041381
0.041722
0.042449
0.043213
0.044122
0.044901
0.045592
0.046237
0.046991
0.047716
0.048430
0.050180
0.050213
0.050748
0.051946
0.052227
0.052986
0.055480
0.056189
0.055639
0.057289
0.056746
0.058489
0.060105
0.059052
0.059848
0.060874
0.061466
0.062040
0.062761
0.063707
0.065373
0.065007
0.066121
0.066486
0.067299
0.072015
0.068787
0.070379
0.070991
0.070970
0.072164
0.072573
0.073300
0.074120
0.074818
0.077095
0.076259
0.077004
0.077751
0.078567
0.079236
0.081670
0.081097
0.080646
0.080943
0.081257
0.082883
0.082004
0.082409
0.082941
0.083732
0.085516
0.084543
0.085377
0.085991
0.086909
0.087790
0.093565
0.090053
0.089838
0.090523
0.093205
0.092119
0.092940
0.094005
0.094330
0.100751
0.096393
0.096734
0.097505
0.098100
0.099243
0.099735
0.102322
0.101868
0.102172
0.102629
0.103473
0.104127
0.105559
0.106334
0.107339
