Full Time (seconds)
0.105987
Time - I
0.004349
0.005112
0.005872
0.006681
0.007422
0.008213
0.008941
0.010133
0.010478
0.011257
0.011993
0.012766
0.013540
0.014438
0.015253
0.015760
0.016902
0.017616
0.018007
0.019257
0.019584
0.020708
0.020995
0.021754
0.022965
0.023575
0.024017
0.024787
0.025504
0.026302
0.027112
0.027778
0.027740
0.027914
0.028296
0.029251
0.028994
0.030393
0.030360
0.030397
0.030876
0.031565
0.033346
0.034118
0.033834
0.034616
0.035801
0.036129
0.036846
0.038435
0.038489
0.040390
0.039901
0.041451
0.041603
0.043477
0.042938
0.043626
0.044923
0.045154
0.045971
0.049204
0.048944
0.049699
0.049047
0.049847
0.052017
0.051367
0.053450
0.052707
0.053452
0.056006
0.054954
0.057505
0.058327
0.057268
0.059905
0.059822
0.059547
0.060249
0.062103
0.063947
0.062957
0.063563
0.064675
0.064998
0.065536
0.066549
0.067609
0.068036
0.068564
0.069229
0.072291
0.072041
0.071511
0.073393
0.075537
0.075032
0.076932
0.076909
0.076040
0.076689
0.077604
0.078799
0.081758
0.081220
0.085046
0.081308
0.084975
0.083339
0.083526
0.084355
0.085084
0.085781
0.086938
0.087267
0.088103
0.089078
0.089894
0.090227
0.091519
0.092248
0.092601
0.094558
0.096593
0.095268
0.096142
0.099319
0.106414
0.098008
0.098559
0.099425
0.100139
0.101489
0.102381
0.103906
0.103171
0.105085
0.104719
0.105463
0.106496
