Full Time (seconds)
0.107286
Time - I
0.004262
0.005060
0.005844
0.006658
0.007407
0.008201
0.008960
0.009832
0.010513
0.011267
0.012022
0.012798
0.013515
0.014405
0.015123
0.016043
0.016546
0.017302
0.018189
0.018772
0.019534
0.020478
0.021644
0.022421
0.023205
0.024812
0.024061
0.024828
0.025606
0.026389
0.028498
0.027862
0.028664
0.029521
0.030239
0.030963
0.031776
0.032457
0.034263
0.035035
0.035879
0.035692
0.036705
0.037070
0.038158
0.038634
0.039303
0.040126
0.041218
0.042860
0.042334
0.044429
0.045162
0.044957
0.045709
0.046765
0.046980
0.047624
0.048401
0.049522
0.049836
0.052204
0.051645
0.052119
0.052914
0.053921
0.054511
0.055766
0.057670
0.056638
0.057827
0.060282
0.060466
0.062952
0.063062
0.061395
0.063536
0.063201
0.064457
0.064157
0.064977
0.065254
0.065553
0.067663
0.066127
0.066836
0.067022
0.067951
0.067947
0.068211
0.071598
0.069475
0.070207
0.070988
0.071648
0.072730
0.073340
0.076461
0.076969
0.076676
0.078666
0.079757
0.078605
0.078492
0.079340
0.081365
0.081377
0.081440
0.084019
0.087257
0.083814
0.084518
0.088437
0.085976
0.087403
0.087517
0.088246
0.089111
0.089708
0.091015
0.091214
0.092360
0.095941
0.096881
0.095243
0.101252
0.095732
0.096550
0.097678
0.097997
0.098819
0.100059
0.103783
0.104762
0.102257
0.102397
0.106883
0.104423
0.109324
0.109310
0.107532
