Full Time (seconds)
0.605201
Incremental Time - I
0.686485
0.011672
0.017805
0.018310
0.016929
0.028058
0.025163
0.022531
0.023109
0.020376
0.020321
0.033009
0.019952
0.035051
0.037373
0.037612
0.039326
0.023589
0.021718
0.017785
0.016859
Classification Time - I
0.296024
0.340238
0.348796
0.423539
0.504264
0.462864
0.412437
0.618451
0.568652
0.790586
0.816031
0.483879
0.846285
0.877336
0.723922
0.776253
0.532258
0.489452
0.384492
0.990922
