Full Time (seconds)
0.311001
Incremental Time - I
0.000121
0.000095
0.000131
0.000161
0.000309
0.000373
0.000466
0.000484
0.000548
0.000605
0.000886
0.000931
0.001056
0.001497
0.001511
0.001752
0.002477
0.003050
0.002796
0.003329
0.003610
0.003788
0.002443
0.004157
0.004469
0.005122
0.005408
0.005816
0.006628
0.006862
0.007878
0.010216
0.009219
0.008699
0.007094
0.006431
0.010833
0.011569
0.025595
0.007569
0.016481
0.016494
0.014752
0.011025
0.016106
0.017149
0.010560
0.018503
0.018985
0.037842
0.035061
0.021727
0.023565
0.023381
0.028220
0.014565
0.031534
0.036695
0.046267
0.040724
0.035508
0.041775
0.025255
0.021290
0.047142
0.055669
0.053343
0.021896
0.058113
0.045956
0.053574
0.064429
0.062808
0.066669
0.067398
0.027079
0.050687
0.059761
0.052025
0.032560
0.054093
0.060633
0.035230
0.060436
0.041257
0.084195
0.049768
0.077890
0.069458
0.066318
0.118548
0.099074
0.100574
0.099602
0.048393
0.048869
0.101066
0.104038
0.046514
0.141836
0.099257
0.146760
0.179664
0.150644
0.127805
0.126566
0.098105
0.139607
0.124446
0.137954
0.134922
0.183979
0.123093
0.116264
0.147424
0.131491
0.187760
0.119492
0.151371
0.137129
0.191600
0.122018
0.085796
0.179873
0.204780
0.160934
0.105380
0.177061
0.162104
0.145027
0.145950
0.134847
0.191396
0.172279
0.211389
0.181322
0.160923
0.155208
0.161632
0.107228
0.199799
0.123580
0.204486
0.255148
0.187103
0.186142
0.183315
0.182620
0.185714
0.193271
0.199579
0.206920
0.147885
0.258624
0.275162
0.294492
0.293652
0.254606
0.463469
0.294503
0.201568
0.185328
0.261370
0.303488
0.268494
0.234727
0.265467
0.374742
0.290475
0.255986
0.269386
0.414364
0.280931
0.205706
0.258265
0.266625
0.295257
0.268010
0.186961
0.296234
0.154927
0.287906
0.282911
0.285333
0.200177
0.304402
0.334815
0.277847
0.318601
0.309653
0.246513
0.253780
0.386304
0.548670
0.369301
0.220985
0.335025
0.356829
0.374109
0.372188
0.309328
0.341176
0.227109
0.373416
0.412149
0.437585
0.525632
0.320947
0.426395
0.332007
0.381569
Classification Time - C
0.051436
0.041388
0.039648
0.054105
0.047785
0.063426
0.055353
0.046380
0.047068
0.036423
0.045496
0.040875
0.074928
0.047661
0.049793
0.069037
0.061108
0.076085
0.057976
0.054502
0.057573
0.055767
0.032003
0.063479
0.074160
0.062314
0.120553
0.063076
0.064133
0.079975
0.106996
0.068857
0.067912
0.079497
0.051957
0.058745
0.073419
0.074965
0.078316
0.062226
0.099801
0.080502
0.083422
0.043815
0.085892
0.080893
0.095276
0.086131
0.084084
0.084705
0.044535
0.087784
0.094742
0.091765
0.091307
0.071235
0.058292
0.110563
0.134829
0.098247
0.123867
0.117051
0.068308
0.116938
0.136925
0.166019
0.148909
0.161867
0.193469
0.131412
0.118598
0.205980
0.241371
0.155895
0.209740
0.100523
0.123848
0.131683
0.060819
0.140330
0.083332
0.096589
0.078707
0.124512
0.133702
0.145476
0.111184
0.126141
0.135635
0.141840
0.100093
0.150383
0.180743
0.151565
0.095957
0.134549
0.148151
0.155063
0.070807
0.211005
0.189717
0.156000
0.195898
0.199390
0.199269
0.224971
0.198834
0.165992
0.118128
0.222633
0.175906
0.205382
0.082301
0.174428
0.181923
0.190657
0.195888
0.219498
0.235431
0.240754
0.137480
0.116978
0.202059
0.209702
0.165765
0.212668
0.214050
0.220782
0.149129
0.163093
0.174859
0.132090
0.182268
0.205531
0.120328
0.215792
0.194076
0.132164
0.185871
0.177915
0.199971
0.185280
0.191786
0.224723
0.198299
0.116156
0.166656
0.224826
0.199332
0.215023
0.134035
0.162623
0.179121
0.112715
0.289039
0.363304
0.224136
0.320844
0.231772
0.321317
0.302638
0.217733
0.218733
0.357629
0.257714
0.277570
0.228602
0.254115
0.224454
0.254691
0.124777
0.233384
0.252555
0.229290
0.231400
0.222037
0.342305
0.175933
0.279781
0.239226
0.203839
0.243642
0.244869
0.138591
0.158851
0.246188
0.242836
0.184751
0.248858
0.275006
0.230381
0.280013
0.350862
0.212531
0.269715
0.255083
0.363389
0.386075
0.306037
0.283505
0.243552
0.303281
0.285404
0.291871
0.280667
0.286200
0.332057
0.291947
0.214939
0.360505
0.280606
