Full Time (seconds)
0.106794
Time - I
0.004552
0.005392
0.006276
0.007081
0.007893
0.008738
0.009548
0.010355
0.011152
0.011869
0.012718
0.013461
0.014108
0.014946
0.015689
0.016572
0.017110
0.017895
0.019161
0.019353
0.020193
0.020897
0.022345
0.023061
0.023144
0.024633
0.025363
0.026140
0.026780
0.026891
0.028744
0.029313
0.030162
0.031124
0.030935
0.032648
0.033505
0.033317
0.035190
0.034899
0.035643
0.036394
0.037155
0.037851
0.039786
0.039775
0.041314
0.041460
0.041673
0.043761
0.044484
0.044399
0.045466
0.045589
0.047660
0.047360
0.048372
0.048758
0.050695
0.050062
0.050948
0.051545
0.052769
0.053167
0.053982
0.055875
0.056200
0.057897
0.056850
0.058049
0.058346
0.060083
0.060520
0.060763
0.061697
0.062462
0.064892
0.063539
0.065425
0.065085
0.065858
0.066144
0.066698
0.066884
0.069266
0.068006
0.068043
0.068277
0.069490
0.069258
0.069996
0.071875
0.072170
0.072125
0.073145
0.073472
0.074498
0.075161
0.075711
0.078707
0.077348
0.078622
0.078931
0.079635
0.080275
0.081015
0.081852
0.085893
0.083415
0.085125
0.085052
0.085989
0.086353
0.087817
0.088048
0.089032
0.089777
0.090245
0.090832
0.091513
0.092188
0.093006
0.097097
0.094842
0.095516
0.096691
0.096798
0.099317
0.101835
0.099211
0.102245
0.100889
0.101794
0.102414
0.107306
0.107077
0.105002
0.105689
0.106152
0.107478
0.111428
