Full Time (seconds)
0.109835
Time - I
0.004655
0.005460
0.006238
0.007110
0.007884
0.008664
0.009468
0.010229
0.011354
0.011805
0.012583
0.013376
0.014139
0.014958
0.015690
0.016468
0.017354
0.018342
0.018628
0.019820
0.020607
0.021057
0.021537
0.022434
0.023720
0.023808
0.025290
0.026385
0.026048
0.027384
0.027674
0.028483
0.029339
0.030109
0.031453
0.032108
0.033326
0.034118
0.034088
0.035702
0.035483
0.036421
0.036978
0.038204
0.039050
0.039266
0.040532
0.041982
0.042934
0.043529
0.042998
0.043824
0.044878
0.046279
0.046325
0.047842
0.048682
0.049744
0.050545
0.049735
0.050548
0.051346
0.052109
0.052927
0.054055
0.054354
0.055097
0.057585
0.057688
0.057940
0.058180
0.060795
0.060295
0.061007
0.062323
0.062094
0.064675
0.063688
0.064047
0.065959
0.067121
0.067340
0.068032
0.067987
0.069570
0.069675
0.070290
0.073370
0.071667
0.072447
0.073735
0.074075
0.075030
0.075830
0.076681
0.077091
0.078088
0.078445
0.084452
0.080634
0.080795
0.084215
0.084467
0.085650
0.084022
0.084645
0.085385
0.086406
0.087288
0.087448
0.088434
0.088951
0.090191
0.091742
0.091438
0.092384
0.092934
0.094182
0.097520
0.097336
0.099452
0.096702
0.097658
0.098199
0.099694
0.099755
0.106216
0.101383
0.102329
0.104898
0.103429
0.105144
0.112218
0.107649
0.108094
0.105230
0.105432
0.105996
0.110210
0.110292
0.107755
