Full Time (seconds)
0.106745
Time - I
0.004666
0.005437
0.006222
0.007037
0.007781
0.008562
0.009337
0.010103
0.010964
0.011857
0.012513
0.013253
0.014061
0.014715
0.015691
0.016516
0.019771
0.017702
0.018704
0.019197
0.020273
0.021279
0.022372
0.022480
0.023627
0.024022
0.027039
0.025296
0.026722
0.027527
0.030121
0.028337
0.028813
0.028504
0.029388
0.029952
0.030408
0.030905
0.031392
0.030891
0.032322
0.032961
0.033300
0.033687
0.035438
0.035199
0.036345
0.036630
0.038612
0.039440
0.040170
0.039713
0.041903
0.042390
0.043249
0.043691
0.043494
0.044692
0.046393
0.046878
0.048032
0.048786
0.049544
0.050239
0.051088
0.050755
0.052759
0.053466
0.053610
0.055108
0.054437
0.054842
0.057486
0.058070
0.059168
0.058314
0.059355
0.059569
0.060703
0.062737
0.061682
0.065976
0.065118
0.063996
0.066681
0.066200
0.066255
0.068144
0.069841
0.070576
0.071606
0.071601
0.072959
0.072193
0.072579
0.073701
0.076210
0.076902
0.075153
0.078679
0.079477
0.078540
0.078553
0.081767
0.079672
0.080500
0.081551
0.082274
0.085398
0.084616
0.084517
0.088338
0.085692
0.090522
0.090074
0.088042
0.091408
0.089705
0.093389
0.090919
0.091697
0.092637
0.096283
0.094274
0.094997
0.095515
0.099614
0.098026
0.097795
0.098791
0.099588
0.103803
0.100890
0.103959
0.102350
0.103348
0.104249
0.104750
0.105846
0.107290
0.110748
