Full Time (seconds)
0.106878
Time - I
0.004610
0.005392
0.006141
0.006947
0.007708
0.008509
0.009271
0.010099
0.010833
0.011536
0.012382
0.013145
0.013798
0.014760
0.015307
0.016435
0.017238
0.018043
0.018313
0.019709
0.019905
0.020683
0.021412
0.022130
0.023019
0.023592
0.025073
0.025837
0.026159
0.027397
0.027772
0.028159
0.029240
0.029759
0.030522
0.031316
0.033010
0.033818
0.034076
0.034646
0.036168
0.036329
0.037715
0.038526
0.039332
0.040228
0.040865
0.040438
0.041217
0.043182
0.044327
0.043768
0.045558
0.045740
0.045734
0.046520
0.047502
0.048407
0.048752
0.049552
0.050420
0.051852
0.053236
0.054182
0.053633
0.055970
0.055648
0.056035
0.056660
0.057459
0.059584
0.061035
0.060330
0.060085
0.062942
0.063651
0.062250
0.063091
0.064577
0.065294
0.065885
0.067017
0.067160
0.067580
0.070037
0.071403
0.069924
0.071268
0.071572
0.074509
0.073417
0.075500
0.074272
0.077520
0.077189
0.076863
0.078354
0.080086
0.079466
0.080034
0.080427
0.083695
0.084582
0.082681
0.083479
0.084134
0.085104
0.085963
0.086877
0.087532
0.090010
0.088935
0.089460
0.090868
0.091328
0.091713
0.092528
0.096438
0.093953
0.097956
0.096931
0.096033
0.096099
0.096711
0.100126
0.096953
0.099432
0.098108
0.098460
0.098890
0.100039
0.102824
0.100625
0.101786
0.105638
0.103672
0.104102
0.104489
0.106186
0.106393
0.106916
