Full Time (seconds)
0.034380
Incremental Time - I
0.011402
0.000313
0.000368
0.000472
0.000804
0.000865
0.001005
0.000947
0.000978
0.001052
0.001140
0.001281
0.001484
0.001558
0.001574
0.001647
0.001793
0.001866
0.002116
0.002233
0.002484
Classification Time - I
0.004694
0.005874
0.007107
0.008385
0.009624
0.010831
0.012341
0.013521
0.014930
0.016263
0.018005
0.018950
0.020003
0.021520
0.022596
0.025066
0.026926
0.026775
0.028377
0.031367
