Full Time (seconds)
0.002958
Time - I
0.000924
0.000990
0.001061
0.001175
0.001182
0.001249
0.001377
0.001384
0.001454
0.000812
0.001600
0.001642
0.001709
0.001776
0.001851
0.001956
0.002042
0.002047
0.002220
0.002234
0.002294
0.002329
0.002380
0.002463
0.002531
0.002583
0.002646
0.000967
0.002795
0.002862
0.002939
