Full Time (seconds)
0.002980
Time - I
0.000495
0.000523
0.000547
0.000634
0.000604
0.000631
0.000787
0.000693
0.000765
0.000789
0.000834
0.000888
0.000968
0.001066
0.001171
0.001227
0.001329
0.001395
0.001452
0.001553
0.001602
0.001747
0.002218
0.002030
0.002155
0.002319
0.002415
0.002788
0.002764
0.002884
0.003030
