Full Time (seconds)
0.377800
Incremental Time - I
0.000092
0.000025
0.000021
0.000021
0.000149
0.000186
0.000237
0.000418
0.000474
0.000584
0.000836
0.000912
0.001130
0.001114
0.001552
0.013529
0.002200
0.002331
0.006453
0.003007
0.003178
0.003442
0.007785
0.004176
0.004466
0.005077
0.010500
0.005873
0.006479
0.008909
0.014704
0.008923
0.005221
0.021239
0.020046
0.011270
0.012763
0.011094
0.011897
0.007104
0.008596
0.014992
0.015274
0.016234
0.016287
0.021918
0.018467
0.023527
0.023712
0.019889
0.024979
0.023067
0.022824
0.023462
0.019833
0.031016
0.044061
0.029798
0.032359
0.029094
0.042712
0.037770
0.044603
0.033454
0.019802
0.036630
0.047597
0.047224
0.059916
0.068996
0.044398
0.043441
0.040429
0.046058
0.047640
0.045274
0.046552
0.047570
0.044141
0.067130
0.082665
0.057303
0.088117
0.063695
0.120568
0.077107
0.071035
0.041701
0.088866
0.091734
0.075895
0.071011
0.084100
0.090149
0.116060
0.080567
0.079745
0.080073
0.058701
0.098771
0.088855
0.105388
0.089429
0.093826
0.211268
0.060311
0.119940
0.097816
0.112342
0.103077
0.134474
0.077557
0.107971
0.109094
0.110718
0.147006
0.111639
0.124683
0.120494
0.078645
0.128806
0.181708
0.134549
0.130181
0.086762
0.204295
0.171208
0.163885
0.176592
0.137844
0.226369
0.185065
0.151866
0.157790
0.159602
0.190245
0.164890
0.172208
0.124845
0.126690
0.172995
0.181453
0.107341
0.142946
0.136598
0.148385
0.253112
0.366845
0.283642
0.319354
0.286039
0.197656
0.197657
0.202281
0.255677
0.209755
0.257552
0.238199
0.497746
0.178895
0.270763
0.226238
0.231605
0.239345
0.229518
0.236642
0.248304
0.139928
0.222104
0.289061
0.252173
0.253584
0.253101
0.259407
0.258776
0.262090
0.316346
0.337520
0.328240
0.334673
0.280344
0.209527
0.423211
0.324669
0.341798
0.380497
0.444259
0.343003
0.231967
0.319432
0.298478
0.357376
0.249985
0.499842
0.459124
0.371465
0.387140
0.248000
0.333513
0.314088
0.338894
0.302326
0.408284
0.416885
0.401648
0.600356
0.388263
0.260690
0.395779
0.420947
0.382225
Classification Time - C
0.040812
0.037881
0.030945
0.040940
0.051833
0.055708
0.057644
0.066108
0.055252
0.055728
0.052904
0.047524
0.039347
0.034081
0.043612
0.075971
0.061889
0.045163
0.056507
0.068981
0.069006
0.067290
0.083303
0.074086
0.065054
0.072235
0.070067
0.062227
0.072096
0.062674
0.084079
0.035161
0.036499
0.091858
0.065465
0.074262
0.077687
0.054856
0.073667
0.040467
0.063230
0.095560
0.107180
0.085658
0.087936
0.102395
0.089040
0.095112
0.101046
0.087317
0.087646
0.093747
0.103836
0.088651
0.065968
0.107679
0.047968
0.132121
0.120393
0.084071
0.122787
0.151800
0.092578
0.109731
0.054655
0.102538
0.125783
0.121286
0.153785
0.152016
0.151891
0.111237
0.094150
0.111472
0.112029
0.118982
0.122499
0.115125
0.191646
0.123908
0.144724
0.121669
0.119202
0.123495
0.141330
0.162975
0.124264
0.198685
0.148770
0.134671
0.142144
0.159874
0.119969
0.174121
0.131405
0.132511
0.086143
0.159128
0.079934
0.145190
0.140937
0.140101
0.105882
0.075494
0.152680
0.113618
0.168841
0.158359
0.078423
0.155651
0.122783
0.169302
0.192863
0.140114
0.146849
0.155112
0.356436
0.208383
0.149763
0.316139
0.223559
0.212135
0.178322
0.188187
0.103018
0.196885
0.212012
0.131001
0.177408
0.102731
0.205932
0.214007
0.233521
0.199607
0.227277
0.173354
0.111589
0.204745
0.138943
0.162394
0.194406
0.177658
0.197503
0.184640
0.176838
0.101927
0.208810
0.215123
0.185410
0.204493
0.108923
0.218148
0.224682
0.230623
0.271599
0.266899
0.272723
0.218694
0.193094
0.355289
0.214501
0.220059
0.219267
0.239000
0.227180
0.239814
0.228410
0.296597
0.428861
0.255363
0.241410
0.226464
0.231180
0.235563
0.228947
0.212142
0.279368
0.231178
0.258294
0.250768
0.241700
0.126851
0.392389
0.295302
0.249628
0.150697
0.261313
0.253557
0.314907
0.243032
0.133919
0.143372
0.144348
0.281460
0.419104
0.306239
0.272655
0.375347
0.138347
0.139775
0.292777
0.271240
0.272912
0.225687
0.251566
0.303291
0.301004
0.330428
0.246112
0.278247
0.317773
