Full Time (seconds)
0.393257
Incremental Time - I
0.000060
0.000093
0.000124
0.000167
0.000280
0.000338
0.000428
0.000631
0.000751
0.000880
0.000928
0.001022
0.001043
0.001374
0.001534
0.001758
0.002181
0.002304
0.002504
0.003013
0.003174
0.003438
0.004010
0.004061
0.004597
0.005021
0.005419
0.005799
0.003727
0.006805
0.012664
0.017210
0.018626
0.021238
0.011369
0.010308
0.010817
0.011623
0.014532
0.019584
0.018368
0.007999
0.023208
0.019419
0.022133
0.023316
0.024641
0.025523
0.027463
0.027268
0.021231
0.021457
0.022701
0.023709
0.027511
0.044022
0.031398
0.028955
0.037296
0.037643
0.056467
0.018986
0.035644
0.050403
0.056073
0.043984
0.066250
0.052230
0.049284
0.055659
0.050683
0.052292
0.099915
0.067292
0.050035
0.057341
0.052407
0.050770
0.051750
0.054893
0.083972
0.067098
0.097681
0.057407
0.065782
0.105804
0.064782
0.064451
0.069423
0.070046
0.071554
0.072690
0.040267
0.074603
0.091027
0.063748
0.081062
0.085007
0.072511
0.084330
0.077281
0.127793
0.121188
0.116925
0.115691
0.094044
0.054619
0.145000
0.096785
0.088824
0.125293
0.140868
0.172079
0.141507
0.129914
0.068508
0.120989
0.126632
0.123435
0.119219
0.163781
0.125380
0.112259
0.132151
0.151908
0.144286
0.130907
0.150767
0.141825
0.176788
0.190520
0.131001
0.157083
0.186163
0.159139
0.178326
0.180662
0.144209
0.163201
0.168666
0.147579
0.179385
0.097000
0.153906
0.099546
0.212250
0.192306
0.186986
0.207216
0.152068
0.161425
0.206617
0.211447
0.220577
0.207658
0.229194
0.245579
0.201992
0.236116
0.338534
0.279390
0.273124
0.300755
0.358306
0.236650
0.216199
0.292058
0.310067
0.398917
0.273075
0.247044
0.316829
0.290732
0.336994
0.279391
0.328306
0.403200
0.225433
0.274818
0.255253
0.201928
0.173360
0.361291
0.292969
0.299051
0.304592
0.516557
0.349353
0.297247
0.259931
0.382516
0.290569
0.243689
0.264820
0.348281
0.333747
0.339858
0.370898
0.296956
0.394554
0.410288
0.455208
0.421961
0.366108
0.530902
0.374539
0.472186
0.310583
0.376523
0.493452
0.428645
Classification Time - C
0.059367
0.041508
0.044315
0.050756
0.043647
0.052830
0.057866
0.081907
0.057300
0.060983
0.067975
0.061067
0.057835
0.061470
0.071806
0.077662
0.069163
0.085918
0.081437
0.068198
0.072561
0.079827
0.063754
0.080149
0.077468
0.075350
0.073979
0.059554
0.036876
0.094181
0.125002
0.089149
0.144748
0.098768
0.106695
0.078928
0.097328
0.072043
0.096290
0.089085
0.055543
0.064834
0.101201
0.106629
0.101490
0.080847
0.106437
0.112247
0.103888
0.086610
0.105011
0.089050
0.101493
0.110967
0.106067
0.071277
0.104404
0.113514
0.130099
0.124522
0.159120
0.050940
0.144776
0.129948
0.140019
0.149900
0.131453
0.152606
0.139488
0.107037
0.148171
0.118992
0.122121
0.143656
0.119855
0.106411
0.114299
0.114197
0.115278
0.060438
0.181529
0.115047
0.124428
0.174908
0.122737
0.126131
0.127501
0.135054
0.135566
0.127408
0.125412
0.134261
0.118292
0.134669
0.155822
0.115676
0.160720
0.129554
0.155185
0.181656
0.122188
0.116298
0.159706
0.178855
0.171380
0.188351
0.129963
0.123088
0.171265
0.264104
0.230962
0.143131
0.206086
0.170782
0.161792
0.083861
0.182651
0.193614
0.083946
0.152842
0.145004
0.147036
0.206974
0.205042
0.135127
0.215559
0.210780
0.244607
0.201587
0.173526
0.218588
0.180121
0.177280
0.094919
0.220750
0.181331
0.139172
0.191730
0.195592
0.172357
0.206564
0.196169
0.224172
0.147549
0.189053
0.190254
0.161340
0.196673
0.198177
0.156096
0.187735
0.126668
0.202162
0.286652
0.164932
0.257154
0.210993
0.190623
0.177665
0.255199
0.243982
0.246122
0.320455
0.212472
0.227054
0.155260
0.220937
0.148802
0.282683
0.190873
0.258210
0.295840
0.258530
0.266569
0.204176
0.155253
0.222055
0.179470
0.233912
0.243291
0.255391
0.344392
0.266709
0.296263
0.173735
0.243731
0.263301
0.308015
0.188834
0.239996
0.266258
0.180831
0.194987
0.292780
0.246782
0.267398
0.202940
0.261206
0.148826
0.437778
0.261761
0.280135
0.336681
0.302412
0.371889
0.260720
0.327909
0.276198
0.215044
0.223016
0.226871
