Full Time (seconds)
0.110448
Incremental Time - I
0.016414
0.000053
0.000053
0.000058
0.000056
0.000058
0.000059
0.000064
0.000061
0.000034
0.000064
0.026627
0.039190
0.053298
0.082713
0.111311
0.170623
0.284632
0.317212
0.352860
0.141357
Classification Time - C
0.093779
0.044746
0.045235
0.044835
0.045092
0.044579
0.044765
0.044732
0.044825
0.045601
0.044993
0.059436
0.072009
0.097551
0.112181
0.136291
0.274859
0.278965
0.300001
0.314291
0.114504
