Full Accuracy
86.532555
Accuracy - I
50.000000
81.104309
83.760979
84.163689
85.571320
85.840424
85.606003
88.438248
88.704506
88.975891
89.892998
90.165520
88.200272
88.231537
87.248917
86.676590
86.438751
84.473511
82.952675
84.504768
86.532555
