Full Time (seconds)
0.002758
Time - I
0.000823
0.000937
0.000989
0.001069
0.001432
0.001231
0.001858
0.001399
0.001463
0.001620
0.001645
0.001737
0.001840
0.001944
0.002108
0.002202
0.002343
0.002405
0.002528
0.002643
0.002783
