Full Time (seconds)
0.002963
Time - I
0.000481
0.000655
0.000765
0.000892
0.001020
0.001117
0.001308
0.002223
0.002614
0.001558
0.001675
0.001775
0.001909
0.002009
0.002177
0.002270
0.002394
0.002533
0.002669
0.002806
0.002984
