Full Time (seconds)
0.229762
Time - I
0.002254
0.003378
0.004484
0.005965
0.007051
0.008125
0.009574
0.010599
0.011672
0.013099
0.014174
0.015276
0.016763
0.017822
0.018833
0.020269
0.021319
0.022406
0.023819
0.024192
0.025117
0.025634
0.026697
0.027822
0.029530
0.030479
0.031345
0.033181
0.033776
0.035410
0.036276
0.037685
0.038411
0.040447
0.040940
0.042028
0.043396
0.044489
0.046359
0.047002
0.048072
0.049081
0.050465
0.051858
0.052604
0.054036
0.055136
0.056697
0.057645
0.058852
0.060665
0.061111
0.062300
0.063387
0.070985
0.071125
0.067603
0.068286
0.069670
0.070382
0.071784
0.072843
0.073901
0.076322
0.076415
0.077436
0.079849
0.080379
0.081200
0.082549
0.084972
0.084771
0.086053
0.088337
0.088639
0.089565
0.090580
0.093284
0.093110
0.094248
0.096533
0.097287
0.097773
0.099939
0.101237
0.110604
0.110905
0.103798
0.106204
0.105900
0.107939
0.109777
0.109889
0.111963
0.113942
0.114389
0.114386
0.117570
0.117869
0.117993
0.119111
0.120697
0.123052
0.124045
0.123687
0.127246
0.126564
0.128119
0.131148
0.130758
0.132967
0.132465
0.133394
0.136598
0.136406
0.136685
0.138910
0.139282
0.143157
0.142668
0.142909
0.144219
0.145664
0.142615
0.136052
0.137111
0.139291
0.139372
0.140693
0.141555
0.142590
0.143629
0.146002
0.157653
0.159052
0.160895
0.161437
0.164667
0.166885
0.165449
0.166291
0.167925
0.169274
0.170212
0.171239
0.172117
0.173221
0.174587
0.176285
0.179329
0.179150
0.181277
0.180428
0.184954
0.182775
0.184965
0.188562
0.187354
0.190628
0.176102
0.177363
0.177643
0.179803
0.179084
0.179518
0.181154
0.185128
0.186253
0.184410
0.172235
0.201468
0.203016
0.206405
0.205502
0.206959
0.210068
0.209021
0.210009
0.195779
0.195588
0.183125
0.184396
0.185012
0.187752
0.186970
0.188488
0.189052
0.190457
0.190947
0.192453
0.192966
0.193979
0.195116
0.182927
0.183822
0.174008
0.174793
0.201595
0.234699
0.235934
0.231389
0.219874
0.239376
0.234756
0.224248
0.242956
0.236577
0.245561
0.246582
0.248526
0.249094
