Full Time (seconds)
0.199099
Time - I
0.002256
0.003375
0.004549
0.006123
0.007139
0.008217
0.009665
0.010720
0.011761
0.013203
0.015394
0.016344
0.016839
0.017431
0.018149
0.018791
0.020955
0.021677
0.023830
0.024446
0.024360
0.025951
0.026907
0.028398
0.029368
0.030748
0.031550
0.034777
0.035006
0.037450
0.039527
0.040664
0.038616
0.040061
0.041188
0.042200
0.043629
0.044882
0.046157
0.047115
0.048227
0.049275
0.050692
0.051744
0.052850
0.054601
0.055331
0.056962
0.057757
0.058862
0.060335
0.061341
0.063002
0.063436
0.064948
0.066479
0.067823
0.069677
0.070384
0.071561
0.072035
0.073139
0.075287
0.075608
0.076761
0.077723
0.079643
0.080284
0.087628
0.083527
0.083889
0.085780
0.086793
0.088808
0.089058
0.089728
0.098705
0.091890
0.093318
0.094453
0.096152
0.096961
0.098361
0.099196
0.100629
0.102088
0.102593
0.104012
0.105421
0.106174
0.107930
0.108624
0.109816
0.111725
0.114140
0.113246
0.114647
0.115616
0.117207
0.118167
0.119716
0.120234
0.121658
0.123742
0.123929
0.125488
0.126338
0.127275
0.128756
0.129897
0.131487
0.132326
0.133343
0.134383
0.135907
0.137347
0.138298
0.139815
0.142348
0.141580
0.143428
0.144004
0.145422
0.148399
0.149036
0.151337
0.152060
0.151106
0.154229
0.158124
0.155132
0.156037
0.157072
0.158047
0.159312
0.160826
0.162929
0.162797
0.164253
0.179536
0.166853
0.167702
0.169142
0.169849
0.171494
0.172344
0.173439
0.175068
0.176471
0.176942
0.179938
0.165668
0.166653
0.167881
0.171163
0.183918
0.184184
0.172305
0.173535
0.175841
0.175834
0.176374
0.177270
0.165894
0.166874
0.168327
0.171094
0.169836
0.171017
0.171957
0.172823
0.175098
0.175144
0.176229
0.178945
0.178544
0.179503
0.170181
0.168935
0.170601
0.173969
0.172906
0.175536
0.179741
0.174613
0.219463
0.222755
0.224579
0.228883
0.226734
0.196637
0.226380
0.224574
0.211502
0.212754
0.234348
0.232402
0.233965
0.230133
0.202925
0.205046
0.208100
0.206573
0.211218
0.223358
0.224743
0.230683
0.213439
0.208899
0.201584
0.216064
