Full Time (seconds)
0.115980
Incremental Time - I
0.101078
0.048798
0.016025
0.013755
0.055932
0.074580
0.077912
0.080000
0.099103
0.114970
0.098470
0.108583
0.118911
0.097431
0.138315
0.145555
0.149245
0.160654
0.177423
0.188977
0.203690
Classification Time - C
0.085975
0.023155
0.037121
0.071429
0.091693
0.092209
0.093555
0.097036
0.095276
0.092025
0.095661
0.098056
0.065634
0.091877
0.106097
0.095950
0.070959
0.116942
0.116791
0.128118
