Full Time (seconds)
0.003002
Time - I
0.000482
0.000534
0.000546
0.000573
0.000603
0.000629
0.000677
0.000692
0.000729
0.000775
0.000849
0.000960
0.000975
0.001087
0.001168
0.001241
0.001310
0.001386
0.001490
0.001533
0.001631
0.001734
0.001894
0.002022
0.002174
0.002297
0.002419
0.002611
0.002743
0.002873
0.003149
