Full Time (seconds)
0.350757
Incremental Time - I
0.855213
0.031584
0.036381
0.034246
0.037850
0.038541
0.037704
0.034712
0.029185
0.034790
0.038926
0.008013
0.009225
0.008759
0.008588
0.005591
0.009297
0.004869
0.003801
0.004073
0.004053
Classification Time - I
0.451925
0.481034
0.505758
0.575101
0.524205
0.471518
0.420988
0.505141
0.533309
0.748106
0.446076
0.764967
0.679346
0.770875
0.451619
0.448876
0.381160
0.353398
0.340096
0.315666
