Full Time (seconds)
0.002801
Time - I
0.000417
0.000441
0.000487
0.000499
0.000523
0.000560
0.000570
0.000606
0.000641
0.000686
0.000740
0.000794
0.000864
0.000946
0.001018
0.001159
0.001165
0.001233
0.001319
0.001388
0.001434
0.001646
0.001708
0.001847
0.002018
0.002143
0.002295
0.002418
0.002662
0.002746
0.002872
