Full Accuracy
71.066666
Accuracy - I
50.000000
64.599998
63.333332
63.599998
62.844444
61.733334
62.000000
60.377777
60.311108
60.533333
60.799999
64.755554
66.755554
68.222221
68.400002
68.377777
70.000000
69.844444
70.066666
70.844444
70.688889
71.577774
71.555557
71.933334
72.422226
72.422226
72.311111
72.311111
71.733337
71.288887
71.066666
