Full Time (seconds)
0.016716
Time - I
0.002050
0.002840
0.003612
0.004376
0.005208
0.005974
0.006755
0.007607
0.008472
0.009299
0.010125
0.010186
0.010300
0.010560
0.010664
0.010953
0.011117
0.011521
0.011946
0.011744
0.011940
0.012506
0.012774
0.013709
0.014016
0.013800
0.014216
0.014659
0.015023
0.015456
0.015860
