Full Time (seconds)
0.002972
Time - I
0.000510
0.000641
0.000766
0.000896
0.001057
0.001164
0.001224
0.001383
0.001456
0.001556
0.001704
0.001774
0.001878
0.002000
0.003653
0.003864
0.003820
0.002490
0.002671
0.002879
0.002981
