Full Time (seconds)
0.002391
Time - I
0.000359
0.000464
0.000552
0.000652
0.000766
0.000860
0.000948
0.001151
0.001151
0.001265
0.001375
0.001465
0.001549
0.001650
0.001764
0.001887
0.002019
0.002223
0.002333
0.002456
0.002707
