Full Time (seconds)
0.002577
Time - I
0.000336
0.000466
0.000568
0.000661
0.000757
0.000873
0.000935
0.001038
0.001204
0.001309
0.001412
0.001522
0.002144
0.001659
0.001767
0.001941
0.002070
0.002132
0.002268
0.002497
0.002573
