Full Time (seconds)
0.683672
Incremental Time - I
0.884747
0.031268
0.028747
0.026256
0.037097
0.024450
0.023101
0.035594
0.032740
0.027798
0.026857
0.008343
0.003473
0.003642
0.003226
0.002906
0.003173
0.003015
0.002789
0.002979
0.002925
Classification Time - I
0.430370
0.405021
0.382644
0.384139
0.357083
0.551867
0.519902
0.444920
0.411680
0.363469
0.346138
0.335514
0.311085
0.313492
0.287736
0.286437
0.292158
0.275264
0.273312
0.592097
