Full Time (seconds)
0.109036
Time - I
0.004036
0.008012
0.012158
0.016548
0.020265
0.024326
0.028330
0.032331
0.036444
0.040666
0.045079
0.050762
0.056700
0.068694
0.069882
0.074668
0.080943
0.089290
0.093893
0.102151
0.105660
