Full Time (seconds)
0.107452
Time - I
0.003897
0.008099
0.012181
0.017388
0.021335
0.025350
0.030324
0.032388
0.036900
0.041831
0.045052
0.050498
0.056527
0.067643
0.069496
0.075746
0.083778
0.091491
0.095847
0.100749
0.110487
