Full Time (seconds)
0.106620
Time - I
0.003973
0.007972
0.012048
0.016147
0.020198
0.024222
0.028291
0.033039
0.036429
0.040673
0.045213
0.050599
0.056567
0.063372
0.068749
0.074592
0.085133
0.087351
0.093144
0.099327
0.084236
