Full Time (seconds)
0.412453
Incremental Time - I
0.450967
0.007298
0.007707
0.008295
0.008762
0.005160
0.005334
0.005673
0.005817
0.005991
0.013276
0.029521
0.033432
0.031035
0.029619
0.028166
0.026311
0.024442
0.025798
0.029725
0.029606
Classification Time - I
0.256453
0.281879
0.298126
0.294810
0.173085
0.173275
0.183336
0.189923
0.424586
0.449830
0.401064
0.413846
0.393081
0.368969
0.354523
0.340946
0.316379
0.341282
0.363097
0.375594
