Full Time (seconds)
0.017373
Time - I
0.002316
0.003176
0.003991
0.004785
0.005614
0.006449
0.007201
0.008016
0.008805
0.009819
0.010443
0.011150
0.011542
0.011980
0.012424
0.012835
0.013410
0.014088
0.014351
0.014129
0.014415
0.015528
0.015410
0.014895
0.015096
0.015374
0.015521
0.015791
0.016131
0.016182
0.016261
