Full Accuracy
91.153847
Accuracy - I
50.000000
57.076920
67.076927
72.230766
75.230774
77.307686
80.230766
82.461533
83.538460
84.615387
85.461540
87.153847
87.153847
87.307693
88.230774
88.846153
89.230766
90.230766
90.230766
91.076920
91.153847
