Full Accuracy
91.153847
Accuracy - I
50.000000
52.692310
63.230766
68.923080
72.230766
75.153847
79.230766
81.307693
83.076927
84.076920
84.769234
86.076920
86.846153
87.000000
88.076927
88.923080
89.153847
90.384613
90.230766
91.076920
91.153847
