Full Accuracy
91.153847
Accuracy - I
50.000000
52.769234
64.230766
69.769234
72.307693
75.384613
79.153847
82.153847
83.461540
84.769234
85.384613
86.769226
87.076927
87.230774
88.153847
88.769234
89.153847
90.538460
90.384613
91.153847
91.153847
