Full Time (seconds)
0.110644
Time - I
0.004519
0.008962
0.013318
0.017796
0.022105
0.025605
0.029743
0.033931
0.037980
0.044498
0.046602
0.052605
0.054740
0.056884
0.060617
0.065352
0.075420
0.089385
0.094890
0.100991
0.118772
