Full Time (seconds)
0.107197
Time - I
0.005092
0.008838
0.013021
0.017569
0.021285
0.025367
0.029520
0.033626
0.037726
0.042343
0.049889
0.051871
0.059776
0.066048
0.069960
0.076410
0.082006
0.088476
0.094787
0.100986
0.106946
