Full Time (seconds)
0.001398
Incremental Time - I
0.000314
0.000141
0.000258
0.000379
0.000653
0.000699
0.000710
0.000733
0.000794
0.000985
0.000926
0.001559
0.001623
0.004415
0.003606
0.008516
0.008306
0.009657
0.003760
0.004693
0.005020
0.005147
0.005754
0.006905
0.006897
0.008874
0.011428
0.016251
0.008619
0.008270
0.011551
Classification Time - C
0.000824
0.000559
0.000593
0.000633
0.000632
0.000657
0.000671
0.000743
0.000658
0.000661
0.000654
0.000934
0.000917
0.000872
0.000939
0.001016
0.001058
0.001133
0.001076
0.001378
0.001205
0.001121
0.001135
0.001203
0.001314
0.001293
0.001272
0.001310
0.001295
0.001425
0.001357
