Full Accuracy
87.985962
Accuracy - I
50.000000
70.598839
78.733597
82.075340
83.634445
85.196327
86.932007
87.768135
87.779221
88.430473
89.004440
89.134056
89.089874
88.954636
88.640060
88.537910
88.223335
88.181923
87.997040
88.082558
87.985962
