Full Accuracy
79.5333
Accuracy - I
42.6
50
78.7
76.5333
74.2
72.3
71.3
71
69.9333
68.2667
67.2
71.0333
72.2667
73.2
74.1
75.2667
75.4667
76.3667
76.6
76.4
77.1333
68.0889
68.0889
68.0889
71.7111
74.1778
77.4
78.8222
79.4222
79.5111
79.5333
