Full Accuracy
87.8063
Accuracy - I
43.8289
77.762
81.4166
84.6117
83.3294
86.5257
86.7636
86.7636
86.4939
86.4973
88.6456
88.6456
88.4077
88.1074
86.8215
88.5802
86.5524
87.1219
85.6039
88.3765
87.8695
