Full Time (seconds)
0.095837
Incremental Time - I
0.000165
0.000156
0.000181
0.000208
0.000168
0.000259
0.000250
0.000297
0.000338
0.000332
0.000342
0.000711
0.000826
0.001030
0.001216
0.001277
0.001406
0.001556
0.001454
0.001516
0.001624
0.002354
0.002730
0.002888
0.003148
0.003380
0.003637
0.003651
0.004155
0.004275
0.004604
0.009316
0.005482
0.006418
0.005629
0.005774
0.003547
0.003542
0.006130
0.008566
0.006746
0.007497
0.007598
0.017683
0.010464
0.008372
0.008673
0.008551
0.009029
0.009932
0.010309
0.011181
0.013323
0.012354
0.012720
0.013183
0.013866
0.016011
0.008819
0.027478
0.015875
0.017354
0.020605
0.025719
0.018263
0.018435
0.011422
0.030735
0.025155
0.023558
0.026638
0.022806
0.022447
0.023746
0.029354
0.035919
0.018096
0.031792
0.028431
0.025723
0.030453
0.031146
0.024875
0.048647
0.035716
0.026136
0.032660
0.032755
0.019575
0.033661
0.034390
0.035750
0.037584
0.059743
0.045512
0.050396
0.040576
0.041126
0.039133
0.039275
0.048217
0.044376
0.065183
0.027532
0.049453
0.047526
0.046836
0.047362
0.047609
0.041102
0.046669
0.044442
0.032584
0.047082
0.055336
0.053208
0.057820
0.051738
0.049473
0.062836
0.071260
0.054293
0.063245
0.068334
0.064491
0.062486
0.064812
0.061680
0.065231
0.055514
0.046278
0.067597
0.067543
0.066266
0.057782
0.062865
0.037783
0.065410
0.079279
0.074376
0.064251
Classification Time - C
0.016723
0.014352
0.015571
0.021022
0.007660
0.014887
0.016102
0.015471
0.020189
0.025342
0.021360
0.018968
0.017874
0.020959
0.027886
0.018749
0.020866
0.020668
0.020975
0.019402
0.027900
0.029794
0.028378
0.035143
0.030931
0.025429
0.025348
0.025240
0.028079
0.026077
0.026787
0.030352
0.028559
0.034231
0.030298
0.029172
0.016860
0.028612
0.027112
0.043084
0.040270
0.030702
0.030957
0.064203
0.043944
0.067803
0.041094
0.042510
0.033446
0.038388
0.037321
0.036244
0.045424
0.037382
0.037800
0.038927
0.038516
0.040976
0.022020
0.043737
0.050461
0.049653
0.064845
0.052820
0.043688
0.040893
0.043823
0.060679
0.045012
0.046654
0.044983
0.045949
0.052444
0.047725
0.047985
0.031501
0.035215
0.054253
0.065492
0.059037
0.051324
0.043986
0.053697
0.060012
0.071274
0.054916
0.041474
0.057013
0.031075
0.067218
0.062101
0.060727
0.076699
0.065385
0.062212
0.066782
0.070239
0.063749
0.069268
0.063986
0.075785
0.067999
0.083161
0.038964
0.080776
0.076311
0.063776
0.089500
0.064075
0.035287
0.065489
0.065642
0.050660
0.061810
0.067759
0.087013
0.072686
0.078261
0.089720
0.072435
0.051841
0.105833
0.114253
0.094252
0.076424
0.075676
0.083766
0.081166
0.077423
0.042445
0.089697
0.089903
0.089954
0.094508
0.085415
0.080034
0.044747
0.102816
0.089714
0.089389
0.111426
