Full Accuracy
87.330620
Accuracy - I
cat: testS_0.svm.acc: No such file or directory
50.000000
50.000000
50.000000
50.000000
50.000000
50.000000
50.000000
50.000000
50.000000
50.000000
69.573807
69.570961
71.296867
71.296867
71.296867
71.296867
71.296867
71.296867
71.294022
71.294022
81.820396
86.580620
88.986618
88.052353
87.834381
87.834381
87.064926
88.016281
89.087006
87.866554
