Full Time (seconds)
0.000804
Incremental Time - I
0.000059
0.000020
0.000021
0.000020
0.000019
0.000020
0.000020
0.000030
0.000020
0.000023
0.000022
0.000077
0.000105
0.000121
0.000125
0.000145
0.000125
0.000131
0.000140
0.000139
0.000144
0.000412
0.000632
0.000783
0.003745
0.003316
0.004099
0.003717
0.004938
0.004441
0.004518
Classification Time - C
0.000205
0.000298
0.000295
0.000298
0.000299
0.000298
0.000299
0.000302
0.000297
0.000300
0.000166
0.000197
0.000376
0.000376
0.000374
0.000344
0.000366
0.000377
0.000370
0.000330
0.000348
0.000536
0.000458
0.000535
0.000665
0.000694
0.000722
0.000764
0.000771
0.000783
0.000797
