Full Time (seconds)
0.008070
Incremental Time - I
0.000221
0.000355
0.000663
0.000959
0.001131
0.001307
0.001549
0.001780
0.002096
0.002341
0.002632
0.003284
0.003851
0.004476
0.004883
0.005578
0.005740
0.006226
0.006833
0.007437
0.007443
0.009330
0.007880
0.008247
0.011210
0.009273
0.005764
0.008874
0.009485
0.009262
0.009583
Classification Time - C
0.001252
0.002640
0.002608
0.003053
0.003152
0.003182
0.003265
0.003273
0.003343
0.003787
0.003651
0.003849
0.004514
0.004643
0.005135
0.005252
0.005597
0.005948
0.007074
0.006554
0.006597
0.007936
0.006920
0.007235
0.007227
0.007428
0.007963
0.007567
0.007720
0.007986
0.008128
