Full Time (seconds)
0.015882
Time - I
0.002054
0.002848
0.003593
0.004421
0.005217
0.005968
0.006772
0.007579
0.008414
0.009244
0.010154
0.010458
0.011050
0.011074
0.012173
0.011913
0.012292
0.013394
0.013696
0.014138
0.014864
0.014834
0.014973
0.014499
0.015423
0.015612
0.015312
0.015470
0.015468
0.015654
0.015891
