Full Time (seconds)
0.081775
Time - I
0.003972
0.008025
0.012089
0.016133
0.020221
0.024239
0.028675
0.029891
0.032886
0.034547
0.048873
0.052790
0.056608
0.036202
0.068791
0.074648
0.080767
0.087042
0.093347
0.110816
0.096008
