Full Time (seconds)
0.002989
Time - I
0.000484
0.000620
0.000768
0.000889
0.001004
0.001116
0.001242
0.001341
0.001447
0.001554
0.001672
0.001793
0.001949
0.002013
0.002144
0.002275
0.002376
0.002504
0.002668
0.002821
0.002988
