Full Time (seconds)
0.575248
Time - I
0.169240
0.186461
0.200158
0.214388
0.240479
0.251061
0.269405
0.268564
0.309052
0.291873
0.283338
0.302120
0.313466
0.316256
0.308622
0.308482
0.293613
0.641980
0.691259
0.721510
0.459663
