Full Time (seconds)
0.105768
Time - I
0.003939
0.005258
0.008255
0.009020
0.007001
0.007735
0.008492
0.009362
0.009949
0.010761
0.011715
0.012241
0.012989
0.014244
0.014494
0.015236
0.017492
0.018654
0.017575
0.019675
0.019715
0.019799
0.021221
0.021669
0.031907
0.025587
0.025131
0.029186
0.027075
0.027511
0.026595
0.027755
0.028553
0.029663
0.029673
0.030235
0.033171
0.031900
0.032560
0.035918
0.034035
0.034780
0.036955
0.036334
0.037025
0.037844
0.038561
0.042107
0.049899
0.043055
0.046404
0.042529
0.043023
0.046954
0.044559
0.049074
0.046010
0.047413
0.048644
0.048317
0.049059
0.049373
0.054058
0.051143
0.057298
0.055343
0.051703
0.055347
0.054347
0.061348
0.053288
0.056194
0.059345
0.057727
0.056465
0.059836
0.062112
0.063822
0.076387
0.065848
0.062342
0.064893
0.061756
0.064337
0.064638
0.064410
0.069185
0.065984
0.066729
0.067020
0.068575
0.071162
0.074201
0.069961
0.074997
0.071573
0.073242
0.073404
0.080046
0.078944
0.076233
0.083335
0.078179
0.080439
0.078633
0.109192
0.079857
0.087927
0.079142
0.075728
0.083419
0.093784
0.084291
0.085038
0.092719
0.087706
0.087757
0.092474
0.091058
0.089713
0.079863
0.080614
0.092227
0.094054
0.096319
0.095427
0.094825
0.099013
0.097068
0.097683
0.091924
0.095031
0.101135
0.111019
0.107031
0.095787
0.113019
0.097771
0.093766
0.104535
0.106034
