Full Time (seconds)
0.102488
Time - I
0.004280
0.004690
0.005464
0.006294
0.007007
0.007776
0.008537
0.010109
0.009970
0.010726
0.011678
0.012225
0.013098
0.014027
0.014742
0.015226
0.016052
0.016861
0.017960
0.018550
0.018952
0.019940
0.020580
0.022401
0.021985
0.023154
0.023939
0.024508
0.025020
0.025781
0.026474
0.028378
0.029343
0.029287
0.030629
0.031002
0.031032
0.032154
0.032494
0.033850
0.034044
0.034780
0.035556
0.037971
0.038171
0.039300
0.038621
0.039289
0.040481
0.040781
0.041575
0.042339
0.045906
0.044784
0.049806
0.046783
0.047926
0.071602
0.049031
0.052917
0.053452
0.050457
0.050887
0.054513
0.053927
0.059383
0.053464
0.054283
0.056058
0.056419
0.057094
0.057316
0.058077
0.061113
0.064052
0.066587
0.061238
0.062070
0.064972
0.063710
0.064991
0.067209
0.068181
0.071798
0.067608
0.069027
0.072822
0.069521
0.074439
0.070937
0.075882
0.072944
0.073545
0.074949
0.080624
0.082139
0.076845
0.083136
0.077514
0.078330
0.079442
0.086071
0.080830
0.082897
0.081989
0.085204
0.081612
0.080489
0.087634
0.097741
0.086586
0.085224
0.080644
0.085708
0.081922
0.092722
0.088539
0.082327
0.093711
0.092319
0.090599
0.091289
0.091848
0.104129
0.103576
0.104693
0.095531
0.100639
0.106906
0.101341
0.098413
0.098623
0.110858
0.110372
0.103381
0.104482
0.102646
0.105048
0.107426
0.100650
0.105805
