Full Time (seconds)
0.107226
Time - I
0.003918
0.006993
0.005418
0.006209
0.006963
0.007714
0.008472
0.009685
0.009974
0.010884
0.011475
0.013021
0.012070
0.012486
0.012715
0.013184
0.013751
0.014472
0.014312
0.015358
0.015218
0.018763
0.016715
0.020140
0.018170
0.021342
0.019734
0.020432
0.023060
0.024626
0.023412
0.023597
0.024270
0.025019
0.029300
0.027290
0.030020
0.027975
0.030663
0.031966
0.030423
0.031021
0.035239
0.035850
0.035272
0.037603
0.037969
0.035693
0.038238
0.037004
0.039623
0.038727
0.042456
0.040159
0.041030
0.045066
0.042804
0.043520
0.046771
0.045270
0.048291
0.047031
0.049965
0.053112
0.051591
0.049749
0.053439
0.055613
0.051855
0.052586
0.052828
0.055830
0.054262
0.054953
0.056790
0.059872
0.060942
0.058027
0.062292
0.059712
0.060410
0.061746
0.065150
0.062803
0.065825
0.066949
0.065292
0.069143
0.068825
0.071866
0.067919
0.075870
0.069366
0.071428
0.075116
0.071741
0.073704
0.078398
0.074529
0.074685
0.079120
0.081739
0.084938
0.077588
0.085316
0.079720
0.086818
0.088485
0.090681
0.089260
0.088423
0.088496
0.085213
0.085979
0.089609
0.094435
0.087220
0.090806
0.094492
0.091071
0.090245
0.091313
0.091856
0.092534
0.095086
0.098842
0.095510
0.097388
0.106600
0.109992
0.108799
0.101211
0.102193
0.103532
0.100924
0.098905
0.104295
0.098493
0.100430
0.103854
0.101420
