Full Accuracy
84.561043
Accuracy - I
50.000000
72.167542
72.706886
73.308907
73.108727
73.108727
73.108727
73.108727
73.644653
73.644653
73.644653
76.937256
79.585396
79.015915
82.026321
83.753731
83.453354
83.422089
83.659920
85.625168
85.625168
85.625168
84.848557
86.225349
86.763557
87.032661
87.032661
86.018776
84.798309
84.798309
84.798309
