Full Time (seconds)
0.016464
Time - I
0.002331
0.003034
0.003760
0.004425
0.005094
0.005823
0.006565
0.007187
0.006741
0.007337
0.007852
0.008431
0.009037
0.011618
0.010708
0.011385
0.012180
0.015333
0.015361
0.015724
0.017257
