Full Time (seconds)
0.142882
Incremental Time - I
0.005886
0.000089
0.000122
0.000108
0.000116
0.000112
0.000123
0.000127
0.000140
0.000159
0.000157
0.000182
0.000176
0.000193
0.000201
0.000213
0.000216
0.000221
0.000231
0.000247
0.000253
0.001126
0.000793
0.000819
0.000809
0.000742
0.000784
0.000679
0.000746
0.000792
0.000626
0.000631
0.000631
0.000633
0.000640
0.000646
0.000659
0.000662
0.000668
0.000677
0.000683
0.000712
0.000718
0.000729
0.000754
0.000770
0.000752
0.000773
0.000786
0.000790
0.000795
0.000809
0.000813
0.000820
0.000815
0.000884
0.001736
0.000961
0.000948
0.000969
0.001543
0.001001
0.000997
0.000944
0.000983
0.001600
0.001532
0.001087
0.001094
0.001004
0.000950
0.000991
0.001006
0.000993
0.001028
0.001033
0.001012
0.000996
0.001111
0.001074
0.001053
0.001097
0.001096
0.001099
0.001092
0.001139
0.001130
0.001135
0.001142
0.001150
0.001134
0.001112
0.001138
0.001182
0.001217
0.001249
0.001287
0.001274
0.001528
0.001744
0.001560
0.001330
0.001275
0.001277
0.001751
0.001759
0.001716
0.001530
0.001470
0.001470
0.001808
0.001914
0.001619
0.001481
0.001497
0.001854
0.001832
0.001902
0.001753
0.001658
0.001578
0.001971
0.001863
0.001861
0.001604
0.001529
0.001793
0.001980
0.001908
0.001754
0.001668
0.001057
0.001349
0.001332
0.001143
0.001049
0.001254
0.001500
0.001631
0.001598
0.001426
Classification Time - I
0.005808
0.006634
0.007593
0.008512
0.009442
0.010408
0.011368
0.012485
0.013494
0.014553
0.015335
0.016688
0.017606
0.018510
0.018877
0.020278
0.020660
0.021622
0.022487
0.023427
0.024576
0.025909
0.026890
0.027885
0.028895
0.029106
0.030418
0.031848
0.032618
0.033785
0.033528
0.034550
0.036563
0.036951
0.037347
0.038686
0.039240
0.040131
0.041169
0.043648
0.044470
0.044161
0.046377
0.046887
0.046795
0.048220
0.048662
0.049598
0.051381
0.052316
0.054272
0.053888
0.054371
0.055220
0.056578
0.057090
0.060351
0.059583
0.062002
0.061197
0.063788
0.063311
0.064419
0.067057
0.065371
0.066282
0.069523
0.068263
0.069063
0.070097
0.070988
0.073103
0.072822
0.075456
0.077522
0.075535
0.076812
0.077336
0.078914
0.080215
0.080952
0.081410
0.082784
0.083435
0.084264
0.085079
0.085799
0.087775
0.089004
0.088573
0.089895
0.091609
0.091639
0.096036
0.096218
0.097973
0.098570
0.099873
0.097501
0.101959
0.099613
0.100145
0.104514
0.102155
0.103175
0.103448
0.107221
0.105365
0.110405
0.107046
0.112266
0.111526
0.113926
0.110674
0.111920
0.112412
0.113941
0.117734
0.114926
0.116030
0.117012
0.117786
0.123300
0.119562
0.121212
0.122012
0.122841
0.123990
0.129185
0.130098
0.130211
0.126418
0.126110
0.126354
0.130564
0.127330
0.127776
0.129147
0.128953
0.132048
