Full Time (seconds)
0.141552
Incremental Time - I
0.004395
0.000088
0.000103
0.000099
0.000111
0.000118
0.000124
0.000131
0.000138
0.000147
0.000159
0.000175
0.000177
0.000198
0.000200
0.000214
0.000217
0.000224
0.000227
0.000240
0.000256
0.001089
0.000659
0.000755
0.000824
0.001087
0.000856
0.000942
0.001140
0.000996
0.000972
0.001173
0.001117
0.000984
0.001075
0.000977
0.000972
0.000969
0.000927
0.000916
0.001099
0.001154
0.001121
0.001145
0.001263
0.001268
0.001081
0.001353
0.001112
0.001336
0.001326
0.001373
0.001359
0.001370
0.001260
0.001406
0.001408
0.001287
0.001357
0.001363
0.001367
0.000995
0.001134
0.001086
0.001062
0.001123
0.001237
0.001216
0.001209
0.001269
0.001249
0.001431
0.001515
0.001503
0.001422
0.001421
0.001313
0.001445
0.001498
0.001479
0.001467
0.001412
0.001544
0.001452
0.001509
0.001474
0.001572
0.001585
0.001493
0.001399
0.001562
0.001521
0.001517
0.001486
0.001584
0.001687
0.001721
0.001685
0.001633
0.001637
0.001437
0.001707
0.001551
0.001565
0.001558
0.001555
0.001647
0.001663
0.001744
0.001696
0.001578
0.001818
0.001808
0.001726
0.001769
0.001844
0.001652
0.001531
0.001697
0.001712
0.001782
0.001865
0.001918
0.001814
0.001874
0.001726
0.001868
0.001916
0.001856
0.001911
0.001791
0.001961
0.002034
0.001915
0.002040
0.002069
0.001983
0.001997
0.001865
0.001958
0.002095
Classification Time - I
0.005819
0.006675
0.007671
0.008567
0.009545
0.010506
0.011862
0.012564
0.013605
0.014694
0.015853
0.016802
0.017761
0.018782
0.019463
0.020346
0.021225
0.022260
0.022492
0.023430
0.024430
0.025141
0.026667
0.027856
0.028841
0.029873
0.029919
0.030926
0.031815
0.032979
0.034645
0.035559
0.035439
0.037538
0.038467
0.038742
0.039273
0.040214
0.041232
0.042135
0.043426
0.045535
0.044948
0.047294
0.047060
0.049348
0.048817
0.049731
0.052197
0.053201
0.054162
0.055125
0.054315
0.057451
0.058197
0.057223
0.058121
0.061115
0.060367
0.063071
0.062329
0.061995
0.064366
0.062391
0.063184
0.063417
0.065226
0.066742
0.065075
0.067998
0.066556
0.069820
0.070928
0.071785
0.070536
0.071191
0.072607
0.075231
0.076692
0.075587
0.076220
0.076913
0.077905
0.081221
0.079822
0.080710
0.081962
0.082863
0.086558
0.084645
0.085412
0.089329
0.087173
0.088752
0.089849
0.089883
0.094023
0.095169
0.092459
0.093355
0.095356
0.095869
0.096149
0.097603
0.102121
0.098936
0.099917
0.100947
0.104612
0.106974
0.107247
0.104742
0.109439
0.106044
0.111032
0.107704
0.108816
0.110384
0.110324
0.111831
0.112347
0.113488
0.118511
0.116554
0.120604
0.121916
0.118002
0.119499
0.121519
0.122579
0.121859
0.122605
0.123982
0.124360
0.125388
0.127442
0.132395
0.128569
0.129133
0.130386
