Full Time (seconds)
0.132748
Incremental Time - I
0.005896
0.000029
0.000025
0.000025
0.000060
0.000026
0.000034
0.000084
0.000104
0.000086
0.000089
0.000131
0.000143
0.000150
0.000157
0.000079
0.000079
0.000090
0.000082
0.000091
0.000093
0.000096
0.000100
0.000106
0.000108
0.000110
0.000763
0.000291
0.000276
0.000272
0.000291
0.000318
0.000293
0.000287
0.000293
0.001043
0.000371
0.000307
0.000303
0.000310
0.000312
0.000339
0.000330
0.001174
0.000406
0.000364
0.001227
0.001199
0.001178
0.001240
0.001241
0.000547
0.000373
0.000377
0.000375
0.000415
0.001253
0.000462
0.000384
0.001324
0.001416
0.001415
0.001325
0.000545
0.000465
0.000479
0.001407
0.001382
0.000572
0.000457
0.001445
0.001465
0.001414
0.000649
0.000490
0.000462
0.000469
0.001435
0.000524
0.000485
0.001559
0.001568
0.001551
0.000646
0.000511
0.000488
0.000498
0.001510
0.000582
0.000521
0.001653
0.001601
0.001581
0.000666
0.000538
0.000536
0.000536
0.001605
0.000589
0.000568
0.001652
0.001680
0.001601
0.000729
0.000615
0.000573
0.000564
0.000558
0.001746
0.001753
0.001717
0.001812
0.001105
0.000585
0.000594
0.000602
0.001784
0.001827
0.001926
0.001816
0.000803
0.000676
0.000625
0.000631
0.000622
0.001815
0.001879
0.001919
0.000898
0.000717
0.000663
0.000695
0.001914
0.001937
0.002045
0.001940
0.002066
0.001964
0.001976
0.002054
0.002042
Classification Time - I
0.002244
0.002385
0.006021
0.006403
0.002876
0.007392
0.007949
0.008506
0.009078
0.009669
0.010628
0.011629
0.012594
0.013632
0.006092
0.006492
0.006787
0.007190
0.007605
0.007997
0.008429
0.008763
0.009125
0.009692
0.009925
0.010315
0.010737
0.011226
0.011534
0.012217
0.012370
0.012698
0.013313
0.013588
0.033578
0.014348
0.014777
0.015241
0.015798
0.015956
0.016462
0.016810
0.041433
0.017555
0.042557
0.043555
0.044773
0.045855
0.046814
0.048052
0.020367
0.020917
0.021193
0.021714
0.021929
0.053427
0.022972
0.054946
0.055906
0.058217
0.058374
0.058722
0.045196
0.057153
0.041835
0.064854
0.048737
0.045761
0.065378
0.066021
0.067701
0.067822
0.029232
0.029647
0.030410
0.030577
0.073256
0.031450
0.075127
0.075868
0.076931
0.077630
0.033349
0.033721
0.034326
0.034401
0.082667
0.035283
0.083837
0.084814
0.086802
0.086982
0.037301
0.037430
0.037764
0.038769
0.038820
0.039088
0.093212
0.094223
0.095034
0.096004
0.040968
0.041217
0.041751
0.042143
0.100514
0.101920
0.103399
0.103095
0.104016
0.045406
0.045141
0.045078
0.045584
0.108243
0.109365
0.110337
0.111230
0.048053
0.047862
0.048073
0.048664
0.048916
0.117374
0.117398
0.118908
0.051100
0.051800
0.051409
0.052201
0.123462
0.123904
0.125068
0.126182
0.126655
0.127940
0.128719
0.129505
0.130264
