Full Time (seconds)
0.005648
Incremental Time - I
0.000618
0.000088
0.000102
0.000109
0.000117
0.000129
0.000142
0.000159
0.000161
0.000171
0.000186
0.000190
0.000228
0.001736
0.001302
0.001687
0.001297
0.001199
0.001497
0.001799
0.001621
Classification Time - I
0.000780
0.000963
0.001134
0.001318
0.001476
0.001635
0.001835
0.002393
0.002209
0.002341
0.002521
0.002740
0.002923
0.003146
0.003340
0.003617
0.003852
0.004323
0.004423
0.004701
