Full Time (seconds)
0.109318
Time - I
0.005421
0.005375
0.006193
0.007055
0.007853
0.010736
0.009506
0.010147
0.012764
0.011687
0.012486
0.013533
0.014140
0.014748
0.015502
0.018204
0.016961
0.017713
0.018799
0.019223
0.019988
0.020756
0.021459
0.022630
0.024521
0.023970
0.026371
0.025686
0.026758
0.029528
0.027559
0.029597
0.029109
0.029961
0.033435
0.031568
0.032899
0.034759
0.033893
0.036335
0.035357
0.036540
0.040100
0.038453
0.038470
0.039170
0.040013
0.043270
0.042227
0.044242
0.043193
0.048064
0.044581
0.045271
0.046459
0.046934
0.062060
0.048810
0.050009
0.049928
0.050523
0.051092
0.051137
0.052661
0.051735
0.052027
0.050117
0.050341
0.054903
0.053829
0.060077
0.055295
0.059375
0.052478
0.055789
0.058563
0.065912
0.057595
0.062825
0.061210
0.068463
0.062723
0.063359
0.068033
0.064738
0.067969
0.066353
0.067451
0.074962
0.076322
0.069347
0.070693
0.074999
0.071579
0.072335
0.075488
0.073981
0.076016
0.076513
0.076076
0.076896
0.077668
0.078319
0.079733
0.080242
0.081242
0.084967
0.083112
0.086031
0.093951
0.095462
0.086559
0.079406
0.087062
0.087972
0.098624
0.098709
0.102283
0.088108
0.084066
0.092601
0.090103
0.095401
0.097920
0.096249
0.095821
0.096439
0.097274
0.098459
0.099217
0.103586
0.102450
0.106308
0.101985
0.103124
0.108217
0.104656
0.106409
0.106138
0.106673
0.107947
