Full Time (seconds)
0.413984
Time - I
0.162101
0.218555
0.226526
0.258726
0.290138
0.322580
0.358448
0.388370
0.153836
0.298910
0.360737
0.340735
0.325332
0.590490
0.543743
0.459478
0.658297
0.662201
0.425354
0.377495
0.365567
