Full Time (seconds)
0.106320
Time - I
0.004292
0.005074
0.005833
0.006711
0.007406
0.008154
0.008910
0.009732
0.010479
0.011309
0.012007
0.012746
0.013448
0.014390
0.015014
0.016534
0.016501
0.017704
0.018837
0.018762
0.020036
0.020548
0.021587
0.022042
0.022861
0.023262
0.027073
0.025577
0.025597
0.026261
0.027004
0.027821
0.028563
0.030279
0.030379
0.030838
0.031738
0.032411
0.033422
0.035466
0.034859
0.034991
0.035758
0.036349
0.036345
0.036956
0.037114
0.037109
0.038790
0.038006
0.038450
0.039225
0.039961
0.040703
0.041462
0.042203
0.042950
0.043753
0.044538
0.045266
0.045969
0.046736
0.047546
0.048568
0.049031
0.050651
0.051438
0.052173
0.052021
0.053931
0.053526
0.054235
0.055069
0.057631
0.056524
0.057295
0.058010
0.058845
0.059551
0.061397
0.061730
0.062154
0.062497
0.063313
0.064022
0.065454
0.067633
0.067327
0.067429
0.067785
0.068544
0.069297
0.071255
0.070822
0.071587
0.072732
0.073123
0.073873
0.075006
0.075243
0.076079
0.076858
0.079686
0.078571
0.079140
0.080142
0.082583
0.081369
0.082113
0.082802
0.086489
0.084424
0.085513
0.085846
0.086659
0.087412
0.091077
0.089282
0.090449
0.090839
0.091212
0.092033
0.092724
0.093626
0.094194
0.094959
0.096356
0.096944
0.097248
0.098332
0.099013
0.099550
0.100157
0.100908
0.105477
0.105884
0.104482
0.106992
0.104821
0.105370
0.106148
