Full Time (seconds)
0.106358
Time - I
0.004289
0.004588
0.004945
0.005229
0.005600
0.005909
0.006345
0.006796
0.007693
0.007762
0.009053
0.008963
0.010461
0.010466
0.011223
0.011937
0.012690
0.013451
0.014711
0.015014
0.015733
0.016462
0.017334
0.018077
0.018728
0.019529
0.020233
0.021019
0.022211
0.023206
0.023226
0.024434
0.025356
0.025738
0.026300
0.027161
0.027915
0.029103
0.029479
0.030254
0.031892
0.033587
0.032554
0.033647
0.034195
0.034874
0.035946
0.036316
0.037271
0.040031
0.041533
0.043616
0.040671
0.040873
0.041651
0.042310
0.043057
0.043840
0.049543
0.049747
0.050289
0.046907
0.048394
0.048619
0.049075
0.049911
0.050594
0.051396
0.053317
0.052910
0.054625
0.054360
0.055105
0.055862
0.057643
0.059343
0.059956
0.060872
0.061343
0.062301
0.063057
0.063519
0.062625
0.063399
0.064133
0.064926
0.065639
0.066417
0.067574
0.067938
0.068630
0.069584
0.072125
0.070934
0.071671
0.072777
0.072878
0.073957
0.076536
0.075480
0.076110
0.078551
0.078869
0.081228
0.079274
0.082536
0.082320
0.083153
0.084045
0.082964
0.084174
0.084506
0.087962
0.088868
0.089597
0.089416
0.091379
0.092418
0.092888
0.090776
0.091263
0.095380
0.096710
0.097614
0.094001
0.096363
0.099067
0.099363
0.097287
0.098516
0.102328
0.101376
0.103681
0.101559
0.105312
0.103502
0.104965
0.107532
0.108560
0.109137
0.109652
