Full Time (seconds)
0.321602
Incremental Time - I
0.035468
0.000054
0.000059
0.000058
0.000060
0.000061
0.000063
0.000060
0.000061
0.000062
0.000063
0.059906
0.097875
0.133349
0.197888
0.199104
0.226692
0.214044
0.321961
0.355467
0.307927
Classification Time - C
0.159197
0.045145
0.045735
0.047709
0.046225
0.044864
0.044945
0.044727
0.045525
0.046282
0.050673
0.140825
0.184163
0.217513
0.243761
0.223611
0.232133
0.286489
0.302775
0.256056
0.321269
