Full Time (seconds)
0.324644
Incremental Time - I
0.085156
0.035348
0.060529
0.080196
0.095518
0.114501
0.153155
0.161599
0.163692
0.207592
0.210254
0.234365
0.252048
0.253253
0.243971
0.296742
0.321939
0.333935
0.320669
0.264607
0.267390
Classification Time - C
0.220571
0.110982
0.146556
0.174472
0.199354
0.208868
0.224267
0.226821
0.231880
0.246682
0.260650
0.279509
0.257507
0.262039
0.250857
0.296345
0.337004
0.307290
0.272976
0.224338
0.203171
