Full Accuracy
93.000000
Accuracy - I
50.000000
53.615387
53.615387
53.615387
53.615387
53.615387
53.769230
53.769230
53.769230
53.769230
53.769230
54.615383
55.307693
56.230770
56.538456
57.153847
57.538460
57.538460
57.615387
57.615387
57.615387
58.538460
59.384613
59.846149
60.153847
60.461540
60.615383
61.000000
61.000000
61.153847
61.230766
64.923080
64.923080
64.923080
64.923080
64.923080
64.923080
64.846153
64.846153
64.846153
64.846153
65.461540
67.076920
67.461540
67.692307
67.923073
67.923073
68.153847
68.153847
68.307693
68.307693
68.538460
68.538460
68.538460
68.538460
68.538460
68.538460
68.538460
68.538460
68.538460
68.538460
70.230774
71.000000
71.076927
71.769234
72.000000
71.923080
72.000000
72.000000
72.076920
72.000000
73.000000
74.000000
74.538460
74.461540
74.769226
74.923080
75.307693
75.384613
75.307693
75.307693
75.384613
76.000000
76.692307
76.846153
77.000000
77.153847
77.384613
77.538460
77.538460
77.538460
78.230766
78.692307
79.692307
79.846153
80.000000
80.076920
80.307693
80.230766
80.692307
80.769226
82.615379
83.307686
83.538460
83.846153
83.846153
84.076920
84.076920
84.153847
84.153847
84.307686
84.384613
85.000000
85.923073
86.076920
86.307693
86.615387
86.384613
86.384613
86.538467
86.615387
89.692307
89.923080
89.846153
90.307693
90.307693
90.076920
89.923080
89.846153
89.846153
89.846153
91.615387
92.846153
93.076920
92.923073
92.923073
92.923073
93.000000
93.076920
93.076927
93.000000
