Full Accuracy
93.000000
Accuracy - I
50.000000
52.230770
53.615387
53.769230
53.769230
53.615387
53.615387
53.615387
53.615387
53.615387
53.615387
54.461540
55.153847
56.153847
56.461536
57.076920
57.307690
57.384617
57.461536
57.461536
57.461536
58.384617
59.230770
59.692307
60.000004
60.307693
60.461540
60.846157
60.846157
61.000000
61.076920
64.692307
64.769234
64.769234
64.769234
64.769234
64.769234
64.692307
64.692307
64.692307
64.692307
65.153847
66.846153
67.230766
67.538460
67.769226
67.769226
68.000000
68.000000
68.153847
68.153847
70.153847
71.153847
71.692307
71.846161
71.846161
71.846161
71.846161
71.846161
71.923080
72.000000
73.692307
74.461540
74.538460
75.076927
75.307693
75.230774
75.307693
75.307693
75.384613
75.307693
76.307693
77.307686
77.846153
77.769234
78.076920
78.230766
78.615387
78.692307
78.615387
78.615387
78.692307
79.307693
80.000000
80.153847
80.307693
80.461540
80.692307
80.846153
80.769226
80.769234
81.538460
81.923073
82.923080
83.076927
83.230766
83.307686
83.538460
83.461540
83.923080
84.000000
84.000000
84.000000
84.000000
84.000000
84.000000
84.000000
84.076920
84.307686
84.307686
84.307686
84.384613
85.000000
85.923073
86.076920
86.307693
86.615387
86.384613
86.384613
86.538467
86.615387
89.692307
89.923080
89.846153
90.307693
90.307693
90.076920
89.923080
89.846153
89.846153
89.846153
91.615387
92.846153
93.076920
92.923073
92.923073
92.923073
93.000000
93.076920
93.076927
93.000000
