Full Accuracy
93.000000
Accuracy - I
50.000000
53.846157
53.846157
53.846157
53.846157
53.846157
53.846157
53.769230
53.769230
53.769230
53.769230
53.769230
53.769230
53.846157
53.846157
53.846157
53.846157
53.846157
53.846157
53.846157
53.846157
54.769230
55.615383
56.076920
56.384617
56.692307
56.846153
57.230770
57.230770
57.384617
57.461536
61.153847
61.230766
61.307693
61.307693
61.307693
61.307693
61.230766
61.230766
61.230766
61.230766
61.846153
63.461536
63.846153
64.076920
64.307693
64.307693
64.538460
64.538460
64.692307
64.692307
66.692314
67.692307
68.230766
68.384613
68.384613
68.384613
68.384613
68.384613
68.461540
68.538460
70.230774
71.000000
71.076927
71.769234
72.000000
71.923080
72.000000
72.000000
72.076920
72.000000
73.000000
74.000000
74.538460
74.461540
74.769226
74.923080
75.307693
75.384613
75.307693
75.307693
75.384613
76.000000
76.692307
76.846153
77.000000
77.153847
77.384613
77.538460
77.538460
77.538460
78.230766
78.692307
79.692307
79.846153
80.000000
80.076920
80.307693
80.230766
80.692307
80.769226
82.615379
83.307686
83.538460
83.846153
83.846153
84.076920
84.076920
84.153847
84.153847
84.307686
84.384613
85.000000
85.923073
86.076920
86.307693
86.615387
86.384613
86.384613
86.538467
86.615387
89.692307
89.923080
89.846153
90.307693
90.307693
90.076920
89.923080
89.846153
89.846153
89.846153
91.615387
92.846153
93.076920
92.923073
92.923073
92.923073
93.000000
93.076920
93.076927
93.000000
