Full Time (seconds)
0.109774
Time - I
0.004296
0.005062
0.005845
0.006955
0.007405
0.008180
0.008938
0.009709
0.010643
0.011216
0.011974
0.012735
0.013613
0.014358
0.015230
0.015742
0.016934
0.017703
0.018488
0.019211
0.020052
0.020830
0.021022
0.022379
0.023168
0.023952
0.024719
0.024718
0.026045
0.026280
0.027048
0.028611
0.029794
0.029328
0.030999
0.031817
0.031726
0.032434
0.032998
0.034980
0.035707
0.036136
0.036067
0.035696
0.035964
0.036483
0.037155
0.037200
0.037563
0.040175
0.038614
0.040469
0.040036
0.042162
0.041642
0.043639
0.044091
0.044924
0.044786
0.046682
0.047573
0.046706
0.047450
0.048397
0.048975
0.056939
0.052253
0.052844
0.053903
0.053847
0.075637
0.071007
0.088641
0.066378
0.083103
0.059568
0.059825
0.058745
0.061389
0.062202
0.063100
0.061788
0.062539
0.063777
0.066176
0.067654
0.066018
0.066314
0.067036
0.068243
0.068519
0.070961
0.072359
0.071526
0.074149
0.072733
0.073396
0.074516
0.106573
0.088625
0.077480
0.077024
0.079867
0.080039
0.079149
0.082554
0.081583
0.082762
0.082940
0.085643
0.083673
0.084414
0.088201
0.086360
0.088558
0.090332
0.091095
0.089686
0.089786
0.090489
0.094327
0.092038
0.095723
0.096846
0.094327
0.098074
0.095645
0.096729
0.100730
0.101207
0.099925
0.100097
0.100141
0.101479
0.102310
0.102450
0.107131
0.104707
0.108529
0.107809
0.106273
