Full Time (seconds)
0.787553
Time - I
0.248383
0.277648
0.306102
0.188060
0.196624
0.366575
0.417200
0.458031
0.490062
0.457530
0.595631
0.572883
0.218133
0.620196
0.619337
0.537361
0.524941
0.456817
0.776175
0.497841
0.425952
