Full Time (seconds)
0.016105
Time - I
0.004065
0.004580
0.005242
0.005725
0.006335
0.006885
0.007395
0.008028
0.008636
0.009256
0.009907
0.010605
0.011529
0.011618
0.012259
0.013055
0.013591
0.013949
0.015287
0.016017
0.015900
