Full Time (seconds)
0.032806
Incremental Time - I
0.011521
0.000319
0.000373
0.000461
0.001993
0.001529
0.001411
0.001479
0.001602
0.001656
0.002580
0.002817
0.002817
0.003100
0.003145
0.002491
0.003504
0.003483
0.003642
0.003138
0.003201
Classification Time - I
0.004712
0.005905
0.007121
0.008401
0.009678
0.011003
0.012515
0.014074
0.014837
0.016544
0.018090
0.018697
0.020028
0.021800
0.023243
0.024768
0.026342
0.027656
0.029511
0.030990
