Full Time (seconds)
0.032637
Incremental Time - I
0.062969
0.002091
0.001442
0.002036
0.002412
0.001473
0.002418
0.002767
0.002705
0.001989
0.001848
0.001762
0.002863
0.003081
0.002741
0.002832
0.003131
0.003326
0.003287
0.003524
0.003638
Classification Time - I
0.007967
0.009032
0.010107
0.011732
0.012245
0.013305
0.014392
0.015754
0.016882
0.017941
0.019012
0.020167
0.021321
0.021873
0.022929
0.024173
0.025605
0.026726
0.027980
0.029522
