Full Time (seconds)
0.105265
Incremental Time - I
0.000160
0.000265
0.000287
0.000385
0.000425
0.000473
0.000411
0.000443
0.000516
0.000531
0.000599
0.000947
0.001044
0.001263
0.001348
0.002182
0.001801
0.001920
0.003327
0.002037
0.002233
0.003080
0.003352
0.003584
0.003837
0.004076
0.004419
0.004571
0.004903
0.005210
0.005549
0.006331
0.007016
0.006583
0.007942
0.006810
0.007327
0.007131
0.007192
0.007292
0.009795
0.008616
0.010062
0.013251
0.009603
0.011806
0.013864
0.010851
0.010038
0.011389
0.006317
0.006604
0.011466
0.011329
0.012080
0.014058
0.011849
0.013945
0.014982
0.028739
0.023729
0.015401
0.027872
0.015097
0.022520
0.020112
0.024353
0.017087
0.019648
0.017162
0.030392
0.019423
0.024173
0.020564
0.026453
0.021193
0.021372
0.022471
0.031202
0.022892
0.024363
0.035392
0.025515
0.025677
0.032426
0.028428
0.016702
0.031031
0.031384
0.069109
0.033159
0.041762
0.041198
0.043080
0.044138
0.034005
0.053379
0.047748
0.022798
0.042899
0.023126
0.037569
0.038653
0.038345
0.046304
0.045103
0.023920
0.040609
0.040626
0.052846
0.057221
0.027841
0.068032
0.054678
0.049899
0.035387
0.033432
0.041945
0.060263
0.052969
0.049021
0.066456
0.053746
0.056044
0.054283
0.055936
0.073882
0.074433
0.056205
0.055149
0.061657
0.061153
0.088833
0.065062
0.047487
0.078746
0.073561
0.075365
0.063391
0.096495
0.097956
Classification Time - C
0.022406
0.013562
0.016194
0.017165
0.016280
0.015920
0.017083
0.016379
0.017545
0.018514
0.018871
0.019496
0.021025
0.018882
0.020915
0.035581
0.038013
0.030477
0.022404
0.025970
0.029340
0.037977
0.024073
0.042215
0.030764
0.026062
0.027416
0.041667
0.028690
0.031977
0.036161
0.032077
0.031463
0.053450
0.034840
0.045147
0.030776
0.035515
0.030160
0.030195
0.031165
0.030798
0.031468
0.033768
0.040290
0.052569
0.034828
0.035578
0.050425
0.040908
0.018996
0.051670
0.062662
0.049634
0.075787
0.044892
0.044191
0.037388
0.042345
0.064517
0.056528
0.088736
0.047258
0.042716
0.049897
0.040958
0.045272
0.042273
0.058520
0.041331
0.073450
0.045156
0.063683
0.048096
0.045963
0.045356
0.047253
0.025364
0.058884
0.059129
0.062669
0.062751
0.050224
0.057799
0.063631
0.058541
0.029368
0.058481
0.059371
0.081957
0.059286
0.060466
0.073701
0.087918
0.061305
0.063670
0.059764
0.092920
0.053964
0.061623
0.060628
0.051369
0.077715
0.076461
0.086872
0.063921
0.073011
0.070727
0.075129
0.069317
0.035990
0.118279
0.070794
0.072001
0.041537
0.044244
0.043765
0.069731
0.075944
0.081655
0.115923
0.097458
0.101869
0.107677
0.093296
0.077870
0.096528
0.076980
0.082637
0.071235
0.076596
0.080390
0.088445
0.094683
0.075998
0.084036
0.085399
0.111982
0.044371
0.083248
0.120563
