Full Time (seconds)
0.148417
Incremental Time - I
0.000172
0.000214
0.000265
0.000361
0.000283
0.000320
0.000363
0.000389
0.000462
0.000488
0.000555
0.000518
0.000533
0.000617
0.000701
0.000598
0.000620
0.000652
0.000741
0.000779
0.000771
0.001461
0.001682
0.001829
0.001978
0.002180
0.002325
0.002551
0.002713
0.002973
0.002040
0.002272
0.003979
0.004086
0.004193
0.004307
0.004495
0.002616
0.004420
0.006353
0.004635
0.005913
0.005853
0.006312
0.006649
0.006854
0.006788
0.007319
0.007111
0.007255
0.007489
0.006734
0.011644
0.010007
0.006273
0.007474
0.008422
0.014636
0.012036
0.012482
0.015679
0.014488
0.008788
0.020884
0.015173
0.016245
0.016845
0.016978
0.016360
0.016508
0.016770
0.018727
0.020233
0.022663
0.022610
0.020312
0.020903
0.021203
0.025298
0.022381
0.023171
0.028453
0.030518
0.030870
0.033894
0.027290
0.029449
0.039701
0.029153
0.032523
0.040779
0.047854
0.033112
0.038795
0.039441
0.033349
0.034519
0.040734
0.028742
0.022668
0.022900
0.051485
0.040151
0.054306
0.043546
0.052795
0.034299
0.047338
0.046504
0.054959
0.054920
0.048498
0.060012
0.056489
0.029815
0.048518
0.069712
0.049258
0.059875
0.063412
0.050352
0.063505
0.058853
0.060036
0.034281
0.059963
0.059941
0.059757
0.064578
0.033659
0.070650
0.069324
0.047520
0.059912
0.069033
0.050874
0.051542
0.075390
0.062530
0.062944
0.139748
Classification Time - C
0.015064
0.015280
0.015634
0.016168
0.018149
0.016004
0.016134
0.016127
0.016186
0.016365
0.016319
0.016424
0.016415
0.016370
0.017380
0.020723
0.017021
0.023619
0.018011
0.017269
0.017910
0.019868
0.023466
0.021981
0.022223
0.022226
0.023814
0.023627
0.044576
0.024667
0.012682
0.013470
0.030079
0.026449
0.027952
0.043425
0.046791
0.026564
0.026840
0.042982
0.027237
0.029531
0.028667
0.032676
0.030741
0.031025
0.031614
0.031401
0.029256
0.029685
0.036445
0.033485
0.038310
0.036633
0.018796
0.020303
0.037092
0.042460
0.041138
0.034359
0.044668
0.044454
0.030343
0.042420
0.040571
0.042777
0.050760
0.053390
0.041877
0.049619
0.043017
0.043602
0.049522
0.044871
0.049617
0.045665
0.054790
0.053959
0.051216
0.047226
0.051896
0.050107
0.056580
0.057745
0.064560
0.100639
0.059695
0.029146
0.031783
0.066528
0.062569
0.054847
0.057998
0.060279
0.067637
0.032285
0.062784
0.057243
0.036683
0.035766
0.036197
0.084554
0.065496
0.085251
0.062726
0.082545
0.059095
0.035418
0.186428
0.077180
0.074589
0.084968
0.076239
0.090448
0.039700
0.069891
0.078160
0.075052
0.071487
0.084503
0.081091
0.081204
0.074063
0.092966
0.076347
0.079768
0.080458
0.077477
0.054410
0.108950
0.077876
0.070539
0.049997
0.063819
0.047995
0.062337
0.067222
0.102301
0.165082
0.145303
0.082666
