Full Time (seconds)
0.068847
Incremental Time - I
0.000146
0.000103
0.000274
0.000324
0.000354
0.000463
0.000400
0.000456
0.000489
0.000500
0.000548
0.000930
0.000978
0.001168
0.001257
0.001465
0.001573
0.001668
0.001730
0.001621
0.003661
0.001591
0.001749
0.003867
0.003888
0.004207
0.004092
0.004056
0.004654
0.005460
0.008036
0.005690
0.010575
0.006169
0.006207
0.006298
0.006485
0.006518
0.006494
0.006656
0.006660
0.007966
0.010231
0.008527
0.008892
0.008792
0.009217
0.008991
0.009997
0.009563
0.009802
0.018393
0.014364
0.014552
0.013105
0.015645
0.015963
0.016319
0.016775
0.016443
0.018693
0.020966
0.013596
0.020529
0.020480
0.021027
0.020391
0.011987
0.020123
0.023888
0.020548
0.022015
0.021592
0.025933
0.026000
0.027235
0.024968
0.022118
0.022081
0.026048
0.022414
0.025113
0.030410
0.028075
0.040184
0.031431
0.016507
0.019238
0.019933
0.026419
0.040722
0.071780
0.032810
0.046663
0.038887
0.042698
0.079695
0.036131
0.034582
0.039945
0.039913
0.038195
0.046202
0.039316
0.025948
0.043322
0.055658
0.040271
0.047929
0.051849
0.041366
0.052806
0.045623
0.049907
0.050495
0.051682
0.074906
0.048622
0.062361
0.049062
0.049984
0.065835
0.065298
0.053372
0.077342
0.058089
0.064007
0.060526
0.056224
0.145233
0.035099
0.076294
0.079950
0.081189
0.087452
0.070700
0.074869
0.054571
0.100052
0.064029
0.101614
Classification Time - C
0.014650
0.007701
0.019313
0.027016
0.021670
0.018961
0.024745
0.020368
0.017033
0.024523
0.018702
0.030585
0.018905
0.039122
0.024445
0.025495
0.024406
0.021917
0.020730
0.056946
0.031370
0.012282
0.030742
0.031168
0.031543
0.033449
0.031693
0.034025
0.037649
0.026710
0.031907
0.029976
0.034757
0.032740
0.029751
0.033553
0.037690
0.058236
0.036890
0.041149
0.036175
0.035563
0.035911
0.035684
0.036468
0.042145
0.038617
0.058443
0.039338
0.040620
0.067111
0.039025
0.043986
0.044872
0.048282
0.042522
0.048249
0.052731
0.044430
0.043704
0.042462
0.046454
0.043789
0.047557
0.045195
0.052778
0.054289
0.044965
0.048445
0.064909
0.051666
0.047705
0.045659
0.047379
0.054811
0.052737
0.047924
0.046401
0.047293
0.047718
0.057389
0.049156
0.073954
0.058247
0.063931
0.058552
0.041356
0.033776
0.034755
0.064047
0.066898
0.065687
0.078810
0.086521
0.097185
0.066854
0.072900
0.063257
0.060941
0.067027
0.062044
0.064987
0.078398
0.074318
0.036413
0.067804
0.064301
0.065019
0.077816
0.062501
0.073183
0.077219
0.036305
0.086126
0.091616
0.080811
0.071255
0.072446
0.105414
0.071847
0.072545
0.075325
0.086090
0.074074
0.100284
0.097816
0.097003
0.078336
0.042595
0.093794
0.110940
0.095884
0.099403
0.094115
0.106343
0.088481
0.074663
0.098837
0.132493
0.082506
0.090584
