Full Time (seconds)
0.098800
Incremental Time - I
0.000156
0.000021
0.000014
0.000026
0.000022
0.000025
0.000030
0.000023
0.000030
0.000022
0.000023
0.000302
0.000339
0.000422
0.000445
0.000583
0.000622
0.000660
0.000651
0.000694
0.000775
0.001477
0.001727
0.001908
0.001972
0.002148
0.002318
0.003139
0.003193
0.002998
0.003173
0.004411
0.003993
0.004013
0.004144
0.004317
0.005125
0.004364
0.004437
0.004540
0.004989
0.005734
0.006090
0.006779
0.006507
0.009406
0.006628
0.006567
0.006962
0.009194
0.009539
0.008939
0.018113
0.017319
0.010251
0.006620
0.006872
0.011747
0.017809
0.021983
0.018575
0.022636
0.014655
0.014797
0.015203
0.016159
0.029799
0.030111
0.026707
0.024557
0.016650
0.023756
0.021641
0.020016
0.020177
0.020525
0.020838
0.024150
0.029306
0.025953
0.029170
0.030798
0.030680
0.028756
0.028866
0.053893
0.030660
0.035419
0.028656
0.017455
0.039806
0.040447
0.057454
0.046801
0.047774
0.042153
0.049905
0.021281
0.050136
0.034656
0.067158
0.054720
0.043230
0.057506
0.050302
0.048606
0.044123
0.070669
0.046607
0.050775
0.048031
0.069803
0.069991
0.057542
0.051537
0.056312
0.064957
0.070301
0.049621
0.050189
0.058998
0.052409
0.053076
0.032565
0.054052
0.058261
0.054492
0.055038
0.084926
0.072873
0.056179
0.082863
0.072864
0.091967
0.075224
0.084884
0.082888
0.084755
0.072222
0.078496
0.090075
Classification Time - C
0.016848
0.006736
0.006733
0.013435
0.012605
0.013613
0.012311
0.017964
0.015726
0.022802
0.015803
0.022992
0.016761
0.032485
0.015798
0.022445
0.016585
0.016649
0.017706
0.032153
0.016905
0.019774
0.025929
0.025598
0.025984
0.025143
0.029306
0.022785
0.051936
0.023683
0.025375
0.041914
0.034815
0.026235
0.033319
0.044095
0.027387
0.026831
0.026895
0.028081
0.027549
0.028701
0.028371
0.034828
0.035747
0.041015
0.036103
0.049350
0.036409
0.041472
0.042623
0.046977
0.059584
0.043884
0.052195
0.018908
0.049296
0.043989
0.051145
0.046107
0.061906
0.045421
0.047689
0.045398
0.062902
0.048820
0.054630
0.046423
0.055463
0.050734
0.061237
0.047696
0.051835
0.055561
0.073382
0.037814
0.052743
0.069960
0.052683
0.053295
0.057716
0.063523
0.053690
0.053475
0.059729
0.058040
0.067154
0.066040
0.041604
0.057078
0.064781
0.082752
0.060490
0.076747
0.068243
0.078383
0.070447
0.049658
0.088955
0.064469
0.079365
0.075567
0.061087
0.085420
0.086143
0.078550
0.082402
0.074136
0.088406
0.084101
0.078624
0.094270
0.082410
0.087485
0.095971
0.076897
0.069762
0.090301
0.071075
0.105655
0.071174
0.077920
0.089521
0.085546
0.079656
0.099800
0.076627
0.077552
0.077382
0.042160
0.107980
0.127931
0.086571
0.099348
0.108043
0.103753
0.112603
0.081520
0.118049
0.098508
0.112524
