Full Time (seconds)
0.142227
Incremental Time - I
0.005108
0.000089
0.000105
0.000108
0.000114
0.000115
0.000131
0.000135
0.000149
0.000166
0.000166
0.000191
0.000184
0.000194
0.000200
0.000210
0.000212
0.000223
0.000229
0.000243
0.000247
0.000627
0.000489
0.000456
0.000588
0.000637
0.000651
0.000508
0.000499
0.000529
0.000499
0.000658
0.000687
0.000703
0.000676
0.000689
0.000719
0.000699
0.000645
0.000591
0.000584
0.000592
0.000607
0.000777
0.000624
0.000815
0.000792
0.000687
0.000676
0.000688
0.000672
0.000891
0.000717
0.000874
0.000870
0.000925
0.000887
0.000797
0.000753
0.000782
0.000788
0.000947
0.000783
0.000747
0.000969
0.000953
0.000849
0.000833
0.000838
0.000980
0.001025
0.000642
0.000691
0.000670
0.000575
0.000492
0.000631
0.000649
0.000954
0.000963
0.000674
0.001067
0.000970
0.000989
0.000919
0.000990
0.000925
0.001128
0.001142
0.001156
0.001083
0.001032
0.001032
0.001008
0.001030
0.001198
0.001103
0.001077
0.001075
0.001549
0.001487
0.001239
0.001113
0.001104
0.001110
0.001149
0.001126
0.001236
0.001304
0.001671
0.001223
0.001196
0.001192
0.001156
0.001368
0.001380
0.001259
0.001202
0.001265
0.001412
0.001360
0.001381
0.001353
0.001282
0.001442
0.001294
0.001237
0.001296
0.001301
0.001281
0.001422
0.001488
0.001493
0.001416
0.001368
0.001386
0.001516
0.001445
0.001440
0.001434
0.001968
Classification Time - I
0.005761
0.006608
0.007575
0.008494
0.009490
0.010469
0.011388
0.012381
0.013198
0.014197
0.015205
0.016234
0.017118
0.017944
0.018756
0.020109
0.020429
0.021429
0.022278
0.023265
0.024861
0.025054
0.026520
0.026768
0.028143
0.029572
0.030514
0.031582
0.031642
0.033475
0.033334
0.034158
0.035124
0.036141
0.037033
0.038666
0.039533
0.041224
0.042166
0.042492
0.044100
0.045155
0.044763
0.045947
0.049888
0.050477
0.048943
0.050998
0.051879
0.051208
0.052043
0.053082
0.054044
0.054958
0.055896
0.056863
0.057839
0.058678
0.060101
0.060508
0.061903
0.062555
0.063330
0.064215
0.065513
0.067843
0.066989
0.070281
0.071531
0.070105
0.071101
0.074071
0.076442
0.071854
0.071624
0.072231
0.073570
0.077431
0.077663
0.080982
0.075614
0.079149
0.080168
0.079914
0.080486
0.080806
0.081546
0.082495
0.086532
0.083751
0.085004
0.085905
0.089072
0.088846
0.091264
0.093484
0.094421
0.091281
0.092723
0.101683
0.101764
0.095770
0.099766
0.096652
0.101655
0.098598
0.108653
0.106521
0.108944
0.102696
0.103200
0.108052
0.105573
0.115151
0.114044
0.111737
0.108461
0.109233
0.119573
0.120497
0.112722
0.114768
0.119508
0.115436
0.125310
0.124334
0.118280
0.118499
0.121328
0.120470
0.131664
0.133203
0.123185
0.124456
0.126863
0.128580
0.126924
0.130655
0.129503
0.138419
