Full Time (seconds)
0.142541
Incremental Time - I
0.005119
0.000089
0.000103
0.000104
0.000116
0.000116
0.000134
0.000144
0.000144
0.000152
0.000172
0.000176
0.000181
0.000193
0.000203
0.000215
0.000220
0.000223
0.000228
0.000247
0.000254
0.000628
0.000458
0.000445
0.000477
0.000469
0.000484
0.000476
0.000491
0.000511
0.000539
0.000637
0.000551
0.000567
0.000547
0.000528
0.000554
0.000561
0.000566
0.000587
0.000763
0.000658
0.000626
0.000778
0.000672
0.000661
0.000659
0.000678
0.000691
0.000839
0.000844
0.000876
0.000776
0.000753
0.000848
0.000784
0.000751
0.000764
0.000783
0.000783
0.000802
0.000955
0.000826
0.000819
0.000977
0.000848
0.000862
0.000847
0.000858
0.000864
0.001027
0.001030
0.001018
0.000925
0.000944
0.000928
0.000933
0.001063
0.001095
0.001029
0.000971
0.000980
0.000967
0.000993
0.001016
0.001190
0.001176
0.001105
0.001031
0.001044
0.001054
0.001076
0.001171
0.001256
0.001174
0.001113
0.001112
0.001106
0.001262
0.001238
0.001300
0.000725
0.000642
0.000654
0.000623
0.000652
0.000896
0.000929
0.000882
0.000818
0.000800
0.001215
0.001208
0.001197
0.001175
0.001164
0.001203
0.001225
0.001258
0.001298
0.001263
0.001351
0.001321
0.001272
0.001264
0.001310
0.001296
0.001290
0.001329
0.001286
0.001346
0.001487
0.001457
0.001345
0.001373
0.001404
0.001573
0.001454
0.001422
0.001423
0.001374
Classification Time - I
0.005812
0.006652
0.007644
0.008545
0.009520
0.010534
0.011495
0.012526
0.013605
0.014470
0.015556
0.016862
0.017412
0.018231
0.019043
0.020058
0.020728
0.021700
0.022427
0.023485
0.024366
0.025696
0.026229
0.027338
0.028031
0.029018
0.029921
0.030904
0.031747
0.032748
0.034655
0.034433
0.036203
0.036437
0.037278
0.038290
0.039843
0.040154
0.041084
0.042086
0.043274
0.043987
0.046383
0.046029
0.047662
0.048188
0.048737
0.050310
0.052316
0.053398
0.052871
0.053402
0.056281
0.055475
0.056289
0.058135
0.058465
0.059459
0.060057
0.063073
0.061801
0.062725
0.063644
0.064608
0.066931
0.068794
0.067760
0.068271
0.069689
0.070191
0.071434
0.071918
0.073607
0.073965
0.074837
0.078644
0.077292
0.077835
0.079289
0.080166
0.080880
0.084414
0.082430
0.083389
0.084923
0.085161
0.086009
0.087023
0.091682
0.088775
0.090899
0.091143
0.092377
0.092696
0.094252
0.094646
0.095157
0.096190
0.096748
0.097762
0.098217
0.100307
0.102765
0.099401
0.100227
0.100462
0.100803
0.105720
0.102181
0.102741
0.107863
0.108818
0.106017
0.106216
0.107528
0.107959
0.108993
0.113183
0.115138
0.112118
0.113188
0.114357
0.115518
0.115638
0.119782
0.117337
0.118996
0.119567
0.120179
0.120684
0.123169
0.123328
0.127001
0.124566
0.128507
0.126863
0.127563
0.131535
0.129567
0.132302
