Full Time (seconds)
0.143110
Incremental Time - I
0.005896
0.000090
0.000107
0.000108
0.000124
0.000123
0.000133
0.000138
0.000137
0.000153
0.000159
0.000178
0.000186
0.000191
0.000204
0.000210
0.000215
0.000224
0.000230
0.000245
0.000254
0.000637
0.000648
0.000552
0.000612
0.000618
0.000619
0.000555
0.000573
0.000560
0.000628
0.000606
0.000655
0.000657
0.000593
0.000647
0.000637
0.000718
0.000763
0.000751
0.000732
0.000603
0.000527
0.000573
0.000529
0.000476
0.000523
0.000538
0.000580
0.000672
0.000659
0.000849
0.000797
0.000832
0.000715
0.000723
0.000748
0.000734
0.000848
0.000881
0.000897
0.000890
0.000923
0.000916
0.000824
0.000844
0.000807
0.000947
0.000981
0.000951
0.000975
0.001007
0.000954
0.000904
0.000891
0.000910
0.000980
0.001047
0.001014
0.001039
0.001039
0.001042
0.000965
0.000967
0.000977
0.001113
0.001138
0.001103
0.001153
0.001107
0.001048
0.001070
0.001162
0.001158
0.001187
0.001210
0.001222
0.001213
0.001114
0.001108
0.001113
0.001240
0.001230
0.001221
0.001153
0.001155
0.001273
0.001310
0.001288
0.001276
0.001279
0.001234
0.001236
0.001344
0.001340
0.001372
0.001355
0.001340
0.001290
0.001293
0.001302
0.001361
0.001389
0.001349
0.001320
0.001347
0.001427
0.001459
0.001462
0.001435
0.001324
0.001473
0.001474
0.001493
0.001532
0.001514
0.001432
0.001448
0.001452
0.001566
0.001593
Classification Time - I
0.005758
0.006567
0.007540
0.008428
0.009399
0.010380
0.011367
0.012339
0.013333
0.014587
0.015618
0.016296
0.017624
0.018531
0.018817
0.019813
0.021120
0.021477
0.022906
0.023992
0.024170
0.025776
0.025992
0.027781
0.027864
0.028871
0.030745
0.031762
0.031653
0.032571
0.034623
0.034528
0.035455
0.037583
0.038645
0.038786
0.040621
0.040220
0.042699
0.042120
0.042930
0.042895
0.043314
0.043703
0.043979
0.044532
0.046251
0.045802
0.046484
0.048516
0.049436
0.049261
0.050868
0.052450
0.053419
0.052510
0.055715
0.054539
0.055678
0.056522
0.057128
0.058705
0.061186
0.062283
0.063082
0.064009
0.065058
0.063659
0.065057
0.066620
0.067003
0.067999
0.070995
0.069597
0.072484
0.071352
0.072988
0.073597
0.074561
0.075510
0.076367
0.079960
0.078715
0.078954
0.080052
0.080582
0.081894
0.082497
0.083533
0.084647
0.085212
0.086367
0.087362
0.088809
0.089265
0.093810
0.094254
0.091681
0.092617
0.097314
0.094816
0.095982
0.096669
0.097880
0.098247
0.099646
0.100508
0.100820
0.102313
0.106795
0.103655
0.108342
0.105926
0.106716
0.107519
0.107951
0.109593
0.109743
0.114953
0.112600
0.113546
0.114048
0.114606
0.119581
0.118758
0.121459
0.119058
0.119414
0.121188
0.121162
0.122275
0.123846
0.123977
0.124776
0.127695
0.126499
0.127444
0.133074
0.130045
0.130008
