Full Time (seconds)
0.142063
Incremental Time - I
0.004402
0.000089
0.000104
0.000099
0.000114
0.000118
0.000124
0.000131
0.000138
0.000150
0.000158
0.000171
0.000179
0.000193
0.000198
0.000210
0.000216
0.000223
0.000228
0.000241
0.000252
0.000623
0.000453
0.000457
0.000486
0.000466
0.000599
0.000670
0.000666
0.000527
0.000512
0.000490
0.000506
0.000540
0.000519
0.000526
0.000535
0.000723
0.000728
0.000737
0.000773
0.000676
0.000595
0.000599
0.000640
0.000622
0.000634
0.000661
0.000830
0.000663
0.000845
0.000699
0.000722
0.000713
0.000717
0.000720
0.000729
0.000733
0.000931
0.000935
0.000953
0.000499
0.000491
0.000477
0.000489
0.000465
0.000740
0.000677
0.000622
0.000766
0.000743
0.000973
0.000856
0.000851
0.000856
0.000860
0.000884
0.001002
0.000876
0.000914
0.001048
0.000939
0.000942
0.000985
0.000951
0.001128
0.001000
0.000979
0.001145
0.001003
0.000997
0.001012
0.001157
0.001203
0.001091
0.001042
0.001056
0.001040
0.001079
0.001063
0.001245
0.001165
0.001121
0.001094
0.001124
0.001105
0.001291
0.001128
0.001136
0.001294
0.001161
0.001216
0.001228
0.001194
0.001377
0.001381
0.001252
0.001225
0.001251
0.001219
0.001405
0.001300
0.001297
0.001291
0.001305
0.001437
0.001461
0.001342
0.001320
0.001322
0.001298
0.001537
0.001506
0.001490
0.001374
0.001310
0.001522
0.001559
0.001481
0.001446
0.001469
Classification Time - I
0.005819
0.006665
0.007677
0.008579
0.009509
0.010497
0.011520
0.012574
0.013431
0.014451
0.015790
0.016877
0.017324
0.018161
0.019450
0.020329
0.021148
0.022247
0.022915
0.023494
0.025160
0.025637
0.026861
0.027858
0.028862
0.029359
0.029976
0.030893
0.031760
0.032907
0.034641
0.035838
0.035408
0.036346
0.037355
0.039512
0.039555
0.040920
0.041186
0.042140
0.044490
0.045487
0.046369
0.047430
0.046776
0.047896
0.048676
0.049808
0.051265
0.055670
0.052481
0.053742
0.054328
0.055355
0.058153
0.059152
0.058680
0.059803
0.060603
0.061105
0.061315
0.063858
0.064222
0.062672
0.064929
0.063677
0.064315
0.064414
0.065112
0.067563
0.066956
0.067312
0.068429
0.071086
0.070811
0.071737
0.072305
0.073296
0.074905
0.075369
0.078724
0.077180
0.077669
0.078753
0.080762
0.080577
0.081503
0.082802
0.083557
0.087812
0.085920
0.086369
0.090933
0.088432
0.088832
0.089823
0.094714
0.091914
0.092662
0.093868
0.094820
0.095446
0.099701
0.098859
0.098573
0.098769
0.102934
0.106773
0.101727
0.107155
0.103415
0.108763
0.107323
0.106398
0.106866
0.108204
0.109233
0.114087
0.111261
0.111453
0.112377
0.113218
0.114585
0.115161
0.116793
0.117024
0.118508
0.119490
0.125064
0.129308
0.132544
0.122724
0.123312
0.124509
0.117909
0.136243
0.127563
0.127917
0.129091
0.131456
