Full Accuracy
91.153847
Accuracy - I
50.000000
56.538464
67.692307
72.615387
75.307693
77.846153
81.153854
83.461540
83.692307
84.692307
85.615387
86.846153
86.846153
87.230774
88.230774
88.538460
89.153847
90.153847
90.076920
91.076920
91.153847
