Full Time (seconds)
0.072188
Time - I
0.004585
0.009090
0.013348
0.017489
0.027456
0.026122
0.029804
0.034428
0.038047
0.043766
0.046463
0.053150
0.058257
0.064761
0.070295
0.077018
0.082467
0.089220
0.095094
0.101722
0.108030
