Full Time (seconds)
0.107104
Time - I
0.004451
0.009334
0.013656
0.018071
0.021976
0.026765
0.030830
0.034305
0.038416
0.042466
0.046512
0.053048
0.058594
0.065257
0.070797
0.077215
0.083585
0.089237
0.095712
0.101670
0.107690
