Full Accuracy
87.330620
Accuracy - I
cat: testS_0.svm.acc: No such file or directory
71.763779
71.843948
73.249649
74.246674
73.644653
73.644653
74.180588
74.180588
74.180588
74.180588
77.375832
81.576645
80.533768
86.047623
84.526787
84.971199
86.222931
87.205551
88.601318
88.601318
88.363480
88.219437
89.026764
89.026764
89.058022
89.058022
88.551079
88.281975
88.281975
87.330620
