Full Time (seconds)
0.016192
Time - I
0.002050
0.002831
0.003627
0.004557
0.005158
0.005998
0.006754
0.007639
0.008453
0.009332
0.010205
0.010505
0.010910
0.011311
0.011435
0.012351
0.012690
0.012675
0.013068
0.014023
0.014094
0.014114
0.014308
0.014567
0.014631
0.016344
0.015802
0.016057
0.015927
0.016227
0.016732
