Full Time (seconds)
0.016704
Time - I
0.002050
0.002874
0.003637
0.004375
0.005200
0.005952
0.006852
0.007576
0.008392
0.009219
0.010524
0.010080
0.010311
0.010486
0.010674
0.010887
0.011123
0.011303
0.011516
0.011738
0.011936
0.012347
0.012674
0.013131
0.013584
0.014325
0.014564
0.015377
0.015395
0.016234
0.016688
