Full Time (seconds)
0.001157
Incremental Time - I
0.000311
0.000148
0.000306
0.000470
0.000617
0.000667
0.000711
0.000735
0.000743
0.001069
0.000943
0.001425
0.001666
0.004492
0.003734
0.008807
0.008323
0.006171
0.003719
0.004736
0.004932
0.005137
0.005854
0.007050
0.006365
0.008238
0.010689
0.016281
0.008416
0.007059
0.009688
Classification Time - C
0.000939
0.000552
0.000579
0.000750
0.000631
0.000628
0.000677
0.000643
0.000659
0.000658
0.000659
0.000815
0.000912
0.000879
0.000948
0.001035
0.001042
0.001104
0.001058
0.001068
0.001090
0.001074
0.001143
0.001202
0.001189
0.001272
0.001440
0.001296
0.001301
0.001114
0.001195
