Full Time (seconds)
0.142921
Incremental Time - I
0.005875
0.000323
0.000594
0.000832
0.001296
0.001542
0.001650
0.001907
0.002146
0.002269
0.002699
0.004219
0.005438
0.005232
0.005688
0.006242
0.007085
0.007494
0.008122
0.008834
0.009242
Classification Time - I
0.010484
0.017305
0.021610
0.026895
0.029970
0.039470
0.040009
0.041666
0.049144
0.054869
0.064165
0.074740
0.079469
0.088665
0.099150
0.099821
0.107204
0.121285
0.122797
0.132274
