Full Time (seconds)
0.141549
Incremental Time - I
0.005102
0.000326
0.000571
0.000827
0.001319
0.001462
0.001751
0.001966
0.001834
0.002437
0.002727
0.004206
0.004814
0.005271
0.005874
0.006330
0.007114
0.007562
0.008083
0.008778
0.009700
Classification Time - I
0.010061
0.014987
0.017712
0.025723
0.030474
0.035515
0.043220
0.036514
0.054109
0.059145
0.067251
0.070266
0.079495
0.085373
0.092904
0.100598
0.109388
0.121295
0.124550
0.131793
