Full Time (seconds)
0.135509
Incremental Time - I
0.005914
0.000322
0.000569
0.000807
0.001341
0.001427
0.001677
0.002069
0.002226
0.002387
0.002658
0.003914
0.004386
0.005183
0.005856
0.006310
0.008265
0.008750
0.007487
0.008138
0.008673
Classification Time - I
0.010080
0.015262
0.020437
0.025566
0.033632
0.036558
0.040384
0.047284
0.053002
0.050831
0.057748
0.064563
0.082819
0.090597
0.092326
0.107280
0.103349
0.106442
0.115865
0.120921
