Full Time (seconds)
0.005924
Incremental Time - I
0.000666
0.000046
0.000046
0.000046
0.000049
0.000048
0.000051
0.000050
0.000065
0.000084
0.000069
0.000074
0.000092
0.000100
0.000101
0.000104
0.000114
0.000113
0.000115
0.000121
0.000123
0.000220
0.000247
0.000267
0.001252
0.001048
0.001005
0.001084
0.001148
0.001166
0.001317
Classification Time - I
0.000607
0.000654
0.000710
0.000736
0.000784
0.000834
0.000880
0.001399
0.001017
0.001118
0.001225
0.001296
0.001414
0.001555
0.001646
0.001780
0.001880
0.002024
0.002121
0.002232
0.002487
0.002691
0.003334
0.003160
0.003390
0.003643
0.003878
0.004401
0.004728
0.005042
