Full Time (seconds)
0.005687
Incremental Time - I
0.001293
0.000060
0.000066
0.000071
0.000072
0.000086
0.000090
0.000090
0.000101
0.000131
0.000100
0.000080
0.000064
0.000065
0.000070
0.000069
0.000083
0.000113
0.000090
0.000092
0.000094
0.000218
0.000246
0.000261
0.001704
0.001404
0.001328
0.001343
0.001306
0.001439
0.001298
Classification Time - I
0.000719
0.000829
0.000956
0.000974
0.001158
0.001184
0.001403
0.001402
0.001602
0.001637
0.001687
0.001741
0.001840
0.001833
0.001862
0.001946
0.002004
0.002107
0.002179
0.002223
0.002525
0.002685
0.002891
0.003158
0.003398
0.003610
0.004027
0.004168
0.004488
0.004733
