Full Time (seconds)
0.272510
Time - I
0.248282
0.281185
0.307378
0.346385
0.376103
0.150865
0.190112
0.201205
0.202988
0.212188
0.558542
0.542673
0.495101
0.214896
0.226620
0.240219
0.240081
0.255062
0.256794
0.264168
0.275823
