Full Accuracy
94.923080
Accuracy - I
50.000000
53.615387
53.615387
53.769238
53.769230
53.692307
53.692307
53.692307
53.692307
53.692307
53.692307
55.461536
56.000000
57.384617
57.461536
57.461536
57.538456
57.538456
57.538456
57.538456
57.538456
59.461540
60.000004
60.615383
60.923080
61.153847
61.230766
61.230766
61.307693
61.384617
61.384617
65.076920
65.230766
65.230766
65.230766
65.230766
65.230766
65.230766
65.230766
65.230766
65.230766
67.769226
68.230774
68.538460
68.538460
68.615379
68.615379
68.692307
68.615379
68.615379
68.615379
71.692307
72.153847
72.307686
72.461540
72.461540
72.461540
72.461540
72.461540
72.461540
72.461540
75.153847
75.769226
75.692307
75.846153
75.846153
75.846153
75.846153
75.846153
75.846153
75.846153
77.538460
77.923080
78.769234
78.769234
78.846153
79.538460
79.615387
79.615387
79.615387
79.615387
80.230766
81.000000
81.538460
81.692307
81.615379
81.769234
81.769234
81.769234
82.000000
82.076927
84.000000
84.307693
84.923080
85.000000
85.230766
85.307693
85.307693
85.538467
85.538467
85.615387
85.615387
85.615387
85.615387
85.692307
85.692307
85.692307
85.846153
85.846153
85.846153
85.846153
87.000000
88.000000
88.230774
88.384613
88.384613
88.230774
88.307693
88.307693
88.307693
88.538460
91.692307
91.769234
92.000000
91.769234
91.846153
91.769234
91.692307
91.692307
91.692307
91.692314
94.538460
95.000000
95.000000
95.076927
95.000000
95.000000
95.000000
95.000000
95.000000
94.923080
