Full Time (seconds)
0.090966
Time - I
0.003926
0.004225
0.004754
0.004822
0.005121
0.005455
0.006551
0.006340
0.006799
0.007969
0.007699
0.008592
0.009197
0.009973
0.011698
0.011475
0.012329
0.013023
0.015503
0.014815
0.015225
0.016048
0.016921
0.018806
0.020068
0.019384
0.021468
0.022719
0.025378
0.022323
0.022682
0.025257
0.024159
0.025020
0.025935
0.026641
0.027251
0.028384
0.030586
0.029683
0.030133
0.031024
0.031747
0.032856
0.037562
0.036536
0.035179
0.045482
0.038905
0.038874
0.037840
0.043531
0.039665
0.038776
0.040778
0.041723
0.042787
0.048792
0.047673
0.046684
0.045737
0.046312
0.047077
0.047450
0.048321
0.046829
0.046086
0.048216
0.051288
0.052282
0.052697
0.053465
0.054411
0.055368
0.056519
0.056527
0.059113
0.066090
0.058698
0.059508
0.079582
0.061151
0.064013
0.063914
0.070939
0.064264
0.072477
0.072103
0.069945
0.067085
0.069331
0.068952
0.071612
0.078112
0.070780
0.071923
0.075826
0.073017
0.081085
0.074876
0.077763
0.080465
0.077103
0.079207
0.080616
0.124071
0.080246
0.080581
0.081274
0.082161
0.083064
0.081621
0.078148
0.081147
0.079366
0.079935
0.081104
0.088003
0.091716
0.090322
0.090272
0.091859
0.092361
0.085612
0.089726
0.107021
0.095074
0.097728
0.096321
0.098952
0.097957
0.098852
0.099701
0.111975
0.113289
0.101817
0.102389
0.116436
0.103822
0.093532
0.093172
