Full Time (seconds)
0.109255
Time - I
0.003902
0.004675
0.006856
0.006353
0.006974
0.007844
0.008514
0.008735
0.009969
0.010721
0.011466
0.012221
0.012971
0.013910
0.015009
0.015182
0.016485
0.017219
0.017733
0.018235
0.018940
0.019807
0.022218
0.021184
0.022011
0.022729
0.023688
0.026298
0.024954
0.027134
0.027292
0.027602
0.028318
0.028917
0.029692
0.030420
0.031030
0.031936
0.033126
0.035072
0.038655
0.039352
0.039775
0.036410
0.038847
0.038441
0.038673
0.040937
0.036897
0.037589
0.045385
0.042265
0.043038
0.043903
0.045945
0.045264
0.047461
0.047029
0.051609
0.048258
0.053866
0.051016
0.050966
0.051785
0.051976
0.053240
0.053760
0.054550
0.055214
0.056046
0.056836
0.057691
0.058189
0.059164
0.061824
0.055705
0.053908
0.054834
0.063213
0.065339
0.066719
0.064289
0.065761
0.064920
0.065204
0.067743
0.066430
0.065804
0.066840
0.067391
0.067715
0.068960
0.069258
0.070508
0.070712
0.078933
0.079376
0.080836
0.076258
0.074531
0.075309
0.076190
0.077131
0.085900
0.088070
0.088378
0.089848
0.080887
0.083426
0.082223
0.084611
0.083677
0.086991
0.085492
0.085737
0.086467
0.092347
0.088534
0.094416
0.089483
0.113399
0.091687
0.089011
0.085331
0.090751
0.087138
0.090663
0.095612
0.096319
0.097528
0.097891
0.133917
0.112305
0.100328
0.100729
0.101638
0.105792
0.093735
0.117331
0.114020
0.113854
