Full Time (seconds)
0.105172
Time - I
0.003936
0.004677
0.005441
0.006199
0.006917
0.007878
0.008457
0.009200
0.009973
0.010792
0.011457
0.012229
0.013616
0.013706
0.014481
0.015247
0.016016
0.016701
0.017460
0.018210
0.019100
0.019531
0.019553
0.019860
0.020158
0.020468
0.018624
0.018902
0.019286
0.019657
0.021345
0.022343
0.024524
0.023771
0.024317
0.024440
0.025122
0.028677
0.028725
0.029523
0.030216
0.030970
0.032013
0.032406
0.033357
0.034035
0.034989
0.036182
0.037582
0.037839
0.038889
0.044101
0.039722
0.041067
0.041423
0.043521
0.043005
0.043617
0.044501
0.045193
0.047510
0.046789
0.048864
0.047493
0.048442
0.049892
0.050973
0.051392
0.052090
0.053915
0.053688
0.054475
0.056662
0.055919
0.056708
0.057559
0.058161
0.059217
0.061150
0.059509
0.060280
0.062954
0.063227
0.062865
0.069950
0.066429
0.064813
0.065532
0.071298
0.072766
0.071500
0.068849
0.072152
0.073576
0.073642
0.073538
0.074163
0.076528
0.082473
0.077041
0.078109
0.076062
0.080453
0.077570
0.078366
0.082278
0.081490
0.080985
0.082005
0.084374
0.084051
0.086499
0.087551
0.085732
0.085846
0.089449
0.090179
0.089479
0.092359
0.092662
0.093390
0.093387
0.095270
0.093652
0.093311
0.110905
0.098410
0.099216
0.096423
0.097153
0.100659
0.101648
0.101706
0.100238
0.100809
0.102023
0.102279
0.106535
0.107851
0.109504
0.110624
