Full Time (seconds)
0.471751
Time - I
0.251613
0.321032
0.322938
0.329682
0.378768
0.341058
0.444494
0.421967
0.385553
0.541266
0.585765
0.597300
0.576543
0.674933
0.573460
0.694553
0.691766
0.422454
0.745292
0.768887
0.773593
