Full Accuracy
76.577774
Accuracy - I
50.000000
50.000000
50.000000
50.000000
50.000000
50.000000
50.000000
50.000000
50.000000
50.000000
50.000000
54.244442
60.222221
63.133335
63.666672
64.755554
64.911110
65.466667
65.933327
65.977783
66.333336
66.044441
70.844444
71.222221
72.688889
74.977783
76.555557
76.466667
76.733330
77.155556
76.577774
