Full Accuracy
93.000000
Accuracy - I
50.000000
51.846153
53.692307
53.769230
53.846157
53.846157
53.846157
53.846149
53.846157
53.846157
53.846149
54.538460
55.307693
56.153847
56.461536
57.076923
57.538460
57.615387
57.692307
57.692307
57.692307
58.538460
59.307693
59.846157
60.153847
60.461540
60.615383
61.000000
61.000000
61.153847
61.230774
64.538460
64.923080
65.000000
65.000000
65.000000
65.000000
64.923080
64.923080
64.923080
64.923080
65.307693
67.076920
67.461540
67.769226
68.000000
68.000000
68.230766
68.230766
68.307693
68.307693
70.000000
70.615387
71.307693
71.692307
71.692307
71.692307
71.692307
71.846161
71.923080
72.000000
73.692307
74.461540
74.538460
75.230774
75.461540
75.538460
75.615379
75.615379
75.692307
75.615387
76.538460
77.538460
78.076920
78.000000
78.307693
78.461540
78.846153
78.923073
78.846153
78.846153
78.923073
79.538467
80.230766
80.384621
80.538467
80.692307
80.923073
81.076927
81.076927
81.076927
81.461540
81.769234
82.692307
83.076927
83.230766
83.307686
83.615387
83.615387
84.076920
84.153847
85.923073
86.692307
86.923073
87.230774
87.230774
87.461540
87.461540
87.538460
87.538460
87.692307
87.769234
88.384613
89.307693
89.461533
89.692307
90.000000
89.769234
89.769234
89.923080
90.000000
90.153847
90.000000
90.000000
90.000000
90.000000
90.000000
90.000000
89.923080
89.846153
89.846153
91.615387
92.846153
93.076920
92.923073
92.923073
92.923073
93.000000
93.076920
93.076927
93.000000
