Full Time (seconds)
0.105973
Time - I
0.004265
0.005077
0.005864
0.006641
0.007391
0.008185
0.008953
0.009766
0.010509
0.011272
0.011982
0.012805
0.013566
0.014312
0.015115
0.015833
0.016695
0.017543
0.018370
0.019262
0.020079
0.020845
0.021671
0.022428
0.022531
0.023382
0.024132
0.025293
0.025730
0.026501
0.027770
0.028110
0.029171
0.030268
0.030959
0.031135
0.031905
0.033460
0.033404
0.034552
0.034985
0.035739
0.036490
0.037277
0.038421
0.039125
0.039596
0.040993
0.041219
0.041880
0.042581
0.046630
0.044089
0.044876
0.046336
0.046208
0.046939
0.047771
0.049822
0.050568
0.050720
0.050964
0.052229
0.052487
0.052873
0.055292
0.056243
0.056951
0.055866
0.058324
0.057738
0.059152
0.059211
0.060032
0.062404
0.063161
0.062437
0.063135
0.063799
0.064522
0.065248
0.066070
0.066484
0.069827
0.070110
0.069124
0.069283
0.071433
0.071731
0.072689
0.074796
0.075163
0.073257
0.075289
0.075484
0.074334
0.075201
0.075362
0.077465
0.077427
0.077704
0.079490
0.079171
0.079257
0.079834
0.080428
0.083749
0.083503
0.085013
0.083524
0.084349
0.085202
0.086328
0.088883
0.087380
0.087370
0.089257
0.089626
0.090407
0.091248
0.091199
0.095057
0.095854
0.095336
0.094943
0.095007
0.096217
0.096440
0.097467
0.098821
0.099496
0.100527
0.100966
0.100994
0.105061
0.102432
0.103984
0.104870
0.106157
0.106001
0.113568
