Full Time (seconds)
0.109910
Time - I
0.004198
0.005072
0.005937
0.006795
0.007551
0.008355
0.009151
0.009933
0.010718
0.013623
0.013296
0.014572
0.014358
0.014934
0.013446
0.015160
0.015798
0.014671
0.015245
0.015792
0.016289
0.016732
0.018247
0.018716
0.019232
0.021709
0.020459
0.024341
0.022063
0.023159
0.023477
0.026178
0.026212
0.028065
0.030335
0.028061
0.028838
0.028955
0.029824
0.030972
0.032186
0.032219
0.032769
0.038405
0.038013
0.040072
0.035857
0.038101
0.041101
0.038240
0.039312
0.040244
0.040321
0.042250
0.042378
0.042909
0.043899
0.044432
0.044848
0.045987
0.050739
0.047129
0.049183
0.048554
0.051000
0.050051
0.055479
0.056768
0.052368
0.063024
0.053835
0.056004
0.055331
0.057855
0.058591
0.064052
0.058504
0.065249
0.066009
0.066872
0.061986
0.062339
0.064881
0.063594
0.064853
0.065558
0.066412
0.067014
0.067728
0.068772
0.069075
0.069670
0.072640
0.071709
0.072192
0.073275
0.073501
0.074680
0.075742
0.075658
0.079038
0.077143
0.078420
0.079249
0.079947
0.080862
0.081885
0.084462
0.085040
0.083219
0.084954
0.093674
0.085621
0.087335
0.087472
0.090581
0.089353
0.089348
0.089975
0.091563
0.102516
0.097180
0.096301
0.093713
0.094713
0.095201
0.103129
0.097338
0.110435
0.098251
0.101387
0.103301
0.112391
0.102125
0.103233
0.103586
0.107064
0.104483
0.109122
0.106587
0.108509
