Full Accuracy
91.115028
Accuracy - I
cat: testS_0.svm.acc: No such file or directory
75.987915
82.897453
85.609962
86.567474
87.348412
88.121040
88.617729
89.376579
89.271751
89.583549
90.427910
90.014046
90.218246
90.527283
90.524513
90.709396
90.855637
90.913597
90.932915
91.115028
