Full Time (seconds)
0.105156
Time - I
0.003928
0.004680
0.005426
0.006175
0.006955
0.007692
0.008434
0.009306
0.010019
0.010789
0.011533
0.012597
0.013344
0.013812
0.014536
0.015281
0.015995
0.016803
0.018006
0.018713
0.019510
0.020300
0.021053
0.022313
0.022113
0.022866
0.023564
0.024349
0.025076
0.025826
0.026638
0.027211
0.028878
0.030222
0.029467
0.030885
0.031923
0.031953
0.032682
0.033738
0.034142
0.035154
0.036122
0.036486
0.037252
0.037706
0.038463
0.040495
0.041227
0.042020
0.041818
0.043720
0.045740
0.044838
0.044766
0.045499
0.046643
0.047773
0.049111
0.048198
0.050539
0.050064
0.050840
0.051542
0.052350
0.054404
0.055169
0.055994
0.054987
0.056177
0.056568
0.057640
0.058508
0.060508
0.059461
0.062315
0.062914
0.062056
0.062850
0.063249
0.064415
0.065359
0.065432
0.066403
0.068608
0.068198
0.068971
0.069765
0.070517
0.072059
0.073797
0.072885
0.074882
0.076105
0.075052
0.075734
0.076881
0.077276
0.077469
0.080027
0.080584
0.082541
0.081059
0.083482
0.082246
0.083275
0.087053
0.084749
0.084939
0.086850
0.087519
0.089026
0.092122
0.089476
0.092593
0.093594
0.092673
0.092673
0.093104
0.096552
0.094837
0.098248
0.096919
0.097506
0.097690
0.101110
0.099500
0.102652
0.103352
0.102108
0.102178
0.101921
0.103081
0.103652
0.106220
0.103962
0.104214
0.106497
0.104820
0.105550
0.109009
