Full Time (seconds)
0.105559
Time - I
0.003921
0.004676
0.005425
0.006269
0.006960
0.007677
0.008478
0.009259
0.009984
0.010748
0.011696
0.011825
0.012152
0.012422
0.012748
0.013078
0.013778
0.013921
0.014397
0.015191
0.015262
0.016044
0.016701
0.017889
0.018742
0.019049
0.020322
0.020459
0.021209
0.022156
0.022671
0.023672
0.024423
0.025042
0.026383
0.026992
0.027266
0.027998
0.029630
0.029754
0.030388
0.031200
0.031958
0.032746
0.033458
0.034200
0.035007
0.035856
0.036398
0.037249
0.037737
0.038470
0.039657
0.040242
0.041018
0.041579
0.042586
0.043285
0.044466
0.044800
0.045739
0.046309
0.046711
0.047438
0.048288
0.049382
0.050057
0.050941
0.051669
0.052596
0.053151
0.053892
0.054785
0.056760
0.056100
0.056559
0.057397
0.059050
0.059064
0.060293
0.060644
0.061015
0.063920
0.064892
0.063782
0.066384
0.065207
0.065742
0.068404
0.067116
0.068200
0.070730
0.071735
0.072394
0.070711
0.071825
0.080192
0.072970
0.080684
0.074893
0.075468
0.075905
0.077288
0.086562
0.078782
0.080040
0.079972
0.080543
0.083864
0.082488
0.083277
0.084109
0.084843
0.085898
0.085668
0.086646
0.092892
0.088821
0.089497
0.099539
0.090941
0.094002
0.092117
0.092493
0.094921
0.094090
0.095449
0.096149
0.096230
0.103475
0.097701
0.099461
0.099968
0.100791
0.111797
0.103174
0.102203
0.104865
0.104561
0.115648
0.106168
