Full Time (seconds)
0.109134
Time - I
0.003923
0.004663
0.005444
0.006217
0.006995
0.007723
0.008541
0.009230
0.009985
0.010753
0.011550
0.012280
0.013059
0.014101
0.014567
0.015267
0.016067
0.016807
0.017581
0.018773
0.018945
0.020321
0.020812
0.021849
0.022634
0.023376
0.023728
0.024955
0.025140
0.025951
0.026912
0.027370
0.028177
0.028901
0.029784
0.031176
0.031950
0.032588
0.032797
0.033453
0.034511
0.035774
0.036617
0.036414
0.037902
0.038003
0.038978
0.039627
0.040202
0.044699
0.041921
0.042498
0.042681
0.043856
0.043442
0.042938
0.043718
0.044222
0.044871
0.045592
0.046459
0.046259
0.048352
0.048967
0.048477
0.050481
0.050124
0.050885
0.051589
0.052362
0.053081
0.053828
0.055989
0.056816
0.055849
0.058336
0.059118
0.058412
0.059742
0.059887
0.060809
0.061921
0.061728
0.064130
0.063505
0.066069
0.065380
0.065920
0.066654
0.067422
0.068165
0.070748
0.070393
0.072374
0.070834
0.071998
0.072711
0.074999
0.075218
0.075223
0.078037
0.078818
0.076847
0.080366
0.078826
0.079519
0.080252
0.080900
0.081339
0.081934
0.085701
0.086480
0.084953
0.085538
0.086707
0.087128
0.087922
0.091475
0.089938
0.092449
0.090811
0.091672
0.092413
0.093186
0.096687
0.095466
0.098201
0.095615
0.096879
0.097694
0.098478
0.098478
0.102873
0.100061
0.101507
0.102528
0.105134
0.105790
0.107200
0.104371
0.106192
