Full Time (seconds)
0.105200
Time - I
0.003972
0.004700
0.005442
0.006192
0.006942
0.007856
0.008472
0.009384
0.010022
0.010733
0.011559
0.012309
0.013093
0.013916
0.014673
0.015580
0.016396
0.017324
0.017979
0.019824
0.019200
0.020313
0.021320
0.021872
0.022625
0.023417
0.024232
0.024463
0.025301
0.026533
0.027001
0.027480
0.028185
0.028888
0.030399
0.030657
0.031261
0.032417
0.033496
0.033580
0.033964
0.034727
0.036177
0.036461
0.037170
0.038000
0.038772
0.040504
0.040020
0.041011
0.042051
0.043582
0.044940
0.043789
0.044730
0.045583
0.046263
0.047064
0.047833
0.050521
0.048975
0.050052
0.052090
0.052868
0.053674
0.052726
0.054135
0.054662
0.058128
0.055732
0.056803
0.057624
0.059832
0.058741
0.059848
0.060603
0.063693
0.062210
0.062605
0.064491
0.065026
0.066818
0.065658
0.068430
0.066930
0.068155
0.068998
0.069492
0.070775
0.071231
0.073784
0.075210
0.074310
0.074786
0.074971
0.076610
0.077841
0.079473
0.079998
0.079805
0.079195
0.082369
0.081123
0.081288
0.083915
0.083406
0.086197
0.084604
0.084870
0.088881
0.087184
0.088214
0.088727
0.093259
0.089570
0.091296
0.094139
0.094468
0.093141
0.093835
0.095252
0.096747
0.095141
0.095004
0.098690
0.096569
0.096657
0.100386
0.098629
0.097236
0.101166
0.100038
0.100221
0.100728
0.101544
0.102576
0.108280
0.102991
0.104320
0.107288
0.106114
