Full Time (seconds)
0.133674
Incremental Time - I
0.000274
0.000298
0.000421
0.000903
0.000537
0.000516
0.000611
0.000688
0.000668
0.000757
0.000865
0.001434
0.001588
0.002007
0.001915
0.002208
0.002433
0.002526
0.002664
0.002717
0.002925
0.004218
0.004803
0.005158
0.005547
0.005916
0.006030
0.006632
0.006877
0.007728
0.008130
0.009440
0.009569
0.009552
0.010194
0.010067
0.010758
0.010460
0.010472
0.011026
0.011096
0.012994
0.013071
0.014123
0.015039
0.014862
0.015184
0.014828
0.015865
0.015971
0.016849
0.019373
0.020622
0.021173
0.021838
0.022679
0.024437
0.024400
0.026036
0.026198
0.028028
0.029601
0.030631
0.030889
0.031447
0.032121
0.033581
0.033445
0.033727
0.033878
0.035755
0.038975
0.039420
0.040598
0.042303
0.041206
0.043357
0.042624
0.044121
0.044889
0.046734
0.050394
0.052206
0.052350
0.054513
0.055887
0.057123
0.056426
0.056503
0.057288
0.058233
0.063734
0.063562
0.064109
0.067215
0.065692
0.066546
0.066658
0.069847
0.068087
0.071254
0.073543
0.077123
0.075304
0.076418
0.077555
0.078312
0.078936
0.082260
0.080272
0.081673
0.089250
0.088504
0.090509
0.094905
0.095938
0.093732
0.097463
0.098084
0.096024
0.096687
0.097259
0.096995
0.097265
0.097102
0.098537
0.098108
0.101630
0.098429
0.102405
0.103254
0.103612
0.109552
0.110045
0.110819
0.108282
0.122309
0.122974
0.123868
0.112080
0.126407
Classification Time - C
cat: testS_0.svm.time: No such file or directory
cat: test1II_0000.svm.time: No such file or directory
cat: test1II_0001.svm.time: No such file or directory
cat: test1II_0002.svm.time: No such file or directory
cat: test1II_0003.svm.time: No such file or directory
cat: test1II_0004.svm.time: No such file or directory
cat: test1II_0005.svm.time: No such file or directory
cat: test1II_0006.svm.time: No such file or directory
cat: test1II_0007.svm.time: No such file or directory
cat: test1II_0008.svm.time: No such file or directory
cat: test1II_0009.svm.time: No such file or directory
cat: test2II_0000.svm.time: No such file or directory
cat: test2II_0001.svm.time: No such file or directory
cat: test2II_0002.svm.time: No such file or directory
cat: test2II_0003.svm.time: No such file or directory
cat: test2II_0004.svm.time: No such file or directory
cat: test2II_0005.svm.time: No such file or directory
cat: test2II_0006.svm.time: No such file or directory
cat: test2II_0007.svm.time: No such file or directory
cat: test2II_0008.svm.time: No such file or directory
cat: test2II_0009.svm.time: No such file or directory
cat: test3II_0000.svm.time: No such file or directory
cat: test3II_0001.svm.time: No such file or directory
cat: test3II_0002.svm.time: No such file or directory
cat: test3II_0003.svm.time: No such file or directory
cat: test3II_0004.svm.time: No such file or directory
cat: test3II_0005.svm.time: No such file or directory
cat: test3II_0006.svm.time: No such file or directory
cat: test3II_0007.svm.time: No such file or directory
cat: test3II_0008.svm.time: No such file or directory
cat: test3II_0009.svm.time: No such file or directory
cat: test4II_0000.svm.time: No such file or directory
cat: test4II_0001.svm.time: No such file or directory
cat: test4II_0002.svm.time: No such file or directory
cat: test4II_0003.svm.time: No such file or directory
cat: test4II_0004.svm.time: No such file or directory
cat: test4II_0005.svm.time: No such file or directory
cat: test4II_0006.svm.time: No such file or directory
cat: test4II_0007.svm.time: No such file or directory
cat: test4II_0008.svm.time: No such file or directory
cat: test4II_0009.svm.time: No such file or directory
cat: test5II_0000.svm.time: No such file or directory
cat: test5II_0001.svm.time: No such file or directory
cat: test5II_0002.svm.time: No such file or directory
cat: test5II_0003.svm.time: No such file or directory
cat: test5II_0004.svm.time: No such file or directory
cat: test5II_0005.svm.time: No such file or directory
cat: test5II_0006.svm.time: No such file or directory
cat: test5II_0007.svm.time: No such file or directory
cat: test5II_0008.svm.time: No such file or directory
cat: test5II_0009.svm.time: No such file or directory
cat: test6II_0000.svm.time: No such file or directory
cat: test6II_0001.svm.time: No such file or directory
cat: test6II_0002.svm.time: No such file or directory
cat: test6II_0003.svm.time: No such file or directory
cat: test6II_0004.svm.time: No such file or directory
cat: test6II_0005.svm.time: No such file or directory
cat: test6II_0006.svm.time: No such file or directory
cat: test6II_0007.svm.time: No such file or directory
cat: test6II_0008.svm.time: No such file or directory
cat: test6II_0009.svm.time: No such file or directory
cat: test7II_0000.svm.time: No such file or directory
cat: test7II_0001.svm.time: No such file or directory
cat: test7II_0002.svm.time: No such file or directory
cat: test7II_0003.svm.time: No such file or directory
cat: test7II_0004.svm.time: No such file or directory
cat: test7II_0005.svm.time: No such file or directory
cat: test7II_0006.svm.time: No such file or directory
cat: test7II_0007.svm.time: No such file or directory
cat: test7II_0008.svm.time: No such file or directory
cat: test7II_0009.svm.time: No such file or directory
cat: test8II_0000.svm.time: No such file or directory
cat: test8II_0001.svm.time: No such file or directory
cat: test8II_0002.svm.time: No such file or directory
cat: test8II_0003.svm.time: No such file or directory
cat: test8II_0004.svm.time: No such file or directory
cat: test8II_0005.svm.time: No such file or directory
cat: test8II_0006.svm.time: No such file or directory
cat: test8II_0007.svm.time: No such file or directory
cat: test8II_0008.svm.time: No such file or directory
cat: test8II_0009.svm.time: No such file or directory
cat: test9II_0000.svm.time: No such file or directory
cat: test9II_0001.svm.time: No such file or directory
cat: test9II_0002.svm.time: No such file or directory
cat: test9II_0003.svm.time: No such file or directory
cat: test9II_0004.svm.time: No such file or directory
cat: test9II_0005.svm.time: No such file or directory
cat: test9II_0006.svm.time: No such file or directory
cat: test9II_0007.svm.time: No such file or directory
cat: test9II_0008.svm.time: No such file or directory
cat: test9II_0009.svm.time: No such file or directory
0.097478
0.099827
0.099684
0.100074
0.102188
0.100670
0.104535
0.103374
0.102809
0.103571
0.106084
0.106347
0.107564
0.109141
0.109348
0.109066
0.108667
0.109545
0.111525
0.111310
0.112007
0.112727
0.115166
0.115206
0.116020
0.118134
0.119059
0.120563
0.120416
0.122584
0.121461
0.121859
0.122633
0.123704
0.121332
0.122799
0.123452
0.123404
0.123912
0.123742
0.127422
0.127875
0.127561
0.128906
0.129641
0.146419
0.130509
0.146552
0.131423
0.146270
