Full Time (seconds)
0.167724
Incremental Time - I
0.000557
0.015012
0.041812
0.079096
0.098790
0.127195
0.163914
0.180675
0.234081
0.262393
0.261069
0.289559
0.305316
0.339435
0.284168
0.344636
0.361397
0.369380
0.386504
0.240457
0.394970
Classification Time - C
0.020228
0.073926
0.099398
0.117311
0.131869
0.141931
0.155112
0.156611
0.167539
0.174070
0.146172
0.193447
0.186547
0.178705
0.161778
0.193588
0.184103
0.187738
0.180459
0.206385
0.196894
