Full Time (seconds)
0.106655
Time - I
0.004338
0.005129
0.005884
0.006651
0.007412
0.008170
0.008936
0.009708
0.010592
0.011286
0.012607
0.012746
0.014181
0.014452
0.015105
0.015767
0.016517
0.017320
0.017971
0.018731
0.019516
0.020253
0.021030
0.023021
0.022512
0.023283
0.024020
0.024791
0.025542
0.026774
0.027055
0.027702
0.027655
0.027992
0.028325
0.028566
0.029766
0.029607
0.029974
0.030389
0.030955
0.031596
0.032362
0.033132
0.034080
0.034673
0.035384
0.036201
0.037332
0.038091
0.038455
0.039171
0.039899
0.040697
0.041625
0.042608
0.042958
0.044242
0.045320
0.046028
0.045923
0.046650
0.047489
0.048177
0.048986
0.049742
0.050942
0.051156
0.052020
0.053820
0.053489
0.054605
0.055081
0.056796
0.056477
0.057407
0.058311
0.059363
0.059459
0.060978
0.061025
0.061706
0.062483
0.063265
0.065283
0.065206
0.065508
0.066299
0.067163
0.067985
0.069770
0.069227
0.070023
0.070790
0.071779
0.072430
0.073172
0.073845
0.075094
0.075337
0.076067
0.076772
0.077918
0.078327
0.079085
0.080912
0.080884
0.081328
0.081993
0.082839
0.083574
0.084409
0.085081
0.086281
0.086620
0.087366
0.088033
0.089269
0.089689
0.091276
0.091074
0.092421
0.092728
0.093462
0.094568
0.094921
0.095636
0.096354
0.097154
0.097714
0.098677
0.099418
0.100137
0.104517
0.102805
0.102641
0.103390
0.104227
0.106226
0.109263
0.110423
