Full Time (seconds)
0.110003
Time - I
0.004275
0.005064
0.005823
0.006599
0.007373
0.008127
0.008912
0.009685
0.010435
0.011251
0.012712
0.013297
0.014579
0.015469
0.016216
0.015704
0.017852
0.017496
0.019863
0.018984
0.019688
0.020214
0.021312
0.021731
0.022493
0.024393
0.025116
0.027248
0.026966
0.027542
0.028397
0.027779
0.028586
0.032042
0.030165
0.031139
0.031690
0.032421
0.033524
0.033938
0.037759
0.039934
0.040281
0.039956
0.040899
0.038557
0.041516
0.040243
0.040763
0.041544
0.043026
0.043471
0.045309
0.047719
0.048559
0.050373
0.051312
0.050543
0.050823
0.049101
0.049791
0.050038
0.051606
0.055503
0.055824
0.053185
0.055288
0.058154
0.057229
0.054000
0.053611
0.057505
0.059302
0.060780
0.061528
0.063018
0.062774
0.058815
0.059585
0.060696
0.067118
0.067787
0.068501
0.070546
0.069466
0.070856
0.065649
0.066402
0.074721
0.073525
0.075391
0.075060
0.072447
0.070827
0.072517
0.072417
0.080371
0.081461
0.083889
0.082041
0.076119
0.076849
0.077527
0.078745
0.079139
0.080264
0.081098
0.081248
0.082391
0.092893
0.083868
0.094210
0.085141
0.085814
0.086643
0.088291
0.088494
0.088864
0.089625
0.090260
0.091456
0.092272
0.092674
0.093527
0.094225
0.095469
0.095774
0.096478
0.097690
0.099880
0.098696
0.099423
0.100233
0.100957
0.101855
0.102450
0.103581
0.103944
0.104456
0.105554
0.106300
