Full Time (seconds)
0.114273
Time - I
0.004166
0.005048
0.005904
0.006741
0.007527
0.008312
0.009070
0.009867
0.010765
0.011844
0.012174
0.012888
0.014324
0.014379
0.015146
0.016091
0.016637
0.017449
0.018648
0.019069
0.020002
0.020427
0.021151
0.021911
0.022687
0.023426
0.024662
0.024938
0.025673
0.026488
0.027211
0.028070
0.028812
0.030013
0.030327
0.031419
0.031879
0.032840
0.035542
0.034350
0.035489
0.035664
0.036436
0.037185
0.038156
0.038666
0.039904
0.040227
0.040971
0.042393
0.043744
0.042821
0.043793
0.043354
0.046046
0.044010
0.044409
0.044842
0.045299
0.047221
0.046306
0.046961
0.047735
0.049938
0.050836
0.050034
0.050727
0.051569
0.052235
0.052988
0.053822
0.056347
0.057023
0.059195
0.058651
0.058554
0.058384
0.060041
0.060257
0.060573
0.062029
0.064031
0.066152
0.063761
0.065861
0.067076
0.065867
0.067038
0.067475
0.067999
0.071012
0.072113
0.072619
0.071397
0.074114
0.072510
0.073712
0.074170
0.077342
0.078302
0.076627
0.077306
0.078504
0.081255
0.082708
0.080959
0.081843
0.081730
0.082610
0.083091
0.091477
0.085798
0.085394
0.086135
0.086868
0.088267
0.088752
0.089817
0.090115
0.090551
0.091382
0.092355
0.093227
0.093819
0.094652
0.095937
0.096228
0.096679
0.097443
0.098829
0.098890
0.100006
0.102500
0.101341
0.101868
0.103135
0.109886
0.104728
0.105110
0.105645
0.106940
