Full Time (seconds)
0.263768
Incremental Time - I
0.071312
0.035111
0.060171
0.083265
0.095430
0.114826
0.133985
0.131167
0.140389
0.136732
0.140488
0.155835
0.180427
0.186741
0.266145
0.253159
0.239421
0.338034
0.359386
0.350789
0.352510
Classification Time - C
0.223555
0.110208
0.147650
0.173362
0.192573
0.207704
0.202390
0.202295
0.196711
0.176373
0.174146
0.183048
0.196894
0.284947
0.292214
0.237680
0.217399
0.276842
0.181439
0.268355
0.264250
