Full Time (seconds)
0.017242
Time - I
0.002316
0.003160
0.003987
0.004786
0.005612
0.006419
0.007204
0.007983
0.008798
0.009608
0.010653
0.011112
0.011577
0.011769
0.013414
0.012765
0.012774
0.013130
0.013900
0.013971
0.014460
0.015355
0.015368
0.015784
0.015233
0.016195
0.015712
0.015686
0.015973
0.016177
0.016420
