Full Time (seconds)
0.016730
Time - I
0.002033
0.003029
0.003618
0.004380
0.005174
0.005984
0.006780
0.007547
0.010177
0.009261
0.009949
0.010472
0.010569
0.011233
0.010794
0.011252
0.011151
0.011699
0.011483
0.012075
0.011934
0.012304
0.012714
0.013738
0.014612
0.013826
0.015016
0.014688
0.015117
0.016168
0.016777
