Full Time (seconds)
0.110122
Time - I
0.003910
0.004667
0.006212
0.006197
0.006918
0.008041
0.009480
0.009200
0.009952
0.010836
0.011452
0.012194
0.012954
0.013792
0.014463
0.015195
0.015974
0.016772
0.019094
0.018803
0.018981
0.019754
0.020480
0.022120
0.022009
0.022701
0.026000
0.027952
0.028290
0.027632
0.030579
0.027256
0.028885
0.029807
0.029530
0.030178
0.034341
0.032040
0.031652
0.031678
0.034192
0.034817
0.035912
0.040401
0.041163
0.037974
0.038753
0.039369
0.040440
0.042530
0.042141
0.044604
0.042126
0.047206
0.043203
0.044373
0.043735
0.046733
0.044362
0.047709
0.045554
0.051293
0.051669
0.051869
0.052868
0.056386
0.053844
0.051794
0.056119
0.056699
0.057457
0.052487
0.051791
0.054777
0.058368
0.060217
0.059469
0.076943
0.059083
0.062182
0.060753
0.060973
0.063365
0.062511
0.063315
0.064012
0.067718
0.065870
0.072350
0.066993
0.071617
0.070939
0.074774
0.079697
0.071411
0.071810
0.080453
0.070050
0.068745
0.075752
0.076109
0.093178
0.080834
0.074024
0.074995
0.075485
0.079907
0.081416
0.082497
0.088904
0.092549
0.083959
0.095384
0.085061
0.091569
0.087188
0.087285
0.088353
0.088834
0.099019
0.099888
0.091689
0.096859
0.095601
0.095632
0.096815
0.095331
0.096066
0.096377
0.089711
0.094902
0.099324
0.102234
0.102106
0.092970
0.097900
0.094396
0.106090
0.103896
0.104411
0.110156
