Full Time (seconds)
0.136689
Time - I
0.004137
0.004747
0.005576
0.006325
0.007086
0.007742
0.009017
0.009691
0.010145
0.010900
0.011658
0.012169
0.013188
0.013925
0.014542
0.015541
0.016252
0.016915
0.017785
0.018480
0.019167
0.019570
0.019759
0.020068
0.021038
0.020697
0.022851
0.022499
0.023429
0.022613
0.023000
0.023805
0.027708
0.026567
0.029443
0.028671
0.028657
0.028600
0.030521
0.029516
0.030275
0.031586
0.031834
0.034576
0.035898
0.036194
0.034943
0.035753
0.037347
0.040568
0.040021
0.038659
0.040070
0.041697
0.043398
0.044065
0.042458
0.045424
0.046660
0.045125
0.047938
0.051273
0.047053
0.050459
0.048238
0.055137
0.054235
0.051215
0.051631
0.052273
0.052787
0.056032
0.058287
0.058603
0.058679
0.061407
0.056973
0.061235
0.061183
0.060361
0.062686
0.061570
0.062552
0.062585
0.066196
0.064089
0.068080
0.068622
0.074910
0.074157
0.069518
0.070090
0.069433
0.078651
0.079355
0.079469
0.072378
0.073501
0.082846
0.082236
0.085383
0.076418
0.078334
0.077871
0.081936
0.082769
0.086148
0.087681
0.081242
0.084419
0.076407
0.083578
0.084652
0.088859
0.090010
0.090199
0.087736
0.088006
0.091773
0.095960
0.093939
0.094848
0.096153
0.092475
0.103368
0.094067
0.095820
0.105964
0.096253
0.098383
0.101979
0.102398
0.104188
0.104245
0.100772
0.101551
0.106413
0.108948
0.106954
0.117272
0.105948
