Full Time (seconds)
0.099722
Time - I
0.003896
0.004894
0.005409
0.006156
0.007890
0.007747
0.008471
0.009676
0.009941
0.010676
0.012017
0.013783
0.012925
0.013879
0.014710
0.015550
0.016230
0.018370
0.017884
0.018158
0.020586
0.021483
0.020604
0.021205
0.023673
0.024413
0.023627
0.024259
0.027368
0.025771
0.026888
0.027443
0.028043
0.031735
0.030436
0.030290
0.033700
0.033150
0.032512
0.036454
0.037077
0.037296
0.035538
0.036245
0.037059
0.037855
0.039644
0.040892
0.042739
0.040733
0.042796
0.042752
0.045728
0.046579
0.044373
0.045346
0.047847
0.048680
0.048082
0.048288
0.049284
0.052652
0.051360
0.051208
0.071780
0.054220
0.054045
0.054206
0.058544
0.059000
0.056476
0.056790
0.058253
0.060830
0.059500
0.057971
0.058929
0.058917
0.059753
0.059736
0.060556
0.061434
0.062339
0.063961
0.066455
0.068264
0.064829
0.065628
0.069620
0.070615
0.067773
0.068469
0.072032
0.073437
0.071758
0.071493
0.075538
0.076821
0.075110
0.078965
0.077880
0.077890
0.076789
0.078851
0.084781
0.080023
0.080204
0.080537
0.081405
0.082043
0.084221
0.085220
0.084646
0.085455
0.086450
0.090670
0.091598
0.088236
0.089426
0.093701
0.097346
0.093208
0.091682
0.095181
0.099635
0.099501
0.095264
0.097550
0.099848
0.098443
0.097842
0.101137
0.103744
0.105359
0.100862
0.104541
0.107010
0.105106
0.109309
0.108626
0.102783
