Full Accuracy
85.581192
Accuracy - I
50.000000
57.412464
82.392860
85.653397
86.695564
87.568398
87.871620
88.140724
87.936996
87.667892
88.406845
88.409691
87.934021
86.948547
86.203758
87.928185
87.421242
86.435768
85.997185
83.462463
85.581192
