Full Time (seconds)
0.258723
Incremental Time - I
0.035484
0.000054
0.000059
0.000059
0.000059
0.000059
0.000064
0.000061
0.000065
0.000065
0.000069
0.062119
0.096701
0.132019
0.184299
0.212250
0.244368
0.262442
0.329333
0.357735
0.343525
Classification Time - C
0.161179
0.045049
0.045963
0.044599
0.047774
0.044605
0.044712
0.044708
0.044777
0.044645
0.044646
0.144041
0.179267
0.221010
0.247934
0.259982
0.278199
0.284609
0.299136
0.312258
0.227506
