Full Time (seconds)
0.001428
Incremental Time - I
0.000328
0.000151
0.000260
0.000153
0.000624
0.000657
0.000670
0.000307
0.000743
0.000944
0.000899
0.000581
0.001604
0.004397
0.003598
0.004416
0.008291
0.005753
0.003735
0.004673
0.004879
0.005005
0.005845
0.006978
0.006326
0.003190
0.010967
0.016468
0.008439
0.008309
0.011345
Classification Time - C
0.000836
0.000556
0.000578
0.000619
0.000631
0.000628
0.000237
0.000655
0.000712
0.000668
0.000733
0.000809
0.000942
0.000882
0.000944
0.000523
0.001058
0.001086
0.001072
0.001089
0.001084
0.001084
0.001172
0.001200
0.001188
0.001332
0.001272
0.001348
0.001294
0.001315
0.001417
