Full Time (seconds)
0.002571
Time - I
0.000353
0.000438
0.000553
0.000639
0.000756
0.000902
0.000963
0.001034
0.001143
0.001234
0.001664
0.001433
0.001562
0.001694
0.001795
0.001892
0.002024
0.002136
0.002278
0.002408
0.002563
