Full Time (seconds)
0.800235
Time - I
0.166665
0.171955
0.198581
0.215119
0.230539
0.246673
0.262715
0.279628
0.300070
0.316103
0.282834
0.376571
0.430787
0.409707
0.439719
0.416471
0.404173
0.414276
0.384265
0.358378
0.342116
