Full Time (seconds)
0.532483
Incremental Time - I
1.007228
0.029344
0.030327
0.033038
0.035677
0.037686
0.038290
0.043339
0.025776
0.050613
0.029746
0.008050
0.004601
0.006805
0.003921
0.003414
0.007747
0.004181
0.007223
0.007341
0.006048
Classification Time - I
0.332016
0.491735
0.473359
0.555721
0.519893
0.482297
0.433604
0.384524
0.653700
0.421873
0.577819
0.474328
0.747035
0.448777
0.395080
0.739163
0.448227
0.806865
0.776610
0.594517
