Full Accuracy
87.985962
Accuracy - I
50.000000
76.539398
83.657646
84.499084
86.742142
87.602890
87.531075
87.721428
88.013824
88.245590
88.019295
88.173767
88.195862
88.074402
87.906067
87.988815
87.726654
87.627281
87.384438
87.676926
87.985962
