Full Time (seconds)
0.366481
Time - I
0.165306
0.096320
0.124324
0.145427
0.274250
0.326444
0.321613
0.316263
0.303889
0.290741
0.492504
0.528996
0.501051
0.452559
0.408894
0.375657
0.673419
0.714712
0.343159
0.469536
0.417295
