Full Time (seconds)
0.807280
Time - I
0.252151
0.283394
0.311639
0.351208
0.384596
0.409480
0.429836
0.484856
0.456752
0.536655
0.531111
0.197837
0.431906
0.441759
0.674022
0.705144
0.726311
0.714737
0.650800
0.706398
0.685027
