Full Time (seconds)
0.141407
Incremental Time - I
0.005224
0.000109
0.000105
0.000108
0.000152
0.000115
0.000127
0.000128
0.000189
0.000159
0.000155
0.000179
0.000198
0.000192
0.000200
0.000258
0.000215
0.000222
0.000222
0.000245
0.000250
0.000534
0.000486
0.000547
0.000471
0.000490
0.000501
0.000498
0.000527
0.000543
0.000647
0.000551
0.000638
0.000557
0.000558
0.000568
0.000714
0.000665
0.000570
0.000640
0.000625
0.000677
0.000637
0.000675
0.000748
0.000682
0.000683
0.000703
0.000712
0.000688
0.000846
0.000772
0.000743
0.000755
0.000817
0.000837
0.000854
0.000785
0.000811
0.000789
0.000843
0.001073
0.001079
0.000861
0.000835
0.000859
0.000875
0.000894
0.000904
0.000894
0.000948
0.000547
0.000565
0.000535
0.000490
0.000551
0.000713
0.000668
0.000671
0.000643
0.000692
0.001045
0.000978
0.001121
0.000989
0.001000
0.001035
0.001039
0.001044
0.001282
0.001045
0.001133
0.001084
0.001074
0.001105
0.001134
0.001103
0.001091
0.001108
0.001099
0.001100
0.001145
0.001168
0.001174
0.001158
0.001153
0.001203
0.001147
0.001180
0.001227
0.001200
0.001239
0.001531
0.001157
0.001178
0.001289
0.001316
0.001199
0.001290
0.001289
0.001286
0.001331
0.001344
0.001333
0.001372
0.001501
0.001349
0.001328
0.001360
0.001344
0.001830
0.001436
0.001427
0.001449
0.001387
0.001520
0.001496
0.001493
0.001498
0.001481
0.001490
Classification Time - I
0.006416
0.006763
0.007683
0.008492
0.009478
0.010421
0.011416
0.012416
0.014288
0.014313
0.015323
0.016624
0.017055
0.017972
0.020346
0.022093
0.021010
0.022218
0.022254
0.023924
0.024642
0.025087
0.025761
0.028747
0.029856
0.031142
0.029674
0.030532
0.031433
0.032481
0.033352
0.034319
0.036905
0.037286
0.040050
0.040600
0.041439
0.039894
0.043527
0.043973
0.045244
0.044035
0.046169
0.047221
0.049706
0.047688
0.049069
0.049595
0.050289
0.051373
0.053710
0.055620
0.057902
0.058356
0.060239
0.056805
0.057687
0.058808
0.059690
0.060574
0.064686
0.079306
0.064197
0.064270
0.066871
0.066066
0.067161
0.068445
0.068925
0.070565
0.071086
0.072184
0.072527
0.071382
0.072405
0.072314
0.076423
0.073378
0.074507
0.079993
0.081668
0.081975
0.079159
0.078259
0.085675
0.083551
0.086224
0.085396
0.082861
0.090572
0.084707
0.089777
0.093752
0.091141
0.088644
0.089664
0.097523
0.091801
0.092366
0.093667
0.093971
0.095158
0.100013
0.101094
0.098345
0.102243
0.103550
0.102699
0.105602
0.106331
0.103260
0.122708
0.097067
0.106038
0.110515
0.109532
0.109953
0.109269
0.110899
0.114127
0.116937
0.113602
0.117599
0.124199
0.115868
0.117360
0.117844
0.119030
0.119533
0.164315
0.130202
0.126686
0.122943
0.124202
0.127127
0.130582
0.136738
0.127749
0.133609
0.132663
