Full Time (seconds)
0.147485
Incremental Time - I
0.002395
0.000099
0.000099
0.000082
0.000087
0.000117
0.000125
0.000175
0.000139
0.000121
0.000157
0.000086
0.000089
0.000078
0.000123
0.000094
0.000164
0.000104
0.000132
0.000133
0.000136
0.000208
0.000232
0.000238
0.000246
0.000249
0.000529
0.000417
0.000423
0.000471
0.000446
0.000464
0.000375
0.000403
0.000517
0.000435
0.000462
0.000444
0.000444
0.000581
0.000544
0.000614
0.000609
0.000633
0.001108
0.000708
0.000755
0.000725
0.000797
0.000723
0.000701
0.000708
0.000699
0.000840
0.000691
0.000694
0.000732
0.000736
0.000745
0.000733
0.000721
0.000881
0.000887
0.000904
0.000820
0.000901
0.001125
0.000870
0.000860
0.000871
0.000905
0.000898
0.000900
0.000901
0.000945
0.000915
0.000950
0.000839
0.000923
0.000891
0.000987
0.000939
0.000974
0.000980
0.000999
0.000986
0.001371
0.001270
0.001050
0.001325
0.001065
0.001078
0.001064
0.001160
0.001079
0.001353
0.001151
0.001112
0.001108
0.001082
0.001122
0.001191
0.001150
0.001187
0.001153
0.001172
0.001186
0.001204
0.001177
0.001205
0.001200
0.001232
0.001233
0.001227
0.001243
0.001287
0.001380
0.001303
0.001300
0.001302
0.001307
0.001273
0.001309
0.001270
0.001292
0.001324
0.001322
0.001349
0.001366
0.001372
0.001375
0.001825
0.001411
0.001862
0.001417
0.001426
0.001442
0.001425
0.001464
0.001464
0.001481
Classification Time - I
0.005791
0.006768
0.007719
0.008933
0.009649
0.010621
0.011640
0.012627
0.013642
0.015064
0.015004
0.012621
0.016590
0.018202
0.016906
0.018595
0.015978
0.018298
0.018906
0.019477
0.020587
0.021841
0.022731
0.023423
0.024785
0.025104
0.026082
0.027101
0.027980
0.031517
0.031483
0.023440
0.024019
0.024771
0.025495
0.026185
0.026902
0.028840
0.039614
0.040746
0.039349
0.040307
0.041204
0.043048
0.043795
0.045075
0.045624
0.046710
0.047984
0.048941
0.048831
0.050712
0.053316
0.052563
0.053536
0.053867
0.055337
0.055595
0.058472
0.071902
0.060646
0.062850
0.062655
0.063985
0.064455
0.063109
0.069214
0.067234
0.068329
0.071441
0.069474
0.075556
0.070807
0.073301
0.071695
0.077493
0.075102
0.077937
0.076286
0.076441
0.077417
0.078840
0.082066
0.081396
0.081209
0.085405
0.082800
0.084200
0.088259
0.087724
0.087364
0.087638
0.091889
0.092663
0.090504
0.097479
0.095642
0.093053
0.097452
0.119965
0.096547
0.104229
0.102127
0.106033
0.102421
0.103727
0.103297
0.102234
0.103381
0.104228
0.105099
0.112010
0.112228
0.111171
0.114128
0.109349
0.110082
0.119718
0.112039
0.119657
0.114150
0.115093
0.115932
0.120747
0.121636
0.122432
0.123917
0.123847
0.130738
0.123602
0.122984
0.126395
0.133407
0.126068
0.138126
0.136631
0.138030
0.129134
0.130531
0.137884
