Full Time (seconds)
0.141699
Incremental Time - I
0.005886
0.000090
0.000101
0.000106
0.000119
0.000111
0.000119
0.000134
0.000136
0.000163
0.000156
0.000174
0.000184
0.000189
0.000200
0.000224
0.000218
0.000224
0.000229
0.000245
0.000246
0.000536
0.000500
0.000473
0.000517
0.000473
0.000502
0.000469
0.000455
0.000525
0.000515
0.000470
0.000652
0.000504
0.000541
0.000522
0.000491
0.000668
0.000588
0.000577
0.000619
0.000406
0.000405
0.000363
0.000429
0.000379
0.000439
0.000520
0.000457
0.000529
0.000463
0.000654
0.000883
0.000722
0.000798
0.000662
0.000704
0.000764
0.000682
0.000793
0.000722
0.000815
0.000767
0.000832
0.000820
0.000739
0.000818
0.000779
0.000866
0.000785
0.000821
0.000955
0.000867
0.000892
0.000910
0.000945
0.000931
0.000923
0.000954
0.000935
0.000967
0.000951
0.001013
0.000944
0.001013
0.000934
0.001035
0.000953
0.001068
0.001069
0.001048
0.001082
0.000989
0.001109
0.001005
0.001023
0.000908
0.000967
0.000950
0.001109
0.001176
0.001186
0.001091
0.001137
0.001106
0.000967
0.000969
0.001223
0.001137
0.001195
0.001219
0.001261
0.001184
0.001257
0.001189
0.001257
0.001137
0.001289
0.001307
0.001093
0.001244
0.001316
0.001360
0.001266
0.001235
0.001382
0.001319
0.001370
0.001376
0.001309
0.001403
0.001362
0.001467
0.001333
0.001440
0.001474
0.001369
0.001463
0.001410
0.001464
0.001463
Classification Time - I
0.005775
0.006580
0.007526
0.007780
0.008670
0.010379
0.011441
0.012376
0.014366
0.015822
0.015316
0.017423
0.017605
0.018136
0.018859
0.019651
0.020476
0.021846
0.022245
0.023227
0.024634
0.024996
0.026080
0.026902
0.031700
0.028812
0.029830
0.030868
0.031651
0.036036
0.033663
0.036478
0.038409
0.036340
0.034496
0.038553
0.039308
0.040160
0.041208
0.042097
0.042514
0.046681
0.047540
0.046869
0.047175
0.044634
0.045079
0.050822
0.046240
0.047381
0.051164
0.052945
0.054036
0.051181
0.052062
0.056359
0.053444
0.058695
0.060542
0.059823
0.057052
0.058245
0.077967
0.059976
0.061286
0.062039
0.063448
0.063738
0.064551
0.065649
0.066771
0.067960
0.068713
0.071380
0.070417
0.071331
0.075543
0.075881
0.074625
0.075123
0.077782
0.076994
0.078809
0.079368
0.080142
0.080703
0.082306
0.082656
0.084632
0.092747
0.085593
0.086776
0.087403
0.085861
0.082404
0.083568
0.077746
0.081780
0.092485
0.093641
0.094569
0.095450
0.096467
0.083588
0.078896
0.082674
0.100538
0.102846
0.101694
0.107201
0.103511
0.104776
0.105465
0.113211
0.111388
0.108393
0.109317
0.109404
0.111759
0.111605
0.112789
0.113314
0.105630
0.119956
0.116236
0.124737
0.118626
0.119123
0.120457
0.121033
0.126903
0.114356
0.123686
0.124591
0.125402
0.128728
0.127311
0.128778
0.129761
0.135444
