Full Time (seconds)
0.101968
Time - I
0.004398
0.008449
0.012715
0.016655
0.021609
0.024876
0.028929
0.033387
0.037229
0.041238
0.045312
0.056459
0.057221
0.064582
0.069712
0.075664
0.082521
0.089447
0.093816
0.104373
0.106708
