Full Time (seconds)
0.133300
Incremental Time - I
0.000318
0.000388
0.000377
0.000450
0.000488
0.000589
0.000625
0.000783
0.000781
0.000894
0.000933
0.001678
0.001921
0.002151
0.002384
0.002710
0.003015
0.003257
0.003338
0.003580
0.003867
0.005270
0.005939
0.006365
0.006745
0.007286
0.007634
0.007787
0.008702
0.009353
0.009888
0.010790
0.011146
0.011615
0.011905
0.012199
0.012107
0.012406
0.012183
0.012846
0.012398
0.014813
0.015401
0.016544
0.016952
0.016860
0.016617
0.017371
0.017971
0.017822
0.018892
0.021639
0.023214
0.024313
0.025069
0.026324
0.027111
0.027849
0.028754
0.030075
0.030842
0.033679
0.034596
0.034579
0.035535
0.036031
0.036917
0.037168
0.037688
0.036790
0.037844
0.041500
0.042830
0.043667
0.044056
0.046164
0.046627
0.047455
0.048251
0.047087
0.050100
0.054877
0.053643
0.056423
0.055836
0.059439
0.060632
0.061346
0.060791
0.060915
0.063326
0.067960
0.069862
0.070721
0.069036
0.071942
0.073605
0.073777
0.071526
0.074794
0.075597
0.080662
0.081080
0.080110
0.083265
0.084517
0.085586
0.083007
0.086648
0.087763
0.085482
0.089542
0.086786
0.088151
0.087051
0.089419
0.091456
0.088238
0.091414
0.088287
0.089537
0.093277
0.094565
0.098795
0.099987
0.096582
0.097257
0.101603
0.102602
0.099433
0.103647
0.104269
0.107100
0.106670
0.107144
0.108798
0.110244
0.111172
0.111377
0.114611
0.113897
Classification Time - C
cat: testS_0.svm.time: No such file or directory
cat: test1II_0000.svm.time: No such file or directory
cat: test1II_0001.svm.time: No such file or directory
cat: test1II_0002.svm.time: No such file or directory
cat: test1II_0003.svm.time: No such file or directory
cat: test1II_0004.svm.time: No such file or directory
cat: test1II_0005.svm.time: No such file or directory
cat: test1II_0006.svm.time: No such file or directory
cat: test1II_0007.svm.time: No such file or directory
cat: test1II_0008.svm.time: No such file or directory
cat: test1II_0009.svm.time: No such file or directory
cat: test2II_0000.svm.time: No such file or directory
cat: test2II_0001.svm.time: No such file or directory
cat: test2II_0002.svm.time: No such file or directory
cat: test2II_0003.svm.time: No such file or directory
cat: test2II_0004.svm.time: No such file or directory
cat: test2II_0005.svm.time: No such file or directory
cat: test2II_0006.svm.time: No such file or directory
cat: test2II_0007.svm.time: No such file or directory
cat: test2II_0008.svm.time: No such file or directory
cat: test2II_0009.svm.time: No such file or directory
cat: test3II_0000.svm.time: No such file or directory
cat: test3II_0001.svm.time: No such file or directory
cat: test3II_0002.svm.time: No such file or directory
cat: test3II_0003.svm.time: No such file or directory
cat: test3II_0004.svm.time: No such file or directory
cat: test3II_0005.svm.time: No such file or directory
cat: test3II_0006.svm.time: No such file or directory
cat: test3II_0007.svm.time: No such file or directory
cat: test3II_0008.svm.time: No such file or directory
cat: test3II_0009.svm.time: No such file or directory
cat: test4II_0000.svm.time: No such file or directory
cat: test4II_0001.svm.time: No such file or directory
cat: test4II_0002.svm.time: No such file or directory
cat: test4II_0003.svm.time: No such file or directory
cat: test4II_0004.svm.time: No such file or directory
cat: test4II_0005.svm.time: No such file or directory
cat: test4II_0006.svm.time: No such file or directory
cat: test4II_0007.svm.time: No such file or directory
cat: test4II_0008.svm.time: No such file or directory
cat: test4II_0009.svm.time: No such file or directory
cat: test5II_0000.svm.time: No such file or directory
cat: test5II_0001.svm.time: No such file or directory
cat: test5II_0002.svm.time: No such file or directory
cat: test5II_0003.svm.time: No such file or directory
cat: test5II_0004.svm.time: No such file or directory
cat: test5II_0005.svm.time: No such file or directory
cat: test5II_0006.svm.time: No such file or directory
cat: test5II_0007.svm.time: No such file or directory
cat: test5II_0008.svm.time: No such file or directory
cat: test5II_0009.svm.time: No such file or directory
cat: test6II_0000.svm.time: No such file or directory
cat: test6II_0001.svm.time: No such file or directory
cat: test6II_0002.svm.time: No such file or directory
cat: test6II_0003.svm.time: No such file or directory
cat: test6II_0004.svm.time: No such file or directory
cat: test6II_0005.svm.time: No such file or directory
cat: test6II_0006.svm.time: No such file or directory
cat: test6II_0007.svm.time: No such file or directory
cat: test6II_0008.svm.time: No such file or directory
cat: test6II_0009.svm.time: No such file or directory
cat: test7II_0000.svm.time: No such file or directory
cat: test7II_0001.svm.time: No such file or directory
cat: test7II_0002.svm.time: No such file or directory
cat: test7II_0003.svm.time: No such file or directory
cat: test7II_0004.svm.time: No such file or directory
cat: test7II_0005.svm.time: No such file or directory
cat: test7II_0006.svm.time: No such file or directory
cat: test7II_0007.svm.time: No such file or directory
cat: test7II_0008.svm.time: No such file or directory
cat: test7II_0009.svm.time: No such file or directory
cat: test8II_0000.svm.time: No such file or directory
cat: test8II_0001.svm.time: No such file or directory
cat: test8II_0002.svm.time: No such file or directory
cat: test8II_0003.svm.time: No such file or directory
cat: test8II_0004.svm.time: No such file or directory
cat: test8II_0005.svm.time: No such file or directory
cat: test8II_0006.svm.time: No such file or directory
cat: test8II_0007.svm.time: No such file or directory
cat: test8II_0008.svm.time: No such file or directory
cat: test8II_0009.svm.time: No such file or directory
cat: test9II_0000.svm.time: No such file or directory
cat: test9II_0001.svm.time: No such file or directory
cat: test9II_0002.svm.time: No such file or directory
cat: test9II_0003.svm.time: No such file or directory
cat: test9II_0004.svm.time: No such file or directory
cat: test9II_0005.svm.time: No such file or directory
cat: test9II_0006.svm.time: No such file or directory
cat: test9II_0007.svm.time: No such file or directory
cat: test9II_0008.svm.time: No such file or directory
cat: test9II_0009.svm.time: No such file or directory
0.097255
0.100956
0.102104
0.102835
0.101778
0.102144
0.104722
0.103221
0.103335
0.105245
0.106278
0.107720
0.107788
0.107357
0.108630
0.109599
0.110364
0.111046
0.111889
0.112030
0.112241
0.111139
0.113387
0.113078
0.113792
0.117305
0.112421
0.112887
0.113322
0.114832
0.118982
0.120614
0.121078
0.121208
0.121390
0.126893
0.124759
0.125208
0.125262
0.124678
0.127192
0.127815
0.127977
0.129880
0.129402
0.130123
0.131042
0.130561
0.131548
0.132880
