Full Time (seconds)
0.176105
Incremental Time - I
0.217493
0.008933
0.013805
0.043663
0.064102
0.086540
0.094661
0.104984
0.124492
0.147694
0.156178
0.174452
0.195281
0.239351
0.240166
0.255982
0.095512
0.118906
0.198759
0.218448
0.267710
Classification Time - C
0.028701
0.036499
0.112170
0.138892
0.153888
0.170900
0.168351
0.181768
0.206993
0.211667
0.245887
0.226301
0.238374
0.280976
0.264356
0.091643
0.109714
0.175344
0.182755
0.197309
