Full Time (seconds)
0.005688
Incremental Time - I
0.001290
0.000089
0.000101
0.000110
0.000125
0.000138
0.000140
0.000153
0.000157
0.000179
0.000187
0.000196
0.000102
0.000289
0.000215
0.000206
0.000221
0.000241
0.000257
0.000261
0.000618
Classification Time - I
0.000790
0.000964
0.001145
0.001323
0.001512
0.001737
0.001914
0.002073
0.002261
0.002447
0.002645
0.001299
0.001411
0.001499
0.001597
0.001727
0.001879
0.001979
0.004700
0.004953
