Full Accuracy
80.035912
Accuracy - I
cat: testS_0.svm.acc: No such file or directory
79.845116
77.109337
76.923920
77.073425
77.372444
77.372444
78.305412
78.212700
77.927765
77.187019
77.315170
78.625786
79.473320
79.231094
80.862083
80.121353
79.729614
79.686905
78.903442
80.035912
