Full Time (seconds)
0.388720
Time - I
0.222004
0.263507
0.269027
0.311839
0.312118
0.336117
0.344328
0.332766
0.390867
0.419430
0.429519
0.442157
0.376415
0.456538
0.438817
0.482173
0.449112
0.450615
0.471275
0.468516
0.464087
