Full Time (seconds)
0.436423
Incremental Time - I
cat: testS_0.svm.time: No such file or directory
0.061948
0.151954
0.288648
0.363092
0.384011
Classification Time - C
0.176954
0.239678
0.258231
0.249842
0.446609
