Full Time (seconds)
0.283309
Incremental Time - I
cat: testS_0.svm.time: No such file or directory
0.062224
0.151980
0.243885
0.305699
0.611153
Classification Time - C
0.161667
0.220836
0.240577
0.232930
0.417425
