Full Time (seconds)
0.212614
Incremental Time - I
cat: testS_0.svm.time: No such file or directory
0.063204
0.154868
0.239395
0.452042
0.453479
Classification Time - C
0.162234
0.233635
0.311311
0.318377
0.271540
