Full Time (seconds)
0.106793
Time - I
0.004766
0.005542
0.006349
0.007177
0.007962
0.008768
0.009560
0.010336
0.011184
0.011846
0.013046
0.013319
0.014156
0.014941
0.015629
0.016382
0.017167
0.017867
0.019004
0.019369
0.020310
0.021263
0.021837
0.022566
0.023128
0.023904
0.024657
0.025357
0.026985
0.026938
0.027692
0.028499
0.029303
0.030181
0.030909
0.032129
0.032408
0.033238
0.034168
0.034739
0.036577
0.035862
0.036203
0.036393
0.037265
0.037354
0.037718
0.038223
0.038322
0.038863
0.040202
0.040029
0.040877
0.041630
0.042419
0.043234
0.044363
0.044605
0.045350
0.046471
0.047627
0.047594
0.048336
0.049092
0.050520
0.050687
0.051798
0.052150
0.055397
0.058962
0.059807
0.055164
0.056542
0.056781
0.059113
0.058209
0.058948
0.059711
0.061509
0.061592
0.061937
0.062635
0.063457
0.065207
0.065122
0.065761
0.066546
0.073891
0.068054
0.068754
0.069862
0.071470
0.071004
0.071718
0.080931
0.074799
0.074377
0.074639
0.076263
0.076283
0.078092
0.078018
0.079517
0.079270
0.079943
0.081226
0.081809
0.082252
0.085271
0.084896
0.084609
0.085279
0.085992
0.086872
0.088704
0.088553
0.089032
0.091308
0.090895
0.091354
0.092076
0.094120
0.093671
0.095257
0.095181
0.095826
0.096654
0.097392
0.098147
0.099000
0.100054
0.100671
0.101142
0.103233
0.103166
0.103716
0.107712
0.105690
0.105781
0.106807
0.107389
