Full Time (seconds)
0.106834
Time - I
0.004558
0.004876
0.005172
0.005548
0.005938
0.006292
0.006731
0.007208
0.008134
0.008182
0.008664
0.009405
0.010188
0.010954
0.011685
0.012387
0.013164
0.013916
0.015138
0.015452
0.016556
0.017370
0.018142
0.018926
0.019717
0.020549
0.020752
0.022604
0.022239
0.023031
0.023716
0.024568
0.025444
0.026330
0.027486
0.027848
0.028613
0.029385
0.030177
0.031470
0.031906
0.033452
0.033514
0.034456
0.034797
0.035509
0.036245
0.037040
0.038200
0.038612
0.039317
0.041275
0.042136
0.041680
0.042315
0.043548
0.043966
0.045981
0.045448
0.046135
0.046834
0.047621
0.049846
0.050667
0.051486
0.050744
0.053034
0.052831
0.053012
0.054333
0.056192
0.056899
0.056207
0.058284
0.057439
0.058130
0.059206
0.059733
0.060344
0.061457
0.062159
0.062700
0.063316
0.064823
0.064993
0.065828
0.066487
0.067235
0.067967
0.068762
0.070531
0.070270
0.071007
0.071750
0.074238
0.073291
0.074212
0.074731
0.075539
0.076329
0.078032
0.077938
0.078714
0.079281
0.080570
0.080846
0.081711
0.082502
0.083438
0.083880
0.084706
0.088285
0.086136
0.086931
0.087933
0.091661
0.089133
0.090072
0.093793
0.091476
0.092797
0.096111
0.094607
0.094397
0.098410
0.099470
0.096624
0.097478
0.098242
0.099394
0.099883
0.100716
0.112988
0.102063
0.102698
0.103896
0.104212
0.105069
0.105744
0.106700
0.107766
