Full Time (seconds)
0.106798
Time - I
0.004645
0.005456
0.006271
0.007120
0.007898
0.008681
0.009510
0.010233
0.011036
0.011795
0.012499
0.013343
0.014161
0.014743
0.015749
0.016313
0.017470
0.017818
0.019035
0.019271
0.020602
0.021466
0.021622
0.022406
0.023342
0.023843
0.024671
0.025438
0.026113
0.026816
0.028065
0.028732
0.030094
0.030074
0.031754
0.032051
0.032421
0.033207
0.033926
0.034712
0.035437
0.037320
0.037185
0.038897
0.038936
0.040542
0.041238
0.040768
0.041551
0.042328
0.043082
0.043796
0.045894
0.045803
0.046800
0.048210
0.047569
0.048321
0.049507
0.049917
0.050816
0.051587
0.052438
0.052937
0.054080
0.054731
0.055809
0.061926
0.059910
0.057428
0.058624
0.058899
0.059827
0.061231
0.061168
0.061934
0.062681
0.063434
0.064138
0.065303
0.065716
0.066463
0.067321
0.068912
0.068747
0.069486
0.070319
0.071320
0.071764
0.075196
0.074333
0.074267
0.074706
0.075517
0.088023
0.079452
0.077861
0.078892
0.081830
0.081836
0.080800
0.081479
0.082246
0.086752
0.083745
0.084548
0.085289
0.087080
0.087450
0.087929
0.090265
0.089690
0.090142
0.091324
0.091231
0.092214
0.092755
0.096845
0.094921
0.095875
0.096218
0.099886
0.100646
0.101305
0.102206
0.103190
0.100428
0.106702
0.105424
0.104010
0.104244
0.104816
0.105638
0.104587
0.104835
0.104848
0.107059
0.105781
0.106531
0.110364
0.110682
