Full Time (seconds)
0.002799
Time - I
0.000442
0.000502
0.000589
0.000616
0.000675
0.000747
0.000804
0.001478
0.000986
0.001012
0.001056
0.001097
0.001109
0.001194
0.001165
0.001192
0.001246
0.002143
0.001324
0.001368
0.001408
0.001533
0.001655
0.001816
0.001929
0.002116
0.002223
0.002880
0.002499
0.004440
0.002782
