Full Accuracy
94.923080
Accuracy - I
50.000000
71.153847
77.538460
80.923073
83.000000
85.923073
88.076920
89.461540
89.615387
90.538460
91.230766
92.615387
93.076920
93.230774
93.615379
94.076927
94.307693
94.230774
94.538460
94.923080
94.923080
