Full Time (seconds)
0.106818
Time - I
0.003955
0.008039
0.012463
0.016593
0.020617
0.024267
0.028807
0.033108
0.036890
0.041083
0.045597
0.051279
0.056626
0.062958
0.068858
0.074904
0.080812
0.088071
0.093569
0.100712
0.107155
