Full Time (seconds)
0.106757
Time - I
0.004327
0.008667
0.012095
0.016796
0.020283
0.024419
0.028623
0.033895
0.037323
0.041396
0.045367
0.052579
0.057820
0.063700
0.072509
0.075275
0.080937
0.087523
0.095212
0.104914
0.107722
