Full Time (seconds)
0.105881
Time - I
0.003894
0.008527
0.012006
0.016286
0.020190
0.025389
0.029601
0.033673
0.037029
0.042343
0.046587
0.054059
0.056520
0.063373
0.073650
0.074996
0.082599
0.088305
0.094949
0.101014
0.105343
