Full Time (seconds)
0.106574
Time - I
0.004025
0.008185
0.012369
0.016346
0.020640
0.024222
0.029428
0.032958
0.037240
0.041346
0.045988
0.051012
0.057950
0.064369
0.068845
0.075820
0.082232
0.088257
0.095297
0.100905
0.106683
