Full Time (seconds)
0.107005
Time - I
0.003995
0.008237
0.012322
0.016911
0.020438
0.024641
0.028715
0.032877
0.037189
0.041294
0.046623
0.053011
0.058273
0.062641
0.068949
0.075648
0.082638
0.088311
0.096544
0.104271
0.109122
