Full Time (seconds)
0.107435
Time - I
0.003931
0.008193
0.012623
0.016197
0.020565
0.024332
0.028484
0.033130
0.036917
0.042879
0.046525
0.052406
0.059088
0.064152
0.068645
0.074660
0.080724
0.088221
0.094770
0.100448
0.107751
