Full Time (seconds)
0.108107
Time - I
0.003978
0.008083
0.012090
0.016444
0.020324
0.024932
0.028498
0.032665
0.036747
0.040718
0.044851
0.051164
0.057571
0.063950
0.070242
0.074592
0.081842
0.087153
0.098337
0.099456
0.107540
