Full Time (seconds)
0.000794
Incremental Time - I
0.000172
0.000088
0.000124
0.000249
0.000245
0.000225
0.000238
0.000578
0.000719
0.000863
0.000920
0.001076
0.001097
0.001143
0.001673
0.001545
0.002236
0.002468
0.002070
0.005367
0.006021
0.004345
0.003780
0.003379
0.003267
0.003682
0.003602
0.005355
0.004164
0.004165
0.004310
Classification Time - C
0.000443
0.000342
0.000357
0.000396
0.000401
0.000382
0.000389
0.000399
0.000405
0.000402
0.000407
0.000499
0.000544
0.000531
0.000581
0.000608
0.000642
0.000654
0.000668
0.000714
0.000685
0.000695
0.000719
0.000821
0.000743
0.000757
0.000781
0.000770
0.000801
0.000797
0.000782
