Full Time (seconds)
0.002792
Time - I
0.000833
0.001110
0.000945
0.000998
0.001049
0.001523
0.001188
0.001256
0.001331
0.001418
0.001483
0.001493
0.001726
0.001627
0.001691
0.001779
0.001824
0.001888
0.001954
0.002079
0.002096
0.002162
0.002232
0.002305
0.002743
0.002438
0.002717
0.002558
0.002658
0.002773
0.002808
