Full Time (seconds)
0.002773
Time - I
0.000441
0.000501
0.000558
0.000616
0.001041
0.001296
0.000810
0.000867
0.000930
0.001185
0.001191
0.001204
0.001124
0.001410
0.001191
0.001193
0.001244
0.001269
0.001314
0.001393
0.001398
0.001551
0.001747
0.001815
0.001952
0.002083
0.002195
0.002360
0.002488
0.002645
0.003053
