Full Time (seconds)
0.002767
Time - I
0.000814
0.000880
0.000939
0.000994
0.001050
0.001116
0.001875
0.001257
0.001310
0.001405
0.001494
0.001526
0.001561
0.001669
0.001725
0.001810
0.001858
0.001959
0.001951
0.002110
0.002420
0.002197
0.002280
0.002712
0.002355
0.002428
0.002480
0.002612
0.002610
0.002736
0.002768
