Full Time (seconds)
0.002854
Time - I
0.000472
0.000501
0.000562
0.000639
0.000668
0.000735
0.000800
0.000865
0.000949
0.000995
0.001101
0.001092
0.001111
0.001137
0.001178
0.001206
0.001263
0.001274
0.001318
0.001368
0.001395
0.001559
0.001673
0.001850
0.001994
0.002157
0.002248
0.002451
0.002507
0.002656
0.002774
