mean_accFULL,stdev_accFULL, mean_timeFULL, stdev_timeFULL
71.066666,0.0,0.0177098,0.003503122188372348
mean_accI,stdev_accI
50.0,0.0
66.888885,0.0
69.422218,0.0
70.266663,0.0
72.155556,0.0
71.955559,0.0
72.222229,0.0
72.111115,0.0
71.888885,0.0
73.622223,0.0
74.64444,0.0
73.55555,0.0
72.577782,0.0
71.933334,0.0
73.133331,0.0
72.555557,0.0
72.444443,0.0
71.800003,0.0
70.73333,0.0
70.888885,0.0
71.066666,0.0
mean_timeI,stdev_timeI
0.002049,8.524474568363033e-06
0.0025141,0.00040634863247107297
0.0032892999999999998,0.0005345712820153694
0.0042705,0.0005934189544963621
0.0049237000000000005,0.0006210577088948963
0.0053075,0.0001312218223721446
0.006007500000000001,0.00017598437430635722
0.0067821999999999995,0.00032683016316667517
0.0073887,0.00010197499693552343
0.008062,5.6442694636044756e-05
0.0087916,0.00017102384499114606
0.0094639,0.00010560245157086896
0.0101125,0.0005050160063469938
0.0110207,0.00013772601626256211
0.0118203,0.00024918759109465233
0.0125937,0.00028350624135790897
0.0134232,0.00035669775565440407
0.0142286,0.0002701884938745954
0.0146896,0.0002791336597402757
0.0157647,0.00033570127262857433
0.016899,0.0011988550093040163
