mean_accFULL,stdev_accFULL, mean_timeFULL, stdev_timeFULL
93.0,0.0,0.10612220000000001,0.0023272907376986176
mean_accI,stdev_accI
50.0,0.0
58.0,0.0
68.923073,0.0
72.846153,0.0
76.92308,0.0
81.076927,0.0
83.615387,0.0
84.769234,0.0
86.0,0.0
86.692307,0.0
87.230766,0.0
88.461533,0.0
89.153847,0.0
90.07692,0.0
91.0,0.0
91.46154,0.0
92.0,0.0
92.230766,0.0
92.846153,0.0
93.07692,0.0
93.0,0.0
mean_timeI,stdev_timeI
0.0043455,1.0554093465991776e-05
0.0083472,0.000554223540941138
0.0127269,0.0011366154876063705
0.016720699999999998,0.0008970550645801455
0.020461899999999998,0.001301170024759767
0.0253123,0.0012724228027227776
0.028681699999999997,0.0034406332120701264
0.032448199999999996,0.0035535647454352083
0.0358315,0.004164900218892806
0.0396585,0.004477736587210602
0.043785000000000004,0.003940173572036869
0.0477651,0.006903525145411823
0.051570099999999994,0.010231160262757211
0.0600329,0.008833471690111425
0.0663856,0.010249353640325053
0.0770149,0.005134966935953273
0.0816112,0.008032791389741872
0.0825549,0.01532120651218072
0.08963360000000001,0.017507201313237422
0.0955751,0.015939765246075616
0.1021582,0.01660423286594917
