mean_accFULL,stdev_accFULL, mean_timeFULL, stdev_timeFULL
87.036766,0.0,0.43149999999999994,0.1458482559123237
mean_accI,stdev_accI
50.0,0.0
62.370346,0.0
69.144646,0.0
73.601067,0.0
75.811348,0.0
77.861603,0.0
78.766701,0.0
80.022232,0.0
82.458809,0.0
82.999672,0.0
83.038315,0.0
84.291084,0.0
84.440094,0.0
85.254135,0.0
85.899834,0.0
86.360657,0.0
86.804924,0.0
87.414764,0.0
87.326477,0.0
86.942932,0.0
87.036766,0.0
mean_timeI,stdev_timeI
0.23704580000000003,0.05273487633604328
0.2868888,0.007170277164951321
0.2830895,0.05414971812227855
0.2774762,0.06258979306528785
0.2948628,0.07027118632491636
0.2959253,0.06467144667221987
0.3169005,0.0721750875475742
0.32435390000000003,0.07901429251084191
0.2964325,0.08299048650062915
0.3107398,0.10898335953183148
0.3987997,0.14483998778272525
0.42077960000000003,0.16404159102509475
0.3977666,0.15161259281046252
0.3506085,0.13826200600651087
0.4335481,0.1748306621050781
0.40531429999999996,0.18277331889289045
0.46534639999999994,0.17772658507081415
0.4057474,0.1424503536224307
0.3605109,0.12267486182448122
0.4208105,0.2012542961729154
0.5280114,0.20274362102046242
