mean_accFULL,stdev_accFULL, mean_timeFULL, stdev_timeFULL
94.92308,0.0,0.10050189999999999,0.00870420030725907
mean_accI,stdev_accI
50.0,0.0
70.846161,0.0
77.153847,0.0
79.923073,0.0
82.846153,0.0
86.230766,0.0
88.153847,0.0
89.46154,0.0
89.230766,0.0
90.153847,0.0
90.846153,0.0
92.307693,0.0
93.0,0.0
93.0,0.0
93.384621,0.0
93.923073,0.0
94.153847,0.0
94.307693,0.0
94.53846,0.0
94.92308,0.0
94.92308,0.0
mean_timeI,stdev_timeI
0.0039717,3.05870342901477e-05
0.007909900000000001,0.0005275495658650896
0.0119279,0.0007911358150013039
0.0164814,0.00020147688039408727
0.020322399999999997,0.0006214717656945936
0.024674,0.00037003603428134737
0.0286475,0.000459358308464706
0.032542,0.0016991832678607032
0.0368921,0.0005006891805856764
0.040593000000000004,0.0001969026832388695
0.045045,0.0007164852483555474
0.051031400000000005,0.0005285790595759747
0.05616829999999999,0.003579907262920523
0.06139100000000001,0.005143533243036564
0.0669596,0.005197375837862796
0.0714996,0.006599564803833658
0.0784257,0.006206288961833616
0.0873379,0.002749839649870514
0.08978270000000001,0.013950858922581712
0.09428,0.014404001180227666
0.0976632,0.016717641851250034
