mean_accFULL,stdev_accFULL, mean_timeFULL, stdev_timeFULL
94.92308,0.0,0.1046714,0.0071872082232564026
mean_accI,stdev_accI
50.0,0.0
73.846153,0.0
79.307693,0.0
83.307686,0.0
85.307693,0.0
89.384613,0.0
90.230766,0.0
90.846153,0.0
90.769234,0.0
91.53846,0.0
91.846153,0.0
93.07692,0.0
93.615379,0.0
93.615379,0.0
93.384621,0.0
93.846153,0.0
94.076927,0.0
94.076927,0.0
94.53846,0.0
95.0,0.0
94.92308,0.0
mean_timeI,stdev_timeI
0.0038848,0.00034682970525092634
0.0079089,0.0007039236779967301
0.0121318,0.0011692055992567488
0.016284899999999998,0.0017391824036981666
0.0205012,0.002060807921396094
0.0247466,0.0007965771497824647
0.028796300000000004,0.0014346864194736857
0.0328131,0.0005716800678701333
0.037123,0.0005587209599711746
0.040659600000000004,0.0003533025772777659
0.0448982,0.0005786441623888248
0.0517918,0.0013697246114132253
0.0567446,0.0032026955730030493
0.0634903,0.0035598431941121613
0.070194,0.004450478850640682
0.0759927,0.0056841286061375396
0.0800443,0.0045245493587759665
0.08515160000000001,0.005101811882938148
0.09149979999999999,0.007738265234821332
0.09854700000000001,0.006996648467500547
0.1053553,0.007878003315138509
