mean_accFULL,stdev_accFULL, mean_timeFULL, stdev_timeFULL
91.153847,0.0,0.0995559,0.013068214597513566
mean_accI,stdev_accI
50.0,0.0
53.000004000000004,0.0
65.692314,0.0
70.615379,0.0
75.0,0.0
78.07692,0.0
80.384613,0.0
82.53846,0.0
83.384613,0.0
84.92308,0.0
85.46154,0.0
85.692307,0.0
87.307693,0.0
88.307693,0.0
88.461533,0.0
88.92308,0.0
89.769234,0.0
90.53846,0.0
90.307686,0.0
91.153847,0.0
91.153847,0.0
mean_timeI,stdev_timeI
0.0045629,1.124919750224202e-05
0.0084288,0.0012892327434046447
0.0125499,0.00189985300308559
0.0161901,0.00266554782570321
0.0207268,0.0031389336051878794
0.0258595,0.0006007427347320423
0.0308888,0.0027438834118412854
0.0342797,0.0008968581022411279
0.0382143,0.000691669164654124
0.03813419999999999,0.00937324910820386
0.0426131,0.007900872560110758
0.0518962,0.005598966666567442
0.0542963,0.012146620810835508
0.057054099999999996,0.01443141217737659
0.063271,0.012949551189133933
0.065501,0.019413909795699465
0.0747596,0.01636005077552566
0.0852482,0.01452186674409779
0.0929712,0.010738020289296036
0.0957797,0.012562230207606008
0.10063390000000001,0.012394996144950321
