mean_accFULL,stdev_accFULL, mean_timeFULL, stdev_timeFULL
86.532555,0.0,0.0028574,0.00019601201777215375
mean_accI,stdev_accI
50.0,0.0
81.104309,0.0
83.760979,0.0
84.163689,0.0
85.57132,0.0
85.840424,0.0
85.606003,0.0
88.438248,0.0
88.704506,0.0
88.975891,0.0
89.892998,0.0
90.16552,0.0
88.200272,0.0
88.231537,0.0
87.248917,0.0
86.67659,0.0
86.438751,0.0
84.473511,0.0
82.952675,0.0
84.504768,0.0
86.532555,0.0
mean_timeI,stdev_timeI
0.0004698,3.931864132387532e-05
0.0005851999999999999,4.422869857657782e-05
0.000691,2.8623999254704664e-05
0.0008460000000000001,0.00012042886328082281
0.0009105999999999999,3.386312317420104e-05
0.0010106,1.6919416853623114e-05
0.0011870000000000001,0.00015780085903160067
0.0012345,4.840626681191873e-05
0.0013408,4.782096239563196e-05
0.001575,0.00032477171469613334
0.001575,7.553071487076556e-05
0.0016353,1.0403525043624997e-05
0.00179,9.086742479507648e-05
0.0019736,0.0002473680119444171
0.0020229000000000002,0.00013173833492529383
0.002234,0.0002205563671969392
0.0024088,0.0006260746849307287
0.0024722999999999998,0.0002833274705275779
0.0025816,0.00015626629692789022
0.0027505000000000003,0.00011270931145601452
0.002867,0.00017383005749550015
