mean_accFULL,stdev_accFULL, mean_timeFULL, stdev_timeFULL
91.153847,0.0,0.0987972,0.020318492993111257
mean_accI,stdev_accI
50.0,0.0
54.46154,0.0
67.076927,0.0
71.846153,0.0
75.46154,0.0
79.07692,0.0
81.846153,0.0
83.769234,0.0
84.846153,0.0
85.769234,0.0
85.846153,0.0
86.769226,0.0
87.07692,0.0
87.153847,0.0
88.0,0.0
88.230774,0.0
89.307693,0.0
90.53846,0.0
90.769234,0.0
91.07692,0.0
91.153847,0.0
mean_timeI,stdev_timeI
0.0044673000000000004,0.0006376028108818566
0.009054900000000001,0.0005855059445565953
0.013423899999999999,0.0001665055554628733
0.0175864,0.0002893011502838442
0.021814,0.00024118135177588745
0.0258457,0.0002740669220788564
0.0305505,0.0010230724151626149
0.034462599999999996,0.0010053777841631912
0.0386805,0.001507245482476045
0.0419516,0.004060277144344815
0.0461303,0.004253107022453637
0.05146730000000001,0.004410928852797837
0.057392,0.004837791759791973
0.0621128,0.006028741840365846
0.0694326,0.005829946067980007
0.0743895,0.0053926508272318565
0.0824774,0.01013811175931911
0.08719479999999999,0.009152686937603502
0.09157760000000001,0.008391537274076917
0.098381,0.014667490908657675
0.099829,0.020195626165638494
