mean_accFULL,stdev_accFULL, mean_timeFULL, stdev_timeFULL
88.046768,0.0,0.3870228,0.16448664480457575
mean_accI,stdev_accI
50.0,0.0
78.260979,0.0
82.540115,0.0
82.923508,0.0
85.158325,0.0
85.974976,0.0
86.650925,0.0
87.11721,0.0
87.246826,0.0
87.404076,0.0
87.450943,0.0
87.644066,0.0
87.586105,0.0
87.48674,0.0
87.933701,0.0
88.021988,0.0
87.837105,0.0
87.980576,0.0
87.853653,0.0
87.919846,0.0
88.046768,0.0
mean_timeI,stdev_timeI
0.162003,0.0012555887507902845
0.1736249,0.03784522403583076
0.21014370000000002,0.0319769036825366
0.246538,0.0422210916407112
0.264977,0.04496487778749592
0.3022004,0.03638302781731553
0.32331689999999996,0.04544304632650999
0.3499427,0.08356648213388747
0.3430492,0.09801773724042671
0.3689334,0.08505851235107381
0.3817643,0.10925662922378873
0.3748304,0.13303413301789213
0.3496046,0.10540072452544569
0.41008269999999997,0.14969616240464476
0.3933824,0.12325856545508083
0.4158785,0.13951084952413
0.42141419999999996,0.18851764419738892
0.3921811,0.16337276390815236
0.35427960000000003,0.10363069685742518
0.40882969999999996,0.15713586530066548
0.4035375,0.19116920738169224
