mean_accFULL,stdev_accFULL, mean_timeFULL, stdev_timeFULL
93.0,0.0,0.1013778,0.023741855922025608
mean_accI,stdev_accI
50.0,0.0
63.076919999999994,0.0
69.846153,0.0
76.230774,0.0
80.923073,0.0
83.46154,0.0
84.692307,0.0
86.307693,0.0
87.07692,0.0
87.53846,0.0
87.307693,0.0
88.384613,0.0
89.230766,0.0
90.46154,0.0
90.692307,0.0
91.230766,0.0
91.615387,0.0
91.846153,0.0
92.384613,0.0
93.0,0.0
93.0,0.0
mean_timeI,stdev_timeI
0.0042913,3.783898636180536e-05
0.0085132,4.878251052716875e-05
0.0126746,9.513405746045393e-05
0.0162669,0.002374813697956115
0.0202789,0.002796505495951847
0.024746399999999998,0.001205386447944761
0.0283157,0.0031001526862039835
0.032249,0.003847235342135672
0.037041000000000004,0.002023916061061382
0.0412492,0.0021863137316801857
0.0457741,0.000609819363053974
0.0515761,0.00035087112227204513
0.0579086,0.0006280647878824117
0.0645981,0.00159369413278988
0.06992380000000001,0.0006832232106387741
0.0769206,0.005667563481975497
0.0815068,0.003343743404562552
0.0879726,0.00524803561556343
0.0931791,0.004205719133909604
0.0916813,0.02110694944035679
0.0998358,0.02344942697617814
