mean_accFULL,stdev_accFULL, mean_timeFULL, stdev_timeFULL
93.0,0.0,0.1050735,0.008073550826274919
mean_accI,stdev_accI
50.0,0.0
65.230766,0.0
72.692314,0.0
77.230766,0.0
80.307693,0.0
83.0,0.0
84.153847,0.0
84.615387,0.0
86.153847,0.0
87.307693,0.0
88.0,0.0
88.769234,0.0
90.0,0.0
90.769234,0.0
91.307693,0.0
91.769234,0.0
92.153847,0.0
92.307693,0.0
92.769226,0.0
93.0,0.0
93.0,0.0
mean_timeI,stdev_timeI
0.0041277,0.0007343683680551607
0.0084554,0.0005734347197177529
0.0129682,0.0004936284702756382
0.0172631,0.0008740760772889786
0.0211341,0.0011806779079080894
0.0254561,0.001924291641675508
0.0305315,0.003265959795969463
0.0344223,0.001459711162448852
0.0379981,0.0009774550231198488
0.0424885,0.0018535911841012231
0.0465118,0.0012067176600643209
0.0520499,0.0030366055775048117
0.057025000000000006,0.0026237481671159755
0.06337970000000001,0.0023512668949124235
0.0697987,0.0050504017012951005
0.0775624,0.011606576241271345
0.0766162,0.012918725700831848
0.08561529999999999,0.007921095982669739
0.0942213,0.007354939293502778
0.0987026,0.0070549915536605836
0.10466919999999999,0.005072757036913512
