mean_accFULL,stdev_accFULL, mean_timeFULL, stdev_timeFULL
94.92308,0.0,0.098924,0.020477646170072056
mean_accI,stdev_accI
50.0,0.0
73.46154,0.0
79.230766,0.0
83.153847,0.0
85.307693,0.0
88.846153,0.0
89.692307,0.0
90.230766,0.0
90.384613,0.0
91.153847,0.0
91.53846,0.0
92.692307,0.0
93.07692,0.0
93.07692,0.0
93.230774,0.0
93.846153,0.0
94.07692,0.0
94.0,0.0
94.384613,0.0
94.92308,0.0
94.92308,0.0
mean_timeI,stdev_timeI
0.0039348000000000005,1.5788884979278534e-05
0.0081243,0.00025344078861409326
0.0124114,0.0005730317423823725
0.0163498,0.0002904876359962104
0.0206096,0.0006656594391195014
0.0229099,0.0051333548798249105
0.0293354,0.0012248435909218047
0.0331152,0.0009743373588695486
0.0348029,0.00731990619930793
0.039083099999999996,0.008335532115921307
0.0424171,0.009061870280956844
0.047842499999999996,0.010057014823826536
0.0540171,0.009636807152786654
0.06320390000000001,0.002440213626804923
0.0696906,0.002248228151727984
0.0763324,0.0029284440768283597
0.08257020000000001,0.004434822000687039
0.0824459,0.01695535253049412
0.0860722,0.01762143573290465
0.092529,0.019190869982016624
0.09849830000000001,0.019624530958584577
