mean_accFULL,stdev_accFULL, mean_timeFULL, stdev_timeFULL
71.066666,0.0,0.016497500000000002,0.0005179723823611528
mean_accI,stdev_accI
50.0,0.0
60.66666399999999,0.0
63.02222400000001,0.0
64.422218,0.0
66.111115,0.0
67.0,0.0
68.555557,0.0
71.377777,0.0
71.64444,0.0
73.26667,0.0
72.91111,0.0
72.577774,0.0
72.111115,0.0
72.066666,0.0
72.26667,0.0
70.977776,0.0
70.777779,0.0
70.73333,0.0
70.82222,0.0
70.600006,0.0
71.066666,0.0
mean_timeI,stdev_timeI
0.0039773000000000005,0.00018011542595421036
0.0045411,0.00021679250192035897
0.0054364999999999995,0.0007955160798710062
0.0059083,0.0004010020919867846
0.0063709000000000005,0.00020998066048514506
0.00704,0.00107341086676486
0.0074401,3.6339296146794634e-05
0.0079554,0.00035492196325389626
0.0087338,0.00016020944624667627
0.0092426,0.00010716778122800392
0.0098032,0.00011814567279422467
0.0105854,0.00026229338958925813
0.011193600000000001,0.00018694158327016335
0.011773,0.00022552013952934066
0.0122501,0.00026610501268818236
0.012893499999999999,0.0002994347452562354
0.0138472,0.0002671141245901373
0.014338300000000002,0.00031322446690299714
0.0150095,0.00035147601467082936
0.015743,0.0003470866046264407
0.0161973,0.0003495530638464564
