mean_accFULL,stdev_accFULL, mean_timeFULL, stdev_timeFULL
84.798309,0.0,0.0026325999999999997,0.00011346090858871954
mean_accI,stdev_accI
50.0,0.0
84.568428,0.0
84.965309,0.0
83.537712,0.0
82.258842,0.0
84.943054,0.0
85.418602,0.0
85.418602,0.0
85.148926,0.0
84.612999,0.0
85.687134,0.0
85.687134,0.0
86.256615,0.0
83.452782,0.0
83.959732,0.0
83.928467,0.0
85.273994,0.0
85.273994,0.0
85.305252,0.0
85.305252,0.0
84.798309,0.0
mean_timeI,stdev_timeI
0.0003763,3.678178897226181e-05
0.00047089999999999995,3.0555777776969696e-05
0.0005816,4.629902806755232e-05
0.000696,9.32022889561553e-05
0.0007773000000000001,4.532365092678803e-05
0.0009192,9.353644565978901e-05
0.0009897,7.395201146689658e-05
0.0011321,0.0001271319961474862
0.0012162,6.089663373290841e-05
0.0014301,0.0003000764532211379
0.0013639,1.8193100035147612e-05
0.0015933,0.00014627907118472782
0.0016296000000000001,0.00013773259115643864
0.0017463,0.0001574992416207491
0.0018391000000000002,0.0001422145874686872
0.0019846,0.0001706531244627208
0.0022087,0.00022474778456453513
0.0022577,0.00019194214984960678
0.0024414000000000003,0.00029850412243570627
0.0025515,0.0002407618694431861
0.0026395000000000004,0.0001974938817617734
