mean_accFULL,stdev_accFULL, mean_timeFULL, stdev_timeFULL
91.153847,0.0,0.10299879999999999,0.014654446763885547
mean_accI,stdev_accI
50.0,0.0
65.769234,0.0
70.0,0.0
75.0,0.0
77.230766,0.0
79.692307,0.0
81.615379,0.0
83.307686,0.0
85.307693,0.0
86.230766,0.0
86.692307,0.0
87.076927,0.0
88.53846,0.0
88.692307,0.0
88.92308,0.0
89.384613,0.0
89.615387,0.0
90.46154,0.0
90.384613,0.0
91.153847,0.0
91.153847,0.0
mean_timeI,stdev_timeI
0.0043827,0.00021797199106511115
0.008032899999999999,0.0018564913412133116
0.012709699999999999,0.002577941256549928
0.017155999999999998,0.00280482607898125
0.0215686,0.003759228531967105
0.024970899999999997,0.004042823503169261
0.0282437,0.006059785438995894
0.0351295,0.0013431954643891395
0.038767,0.0012376987606934993
0.041680299999999997,0.006311402222257041
0.0452933,0.006714724533937834
0.0506819,0.007304025457087193
0.0529385,0.01430196435808732
0.0579607,0.01644318854622383
0.0703186,0.02251670495037456
0.067675,0.01721412516252601
0.07688779999999999,0.018153146515136154
0.08361310000000001,0.019235341515323065
0.0909307,0.02057247079121892
0.0956993,0.021577376413734826
0.10441439999999999,0.015149841863494447
