mean_accFULL,stdev_accFULL, mean_timeFULL, stdev_timeFULL
84.798309,0.0,0.0026117000000000002,0.00010822204540254783
mean_accI,stdev_accI
50.0,0.0
78.167786,0.0
77.425591,0.0
79.059204,0.0
83.150002,0.0
81.453857,0.0
85.30056,0.0
85.841759,0.0
86.316864,0.0
85.511826,0.0
85.480568,0.0
84.973618,0.0
84.973618,0.0
83.990997,0.0
83.183685,0.0
83.183685,0.0
84.49794,0.0
85.036156,0.0
85.305252,0.0
85.305252,0.0
84.798309,0.0
mean_timeI,stdev_timeI
0.0003528,3.873499709564982e-05
0.0004887,0.00010065899529268776
0.0006051,0.00013281687476455025
0.0006463,1.1595497210363825e-05
0.0007654000000000001,4.4274898832935405e-05
0.0009013999999999999,6.687334629315663e-05
0.0009747,7.095389739510828e-05
0.0011095,0.00012478448087268972
0.0011914,9.550823117523546e-05
0.001325,0.00015682261741640884
0.0013882,8.567872807438523e-05
0.0015445,9.877837145178422e-05
0.0016967,0.0001886914294703274
0.0017203,9.539397837972329e-05
0.0017892,1.264735369773277e-05
0.0019573,0.00010787034398346522
0.0021485999999999996,0.0002663578211520902
0.0023952,0.00025714189770544113
0.0024425,0.000252032735968961
0.0024765,9.165060465339737e-05
0.0025892,4.263749002410382e-05
