mean_accFULL,stdev_accFULL, mean_timeFULL, stdev_timeFULL
87.985962,0.0,0.4314496,0.18147298788720903
mean_accI,stdev_accI
50.0,0.0
76.539398,0.0
83.657646,0.0
84.499084,0.0
86.742142,0.0
87.60289,0.0
87.531075,0.0
87.721428,0.0
88.013824,0.0
88.24559,0.0
88.019295,0.0
88.173767,0.0
88.195862,0.0
88.074402,0.0
87.906067,0.0
87.988815,0.0
87.726654,0.0
87.627281,0.0
87.384438,0.0
87.676926,0.0
87.985962,0.0
mean_timeI,stdev_timeI
0.1581755,0.017036943735110867
0.1738232,0.04283281073818684
0.20990319999999998,0.044100043030465275
0.230422,0.06119121032922585
0.26271469999999997,0.05400396868142603
0.2769305,0.08589822478730925
0.3069619,0.08050858575394304
0.3255962,0.07209833176803283
0.3246588,0.08815458708528885
0.3317999,0.0762012238038938
0.39539599999999997,0.10225457772963843
0.40856459999999994,0.11918120496323609
0.4035782,0.12544038973401758
0.3990343,0.12696522342231267
0.42035599999999995,0.1358436056279426
0.43722950000000005,0.1533849102336631
0.4130062,0.1864791282850592
0.4943471,0.2359806553255537
0.4255976,0.18298312514740564
0.4418426999999999,0.15726565668041517
0.4342079,0.1770769644065352
