mean_accFULL,stdev_accFULL, mean_timeFULL, stdev_timeFULL
85.581192,0.0,0.0029903,0.0007724591395162738
mean_accI,stdev_accI
50.0,0.0
68.311409,0.0
73.11319,0.0
75.039101,0.0
79.135231,0.0
83.196777,0.0
83.130692,0.0
86.234894,0.0
87.010941,0.0
88.265656,0.0
89.423584,0.0
87.427071,0.0
88.231537,0.0
89.038857,0.0
87.486755,0.0
85.66555,0.0
86.441597,0.0
86.948547,0.0
85.458977,0.0
83.462463,0.0
85.581192,0.0
mean_timeI,stdev_timeI
0.0004693,7.937400918016763e-05
0.0006709999999999999,0.0001083112798065526
0.0007886000000000001,4.313338485313768e-05
0.0009544,7.661766549997897e-05
0.0010451,6.24596758806121e-05
0.0011551999999999999,4.676846040751063e-05
0.0013325,0.00011604237731679463
0.0013653,5.281214086005437e-05
0.001564,0.0001719172927763684
0.0015695999999999998,1.4315492772983149e-05
0.0017159,7.877316237851007e-05
0.0018862999999999998,0.00014948359255933217
0.0019632,8.130983267040268e-05
0.0022128,0.00013122990851512813
0.0023206999999999998,0.000212715798922203
0.0025425,0.0003127200558540072
0.0024877,0.000230660910332799
0.0026082,0.00016708866575032016
0.0027285,0.00010228201753539632
0.0030775,0.0005051873689808344
0.0032077,0.0005207449898409434
