mean_accFULL,stdev_accFULL, mean_timeFULL, stdev_timeFULL
84.202896,0.0,0.2454898,0.009577891194481863
mean_accI,stdev_accI
50.0,0.0
71.376816,0.0
77.753624,0.0
80.36232,0.0
83.695656,0.0
84.202896,0.0
mean_timeI,stdev_timeI
0.0022453,9.28619046398105e-06
0.0517023,0.0013852398147773714
0.1031714,0.003087925668362718
0.1530067,0.004084944581427437
0.2003008,0.0011368992723876468
0.24992419999999999,0.0009493060389334701
