mean_accFULL,stdev_accFULL, mean_timeFULL, stdev_timeFULL
94.0,0.0,0.1196012,0.03718204489863951
mean_accI,stdev_accI
50.0,0.0
72.230766,0.0
78.153847,0.0
80.230766,0.0
83.53846,0.0
86.384613,0.0
88.307693,0.0
89.692307,0.0
89.46154,0.0
89.615387,0.0
90.615387,0.0
91.692307,0.0
92.615387,0.0
92.923073,0.0
93.307693,0.0
93.92308,0.0
94.230774,0.0
94.076927,0.0
94.230774,0.0
94.461533,0.0
94.769226,0.0
mean_timeI,stdev_timeI
0.0051414,3.600987518877439e-05
0.0002968,7.607569330023296e-05
0.000548,0.00010629832234486738
0.000766,0.00014675603337966495
0.0026619,0.0004029073370171139
0.0025878999999999997,0.000744076078846183
0.0028785,0.0008858417528605835
0.0031872,0.000656767978648303
0.0033811,0.0006549969380759645
0.0036458999999999997,0.0005895667806863688
0.0035369,0.0007137986722069777
0.0048748,0.001115340486129684
0.0055003,0.0009230867360233393
0.0059581,0.0010412782155707582
0.0064261,0.0011906727743404382
0.0075398999999999996,0.0014359651380788385
0.008361,0.0006441221416263636
0.0091088,0.000552878688723344
0.0089432,0.001741809072328091
0.0088392,0.0023067277833907205
0.009106,0.002658079716219545
mean_timeC,stdev_timeC
0.0090028,0.002327207950408481
0.014501900000000002,0.002871464568241556
0.018661,0.0037117677130385674
0.0242612,0.004767709391777611
0.0290326,0.005547620995626063
0.0345615,0.006246845732936834
0.041211700000000004,0.0009613171577464842
0.042067,0.007463390099531029
0.0508934,0.0012996524492682236
0.0520549,0.00774773447101366
0.059843999999999994,0.0085596974764818
0.0668829,0.009735079540278833
0.0739469,0.00795826373372707
0.0847495,0.0028297809985933565
0.0941427,0.002528424764332307
0.10123469999999998,0.0047325581301824035
0.1015348,0.019100928876773393
0.1085412,0.021290486664235744
0.1106388,0.03001047398566781
0.12030700000000001,0.03066026080196391
