mean_accFULL,stdev_accFULL, mean_timeFULL, stdev_timeFULL
81.503311,0.0,0.5391566,0.2177847756796196
mean_accI,stdev_accI
50.0,0.0
52.158146,0.0
56.951607,0.0
58.653946,0.0
59.750973,0.0
64.152702,0.0
68.597153,0.0
71.887764,0.0
74.067268,0.0
74.743942,0.0
76.574432,0.0
77.664185,0.0
77.293816,0.0
77.991837,0.0
78.71122,0.0
79.77961,0.0
79.758255,0.0
79.822334,0.0
79.865051,0.0
79.47332,0.0
80.976158,0.0
mean_timeI,stdev_timeI
0.9177716,0.05411257371689749
0.0166273,0.0020843312836495067
0.0160376,0.001336475647198839
0.0163687,0.002729243609093512
0.0172352,0.002827967578000537
0.0162411,0.003932000860461079
0.0175232,0.0038888662958073868
0.0169058,0.004280021542001862
0.0171146,0.004006332909005163
0.020443700000000002,0.005619195692742275
0.017571999999999997,0.005602029533025409
0.017228,0.006545650701886796
0.0173322,0.006246119093752002
0.02226,0.007407497118160462
0.0216923,0.007075496135725513
0.021122099999999998,0.008045982495769067
0.0213067,0.006854576363439408
0.022264600000000002,0.0076481444982862785
0.022462,0.006824989247040776
0.0222602,0.00802517459553927
0.0248389,0.009841224804644774
mean_timeC,stdev_timeC
0.41503249999999997,0.033197988115915164
0.4069349,0.06219501497431732
0.40673750000000003,0.07213763999197029
0.4006492,0.0948354038764005
0.4051779,0.10583973583515577
0.453396,0.1036655182648074
0.4539528,0.11676476592496175
0.4524101,0.13513525384217434
0.4400725,0.14373605200447567
0.4338742,0.15561298575333188
0.41564100000000004,0.15632807576091734
0.418306,0.17124425561557777
0.5162177,0.18014013604663454
0.5472985,0.18746585998181703
0.4647417,0.1570004644395466
0.520104,0.1672003253239791
0.5832666,0.15111777714249536
0.5201724,0.15496285172776086
0.5811025,0.21613062082260964
0.5525527,0.2282432527955159
