mean_accFULL,stdev_accFULL, mean_timeFULL, stdev_timeFULL
94.0,0.0,0.1415833,0.008258361043344029
mean_accI,stdev_accI
50.0,0.0
71.430772,1.6054630698462053
76.692308,2.18927012235585
80.83846689999999,1.4351867507290132
83.5615413,2.018991905872062
86.769226,0.0
88.4153886,0.5838026253209228
89.1307668,0.3162252361947117
89.57692469999999,0.3648784591352301
90.4076906,0.4135291522536222
91.00768930000001,0.2189266960078189
92.16154,0.9486832980505138
92.6846117,0.7540808418047105
92.87692,0.6324555320336759
93.2923129,0.2919038424825876
93.82307929999999,0.316229979611199
94.0076964,0.21892637978005366
94.0615423,0.04865069311839213
94.4230724,0.12162309617667359
94.7384639,0.0973035998311453
94.769226,0.0
mean_timeI,stdev_timeI
0.0054161,0.0012467625141407914
0.0003189,2.8037474921968274e-05
0.0005541,8.73606191471751e-05
0.0008038,7.333151512897515e-05
0.0026005,0.0007491245631476191
0.0026387,0.0008470424428563187
0.0031472,0.0005476375119040372
0.0033365,0.000616934221237024
0.0035801,0.0005708505252885577
0.00397,0.00036242271206730713
0.0039703,0.0006626908194793574
0.0051613,0.0008932823430721355
0.0055769,0.0009750516168673102
0.0061346,0.000840167470078304
0.006805800000000001,0.0012545982801058053
0.0071975,0.0008310468966577303
0.0082299,0.0008014847957246461
0.008952499999999999,0.000701990067989253
0.009368,0.0006687926102728374
0.0098355,0.001538528030293891
0.0108112,0.000611479226502785
mean_timeC,stdev_timeC
0.0097373,0.0007399531591781857
0.0153982,0.0009205849348225409
0.020477099999999998,0.00014056667061892328
0.0243759,0.004401898313985304
0.0284663,0.00519064258599603
0.035125699999999996,0.0016525960755396003
0.0393639,0.0028931366465404906
0.044738700000000006,0.001519571288225728
0.0469998,0.006743202252804095
0.052476100000000005,0.007579912817587166
0.0592564,0.008573606763395051
0.0662971,0.009764525401791025
0.06992770000000001,0.013776176788209419
0.08301349999999999,0.011013397550761122
0.085378,0.01704468746820806
0.1004399,0.0018209745528760745
0.11180209999999999,0.004598269202162435
0.1087372,0.01675123737917093
0.1236335,0.006910194389450994
0.1338752,0.005241994887445048
