mean_accFULL,stdev_accFULL, mean_timeFULL, stdev_timeFULL
89.855072,0.0,0.22603239999999997,0.010040520207859973
mean_accI,stdev_accI
50.0,0.0
78.76812,0.0
83.840576,0.0
85.652176,0.0
88.55072,0.0
89.927536,0.0
mean_timeI,stdev_timeI
0.0001464,1.349897115421102e-06
0.0021838,0.0003195649125503821
0.014072699999999999,0.00019450566972598925
0.0254922,0.00034921270181811974
0.0371126,0.00020166980713808166
0.0486312,0.00033421343812333853
mean_timeC,stdev_timeC
0.058634,0.0016058280660698932
0.1103747,0.0024527319031824282
0.1636034,0.003242615206554388
0.21440109999999998,0.0013133444542676388
0.2539927,0.0069152968611461505
