mean_accFULL,stdev_accFULL, mean_timeFULL, stdev_timeFULL
90.942,0.0,0.3429354,0.09438511621154401
mean_accI,stdev_accI
50.0,0.0
78.7681,0.0
84.6377,0.0
87.5362,0.0
90.0725,0.0
91.0145,0.0
mean_timeI,stdev_timeI
0.0,0.0
0.062479099999999996,0.0011888436445181131
0.15195419999999998,0.001772585544088381
0.26394510000000004,0.016595160890720183
0.3938718,0.05769786842548385
0.5510203,0.10288672357722134
mean_timeC,stdev_timeC
0.1629203,0.0009120833356174816
0.2324774,0.0065648717546922045
0.2758768,0.030387647701729803
0.277941,0.052521105613732924
0.3955434,0.07004409496754328
