mean_accFULL,stdev_accFULL, mean_timeFULL, stdev_timeFULL
96.6154,0.0,0.11495219999999999,0.029990479118102358
mean_accI,stdev_accI
50.0,0.0
73.1538,0.0
81.8462,0.0
85.6923,0.0
87.3077,0.0
89.2308,0.0
90.6154,0.0
91.6154,0.0
92.3077,0.0
92.1538,0.0
93.1538,0.0
93.8462,0.0
94.5385,0.0
94.9231,0.0
95.0769,0.0
95.6923,0.0
95.6923,0.0
96.0769,0.0
96.2308,0.0
96.6154,0.0
96.7692,0.0
mean_timeI,stdev_timeI
0.0,0.0
0.003279,0.0006962636792990937
0.0060447,0.00015665960977014252
0.0092137,0.00023811204178798763
0.0129396,0.0006586241889136949
0.0169344,0.00040188008161639406
0.020290700000000002,0.00313257941461807
0.024474299999999997,0.0035663646305135114
0.028432699999999998,0.00392966818078971
0.0328969,0.004117992052498941
0.0377007,0.0026426945865494515
0.046464700000000005,0.002860949261657358
0.050745,0.004304926557639128
0.0551951,0.008737819451480253
0.065474,0.007295267232939448
0.0681114,0.014472453237482273
0.0738956,0.012163976699893648
0.079888,0.014172358276275375
0.0794246,0.020526205657917178
0.091387,0.02612741247553356
0.1041328,0.024162927493717862
mean_timeC,stdev_timeC
0.0281456,0.006068072624629486
0.0352569,0.005104104980851742
0.0418091,0.0012109170491821472
0.0465569,0.0016320926886805305
0.050662799999999994,0.007361554693888453
0.052938299999999994,0.010334706844737623
0.0568894,0.010595368361275182
0.06573419999999999,0.008414159888082839
0.0706964,0.009193801960499742
0.0774387,0.006546378338015945
0.0804318,0.006530741166037571
0.0890995,0.008473454578859792
0.09008150000000001,0.007892205426875304
0.0996359,0.012871820854098307
0.0962388,0.019354728740600378
0.1034981,0.016870877323232347
0.09283250000000001,0.022458505294332385
0.1059002,0.025690481716862463
0.1057685,0.03156368907199114
0.11296220000000001,0.027834572031518248
