mean_accFULL,stdev_accFULL, mean_timeFULL, stdev_timeFULL
96.6154,0.0,0.1136516,0.022885741146447987
mean_accI,stdev_accI
50.0,0.0
73.6154,0.0
79.7692,0.0
84.3077,0.0
86.6923,0.0
89.0769,0.0
90.8462,0.0
91.9231,0.0
92.2308,0.0
92.7692,0.0
93.3077,0.0
93.6154,0.0
94.6923,0.0
95.0,0.0
95.4615,0.0
95.8462,0.0
95.5385,0.0
96.0769,0.0
95.8462,0.0
96.3846,0.0
96.7692,0.0
mean_timeI,stdev_timeI
0.0,0.0
0.0033222,0.0005818487394121909
0.0055382,0.00020934968089034392
0.008631,0.0006266927299544635
0.0120683,0.0004977185840300612
0.0164884,0.0005170414124828131
0.0210556,0.00013489848034725993
0.0254172,0.0016908643943261681
0.0293002,0.0009738642159516445
0.0339014,0.001961218850046516
0.037145,0.003946918544890431
0.0398963,0.007233950542791647
0.050116400000000005,0.007985346443468952
0.05224179999999999,0.00901042677247988
0.061767300000000004,0.011243587150509889
0.0680647,0.008581953223026925
0.0782467,0.00960643427951634
0.0812991,0.008897280139333469
0.080905,0.018309615822172665
0.086602,0.021556107765549885
0.1001819,0.018125367781402703
mean_timeC,stdev_timeC
0.0329917,0.0006914156251247626
0.037339699999999997,0.0010420691009290653
0.0422625,0.001608859240441984
0.0488033,0.003057461548772482
0.054182600000000004,0.002824343274698267
0.0603953,0.001977136540555558
0.0635835,0.0016510201055374497
0.0684462,0.0019744453961105684
0.071544,0.005790111647359562
0.072937,0.009909585550252733
0.0753564,0.014464173788287314
0.0834997,0.01302125827722583
0.0884525,0.01657076560458877
0.0937068,0.017188392192924205
0.0936034,0.016671636193780676
0.1018516,0.014515142309556136
0.1079245,0.014372352836454981
0.10809850000000001,0.023051185938399492
0.1055945,0.026053186686085063
0.11155820000000001,0.023380635372033838
