mean_accFULL,stdev_accFULL, mean_timeFULL, stdev_timeFULL
91.0433,0.0,0.2218127,0.07548389416594481
mean_accI,stdev_accI
49.2357,0.0
83.5695,0.0
89.4794,0.0
90.3319,0.0
90.9112,0.0
90.867,0.0
90.9994,0.0
91.2974,0.0
90.9027,0.0
90.9221,0.0
90.9303,0.0
91.4849,0.0
91.5925,0.0
91.3496,0.0
91.2586,0.0
91.5069,0.0
91.4158,0.0
91.2144,0.0
91.4296,0.0
91.5234,0.0
91.2089,0.0
mean_timeI,stdev_timeI
0.127617,0.03820609150675089
0.0140296,0.004293884001952337
0.0236895,0.008243772332966127
0.0331287,0.009016736993564308
0.0453403,0.010090737964974502
0.0533725,0.016708547820734686
0.0787716,0.007502505554813006
0.08768000000000001,0.01057884407674109
0.0985024,0.01638540430586522
0.11294299999999999,0.01935760176835504
0.1323097,0.0231478784199426
0.1444451,0.033586247216680826
0.17236869999999999,0.026653474128567594
0.18481140000000001,0.03691037283053219
0.1929229,0.05523523703910998
0.23347990000000002,0.04879863210389315
0.2474358,0.05878661957887281
0.2341405,0.07411858990871019
0.24221560000000003,0.0940900177716354
0.2458459,0.10081552781574209
0.2822633,0.11633727411286165
mean_timeC,stdev_timeC
0.0780737,0.02278566406049597
0.10308189999999999,0.029970873369730894
0.1114496,0.030335485081922717
0.1259527,0.028748452128573614
0.1279587,0.038843213558698596
0.16594420000000001,0.015672823058473617
0.161077,0.02957355946712461
0.1714561,0.030772120352502343
0.186951,0.03279847077058455
0.1947244,0.0325805048327302
0.1947254,0.04627385233152736
0.220424,0.03233585764716591
0.23377309999999998,0.04272392007464254
0.20762969999999997,0.06410294346864615
0.2071596,0.06664437930821906
0.23128410000000002,0.06309202083280156
0.20724360000000003,0.06409267083979087
0.2284125,0.08637611756762141
0.2178096,0.08272396156858061
0.238396,0.08174669271869318
