mean_accFULL,stdev_accFULL, mean_timeFULL, stdev_timeFULL
96.6154,0.0,0.12165390000000001,0.014469312657022334
mean_accI,stdev_accI
50.0,0.0
71.5385,0.0
79.6923,0.0
84.4615,0.0
87.2308,0.0
89.7692,0.0
91.3846,0.0
91.7692,0.0
92.3077,0.0
92.6923,0.0
93.1538,0.0
93.8462,0.0
94.8462,0.0
95.1538,0.0
95.5385,0.0
96.0,0.0
95.5385,0.0
96.0,0.0
95.9231,0.0
96.4615,0.0
96.7692,0.0
mean_timeI,stdev_timeI
0.0,0.0
0.0033278,0.0007539289385906635
0.0064137,0.0011514944926775234
0.0091144,0.0003760369958158669
0.0128516,0.00012464099557440064
0.016888300000000002,0.00036023018875281585
0.0209641,0.00031279970517178506
0.025554300000000002,0.001049269168940405
0.027945900000000003,0.005010597756533424
0.0324667,0.00620441357332737
0.0379081,0.0029937068233954448
0.043114799999999995,0.0036003003516682074
0.0505973,0.00470849610456106
0.05743089999999999,0.00492859969858467
0.061892499999999996,0.011152756622368202
0.0694704,0.011663945113039583
0.07742489999999999,0.006880241863481254
0.0831822,0.00838357666711132
0.0925321,0.013111885722927543
0.1005805,0.015369141921034135
0.105012,0.014497236472284411
mean_timeC,stdev_timeC
0.031027100000000002,0.006995899822197444
0.0373048,2.561162930302398e-05
0.0394353,0.008918989778992786
0.0488104,0.000769810972468784
0.05447490000000001,0.0012888229298256787
0.059019199999999994,0.0010147536975378133
0.0640097,0.0006669604436046651
0.0644092,0.011399253843027526
0.0681508,0.012417151487626567
0.0745615,0.006013525075472232
0.0797938,0.007062783820059117
0.0870325,0.007106470826726238
0.0903686,0.008130754293285325
0.0928766,0.016511136431713796
0.1006496,0.009667438316327654
0.1072987,0.011223922784738752
0.1117224,0.013714329263786677
0.11580649999999999,0.017870138364508167
0.1225981,0.010260430351056865
0.1175572,0.01765336020768347
