mean_accFULL,stdev_accFULL, mean_timeFULL, stdev_timeFULL
96.6154,0.0,0.125927,0.016324795462390605
mean_accI,stdev_accI
50.0,0.0
72.5385,0.0
79.7692,0.0
85.6923,0.0
89.0769,0.0
92.0,0.0
92.3077,0.0
93.0769,0.0
93.2308,0.0
93.3846,0.0
93.4615,0.0
94.0,0.0
95.2308,0.0
95.6923,0.0
95.5385,0.0
96.0,0.0
95.4615,0.0
95.8462,0.0
95.8462,0.0
96.6154,0.0
96.7692,0.0
mean_timeI,stdev_timeI
0.0,0.0
0.004843999999999999,0.0010887140222401023
0.007438999999999999,0.0015331689042270879
0.010927500000000001,0.00221097310149978
0.014274599999999998,0.0010635316638445702
0.0174564,0.002779746838992517
0.02003,0.004627181191371025
0.0234505,0.00530569966587296
0.0285587,0.005315662476744237
0.0325284,0.005945524445608927
0.0372669,0.00365640362013459
0.042001899999999995,0.007413116460406889
0.0470039,0.01065383508883069
0.0508362,0.01346513421808751
0.0560221,0.013850651476454898
0.0642524,0.014343837361970703
0.0755822,0.013634538355873211
0.08434470000000001,0.005146697583024585
0.0963556,0.006824786267715642
0.0945482,0.023074181472421122
0.1046438,0.018930604720047022
mean_timeC,stdev_timeC
0.0361834,0.00836120010259027
0.0388072,0.001990191325252704
0.0462778,0.006965010517659765
0.050390000000000004,0.0018567607995287573
0.053705,0.009146443984169781
0.05306690000000001,0.012041237020708832
0.056391000000000004,0.014413433386948442
0.06416960000000001,0.011889048781687008
0.071296,0.008519008771238849
0.07614570000000001,0.004455561569544292
0.0744422,0.016573228772799688
0.0812683,0.01901251435853063
0.0847906,0.019062420262565473
0.085198,0.021030549604484108
0.09404019999999999,0.02033206830928259
0.10702039999999999,0.01693210621669181
0.1134471,0.007926553972425707
0.1133448,0.023704802123901678
0.1197378,0.021372989973328486
0.1226656,0.020818686073386626
