mean_accFULL,stdev_accFULL, mean_timeFULL, stdev_timeFULL
80.976158,0.0,0.41602449999999996,0.09638767422728096
mean_accI,stdev_accI
50.0,0.0
50.0,0.0
50.0,0.0
50.0,0.0
50.0,0.0
50.0,0.0
50.0,0.0
50.0,0.0
50.0,0.0
50.0,0.0
50.0,0.0
58.041359,0.0
61.51012000000001,0.0
65.192459,0.0
69.508759,0.0
71.624184,0.0
73.760971,0.0
75.961838,0.0
78.469002,0.0
80.278137,0.0
80.976158,0.0
mean_timeI,stdev_timeI
0.2224862,0.018292842861500663
0.2336417,0.039437097642391936
0.2556838,0.048357136912766045
0.2818091,0.020876291903869217
0.29764,0.014566456886361281
0.3125198,0.023055289596966677
0.3330827,0.03600971216537745
0.3398749,0.03942234808512101
0.35998830000000004,0.0452670093876324
0.37669769999999997,0.04711619678588953
0.4033277,0.06628426290866063
0.373971,0.07466177453913973
0.4172716,0.06361530434346055
0.4115138,0.06964829155087407
0.4086855,0.07501079490202282
0.3833077,0.07036807879374157
0.393605,0.08617166489952224
0.3939355,0.10350965162539728
0.390458,0.08776371827304898
0.39551959999999997,0.09219755756972212
0.4034224,0.0932893121354805
