mean_accFULL,stdev_accFULL, mean_timeFULL, stdev_timeFULL
94.92308,0.0,0.10764499999999999,0.0020926345436634024
mean_accI,stdev_accI
50.0,0.0
53.84615699999999,0.0
53.84615699999999,0.0
53.84615699999999,0.0
53.84615699999999,0.0
53.84615699999999,0.0
53.84615699999999,0.0
53.84615699999999,0.0
53.84615699999999,0.0
53.84615699999999,0.0
53.84615699999999,0.0
55.615382999999994,0.0
56.153847,0.0
57.53846,0.0
57.53846,0.0
57.615382999999994,0.0
57.69230700000001,0.0
57.69230700000001,0.0
57.69230700000001,0.0
57.69230700000001,0.0
57.69230700000001,0.0
59.53846,0.0
60.076923,0.0
60.692303,0.0
61.076919999999994,0.0
61.30769299999999,0.0
61.384617000000006,0.0
61.384617000000006,0.0
61.461536,0.0
61.538464,0.0
61.538464,0.0
63.923080000000006,0.0
64.846153,0.0
64.846153,0.0
64.846153,0.0
64.615387,0.0
64.692307,0.0
64.692307,0.0
64.615387,0.0
64.615387,0.0
64.615387,0.0
64.692307,0.0
64.692307,0.0
64.692307,0.0
64.846153,0.0
64.92308,0.0
64.92308,0.0
64.92308,0.0
64.92308,0.0
64.92308,0.0
64.92308,0.0
68.0,0.0
68.46154,0.0
68.615379,0.0
68.769226,0.0
68.769226,0.0
68.769226,0.0
68.769226,0.0
68.769226,0.0
68.769226,0.0
68.769226,0.0
71.53846,0.0
72.153847,0.0
72.07692,0.0
72.307693,0.0
72.307693,0.0
72.307693,0.0
72.307693,0.0
72.307693,0.0
72.307693,0.0
72.307693,0.0
74.0,0.0
74.384613,0.0
75.230774,0.0
75.230774,0.0
75.307693,0.0
76.0,0.0
76.076927,0.0
76.076927,0.0
76.076927,0.0
76.076927,0.0
76.692307,0.0
77.46154,0.0
78.0,0.0
78.153839,0.0
78.07692,0.0
78.230766,0.0
78.230766,0.0
78.230766,0.0
78.46154,0.0
78.53846,0.0
80.46154,0.0
80.769226,0.0
81.384621,0.0
81.46154,0.0
81.692307,0.0
81.769234,0.0
81.769234,0.0
82.0,0.0
82.0,0.0
82.076927,0.0
84.692307,0.0
85.07692,0.0
85.07692,0.0
85.384613,0.0
85.615387,0.0
85.615387,0.0
85.692307,0.0
85.692307,0.0
85.692307,0.0
85.846153,0.0
87.0,0.0
88.0,0.0
88.230774,0.0
88.384613,0.0
88.384613,0.0
88.230774,0.0
88.307693,0.0
88.307693,0.0
88.307693,0.0
88.53846,0.0
91.692307,0.0
91.769234,0.0
92.0,0.0
91.769234,0.0
91.846153,0.0
91.769234,0.0
91.692307,0.0
91.692307,0.0
91.692307,0.0
91.692314,0.0
94.53846,0.0
95.0,0.0
95.0,0.0
95.076927,0.0
95.0,0.0
95.0,0.0
95.0,0.0
95.0,0.0
95.0,0.0
94.92308,0.0
mean_timeI,stdev_timeI
0.0039535,3.042750948292238e-05
0.0047116,3.902762554339642e-05
0.0054421999999999995,9.37846232361978e-06
0.0062107,2.8612545810846196e-05
0.006960900000000001,2.907633631208247e-05
0.0077269,3.8985609880798214e-05
0.0084864,6.528263338915066e-05
0.009286800000000001,0.00012116086643613767
0.0099849,3.104638107377054e-05
0.010791199999999999,0.00021184784896503234
0.0114953,4.028799104227238e-05
0.012284,3.611094017053546e-05
0.0131022,0.0001492260030959753
0.0139154,0.00020950534334209447
0.0145904,0.0002478140880220943
0.0155381,0.0004215554398758115
0.0161696,0.00022487142005055938
0.0170718,0.0006577287181404398
0.017784,0.0005559964028660618
0.0185061,0.00023301285133848053
0.0192841,0.00030506299895813864
0.0200551,0.00032740645822721515
0.0207171,0.0002544508029288006
0.0216579,0.0003771375964640312
0.021435799999999998,0.003772900322622431
0.022326099999999998,0.004043829055899041
0.0234941,0.0013384032318816
0.0237169,0.004274890575597617
0.0241001,0.0041994256604657
0.0248921,0.0043102625197183626
0.0258465,0.004706278743456566
0.0265687,0.004740786926004772
0.027149299999999998,0.004814952752739233
0.0281105,0.00524012576715059
0.0286919,0.005010892633941471
0.029145300000000002,0.005063927133274245
0.030695,0.0059311636669750105
0.0307526,0.005382355457108595
0.0320246,0.005832507526308426
0.0325703,0.0058713274866554295
0.032691399999999995,0.005658424873093611
0.0335326,0.0060513120927980935
0.0336573,0.006036816766954069
0.0341114,0.0061363011334190564
0.0347362,0.006247880419256864
0.034639500000000004,0.0062321393553453576
0.0348655,0.006176067127765587
0.0349781,0.006004730476882372
0.0357834,0.0063356811472800615
0.036235699999999996,0.006359227854071593
0.037016,0.006943772525716038
0.0372655,0.006475338210815282
0.037942199999999995,0.0067119333826650375
0.0393053,0.007231011932410751
0.0400561,0.007261428715403662
0.0400009,0.007055379483454844
0.0408318,0.007116279096394251
0.0422983,0.0078026706261382075
0.0421131,0.007199349190494004
0.043635600000000004,0.008083812689566724
0.043728699999999995,0.007639014480502922
0.0442942,0.007703301482697749
0.0450753,0.007839010567525584
0.047344,0.009798756553767421
0.0463671,0.008030152377826408
0.0468162,0.008031883061344402
0.0449123,0.013071839911725426
0.0455958,0.0134969846410226
0.049732,0.009079136339248721
0.0499037,0.008613461932089533
0.0469961,0.013350302597069976
0.051497400000000006,0.008977553542029141
0.052631899999999995,0.009431471729740216
0.052490499999999995,0.009005413732860918
0.053899600000000006,0.009430237715867918
0.0550171,0.01004942989483041
0.0560207,0.009991002341551565
0.056827499999999996,0.010089898416513199
0.0573299,0.010213205737344829
0.057988399999999996,0.010677808703620381
0.057684900000000004,0.009761932020182617
0.058833199999999995,0.010196792510937502
0.05953660000000001,0.010274036307335324
0.0611008,0.011427776393021036
0.0611241,0.010590578857854959
0.0616082,0.010704182036319574
0.06298129999999999,0.010985846136936582
0.0636617,0.011305505168820286
0.06312670000000001,0.010789911729120966
0.065038,0.011451944230857337
0.06570820000000001,0.011763993915522247
0.0665373,0.011651352053636427
0.0664458,0.01144520003999736
0.06827849999999999,0.012547238662572558
0.0688128,0.012175968962582722
0.0704981,0.013339170917514576
0.06995979999999999,0.012305101027171167
0.07051579999999999,0.01220192249697654
0.07161340000000001,0.012768729234605402
0.0719583,0.012513345347623427
0.0726762,0.012705147459024456
0.0727497,0.012465610499378768
0.0742698,0.013094417069881346
0.0751405,0.013283627694354514
0.0753952,0.013026697217637323
0.0771346,0.013828841191911603
0.0766574,0.013405861331687884
0.0772253,0.013242524818427439
0.08335479999999999,0.0028608817521876
0.083748,0.0034786645905193767
0.0840299,0.0014723366500604086
0.08517179999999999,0.0024845454223168385
0.0804231,0.013771189704516374
0.08310429999999999,0.015456508086671237
0.08282310000000001,0.014675682020494539
0.0888169,0.0035204712263496142
0.0889015,0.002929812328081404
0.0891043,0.002147193002244765
0.0906805,0.0030116813041518495
0.0913099,0.002867763296058834
0.09138349999999999,0.00136126544476495
0.0928572,0.009472648835228484
0.0935681,0.00793411289517192
0.0928518,0.003996363341283616
0.09386950000000001,0.004310759362082018
0.0959473,0.002856134141340935
0.0958633,0.0010786441128668063
0.0971677,0.0027261444508071596
0.0973868,0.0028506419471955994
0.09335449999999999,0.01610620305106769
0.0938392,0.01620855713504444
0.094675,0.01625494504587587
0.10137199999999999,0.003581489572169036
0.10118350000000001,0.0012552049190824941
0.1026928,0.0032506590374534474
0.10335799999999999,0.0031400156050567637
0.1038902,0.00269629671133493
0.1009987,0.01773906091745934
0.1003266,0.017581346524086258
0.1016049,0.017699411173193808
0.100907,0.017196466413513887
