mean_accFULL,stdev_accFULL, mean_timeFULL, stdev_timeFULL
94.92308,0.0,0.1021917,0.012692580510326146
mean_accI,stdev_accI
50.0,0.0
53.84615699999999,0.0
53.76923000000001,0.0
53.69230700000001,0.0
53.69230700000001,0.0
53.69230700000001,0.0
53.615387,0.0
53.615387,0.0
53.46154,0.0
53.46154,0.0
53.46154,0.0
55.230766,0.0
55.769234,0.0
57.23076999999999,0.0
57.30769,0.0
57.30769,0.0
57.30769,0.0
57.30769,0.0
57.30769,0.0
57.30769,0.0
57.30769,0.0
57.30769,0.0
57.30769,0.0
57.30769,0.0
57.30769,0.0
57.53846,0.0
57.53846,0.0
57.69230700000001,0.0
57.69230700000001,0.0
57.69230700000001,0.0
57.69230700000001,0.0
61.384617000000006,0.0
61.538464,0.0
61.538464,0.0
61.538464,0.0
61.538464,0.0
61.538464,0.0
61.538464,0.0
61.538464,0.0
61.538464,0.0
61.538464,0.0
64.307693,0.0
64.53846,0.0
64.846153,0.0
64.846153,0.0
64.92308,0.0
64.92308,0.0
65.0,0.0
64.92308,0.0
64.92308,0.0
64.92308,0.0
68.0,0.0
68.46154,0.0
68.615379,0.0
68.769226,0.0
68.769226,0.0
68.769226,0.0
68.769226,0.0
68.769226,0.0
68.769226,0.0
68.769226,0.0
71.53846,0.0
72.153847,0.0
72.07692,0.0
72.307693,0.0
72.307693,0.0
72.307693,0.0
72.307693,0.0
72.307693,0.0
72.307693,0.0
72.307693,0.0
74.0,0.0
74.384613,0.0
75.230774,0.0
75.230774,0.0
75.307693,0.0
76.0,0.0
76.076927,0.0
76.076927,0.0
76.076927,0.0
76.076927,0.0
76.692307,0.0
77.46154,0.0
78.0,0.0
78.153839,0.0
78.07692,0.0
78.230766,0.0
78.230766,0.0
78.230766,0.0
78.46154,0.0
78.53846,0.0
80.46154,0.0
80.769226,0.0
81.384621,0.0
81.46154,0.0
81.692307,0.0
81.769234,0.0
81.769234,0.0
82.0,0.0
82.0,0.0
82.076927,0.0
84.692307,0.0
85.07692,0.0
85.07692,0.0
85.384613,0.0
85.615387,0.0
85.615387,0.0
85.692307,0.0
85.692307,0.0
85.692307,0.0
85.846153,0.0
87.0,0.0
88.0,0.0
88.230774,0.0
88.384613,0.0
88.384613,0.0
88.230774,0.0
88.307693,0.0
88.307693,0.0
88.307693,0.0
88.53846,0.0
91.692307,0.0
91.769234,0.0
92.0,0.0
91.769234,0.0
91.846153,0.0
91.769234,0.0
91.692307,0.0
91.692307,0.0
91.692307,0.0
91.692314,0.0
94.53846,0.0
95.0,0.0
95.0,0.0
95.076927,0.0
95.0,0.0
95.0,0.0
95.0,0.0
95.0,0.0
95.0,0.0
94.92308,0.0
mean_timeI,stdev_timeI
0.004018900000000001,0.00020980649815166992
0.0046762,5.827139568909795e-06
0.005480199999999999,9.431483917649913e-05
0.0064168,0.0006547855968007986
0.0070204,0.0002509122024400834
0.0078144,0.00026784000199123854
0.0084613,2.319985632139411e-05
0.0092433,7.129290131407034e-05
0.0100378,0.00013646472885776078
0.010760500000000001,7.475924320406426e-05
0.0116504,0.0004825771556042732
0.0123757,0.00017028802398028818
0.0134077,0.0008351573437915094
0.013179399999999999,0.003141171197004215
0.014591199999999999,0.0001249104568169626
0.015496099999999999,0.00016867816166363182
0.0164697,0.0006140472385013316
0.0171431,0.0007776269385480133
0.0180036,0.0005559978417224293
0.0188334,0.000620721479856751
0.019445200000000003,0.0006232124303424423
0.0197772,0.0003851942655624852
0.0199349,0.0003210183276180144
0.0202472,0.0003782159289200928
0.0206869,0.0003425588189558758
0.020699699999999998,0.0002295677338922975
0.0214009,0.0004677602543563908
0.0218124,0.0003731470368515761
0.022097600000000002,0.00030300099009739203
0.0224878,0.0003163664541845949
0.022865,0.00025604122931885653
0.0239497,0.0002940056877756699
0.0247383,0.0003435349084639484
0.0252615,0.0003548174021787671
0.0261519,0.0003896187452711522
0.0267209,0.00030457418362910097
0.027775300000000003,0.0003069730534681434
0.028606399999999997,0.00030998537599914787
0.029388400000000002,0.0005199532457613644
0.02989,0.0003635531445179493
0.030653599999999996,0.00034231798083068904
0.0313235,0.00037921446585159564
0.032079,0.0004133333333333329
0.032811999999999994,0.00046879111671522817
0.033828199999999996,0.0005945668451346175
0.0346689,0.0003880851710642913
0.0350451,0.00042830167198158617
0.036141,0.0014341149031913572
0.036962300000000003,0.0009115754433336211
0.0376077,0.0007246021207071735
0.0384353,0.0006678880561557869
0.039272800000000004,0.0006618127966258863
0.039682499999999996,0.0004999238275310878
0.0405446,0.0007658350852355726
0.042021600000000006,0.0013980343502376625
0.0423018,0.0011719627221982026
0.043080099999999996,0.0010241269940783717
0.0436519,0.0008079058594773143
0.0444263,0.0011587150018686888
0.0448498,0.00044623282413257546
0.0459639,0.0009309051091396065
0.046407500000000004,0.000338542382050526
0.047937,0.0010703430395075317
0.0482411,0.0006212586596758409
0.0491157,0.0009074248117000587
0.0495916,0.0006829708306769448
0.050403500000000004,0.0006086588626735923
0.0512277,0.0006452920183055817
0.0516051,0.00048156076113681196
0.0523541,0.000635669454634683
0.05350629999999999,0.0015710424741411542
0.0541083,0.0006403568536370963
0.055298599999999996,0.0010434881887208878
0.0558727,0.0006930626154171694
0.056618299999999996,0.0010050797701896329
0.056988300000000006,0.0010358998289195511
0.05781499999999999,0.0006705793515063419
0.058835700000000005,0.0008921781150022049
0.059777899999999995,0.000990992818675628
0.0604236,0.000845180217468441
0.0609699,0.0007719999208405256
0.06144619999999999,0.0006666432995904858
0.062370400000000006,0.0008209377023325906
0.06332869999999999,0.0008274938133370623
0.0650447,0.0033257446300707506
0.0650783,0.0008482051704105019
0.0659806,0.0009633683038635264
0.0661548,0.002214080436158041
0.0670442,0.0028862667082428677
0.06726220000000001,0.0016567622239376015
0.0680674,0.0003745765609324733
0.0694834,0.0009307253085631672
0.0711444,0.0026759806592890185
0.0710414,0.0010995239575986176
0.0723229,0.0023990383466899576
0.07233730000000001,0.0007258036235787208
0.07325519999999999,0.0009373589138282789
0.0738318,0.0007866148005500821
0.0746113,0.0009441969015459074
0.0755304,0.0014505237521514592
0.0761317,0.000932294427742653
0.0769696,0.001553409669082823
0.0783208,0.0012361097398244571
0.0791478,0.0016009728847728095
0.080301,0.0019854367557570595
0.08147889999999999,0.003121890041838972
0.0810576,0.0012157614166530453
0.08086789999999999,0.0007381340513604404
0.0821727,0.0009002987220300212
0.08319180000000001,0.0013249872787649264
0.084568,0.0016291878685747432
0.0840835,0.0009838113245039526
0.0853682,0.001446677173540955
0.0860621,0.001168668896175856
0.08748120000000001,0.0021152255881794007
0.0882281,0.0028109876654933163
0.09040129999999999,0.003882564016786386
0.089118,0.0015423502988765056
0.089898,0.0017454486847544685
0.0907659,0.0013137349174522739
0.09169859999999999,0.0027589201671829656
0.092411,0.0011040081521438174
0.09367650000000001,0.003046279160258008
0.096365,0.0054126489509912475
0.09547459999999999,0.0035699784997796414
0.0962547,0.0026805753549067274
0.09655319999999999,0.002546426245195847
0.09791849999999999,0.0033583676011485738
0.099496,0.004012111303430044
0.0999737,0.0041647147708123115
0.09978329999999999,0.003542773710903179
0.10128299999999998,0.003949963797302451
0.1027006,0.004745512013120045
0.1019682,0.003002029417281287
0.10253300000000001,0.003166429815703764
0.1042179,0.0038760177287176243
0.1040243,0.0034607192588953072
0.1052694,0.003399300816998171
0.10698669999999999,0.0041461193918061615
0.1072265,0.004085466959574852
0.106648,0.001522302787811207
