mean_accFULL,stdev_accFULL, mean_timeFULL, stdev_timeFULL
93.0,0.0,0.101499,0.01757395726636434
mean_accI,stdev_accI
50.0,0.0
52.23076999999999,0.0
53.615387,0.0
53.76923000000001,0.0
53.76923000000001,0.0
53.615387,0.0
53.615387,0.0
53.615387,0.0
53.615387,0.0
53.615387,0.0
53.615387,0.0
54.46154,0.0
55.153847,0.0
56.153847,0.0
56.461536,0.0
57.076919999999994,0.0
57.30769,0.0
57.384617000000006,0.0
57.461536,0.0
57.461536,0.0
57.461536,0.0
58.384617000000006,0.0
59.23076999999999,0.0
59.69230700000001,0.0
60.000004000000004,0.0
60.30769299999999,0.0
60.46154,0.0
60.84615699999999,0.0
60.84615699999999,0.0
61.0,0.0
61.076919999999994,0.0
64.692307,0.0
64.769234,0.0
64.769234,0.0
64.769234,0.0
64.769234,0.0
64.769234,0.0
64.692307,0.0
64.692307,0.0
64.692307,0.0
64.692307,0.0
65.153847,0.0
66.846153,0.0
67.230766,0.0
67.53846,0.0
67.769226,0.0
67.769226,0.0
68.0,0.0
68.0,0.0
68.153847,0.0
68.153847,0.0
70.153847,0.0
71.153847,0.0
71.692307,0.0
71.846161,0.0
71.846161,0.0
71.846161,0.0
71.846161,0.0
71.846161,0.0
71.92308,0.0
72.0,0.0
73.692307,0.0
74.46154,0.0
74.53846,0.0
75.076927,0.0
75.307693,0.0
75.230774,0.0
75.307693,0.0
75.307693,0.0
75.384613,0.0
75.307693,0.0
76.307693,0.0
77.307686,0.0
77.846153,0.0
77.769234,0.0
78.07692,0.0
78.230766,0.0
78.615387,0.0
78.692307,0.0
78.615387,0.0
78.615387,0.0
78.692307,0.0
79.307693,0.0
80.0,0.0
80.153847,0.0
80.307693,0.0
80.46154,0.0
80.692307,0.0
80.846153,0.0
80.769226,0.0
80.769234,0.0
81.53846,0.0
81.923073,0.0
82.92308,0.0
83.076927,0.0
83.230766,0.0
83.307686,0.0
83.53846,0.0
83.46154,0.0
83.92308,0.0
84.0,0.0
84.0,0.0
84.0,0.0
84.0,0.0
84.0,0.0
84.0,0.0
84.0,0.0
84.07692,0.0
84.307686,0.0
84.307686,0.0
84.307686,0.0
84.384613,0.0
85.0,0.0
85.923073,0.0
86.07692,0.0
86.307693,0.0
86.615387,0.0
86.384613,0.0
86.384613,0.0
86.538467,0.0
86.615387,0.0
89.692307,0.0
89.92308,0.0
89.846153,0.0
90.307693,0.0
90.307693,0.0
90.07692,0.0
89.92308,0.0
89.846153,0.0
89.846153,0.0
89.846153,0.0
91.615387,0.0
92.846153,0.0
93.07692,0.0
92.923073,0.0
92.923073,0.0
92.923073,0.0
93.0,0.0
93.07692,0.0
93.076927,0.0
93.0,0.0
mean_timeI,stdev_timeI
0.0042949,9.859569519563806e-06
0.0048694,0.0008342641734553338
0.0056172,0.0009721832017566328
0.0064034999999999995,0.0011083832319594559
0.0072139,0.0010982177936193814
0.007878699999999999,0.0013643793094297494
0.008620899999999999,0.0014846030857512801
0.0093932,0.0016263327389491298
0.0101628,0.0017827319733737007
0.010839699999999999,0.001885103890446831
0.011626599999999999,0.0020249599831437
0.0123626,0.002154288343436567
0.0130137,0.002235422905552027
0.0137533,0.0023811825750151027
0.0145514,0.0025166932537226965
0.014189000000000002,0.004125721566519539
0.015948300000000002,0.002766581446478668
0.0167852,0.0029352605335813036
0.0174248,0.0029864020269660054
0.018274099999999998,0.0031901665038399202
0.0192221,0.0033952011378807394
0.0196964,0.0034138112686230584
0.0204027,0.0035837286929180953
0.0211203,0.0036834763184916625
0.0219543,0.00385374277092341
0.022600600000000002,0.003944796324836613
0.0232236,0.003980526101465037
0.0241044,0.004232110169748525
0.0247269,0.004324219144667753
0.0255269,0.004460076916377115
0.0260665,0.004498730765449295
0.0267919,0.004655826205471544
0.027906999999999998,0.004879622366991573
0.028666999999999998,0.005015386591945497
0.0292354,0.005107696789051684
0.0304466,0.005412026755292328
0.031026599999999998,0.00550014893131692
0.031364,0.005453994153115882
0.0321674,0.005629162542806286
0.0332479,0.005990019540869628
0.0337693,0.005929988627495185
0.034010200000000004,0.005879428445388586
0.0349414,0.006067024516918395
0.0358454,0.006272430154608695
0.0365234,0.006425065122021895
0.0370338,0.006402782481945729
0.038164199999999995,0.0066833940279870776
0.038894,0.006814315829356768
0.0395994,0.006949152117744693
0.0399669,0.006900357308784009
0.0409027,0.007152524170606564
0.0415123,0.007192981796322178
0.042145100000000005,0.00732268084561021
0.0431414,0.007548867909237193
0.0438164,0.007475660954799323
0.0441197,0.00760853319270176
0.044766600000000004,0.00769061247669304
0.046183,0.008049196136537142
0.0466758,0.008101865392886038
0.0476957,0.008314924320494778
0.048342800000000005,0.008451797715410742
0.048825400000000005,0.008403645428555925
0.0496433,0.00851673621693715
0.050277300000000004,0.008726684861834864
0.0510799,0.008794093339029075
0.0515799,0.008922242237489659
0.0521697,0.008966386526602813
0.052812899999999996,0.009051587699281147
0.0540304,0.009422892410389593
0.05476689999999999,0.009505356167854931
0.0552961,0.009598321999761787
0.055832400000000004,0.009619355986759196
0.0565766,0.00978773551384021
0.0576675,0.01003557120391704
0.0579101,0.009948002987199658
0.059282800000000004,0.010413797373356817
0.0598507,0.010462923673089127
0.06042650000000001,0.010532412399087136
0.06476230000000001,0.0009006973902975894
0.0618158,0.010791117445998508
0.0624588,0.010825417916490184
0.06362949999999999,0.011107590050151392
0.06429660000000001,0.0112425792038818
0.06474260000000001,0.01114070968415687
0.0651415,0.01121156569747905
0.0665119,0.011613006993597023
0.066618,0.011477111793091114
0.06778500000000001,0.011746082618851654
0.068619,0.011976794312335835
0.0691558,0.01207285974407058
0.0701856,0.012289154045562108
0.0705364,0.012219628146733616
0.0716108,0.012473698478532072
0.0720915,0.012483039073078317
0.0727818,0.012620984948357504
0.0735684,0.012893893672760158
0.07445589999999999,0.01279297458633709
0.0744792,0.012753280648087725
0.07950660000000001,0.0011810883116854588
0.0766093,0.013332024261154044
0.07697129999999999,0.013413079164672733
0.0768897,0.013164903224103092
0.0776898,0.013435599575588562
0.0779668,0.01349427708162077
0.0775018,0.013254905329306918
0.0784513,0.013548481456934163
0.0792611,0.01373568620985335
0.07905419999999999,0.01363265503447105
0.0795697,0.013730931076709012
0.0810332,0.014220042536270181
0.08044,0.013932755362813201
0.0812538,0.014014458112170365
0.086275,0.0013581675563460924
0.0827073,0.01413766157035094
0.0835503,0.014471573515382185
0.0846903,0.014718118547106036
0.0860104,0.015296821414195099
0.08626110000000001,0.015035171775614078
0.08584270000000001,0.014730785043951701
0.0884165,0.01570683869635559
0.0877448,0.01520398989885367
0.0884614,0.015212509371493509
0.08961630000000001,0.015618078015556204
0.0901797,0.015731539799255366
0.0908157,0.01567429045035922
0.09132480000000001,0.015827862548191542
0.0915818,0.015681719419615804
0.093152,0.0161287662130603
0.09378109999999999,0.01621954768139016
0.0947534,0.016438177211736234
0.0950144,0.016434243661060617
0.0961534,0.016610003540035747
0.09686310000000001,0.01689057157410607
0.0975033,0.01691302017874592
0.0984097,0.01715158112601349
0.098171,0.016862438949728872
0.0994733,0.017299837353442246
0.100545,0.01753295827862486
0.1010562,0.017751307287070438
0.1083783,0.0036493347354156387
0.1022956,0.01759709774808208
