mean_accFULL,stdev_accFULL, mean_timeFULL, stdev_timeFULL
84.798309,0.0,0.0026482000000000003,0.00018068068826277786
mean_accI,stdev_accI
50.0,0.0
72.167542,0.0
72.706886,0.0
73.308907,0.0
73.108727,0.0
73.108727,0.0
73.108727,0.0
73.108727,0.0
73.644653,0.0
73.644653,0.0
73.644653,0.0
76.937256,0.0
79.585396,0.0
79.015915,0.0
82.026321,0.0
83.753731,0.0
83.453354,0.0
83.422089,0.0
83.65992,0.0
85.625168,0.0
85.625168,0.0
85.625168,0.0
84.848557,0.0
86.225349,0.0
86.763557,0.0
87.032661,0.0
87.032661,0.0
86.018776,0.0
84.798309,0.0
84.798309,0.0
84.798309,0.0
mean_timeI,stdev_timeI
0.0007354,6.734521347339971e-05
0.000738,8.791536333947049e-05
0.0008099,2.0442059039582534e-05
0.0008730999999999999,3.1067846901758594e-05
0.0009136999999999999,2.2241352876517604e-05
0.0010094000000000001,0.00011913969391712687
0.0011036000000000002,0.0001775200771117954
0.0010291,0.00023823072383254384
0.0010845,0.000222555486215111
0.0012025,0.0003053301491828149
0.0012204,0.0002790002787732578
0.0012802,0.0004488176566144528
0.0012848999999999998,0.00030574769918276663
0.0014133,0.0004287547991308993
0.001302,0.0004319410968073206
0.0013822,0.00047314827368266795
0.0015524,0.000400335192890491
0.0015955000000000001,0.0003258763398727942
0.0017430000000000002,0.0003038596167092078
0.0017421,0.0005291442672424558
0.0017861,0.000524980094860748
0.0020138,0.0006543393275324016
0.0019693,0.0003373060100923855
0.0019165999999999999,0.0005475320792225582
0.0019595999999999997,0.0005481772219516847
0.0021443,0.00035366369775693843
0.0022711,0.00040464921708671187
0.0023361,0.0004084027015908031
0.0023359,0.0003907984561552583
0.0025024,4.8399265375508415e-05
0.002626,0.00011338430226446691
