mean_accFULL,stdev_accFULL, mean_timeFULL, stdev_timeFULL
94.92308,0.0,0.1062951,0.0014707616658649278
mean_accI,stdev_accI
50.0,0.0
53.615387,0.0
53.615387,0.0
53.769237999999994,0.0
53.76923000000001,0.0
53.69230700000001,0.0
53.69230700000001,0.0
53.69230700000001,0.0
53.69230700000001,0.0
53.69230700000001,0.0
53.69230700000001,0.0
55.461536,0.0
56.0,0.0
57.384617000000006,0.0
57.461536,0.0
57.461536,0.0
57.538456,0.0
57.538456,0.0
57.538456,0.0
57.538456,0.0
57.538456,0.0
59.46154,0.0
60.000004000000004,0.0
60.615382999999994,0.0
60.923080000000006,0.0
61.153847,0.0
61.230766,0.0
61.230766,0.0
61.30769299999999,0.0
61.384617000000006,0.0
61.384617000000006,0.0
65.07692,0.0
65.230766,0.0
65.230766,0.0
65.230766,0.0
65.230766,0.0
65.230766,0.0
65.230766,0.0
65.230766,0.0
65.230766,0.0
65.230766,0.0
67.769226,0.0
68.230774,0.0
68.53846,0.0
68.53846,0.0
68.615379,0.0
68.615379,0.0
68.692307,0.0
68.615379,0.0
68.615379,0.0
68.615379,0.0
71.692307,0.0
72.153847,0.0
72.307686,0.0
72.46154,0.0
72.46154,0.0
72.46154,0.0
72.46154,0.0
72.46154,0.0
72.46154,0.0
72.46154,0.0
75.153847,0.0
75.769226,0.0
75.692307,0.0
75.846153,0.0
75.846153,0.0
75.846153,0.0
75.846153,0.0
75.846153,0.0
75.846153,0.0
75.846153,0.0
77.53846,0.0
77.92308,0.0
78.769234,0.0
78.769234,0.0
78.846153,0.0
79.53846,0.0
79.615387,0.0
79.615387,0.0
79.615387,0.0
79.615387,0.0
80.230766,0.0
81.0,0.0
81.53846,0.0
81.692307,0.0
81.615379,0.0
81.769234,0.0
81.769234,0.0
81.769234,0.0
82.0,0.0
82.076927,0.0
84.0,0.0
84.307693,0.0
84.92308,0.0
85.0,0.0
85.230766,0.0
85.307693,0.0
85.307693,0.0
85.538467,0.0
85.538467,0.0
85.615387,0.0
85.615387,0.0
85.615387,0.0
85.615387,0.0
85.692307,0.0
85.692307,0.0
85.692307,0.0
85.846153,0.0
85.846153,0.0
85.846153,0.0
85.846153,0.0
87.0,0.0
88.0,0.0
88.230774,0.0
88.384613,0.0
88.384613,0.0
88.230774,0.0
88.307693,0.0
88.307693,0.0
88.307693,0.0
88.53846,0.0
91.692307,0.0
91.769234,0.0
92.0,0.0
91.769234,0.0
91.846153,0.0
91.769234,0.0
91.692307,0.0
91.692307,0.0
91.692307,0.0
91.692314,0.0
94.53846,0.0
95.0,0.0
95.0,0.0
95.076927,0.0
95.0,0.0
95.0,0.0
95.0,0.0
95.0,0.0
95.0,0.0
94.92308,0.0
mean_timeI,stdev_timeI
0.0039241,9.218941852994246e-06
0.0046868,3.1467090392627386e-05
0.0054456,3.077589244125268e-05
0.006206,2.4129281427805107e-05
0.0071078,0.00047241525989089066
0.007943500000000001,0.0006943121696246501
0.0085221,0.00012939727800674787
0.0092164,3.422215007207376e-05
0.010015399999999999,0.00013489600933064432
0.010819,0.000183950476427156
0.0115665,0.0001269499026300447
0.0123238,0.0001543270697073082
0.0131679,0.0004133627543292533
0.0138573,0.00010291857623059757
0.0146785,0.00014269100259729854
0.0154094,0.0001629786625434273
0.0165266,0.0007248118836406216
0.0170599,0.00028444153861362947
0.0177411,0.0002878137708079078
0.018603500000000002,0.0002006114265051837
0.0195325,0.000753963784865618
0.0201576,0.0006352207315396571
0.0207578,0.0002677979337734574
0.0217722,0.0008692714446273071
0.0223913,0.00031937301423605284
0.0230287,0.0003336132324846966
0.0237738,0.00031666168417132824
0.0245664,0.0003057635978624302
0.025298599999999997,0.00032087560760449827
0.026309700000000002,0.00041399115664199614
0.0267302,0.0002362906872665298
0.0274094,0.000152529195748078
0.0283981,0.0003058879424451596
0.0292504,0.0003746726571288596
0.0297771,0.00034715140788998646
0.0309475,0.0003202801724879163
0.0314276,0.00042503730555224314
0.0322675,0.0005391751416129407
0.0329992,0.0005089321718613951
0.0338319,0.0004309664720137744
0.0344263,0.00040421612755774344
0.0351435,0.0004088863601974942
0.0357914,0.00030180206905998624
0.0365037,0.00047231934818157457
0.037341,0.00033189154855163083
0.0384079,0.000806534486415663
0.039635,0.0020685040756815327
0.0400557,0.0012132047596712149
0.0406076,0.0005293976031511874
0.0416253,0.0005723190737885828
0.042128,0.0006579439354703579
0.0429043,0.0005789684408977371
0.043502200000000005,0.0005109863664195617
0.0443511,0.0006062251965143699
0.044823299999999996,0.0004793977819445278
0.0461802,0.0012152405157462088
0.0463876,0.0004960853869155096
0.0475208,0.0005156333322559085
0.0483713,0.0009171535737147721
0.0489143,0.0010081978476469788
0.0494434,0.0006039321521863563
0.050539,0.001054129024360871
0.051411200000000004,0.0015539134682042849
0.0520185,0.0015425749936748983
0.053223,0.0014942273365633927
0.050841000000000004,0.008322029960692683
0.054393800000000006,0.0007533101471358118
0.054841799999999996,0.0007014746055433666
0.055562299999999995,0.00047516758447239694
0.056371899999999996,0.0007187619680163015
0.0573522,0.0010857605424565557
0.0581476,0.0008712535286075519
0.058315700000000005,0.00045812493443989354
0.0593354,0.000632132581030277
0.0601469,0.0007327433156751876
0.060889000000000006,0.000645138572539092
0.062097599999999996,0.0014045165399920049
0.0622735,0.000751646378144524
0.0631433,0.0011244160015067583
0.0644383,0.0014819721132478996
0.0650357,0.000897977981665229
0.06555649999999999,0.0008344631341300958
0.06576309999999999,0.00022399823908038187
0.0669206,0.0007922010407017203
0.0677543,0.0012752806270691093
0.06823989999999999,0.0005066154469724671
0.06918969999999999,0.0006344145244939529
0.0705761,0.0021459451919065087
0.0715541,0.002348043225515426
0.0726791,0.0026231154272056815
0.0730287,0.0023759697458792133
0.0733043,0.00199620345489465
0.07363990000000001,0.0008721700203770154
0.074505,0.0008991968020900029
0.0755162,0.0014981814012699245
0.076807,0.0026541170534347836
0.0766068,0.0006942320777505017
0.0771941,0.0005983422376310516
0.0783703,0.0010776631147482456
0.0792176,0.0015549094435939926
0.079959,0.0012307719348260925
0.08014879999999999,0.0007012475866466703
0.08049310000000001,0.0010875528543988636
0.0813275,0.0019141760194228035
0.0809516,0.0008415703839317954
0.0811181,0.0005190248227846772
0.0823594,0.0011256248832438706
0.08214859999999999,0.0011510195673594995
0.0824855,0.000913557667096669
0.0834509,0.0009242387197640608
0.0831745,0.0004933928455095407
0.0846213,0.0012692277660933133
0.0853556,0.0010958318200243063
0.0858087,0.0011135329212316383
0.08689329999999999,0.001220101366462824
0.0871369,0.0009449000476240854
0.08821609999999999,0.0008621929985024628
0.0895716,0.0015052011456575807
0.0892311,0.0003544985347094015
0.0899793,0.0009477550140551455
0.0915691,0.0011286295967529224
0.0924913,0.0015331753578041157
0.09281360000000001,0.001300066511119077
0.0934779,0.0009508004171924488
0.0942169,0.0011133021402815833
0.0953229,0.0018399489395089196
0.0959431,0.0013673076098669225
0.0965327,0.0010735994545867141
0.09765270000000001,0.0012194605410225912
0.0985779,0.00168000922285828
0.09918099999999999,0.0017171119163681022
0.1013001,0.004817819203517062
0.1013411,0.003278848288652587
0.1024386,0.0038551200067788644
0.10195669999999998,0.0014282734759919833
0.10336000000000001,0.0037455491215871452
0.1036807,0.00171196618930788
0.105433,0.00393030168477349
0.10471840000000002,0.0013108809760360928
0.10522469999999999,0.0014190954904836801
0.1067242,0.0015682383463973557
