mean_accFULL,stdev_accFULL, mean_timeFULL, stdev_timeFULL
84.202896,0.0,0.2132987,0.028502381810999587
mean_accI,stdev_accI
50.0,0.0
50.36232,0.0
50.289852,0.0
50.289852,0.0
50.724636,0.0
50.942028,0.0
50.942028,0.0
50.942028,0.0
51.014488,0.0
51.014488,0.0
51.66666399999999,0.0
51.66667199999999,0.0
51.66666399999999,0.0
51.739132,0.0
52.10145200000001,0.0
52.24638,0.0
52.971016,0.0
52.971016,0.0
52.971016,0.0
53.55072800000001,0.0
53.55072800000001,0.0
53.478264,0.0
54.13043600000001,0.0
54.13043600000001,0.0
54.13043600000001,0.0
54.710144,0.0
54.78261199999999,0.0
54.78261199999999,0.0
54.92754,0.0
55.0,0.0
55.36232,0.0
56.086956,0.0
56.086956,0.0
56.086956,0.0
56.811595999999994,0.0
56.811595999999994,0.0
56.811595999999994,0.0
57.028984,0.0
56.956516,0.0
57.10144799999999,0.0
57.318844,0.0
57.391304000000005,0.0
57.318844,0.0
57.318844,0.0
57.46377199999999,0.0
57.391304000000005,0.0
58.11594,0.0
58.11594,0.0
58.11594,0.0
58.69564799999999,0.0
58.84058,0.0
58.84058,0.0
58.91304,0.0
59.202895999999996,0.0
59.420292,0.0
60.07246399999999,0.0
60.07246399999999,0.0
60.07246399999999,0.0
60.36232,0.0
60.579711999999994,0.0
60.65217199999999,0.0
61.15942,0.0
61.15942,0.0
61.231888000000005,0.0
61.231888000000005,0.0
61.231888000000005,0.0
61.44927199999999,0.0
62.173916,0.0
62.173916,0.0
62.173916,0.0
62.89855200000001,0.0
62.89855200000001,0.0
62.89855200000001,0.0
63.55072800000001,0.0
63.47826,0.0
63.55072800000001,0.0
63.623192,0.0
63.913048,0.0
64.057968,0.0
64.49276,0.0
64.420288,0.0
64.565216,0.0
65.072464,0.0
65.072464,0.0
65.072464,0.0
65.217392,0.0
65.217392,0.0
65.507248,0.0
66.159424,0.0
66.231888,0.0
66.231888,0.0
66.231888,0.0
66.594208,0.0
66.739128,0.0
66.739128,0.0
66.884056,0.0
66.95652,0.0
67.246376,0.0
67.17392,0.0
67.31884,0.0
67.31884,0.0
67.391296,0.0
67.391296,0.0
68.115944,0.0
68.115944,0.0
68.115944,0.0
68.260864,0.0
68.768112,0.0
68.695656,0.0
69.202896,0.0
69.420288,0.0
69.420288,0.0
69.420288,0.0
69.420288,0.0
69.420288,0.0
69.63768,0.0
69.710144,0.0
69.782608,0.0
70.507248,0.0
70.507248,0.0
70.507248,0.0
70.579712,0.0
70.652176,0.0
70.72464,0.0
71.44928,0.0
71.44928,0.0
71.449272,0.0
71.666672,0.0
71.95652,0.0
71.95652,0.0
72.028992,0.0
72.028992,0.0
72.246376,0.0
72.68116,0.0
72.826088,0.0
72.826088,0.0
73.550728,0.0
73.550728,0.0
73.333336,0.0
74.057976,0.0
73.985512,0.0
73.91304,0.0
73.91304,0.0
74.130432,0.0
74.202896,0.0
74.855072,0.0
74.855072,0.0
74.855072,0.0
74.855072,0.0
75.0,0.0
75.0,0.0
75.507248,0.0
75.652168,0.0
75.579712,0.0
75.579712,0.0
75.652176,0.0
75.72464,0.0
75.72464,0.0
76.014488,0.0
76.231888,0.0
76.449272,0.0
76.811592,0.0
76.95652,0.0
76.95652,0.0
77.028984,0.0
77.101448,0.0
77.101448,0.0
77.463768,0.0
77.68116,0.0
77.971016,0.0
78.115936,0.0
78.260872,0.0
78.76812,0.0
78.840584,0.0
78.840584,0.0
79.565224,0.0
79.565224,0.0
79.565224,0.0
79.565224,0.0
79.855072,0.0
79.927536,0.0
79.927536,0.0
80.217392,0.0
80.217392,0.0
80.72464,0.0
80.869568,0.0
80.797104,0.0
80.942032,0.0
80.869568,0.0
80.869568,0.0
81.231888,0.0
81.231888,0.0
81.376816,0.0
82.101456,0.0
82.101456,0.0
82.101456,0.0
82.608704,0.0
82.608704,0.0
82.608704,0.0
82.68116,0.0
82.971016,0.0
83.115944,0.0
83.478264,0.0
83.695656,0.0
83.76812,0.0
83.76812,0.0
83.695656,0.0
83.695656,0.0
83.76812,0.0
84.13044,0.0
84.202896,0.0
mean_timeI,stdev_timeI
0.0022507,8.932462644136195e-06
0.0033937000000000004,2.171558580067937e-05
0.0045593000000000005,4.203979596102294e-05
0.005898,0.0005659253975176901
0.0069681,0.0006659485215340095
0.008083,0.0008008236038257391
0.0094263,0.0009043078445848947
0.0100902,4.702670636044048e-05
0.0108731,0.00026951415134975325
0.0115585,0.000146216924085035
0.012631100000000001,5.175036231757236e-05
0.0137325,3.4641818017470624e-05
0.0152492,8.365112737501581e-05
0.0163909,0.00015468710353484514
0.0173906,9.121915003623625e-05
0.0188442,7.711002240665966e-05
0.0199631,0.0001281088512858416
0.0209812,0.00013088824749890037
0.0223609,9.206090978863479e-05
0.0234304,8.044211169116177e-05
0.0245716,0.00018097832896663484
0.0261051,0.00044840469072776954
0.0270742,0.00011402611786584494
0.028158100000000002,0.00012325082825955655
0.0296458,0.00019836823222369972
0.030637199999999996,0.0001551771747247496
0.0317968,0.00031578607386084114
0.0332492,0.000294699017831941
0.0341715,0.00015871725384049163
0.0357394,0.000794458613704257
0.0372161,0.0013334291173928636
0.0380297,0.0008150336121221556
0.0388008,0.0001502122942149981
0.0403655,0.00028978277304828726
0.0413224,0.0001544331570615586
0.0424401,0.00022079173193054237
0.0438897,0.00029863766600272506
0.045075699999999996,0.00033397273674491446
0.0461505,0.00032466812114663847
0.0475734,0.00039171650746709944
0.0484745,0.00022984837997640405
0.0497753,0.0003778594829945232
0.051452,0.001329022865784399
0.0520601,0.00025634891586793715
0.0535047,0.0014459495188667943
0.0545009,0.00018603371856855476
0.0554926,0.00020128376873348493
0.0565144,0.00010355159744462353
0.0581074,0.0003165309182721692
0.0593494,0.0004888710804837337
0.0607448,0.001050352512254816
0.061753,0.00032254026449766326
0.0627843,0.00034497441128936737
0.064567,0.0014329848413558168
0.0654289,0.0006700944294981428
0.066459,0.0005773600840607741
0.0703874,0.00915799351143882
0.0689343,0.00045967719349802497
0.0701024,0.0006187150124788208
0.0709745,0.000294564179009526
0.0724762,0.0005313623580529158
0.0737646,0.0005937871298332051
0.07468620000000001,0.0005332789138902828
0.0761537,0.0004709826724814611
0.0772058,0.0003584682846656173
0.0783246,0.0006480610739394532
0.07940889999999999,0.0003507843433728988
0.0806354,0.0004102227579146602
0.08193929999999999,0.0009889244494230424
0.0833614,0.0005944026319666564
0.0843672,0.000604741230242785
0.08533189999999999,0.000524785554086411
0.0865851,0.0003910667604273119
0.0877367,0.0005718251578158403
0.0887164,0.0004495146024077271
0.09024,0.0003586239131891678
0.0913243,0.0005120555633913181
0.0924113,0.0005035765527151224
0.0946037,0.0023865811460469263
0.09558789999999999,0.0023703520812083777
0.0959325,0.0003798392203726891
0.097714,0.0006986499679938284
0.0990037,0.0008431308123100864
0.0996172,0.0005406057918874171
0.101163,0.0008291460131431084
0.1019847,0.0005933930775164513
0.10417049999999999,0.002898266579641468
0.1045092,0.0005332609950942293
0.1063048,0.002149007305711172
0.10705,0.0007904694807517854
0.1087879,0.0021946773212580587
0.10919110000000001,0.000618948113064953
0.1104444,0.0005550013413397218
0.1115881,0.0006623772758447823
0.1129845,0.0009056878601372551
0.11399060000000001,0.0005585427865834847
0.11563140000000001,0.0010684929365960038
0.117336,0.002799748639511133
0.11757569999999999,0.0007847595597803632
0.11901969999999999,0.0007931372376693552
0.1197861,0.0007871953661223164
0.12129380000000001,0.0010901995535986374
0.1224631,0.0006488107839218856
0.12364440000000002,0.0004729224037831149
0.12445310000000001,0.0005195315090433745
0.1265357,0.0014190397418285636
0.1272978,0.0009089821902667949
0.1278479,0.0005882334098335873
0.1294411,0.0009397591239839607
0.1305611,0.0010525793134539114
0.1320438,0.0011275666819404657
0.13315749999999998,0.0006119797109926668
0.13407260000000001,0.000605949979600444
0.13559079999999998,0.0011812720826860064
0.1367339,0.0007767501314236551
0.136588,0.003606590510594608
0.1378584,0.003131969462033615
0.1394037,0.0012204566586141267
0.1408266,0.002854693492011594
0.1411235,0.003692364501388117
0.1435865,0.0008686835825930329
0.1440128,0.003994803619147697
0.1447379,0.003018458747624541
0.1471972,0.000918064001642109
0.1468814,0.0037388168716854784
0.1483258,0.004004603706291601
0.1506505,0.0007378473569934536
0.152047,0.001017215480285925
0.1528457,0.0005959491122943671
0.15403050000000001,0.0021018068020951255
0.15476669999999998,0.004304999962575818
0.15507100000000001,0.003970658187812754
0.1570765,0.004381847942237255
0.1583634,0.00439434874962529
0.1602736,0.0010086761621055634
0.1617853,0.0009355814650674577
0.1613867,0.003978650470532272
0.1626601,0.0034296493325767902
0.163768,0.002616504326174315
0.1632395,0.005577444660814166
0.1645318,0.005497257049353494
0.16518839999999999,0.006449255516035254
0.16434929999999998,0.006893760722566456
0.1679786,0.0052655318650846866
0.1697343,0.0053353590746598786
0.1709006,0.005237926523603272
0.1729779,0.004482583690735117
0.1697044,0.005714007315361085
0.170074,0.007739223891608538
0.1712997,0.007188430752102837
0.1722023,0.006534811041219515
0.1705889,0.008268626803231056
0.17348,0.00847779207367369
0.1736319,0.008902006595893611
0.17437450000000002,0.009998095432520029
0.1762535,0.007143493889158474
0.1759705,0.006159237114556746
0.178443,0.00721120792778698
0.18019570000000001,0.007543257490412656
0.177591,0.006326145447444454
0.1771294,0.009228968055951747
0.17761960000000002,0.00904483850602099
0.1764213,0.008854522473478357
0.1791513,0.012287051043454011
0.1841243,0.012428117583840997
0.18760090000000001,0.01278108516041489
0.1795436,0.029317969011057595
0.19060349999999998,0.012082387808983231
0.1934147,0.008019456438354573
0.1968474,0.007389733842748783
0.1962288,0.008330169996931503
0.1959738,0.00819687747865003
0.1959413,0.010856632750433155
0.1914432,0.010417235075691735
0.191319,0.00998478659428099
0.1918514,0.011313182361986194
0.19399899999999998,0.012193623752692315
0.19271929999999998,0.013087528873363032
0.1923594,0.010722949171442217
0.19424829999999998,0.013454128164908256
0.1988221,0.014502397682605599
0.1977952,0.017042308905909565
0.1974458,0.016122004071730315
0.192525,0.008906947787479661
0.20029690000000003,0.014511860248699264
0.20554809999999998,0.010038098552238087
0.2009488,0.014086525301388791
0.200467,0.015287979802591464
0.20811000000000002,0.016504076068925788
0.21296569999999998,0.013803765098696802
0.2144733,0.016467337651983834
0.21072090000000002,0.015083035705719191
0.2113523,0.013557255122463233
0.2104581,0.018722919670523853
0.2120941,0.018753896291171065
0.21353429999999998,0.018749274255880476
0.2164398,0.014511326593771884
0.21893820000000003,0.01777747361003682
0.2191602,0.018815781855783843
0.22524990000000003,0.017708857773881287
0.2268192,0.010690292926035488
0.2285431,0.008662563803837496
0.2223229,0.014256050765669059
0.22304399999999996,0.015038407443756953
0.2161163,0.021141556223860783
0.21130459999999998,0.017868143671536413
0.2162778,0.01892100844035539
0.2140917,0.019212793295961244
0.2139431,0.020775476261154106
0.2249934,0.0229957330496092
0.21929759999999998,0.01987798018579017
