mean_accFULL,stdev_accFULL, mean_timeFULL, stdev_timeFULL
94.92308,0.0,0.10355650000000001,0.006713251824232093
mean_accI,stdev_accI
50.0,0.0
53.69230700000001,0.0
53.69230700000001,0.0
53.76923000000001,0.0
53.76923000000001,0.0
53.76923000000001,0.0
53.76923000000001,0.0
53.76923000000001,0.0
53.76923000000001,0.0
53.84615699999999,0.0
53.84615699999999,0.0
55.615382999999994,0.0
56.153847,0.0
57.615387,0.0
57.69230700000001,0.0
57.69230700000001,0.0
57.69230700000001,0.0
57.69230700000001,0.0
57.69230700000001,0.0
57.69230700000001,0.0
57.69230700000001,0.0
59.615387,0.0
60.153847,0.0
60.76923000000001,0.0
61.076919999999994,0.0
61.30769299999999,0.0
61.384617000000006,0.0
61.384617000000006,0.0
61.461536,0.0
61.538464,0.0
61.538464,0.0
65.230766,0.0
65.384613,0.0
65.384613,0.0
65.384613,0.0
65.384613,0.0
65.384613,0.0
65.384613,0.0
65.384613,0.0
65.384613,0.0
65.384613,0.0
68.153847,0.0
68.384613,0.0
68.692307,0.0
68.692307,0.0
68.769226,0.0
68.769226,0.0
68.846153,0.0
68.769226,0.0
68.769226,0.0
68.769226,0.0
68.769226,0.0
68.769226,0.0
68.769226,0.0
68.769226,0.0
68.769226,0.0
68.769226,0.0
68.769226,0.0
68.769226,0.0
68.769226,0.0
68.769226,0.0
71.53846,0.0
72.153847,0.0
72.07692,0.0
72.307693,0.0
72.307693,0.0
72.307693,0.0
72.307693,0.0
72.307693,0.0
72.307693,0.0
72.307693,0.0
74.0,0.0
74.384613,0.0
75.230774,0.0
75.230774,0.0
75.307693,0.0
76.0,0.0
76.076927,0.0
76.076927,0.0
76.076927,0.0
76.076927,0.0
76.692307,0.0
77.46154,0.0
78.0,0.0
78.153839,0.0
78.07692,0.0
78.230766,0.0
78.230766,0.0
78.230766,0.0
78.46154,0.0
78.53846,0.0
80.46154,0.0
80.769226,0.0
81.384621,0.0
81.46154,0.0
81.692307,0.0
81.769234,0.0
81.769234,0.0
82.0,0.0
82.0,0.0
82.076927,0.0
84.692307,0.0
85.07692,0.0
85.07692,0.0
85.384613,0.0
85.615387,0.0
85.615387,0.0
85.692307,0.0
85.692307,0.0
85.692307,0.0
85.846153,0.0
87.0,0.0
88.0,0.0
88.230774,0.0
88.384613,0.0
88.384613,0.0
88.230774,0.0
88.307693,0.0
88.307693,0.0
88.307693,0.0
88.53846,0.0
91.692307,0.0
91.769234,0.0
92.0,0.0
91.769234,0.0
91.846153,0.0
91.769234,0.0
91.692307,0.0
91.692307,0.0
91.692307,0.0
91.692314,0.0
94.53846,0.0
95.0,0.0
95.0,0.0
95.076927,0.0
95.0,0.0
95.0,0.0
95.0,0.0
95.0,0.0
95.0,0.0
94.92308,0.0
mean_timeI,stdev_timeI
0.0039225,6.363961030679083e-06
0.0044972,0.0008054792638202701
0.0052184,0.0009303385524755074
0.0058790000000000005,0.0010110157708408355
0.0066021,0.0011358554730050631
0.007422099999999999,0.0013027555795313255
0.0080883,0.0013672906746149077
0.008779499999999999,0.0015175405724028891
0.0094608,0.00162550906897911
0.0108084,0.0001814829040004714
0.0116379,0.00043962672297706806
0.0122708,0.00014431046778079238
0.0132266,0.000573715221652307
0.0138989,0.0001218345417176737
0.0147449,0.0005230713675547113
0.0155428,0.0004349405578799115
0.0164351,0.0005855590775774327
0.0160229,0.0027802127196793172
0.0168326,0.0029923895765387527
0.0186717,0.0007118166196430084
0.019451799999999998,0.0004531506494656179
0.019287199999999997,0.003412417220811208
0.019909299999999998,0.00350791384823896
0.0206151,0.0036541968702666614
0.021484700000000002,0.003826200611863186
0.0219146,0.0038278295039240076
0.0228067,0.003989735525904777
0.0233313,0.004057005328235758
0.0240765,0.004196960202866409
0.024857,0.004363723970290615
0.025584600000000002,0.004491757394259945
0.026347799999999998,0.004675631241994081
0.026844299999999998,0.004656321964097128
0.0293208,0.0006256700941124376
0.030259400000000002,0.0009773988381867906
0.0308009,0.00041333372311809605
0.030076,0.005292398301127549
0.0308668,0.005426321852271982
0.0333325,0.0013243803792298073
0.0337843,0.001050478732134387
0.0325461,0.005627261391357848
0.033395799999999996,0.00577427693982353
0.034087099999999995,0.00591343719281209
0.034608299999999995,0.0059546976236320255
0.035410399999999995,0.006123012189001968
0.036077700000000004,0.006214924511028093
0.036938,0.0063946207254396426
0.037535799999999994,0.006447883197866827
0.0383197,0.006552362305984682
0.0398233,0.007094160510197415
0.042173,0.0005420815846756312
0.042565900000000004,0.0006637143712973723
0.0403843,0.006976989959860914
0.0407329,0.007059829671379395
0.0432476,0.0008988594254201642
0.0438536,0.0010850264922520976
0.0416897,0.00720746962918024
0.042072,0.007273374518673495
0.042610999999999996,0.007278849863359823
0.045158,0.0003309790191403551
0.045757400000000004,0.0006189110867752605
0.046402700000000005,0.00044770626531242554
0.047600199999999995,0.0008028319043652076
0.047700599999999996,0.000462064738129
0.0486501,0.0004544399361362894
0.046862799999999996,0.00808768348649833
0.047719,0.008256597913857203
0.0483304,0.008311285797035259
0.0515165,0.0003790535728773845
0.0523691,0.0005333103015860253
0.050420900000000005,0.008655505241688025
0.0509351,0.008709482309529079
0.052268,0.009082132226398037
0.0527648,0.0091151391505195
0.056642000000000005,0.0017880887996840514
0.057923800000000004,0.001139918788530326
0.0581244,0.0008761224166113355
0.058905200000000005,0.001419100247026653
0.0563193,0.009685814656840522
0.0574616,0.010057624661033153
0.0606617,0.0002942157371725728
0.06259,0.0014657314442511856
0.0597523,0.010391110186115823
0.0603776,0.010492892781942134
0.0605947,0.010460688654301026
0.06129250000000001,0.010594083833809217
0.0624243,0.010923736113518021
0.06608359999999999,0.0004896931465497316
0.06685179999999999,0.0007838786470706607
0.0677189,0.0008867018100804827
0.0651629,0.011244643993672919
0.0694849,0.0009966493253786802
0.07022300000000001,0.0010822762021673487
0.0707615,0.0008864013700851833
0.0679701,0.01178407019336792
0.0683045,0.011727709942695548
0.0691291,0.011832913010844886
0.0697834,0.011811747600494086
0.074624,0.0009408750064582313
0.07534060000000001,0.0018676465404353134
0.07232140000000001,0.012514693880927864
0.0776575,0.0009808383319045682
0.0778174,0.0011872601699337484
0.0798687,0.0029623704491129697
0.07552299999999999,0.013168237889372712
0.0757839,0.013047873708854721
0.0762607,0.013041022472268892
0.0770765,0.013274847186816627
0.0820301,0.0012550335497950292
0.0830964,0.0012383613007160366
0.0795507,0.013773001787313225
0.084688,0.001202144195455217
0.0853955,0.0011914310955970363
0.0858762,0.0009668231827312935
0.0823787,0.014212599598400164
0.08276950000000001,0.014168024885871237
0.0838487,0.014520543095521218
0.0898355,0.00180891073731004
0.0900578,0.001735620145333904
0.0860061,0.014860961883404453
0.0911022,0.0009789224007380067
0.0929152,0.002677295019646177
0.0928829,0.0012942695451703863
0.0893158,0.01552929523191571
0.0947842,0.001353491353664456
0.0904484,0.015453142249321908
0.0975819,0.0043942685511925645
0.09164449999999999,0.015825937186572346
0.0973308,0.001223416236972882
0.0985419,0.0012997359945602612
0.0993823,0.0015587596244022567
0.0944381,0.016338142961589405
0.0955489,0.01654749963287505
0.0963765,0.016752678938340315
0.09666040000000001,0.016698017335400432
0.1029347,0.001751767174407984
0.0984581,0.0168624689865459
0.1040475,0.0014238267879985351
0.10507059999999999,0.001522699007245579
0.10561469999999999,0.0018733819714919643
0.10168189999999999,0.017647644567099222
