mean_accFULL,stdev_accFULL, mean_timeFULL, stdev_timeFULL
94.92308,0.0,0.1083532,0.0037474787613362994
mean_accI,stdev_accI
50.0,0.0
50.0,0.0
50.0,0.0
50.0,0.0
50.0,0.0
50.0,0.0
50.0,0.0
50.0,0.0
50.0,0.0
50.0,0.0
50.0,0.0
51.769226,0.0
52.30769299999999,0.0
53.76923000000001,0.0
53.84615699999999,0.0
53.84615699999999,0.0
53.84615699999999,0.0
53.84615699999999,0.0
53.84615699999999,0.0
53.84615699999999,0.0
53.84615699999999,0.0
55.769234,0.0
56.30769,0.0
56.923073,0.0
57.23076999999999,0.0
57.461536,0.0
57.53846,0.0
57.53846,0.0
57.615387,0.0
57.69230700000001,0.0
57.69230700000001,0.0
61.384617000000006,0.0
61.538464,0.0
61.538464,0.0
61.538464,0.0
61.538464,0.0
61.538464,0.0
61.538464,0.0
61.538464,0.0
61.538464,0.0
61.538464,0.0
64.307693,0.0
64.53846,0.0
64.846153,0.0
64.846153,0.0
64.92308,0.0
64.92308,0.0
65.0,0.0
64.92308,0.0
64.92308,0.0
64.92308,0.0
68.0,0.0
68.46154,0.0
68.615379,0.0
68.769226,0.0
68.769226,0.0
68.769226,0.0
68.769226,0.0
68.769226,0.0
68.769226,0.0
68.769226,0.0
71.53846,0.0
72.153847,0.0
72.07692,0.0
72.307693,0.0
72.307693,0.0
72.307693,0.0
72.307693,0.0
72.307693,0.0
72.307693,0.0
72.307693,0.0
74.0,0.0
74.384613,0.0
75.230774,0.0
75.230774,0.0
75.307693,0.0
76.0,0.0
76.076927,0.0
76.076927,0.0
76.076927,0.0
76.076927,0.0
76.692307,0.0
77.46154,0.0
78.0,0.0
78.153839,0.0
78.07692,0.0
78.230766,0.0
78.230766,0.0
78.230766,0.0
78.46154,0.0
78.53846,0.0
80.46154,0.0
80.769226,0.0
81.384621,0.0
81.46154,0.0
81.692307,0.0
81.769234,0.0
81.769234,0.0
82.0,0.0
82.0,0.0
82.076927,0.0
84.692307,0.0
85.07692,0.0
85.07692,0.0
85.384613,0.0
85.615387,0.0
85.615387,0.0
85.692307,0.0
85.692307,0.0
85.692307,0.0
85.846153,0.0
87.0,0.0
88.0,0.0
88.230774,0.0
88.384613,0.0
88.384613,0.0
88.230774,0.0
88.307693,0.0
88.307693,0.0
88.307693,0.0
88.53846,0.0
91.692307,0.0
91.769234,0.0
92.0,0.0
91.769234,0.0
91.846153,0.0
91.769234,0.0
91.692307,0.0
91.692307,0.0
91.692307,0.0
91.692314,0.0
94.53846,0.0
95.0,0.0
95.0,0.0
95.076927,0.0
95.0,0.0
95.0,0.0
95.0,0.0
95.0,0.0
95.0,0.0
94.92308,0.0
mean_timeI,stdev_timeI
0.0039255,1.780917366602591e-05
0.0042256,1.550770417853308e-05
0.0045166,8.302610031389857e-06
0.0048271,2.0256411879259957e-05
0.005136,2.1878452108562833e-05
0.0054348,3.29302292734199e-05
0.005906400000000001,5.2978402308026594e-05
0.0064251,0.00024223792252888718
0.0068448,0.00013615171276516838
0.0073033,0.00012633293755434912
0.0076918,2.0026648912553104e-05
0.008459999999999999,2.989983277545228e-05
0.009196600000000001,2.762527023497797e-05
0.0099852,4.0485388310681654e-05
0.010740900000000001,7.013233522737154e-05
0.0114667,4.80417642381201e-05
0.012230399999999999,5.3181450400178706e-05
0.0130562,0.00015426513972162763
0.0137954,0.00010393502243656325
0.0146176,0.00011816955802762568
0.015380099999999999,0.00017003427759000714
0.0161063,0.0002103669017058841
0.0169374,0.00024080337760643323
0.0178317,0.0005044418367529268
0.0187645,0.0007380741079924756
0.019647199999999997,0.0006937476005964512
0.0200527,0.0002829063645645164
0.0212082,0.0006475716691352913
0.021606800000000002,0.0002753889370811152
0.022553899999999998,0.0004084840402159082
0.0231675,0.0004281705916519201
0.0241563,0.0006669276239259812
0.0245313,0.0004018789342299219
0.025316700000000004,0.00035008318059188926
0.026152199999999997,0.00032584481650694435
0.0269418,0.0005818997240838742
0.0274262,0.00029324347108389834
0.028401199999999998,0.00034829323533163483
0.029178700000000002,0.00034692556037923243
0.0300126,0.0003839690959786562
0.030576199999999998,0.0004126865369475699
0.0317303,0.0004986550912203749
0.0321178,0.0004502198968899049
0.032669,0.0003513924681416289
0.0338567,0.0010850312898714027
0.0346353,0.0005667892122395339
0.0353732,0.0007753098018785067
0.036694,0.0011906655468453121
0.0370995,0.0010375926464658467
0.0378649,0.0009966831046582022
0.038314799999999996,0.0006930838974387507
0.0391991,0.0004756395577418779
0.0396877,0.0005346818472491639
0.0407412,0.0004774215002373572
0.0414564,0.0006016834162026843
0.042105000000000004,0.0006234078386845421
0.042868,0.0005219774367196772
0.0438372,0.0016816917936675827
0.0445165,0.000888428606523275
0.0457559,0.0012080349930546055
0.0465757,0.0016780658873304785
0.047182999999999996,0.001564190028239679
0.0478848,0.0013185828925192551
0.0483555,0.00061446693247978
0.0487114,0.000587705746479005
0.049788900000000004,0.0007310709723868583
0.05140940000000001,0.0018186002065080482
0.0517101,0.0014732475427511218
0.0518619,0.0007720394995652028
0.053194200000000004,0.0009376529564112023
0.054900000000000004,0.002007568180660374
0.055548,0.0022810490763876365
0.0552024,0.0006734325339466284
0.055887299999999994,0.001249952803553442
0.0565065,0.0006629558808849944
0.05752890000000001,0.0008798888124201942
0.0578747,0.0007463745038517865
0.059489099999999996,0.0011624600781675615
0.059985699999999996,0.002092588405141664
0.060531499999999995,0.0012345120718549305
0.0623965,0.0019469929093062677
0.0624137,0.002023576759107499
0.0628409,0.0007768157868289417
0.06416619999999999,0.002810671560716802
0.06404380000000001,0.000989758421703665
0.06488479999999999,0.0009505523306653525
0.0656433,0.0009355593751571537
0.0671044,0.0016312453456723726
0.0676082,0.0015833860903491338
0.0689755,0.0007631081545597274
0.06875529999999999,0.0010459208648628988
0.07121720000000001,0.0021417049179463447
0.07156749999999999,0.0032568170981974276
0.0710769,0.0009992760101415628
0.0718705,0.0009195070237179607
0.0731508,0.002224208613317457
0.0737669,0.0018526973399164083
0.0744779,0.002241561878591701
0.074586,0.0009534470794613271
0.074946,0.0006667996534025613
0.0761059,0.001066256947352642
0.0766481,0.0007593275460710125
0.0777104,0.0011414087007825997
0.0791737,0.0010489159536291653
0.0804783,0.001991271623304511
0.0807383,0.002007860112989281
0.081119,0.0022354052578149363
0.0823604,0.0033146895011281065
0.0829419,0.0014299125420031028
0.0826569,0.0008573123960636791
0.08519109999999999,0.002938786841538529
0.0843406,0.0011366128237491912
0.0858575,0.0018659407070489202
0.0872047,0.003068591173305576
0.0897486,0.0044236747971693295
0.0888231,0.003414232480856178
0.0877583,0.0005679068879079854
0.0892845,0.0015248560769972864
0.0902829,0.000993398370354119
0.0918772,0.0029469444363800132
0.0925764,0.0023270002244186504
0.0949429,0.004011027921728904
0.09542930000000001,0.003702899526047121
0.0933793,0.001173945110395807
0.09402920000000001,0.0011506098672732965
0.0960474,0.003034361810990903
0.0970217,0.002627451196290594
0.097637,0.002787590995026989
0.0986075,0.0025980391858305557
0.1007525,0.005486848766722928
0.10021100000000001,0.0029492429913830797
0.1003356,0.0028172875923089184
0.10159149999999999,0.003241594986354024
0.10230030000000001,0.0023036518858349907
0.1038599,0.0037799986316869936
0.1034095,0.004070977230483008
0.10329410000000001,0.001466951824551696
0.10515559999999999,0.003466083482997937
0.1060271,0.0034318828149509347
0.10746579999999999,0.0029522923974430464
0.1073188,0.0029463693213475084
