mean_accFULL,stdev_accFULL, mean_timeFULL, stdev_timeFULL
91.153847,0.0,0.1019075,0.017892199114884304
mean_accI,stdev_accI
50.0,0.0
53.615387,0.0
53.53846,0.0
53.384621,0.0
53.23076999999999,0.0
53.076923,0.0
53.000004000000004,0.0
53.000004000000004,0.0
53.000004000000004,0.0
53.000004000000004,0.0
53.000004000000004,0.0
53.23076999999999,0.0
53.23076999999999,0.0
53.30769,0.0
53.30769,0.0
53.30769,0.0
53.615387,0.0
53.84615699999999,0.0
53.84615699999999,0.0
53.84615699999999,0.0
53.84615699999999,0.0
54.076923,0.0
54.923077,0.0
55.30769299999999,0.0
55.769234,0.0
56.0,0.0
56.23076999999999,0.0
56.69230700000001,0.0
57.076923,0.0
57.23076999999999,0.0
57.30769,0.0
60.153847,0.0
61.076919999999994,0.0
61.153847,0.0
61.153847,0.0
61.153847,0.0
61.153847,0.0
61.153847,0.0
61.153847,0.0
61.153847,0.0
61.153847,0.0
61.153847,0.0
62.461536,0.0
63.307697,0.0
63.69230700000001,0.0
63.846153,0.0
63.846153,0.0
64.0,0.0
64.307693,0.0
64.307693,0.0
64.307693,0.0
64.846153,0.0
66.384613,0.0
67.153847,0.0
67.538467,0.0
67.692307,0.0
67.846153,0.0
67.923073,0.0
67.923073,0.0
68.076927,0.0
68.153847,0.0
68.230766,0.0
69.692307,0.0
70.076927,0.0
70.846161,0.0
70.92308,0.0
71.0,0.0
71.46154,0.0
71.46154,0.0
71.46154,0.0
71.46154,0.0
71.53846,0.0
72.923073,0.0
73.230766,0.0
73.307693,0.0
73.692307,0.0
73.615387,0.0
73.846153,0.0
74.230774,0.0
74.230774,0.0
74.46154,0.0
74.53846,0.0
74.769226,0.0
75.46154,0.0
75.53846,0.0
75.615387,0.0
75.692307,0.0
76.307693,0.0
76.384613,0.0
76.461533,0.0
76.615387,0.0
76.769234,0.0
77.153847,0.0
78.46154,0.0
78.923073,0.0
79.46154,0.0
79.46154,0.0
79.615387,0.0
79.692307,0.0
79.692307,0.0
79.53846,0.0
80.923073,0.0
81.46154,0.0
82.692307,0.0
82.92308,0.0
82.92308,0.0
82.92308,0.0
82.92308,0.0
82.92308,0.0
83.0,0.0
83.076927,0.0
82.92308,0.0
83.46154,0.0
83.92308,0.0
84.46154,0.0
84.615387,0.0
84.846153,0.0
84.769234,0.0
85.0,0.0
85.230766,0.0
85.307693,0.0
88.461533,0.0
88.461533,0.0
88.461533,0.0
88.461533,0.0
88.53846,0.0
88.461533,0.0
88.230774,0.0
88.230774,0.0
88.153847,0.0
88.153847,0.0
89.615387,0.0
90.307693,0.0
91.230766,0.0
91.307693,0.0
91.230766,0.0
91.153847,0.0
91.07692,0.0
91.153847,0.0
91.307693,0.0
91.153847,0.0
mean_timeI,stdev_timeI
0.0044593,8.932462644136173e-06
0.0051191,0.0008980076032838228
0.0060452,0.0010679477515309445
0.0069339,0.0012222776962158258
0.007757600000000001,0.0013667039181915006
0.008565,0.00152221271692085
0.0093695,0.0016629102501337827
0.0101365,0.0017995688526854302
0.0108719,0.0019181245151333516
0.011594799999999999,0.0020438896360724674
0.012335599999999999,0.002158222169595459
0.0126253,0.00221997502738707
0.012909299999999999,0.002273688977557543
0.0132521,0.002348302812671313
0.013515,0.0023166002868187877
0.0138291,0.002442305534166891
0.0142405,0.0024861637225966344
0.0147315,0.002604237839027423
0.015140499999999998,0.002626747809660371
0.0156126,0.002744500853221462
0.0160841,0.0028337646906936753
0.0168147,0.002953381077492183
0.0174479,0.003049702442680087
0.018282200000000002,0.0032034477884512703
0.0189416,0.0033192705758277007
0.0198076,0.0034877648111330236
0.0204189,0.003582910128497349
0.0210354,0.0036785851809266745
0.021955,0.003872281268480148
0.0227212,0.004014791562321622
0.0233429,0.004104082640764221
0.0240417,0.004189151228006827
0.0229796,0.00663196029675825
0.0239389,0.006945791138844044
0.0245863,0.007146624332119636
0.0254126,0.007457632305229321
0.026185000000000003,0.007608762039765587
0.026867999999999996,0.007834306492742176
0.0277005,0.008143189659668584
0.027907300000000003,0.007995761405617075
0.0292429,0.0086068385401119
0.029139599999999998,0.008397117510722883
0.0315336,0.005870587746460221
0.0322379,0.0060823405482136935
0.0327069,0.006184372679046221
0.0336603,0.006274769956827989
0.0347226,0.0066983563854625325
0.0351008,0.006588205957112554
0.0357973,0.006754595012944068
0.0369402,0.006590416371941576
0.0386073,0.006828659638285946
0.0391559,0.006898280920313086
0.0393511,0.006785554664137634
0.040475500000000005,0.007127850700674862
0.0412691,0.007356856687622929
0.042143200000000006,0.00748864003081408
0.0424409,0.007376387846063651
0.0431554,0.0074877645410511015
0.0439458,0.007479392931396387
0.0448479,0.007852036288618244
0.0454351,0.007923965511871776
0.0464918,0.00817810669205695
0.0488113,0.011088620393598715
0.0473906,0.008225640322255229
0.048412899999999995,0.008486623153200831
0.0491438,0.00859100433657853
0.0505251,0.009022051890907202
0.05101789999999999,0.009117825538166677
0.051191299999999995,0.008862642445807131
0.0522034,0.009123997712991092
0.05289580000000001,0.009202677301259189
0.05347539999999999,0.009288935762507996
0.0544906,0.009546967874670994
0.0547319,0.009535987351431768
0.056665,0.01082768883721524
0.056324299999999994,0.009784237755469535
0.056999999999999995,0.009902356980930236
0.057615099999999995,0.009986427538859375
0.0584745,0.010110539805898924
0.0590452,0.010257621543678307
0.060043,0.010324867747337008
0.0605915,0.010540301874761989
0.061505699999999996,0.010659367273800908
0.0620333,0.010774207988937695
0.06336030000000001,0.01133140074748043
0.0673198,0.0009688738938696936
0.06485199999999999,0.01111855163429322
0.0650601,0.011262906438097289
0.0644269,0.011995840653696967
0.0662985,0.011521034919273141
0.0670771,0.011684476886022753
0.0679719,0.01188305512016539
0.0683663,0.011747711853330796
0.0692762,0.011966192393572817
0.0705951,0.01231339030351376
0.0709558,0.01240551221388657
0.069204,0.01624878504859842
0.0692717,0.015725585013318617
0.06979880000000001,0.015826296301479453
0.0703231,0.016255700459633638
0.0705225,0.01590044954116427
0.0715894,0.0156440047316678
0.0727476,0.016243011715811814
0.0704574,0.017195457243767094
0.0743022,0.016461944206765698
0.0744804,0.016327538136534852
0.07691479999999999,0.01411880854903998
0.0776217,0.013854480142217938
0.0786328,0.01418275241896924
0.0787932,0.01401772766337128
0.0802538,0.014481991328696632
0.0812474,0.014553750102445912
0.08161460000000001,0.014486921359933205
0.0829704,0.014593518791268646
0.0832128,0.014594961602476994
0.08549860000000001,0.014920191220103195
0.0859281,0.014920034319665623
0.0863562,0.014903863554274926
0.08797859999999999,0.015283576996967111
0.08818089999999999,0.01367464200181408
0.0902336,0.01605676976785112
0.0897313,0.015536085965333169
0.0902967,0.015700989027942015
0.0907163,0.015595210654058007
0.0919782,0.015885468550428935
0.0928407,0.016167285143152514
0.0933821,0.016219416535950566
0.0940134,0.016184388274575662
0.0953797,0.016709515512957813
0.0956984,0.01652589662183434
0.09598419999999999,0.016517476743000293
0.0968041,0.016839167572788284
0.097467,0.016561669091945747
0.0992809,0.017581656428410454
0.0995197,0.01740876188749664
0.0992364,0.017106406533485895
0.1006718,0.01743758703235947
0.1018571,0.01769432419010244
0.10246519999999999,0.017742473125870087
0.1020583,0.017523315890232902
0.10448660000000001,0.018322536615994096
