mean_accFULL,stdev_accFULL, mean_timeFULL, stdev_timeFULL
91.153847,0.0,0.10242929999999999,0.017561275789202916
mean_accI,stdev_accI
50.0,0.0
51.923077,0.0
52.846153,0.0
53.69230700000001,0.0
53.76923000000001,0.0
53.76923000000001,0.0
53.84615699999999,0.0
53.84615699999999,0.0
53.84615699999999,0.0
53.84615699999999,0.0
53.84615699999999,0.0
53.923077,0.0
54.76923000000001,0.0
55.230766,0.0
55.846153,0.0
56.461536,0.0
56.846153,0.0
57.23076999999999,0.0
57.615387,0.0
57.615387,0.0
57.69230700000001,0.0
58.0,0.0
58.846153,0.0
59.15385100000001,0.0
59.615387,0.0
59.84615699999999,0.0
60.000004000000004,0.0
60.692303,0.0
60.923080000000006,0.0
61.076919999999994,0.0
61.153847,0.0
61.846153,0.0
64.153847,0.0
64.153847,0.0
64.0,0.0
63.846153,0.0
63.846153,0.0
63.769234,0.0
63.769234,0.0
63.769234,0.0
63.846153,0.0
63.846153,0.0
63.846153,0.0
64.07692,0.0
64.153847,0.0
64.230766,0.0
64.230766,0.0
64.230766,0.0
64.307693,0.0
64.307693,0.0
64.307693,0.0
64.846153,0.0
66.384613,0.0
67.153847,0.0
67.538467,0.0
67.692307,0.0
67.846153,0.0
67.923073,0.0
67.923073,0.0
68.076927,0.0
68.153847,0.0
68.230766,0.0
69.692307,0.0
70.076927,0.0
70.846161,0.0
70.92308,0.0
71.0,0.0
71.46154,0.0
71.46154,0.0
71.46154,0.0
71.46154,0.0
71.53846,0.0
72.923073,0.0
73.230766,0.0
73.307693,0.0
73.692307,0.0
73.615387,0.0
73.846153,0.0
74.230774,0.0
74.230774,0.0
74.46154,0.0
74.53846,0.0
74.769226,0.0
75.46154,0.0
75.53846,0.0
75.615387,0.0
75.692307,0.0
76.307693,0.0
76.384613,0.0
76.461533,0.0
76.615387,0.0
76.769234,0.0
77.153847,0.0
78.46154,0.0
78.923073,0.0
79.46154,0.0
79.46154,0.0
79.615387,0.0
79.692307,0.0
79.692307,0.0
79.53846,0.0
80.923073,0.0
81.46154,0.0
82.692307,0.0
82.92308,0.0
82.92308,0.0
82.92308,0.0
82.92308,0.0
82.92308,0.0
83.0,0.0
83.076927,0.0
82.92308,0.0
83.46154,0.0
83.92308,0.0
84.46154,0.0
84.615387,0.0
84.846153,0.0
84.769234,0.0
85.0,0.0
85.230766,0.0
85.307693,0.0
88.461533,0.0
88.461533,0.0
88.461533,0.0
88.461533,0.0
88.53846,0.0
88.461533,0.0
88.230774,0.0
88.230774,0.0
88.153847,0.0
88.153847,0.0
89.615387,0.0
90.307693,0.0
91.230766,0.0
91.307693,0.0
91.230766,0.0
91.153847,0.0
91.07692,0.0
91.153847,0.0
91.307693,0.0
91.153847,0.0
mean_timeI,stdev_timeI
0.004755199999999999,9.542885657214313e-06
0.0052661,0.0009252894381999853
0.0060279,0.0010610335055972549
0.006819400000000001,0.0012022163051815776
0.0075575,0.001326578996265708
0.0083035,0.001454226732283824
0.0090892,0.001595317787917017
0.0098098,0.001703931258394344
0.0105446,0.0018460837948960436
0.0112654,0.0019532600213773665
0.0120344,0.0020837807092984723
0.0127837,0.00225610667842734
0.0134928,0.0023686642649392085
0.014183000000000001,0.0024728201174637294
0.014912,0.002580905654997873
0.0157013,0.002744551088571276
0.016525,0.0029158286796190356
0.0171545,0.002984514151787896
0.0179458,0.0031473416225266822
0.0187854,0.0032746786848313666
0.0194443,0.003419943925791117
0.0204245,0.003481377736535414
0.020735200000000002,0.003605694625635029
0.021535,0.003732635262117101
0.0222422,0.003892112131535324
0.0230314,0.004033163252612299
0.0236991,0.004106530637628042
0.0243716,0.004221916684266625
0.0253461,0.004433268281477623
0.0258397,0.004480733398550832
0.0265327,0.004614069740117358
0.027402799999999998,0.004567015212976146
0.0280911,0.004895982694459249
0.029001900000000004,0.005080850157426631
0.0295029,0.005119977093047715
0.0304119,0.005322389781751135
0.031247600000000004,0.005482715693684816
0.0319105,0.005538830146239266
0.0327407,0.005746911480670871
0.033372,0.005794767601513933
0.0341021,0.0059161089774727215
0.034273700000000004,0.005965940105670224
0.0347034,0.006076329652384278
0.0348759,0.006026542982691008
0.0356787,0.006261966270003909
0.0357394,0.00630626838418199
0.0358426,0.006215499590182237
0.036259200000000005,0.0063050924885277365
0.0368864,0.00642169960541773
0.0371536,0.006437119476563687
0.0377054,0.006598090316312912
0.0386986,0.00678936857152416
0.039255200000000004,0.006794290295698457
0.0399578,0.007003730098232575
0.0406409,0.007084070525560224
0.041437800000000004,0.007036674258641096
0.0420661,0.007276795470687782
0.042821399999999996,0.007324535149451844
0.043755100000000005,0.007566367489680162
0.0448702,0.008098978643425766
0.0456453,0.00822356555610494
0.0426767,0.012238910454865751
0.0432179,0.012612254221369171
0.0451223,0.0098191068506481
0.0463388,0.008969617876166432
0.0468557,0.009152588596190211
0.0493369,0.008594781704292695
0.05011259999999999,0.008722955834399764
0.0508318,0.008821979090128624
0.05186349999999999,0.009170259589806848
0.0524346,0.009024850964605086
0.0531493,0.009292970127407539
0.053402899999999996,0.009171370556126155
0.0543367,0.009342086717288239
0.0547904,0.00940455382839139
0.056053700000000005,0.009738763942216806
0.056533900000000005,0.00980426465541059
0.05785130000000001,0.01025733040913776
0.05846369999999999,0.010371780282735136
0.0586681,0.010166702813596943
0.059614,0.010347090734436742
0.055972,0.0157122278850299
0.05741029999999999,0.014074818617737928
0.0615089,0.010674541951661334
0.0628027,0.010770872182263918
0.0634636,0.011082769932547448
0.0640005,0.01115064688955558
0.0644594,0.01118408381187798
0.0661495,0.011642699011731678
0.0658972,0.011324536358426925
0.0663915,0.011485081775455012
0.06756290000000001,0.011799283400557284
0.0686817,0.012077470320578081
0.0690383,0.012008989790523134
0.0693453,0.011964232928469197
0.0703965,0.01224049042454318
0.072097,0.01285260860681597
0.0720215,0.012734634211472272
0.0729223,0.012927336290460873
0.07325960000000001,0.012593271953264921
0.07444300000000001,0.013011829822639601
0.0754273,0.013206893646459371
0.0756609,0.013305860700792298
0.0766172,0.013394651974243717
0.07667589999999999,0.013313103932675588
0.0778657,0.013751512014239662
0.0791073,0.013858867093749842
0.07925560000000001,0.013901278368073445
0.08484080000000001,0.0015101901131241008
0.0809144,0.013968057211604865
0.0811701,0.013993172298978132
0.081959,0.01416298265824603
0.0826684,0.014343131520774053
0.0836943,0.014501429546772275
0.0841305,0.014603314983249523
0.085252,0.014805859343141447
0.0861024,0.01507370635835055
0.085718,0.014698139466537178
0.08702750000000001,0.015098835203418839
0.08853180000000001,0.015639550240762468
0.088071,0.015096213395712477
0.0901373,0.016006568846362212
0.0904215,0.01572419517283264
0.09029770000000001,0.015589148141861022
0.0907909,0.0154740944624664
0.0925214,0.016044128605540133
0.0930077,0.01598011410785292
0.0930886,0.016023725424784616
0.09494630000000001,0.016644486882047962
0.0949878,0.016387736572069846
0.0952748,0.016393062203261474
0.0970651,0.016676108315324786
0.0975134,0.016943955882064064
0.0975012,0.01676450308638265
0.09823119999999999,0.0168678210066123
0.09973180000000001,0.01726778876534122
0.10001960000000001,0.017253593849140852
0.10718130000000001,0.001277408492047688
0.10231209999999999,0.017724694471273686
0.1035147,0.01820605269958318
0.1043288,0.018428991970986006
