mean_accFULL,stdev_accFULL, mean_timeFULL, stdev_timeFULL
76.577774,0.0,0.0172352,0.0003918233161912534
mean_accI,stdev_accI
50.0,0.0
50.0,0.0
50.0,0.0
50.0,0.0
50.0,0.0
50.0,0.0
50.0,0.0
50.0,0.0
50.0,0.0
50.0,0.0
50.0,0.0
54.24444200000001,0.0
60.222221000000005,0.0
63.133335,0.0
63.66667199999999,0.0
64.755554,0.0
64.91111,0.0
65.466667,0.0
65.933327,0.0
65.977783,0.0
66.333336,0.0
66.044441,0.0
70.844444,0.0
71.222221,0.0
72.688889,0.0
74.977783,0.0
76.555557,0.0
76.466667,0.0
76.73333,0.0
77.155556,0.0
76.577774,0.0
mean_timeI,stdev_timeI
0.0048487,5.592465169016854e-05
0.0052264,2.52595416515114e-05
0.0056443,6.492910663861695e-05
0.0060553,1.8927052948975798e-05
0.0064311,1.9174346287567546e-05
0.0068329,1.8993858656594028e-05
0.007308199999999999,9.856503775003933e-05
0.0079328,0.0006951595819985829
0.0081405,4.7691718358641806e-05
0.008593,8.511560765609681e-05
0.0093696,0.0008500758397539202
0.0096819,0.0007980638306412449
0.010138,0.0006418211935145526
0.0102848,0.00011027218849535723
0.0111161,0.0005996308957276225
0.011283999999999999,0.0007069675460097946
0.0119732,0.001042824881431841
0.0121701,0.0007814589560559146
0.0126281,0.0008013909366428682
0.0134,0.0010119165534326984
0.013411499999999998,0.00023715829219227296
0.0139307,0.00028471976475904234
0.014167599999999999,0.0002889175968641887
0.014626700000000001,0.0002959958896111
0.0150588,0.00031526560231017907
0.015429299999999998,0.0003334989755106701
0.015789,0.00036342812219199513
0.0162251,0.00033827616922666375
0.0167349,0.00040033776017535746
0.0172198,0.0007649313404192275
0.017752,0.0008999739502402899
