mean_accFULL,stdev_accFULL, mean_timeFULL, stdev_timeFULL
93.0,0.0,0.0991919,0.017977696190619705
mean_accI,stdev_accI
50.0,0.0
52.384613,0.0
53.15384300000001,0.0
53.076923,0.0
53.076923,0.0
53.076923,0.0
53.076923,0.0
53.076923,0.0
53.076923,0.0
53.076923,0.0
53.076923,0.0
53.923077,0.0
54.615382999999994,0.0
55.461536,0.0
55.769234,0.0
56.461536,0.0
56.846153,0.0
56.846153,0.0
56.923073,0.0
56.923080000000006,0.0
56.923080000000006,0.0
57.846153,0.0
58.69230700000001,0.0
59.15384300000001,0.0
59.46154,0.0
59.76923000000001,0.0
59.923077,0.0
60.230766,0.0
60.307686000000004,0.0
60.46154,0.0
60.538464,0.0
63.846153,0.0
64.153847,0.0
64.153847,0.0
64.153847,0.0
64.0,0.0
64.0,0.0
63.923080000000006,0.0
63.923080000000006,0.0
63.923080000000006,0.0
63.923080000000006,0.0
64.53846,0.0
66.153847,0.0
66.538467,0.0
66.769234,0.0
67.0,0.0
66.923073,0.0
67.153847,0.0
67.153847,0.0
67.307693,0.0
67.307693,0.0
69.307693,0.0
70.230774,0.0
70.769226,0.0
70.92308,0.0
70.92308,0.0
70.92308,0.0
70.92308,0.0
70.92308,0.0
71.0,0.0
71.076927,0.0
72.230766,0.0
72.769234,0.0
72.769234,0.0
73.615387,0.0
74.0,0.0
73.923073,0.0
74.153847,0.0
74.07692,0.0
74.153847,0.0
74.07692,0.0
75.07692,0.0
76.076927,0.0
76.615387,0.0
76.53846,0.0
76.846153,0.0
77.0,0.0
77.384613,0.0
77.46154,0.0
77.384613,0.0
77.384613,0.0
77.46154,0.0
77.92308,0.0
78.692314,0.0
78.846153,0.0
79.0,0.0
79.07692,0.0
79.307693,0.0
79.46154,0.0
79.46154,0.0
79.53846,0.0
80.307693,0.0
80.692307,0.0
81.692307,0.0
81.846153,0.0
82.0,0.0
82.076927,0.0
82.307693,0.0
82.230774,0.0
82.692307,0.0
82.769234,0.0
84.53846,0.0
85.230766,0.0
85.384613,0.0
85.692307,0.0
85.692307,0.0
85.923073,0.0
85.923073,0.0
86.0,0.0
86.0,0.0
86.07692,0.0
86.307693,0.0
86.307693,0.0
86.384613,0.0
86.692307,0.0
86.769226,0.0
86.769226,0.0
86.692307,0.0
86.846153,0.0
86.615387,0.0
86.615387,0.0
89.692307,0.0
89.92308,0.0
89.846153,0.0
90.307693,0.0
90.307693,0.0
90.07692,0.0
89.92308,0.0
89.846153,0.0
89.846153,0.0
89.846153,0.0
91.615387,0.0
92.846153,0.0
93.07692,0.0
92.923073,0.0
92.923073,0.0
92.923073,0.0
93.0,0.0
93.07692,0.0
93.076927,0.0
93.0,0.0
mean_timeI,stdev_timeI
0.0041943,1.544200620241938e-05
0.0047558999999999995,0.0008102311672877341
0.005519100000000001,0.0009420399201260588
0.006314500000000001,0.0010958362864345505
0.007048400000000001,0.0012154638072220277
0.0080022,0.0015266721106162034
0.0085294,0.0014687495210401111
0.0092557,0.0015956886392192349
0.0102146,0.0018627347398680015
0.0106861,0.0018272071858440135
0.0114898,0.0019662364388174005
0.012690499999999999,0.0027573918131290507
0.012848000000000002,0.0022124415372062503
0.0139949,0.002717766830404044
0.0149807,0.003319984640192046
0.015153400000000001,0.0026401098546167444
0.015951399999999998,0.002740118456482412
0.016797899999999998,0.0030314105059453026
0.0173185,0.0029465189348336675
0.01855,0.003769457432221955
0.0195114,0.004009109964956201
0.0195307,0.00340062429072467
0.0200455,0.0034235250920002843
0.0212512,0.003851839641291187
0.0221139,0.003999794951688843
0.0231345,0.0045683654322112
0.0232582,0.004160493074411039
0.024065,0.004332302621008833
0.0246679,0.004282666055676585
0.0261472,0.00526165062398568
0.025968200000000004,0.004469289150537377
0.027179000000000002,0.004791232571641201
0.0276131,0.0047985241353751444
0.0287822,0.005235374077688559
0.0291462,0.004959601368389735
0.029867699999999997,0.005211358578464289
0.0312381,0.0057789629106114035
0.0313335,0.005423000117810969
0.0321353,0.005581689171846737
0.033023199999999996,0.005935573487222799
0.0335762,0.005830545806354668
0.0346859,0.006255254528083659
0.0346945,0.005986772702290349
0.035744399999999996,0.00634484380685083
0.036800700000000006,0.006383000758090021
0.0381949,0.007254972983332804
0.0376058,0.006482263541558784
0.039040000000000005,0.007142470674306849
0.039515299999999996,0.006963219897751645
0.0400423,0.006934494086329105
0.0409341,0.007172323355944169
0.0441775,0.0012958939642836013
0.044619900000000004,0.000569385526491303
0.0427962,0.007396772551442809
0.043678299999999996,0.007566778722371452
0.0478012,0.0021737006233609993
0.047132799999999996,0.000483726690509332
0.0479793,0.0005289354192883828
0.0470271,0.008178418530226706
0.0475726,0.008449651001339905
0.0480033,0.008329666367201564
0.0487727,0.008505002071330337
0.05025310000000001,0.008979076820277486
0.050203399999999995,0.008803984037544215
0.051445,0.009062794822790595
0.052355799999999994,0.009280852676343914
0.052718100000000004,0.00939413655721246
0.053298,0.009497509673593389
0.0535197,0.009196524863592044
0.0541412,0.009218042535038431
0.0549505,0.009466244218860567
0.055715499999999994,0.009625582998216552
0.0566669,0.009844930262717851
0.05770310000000001,0.009913709379216014
0.054789,0.014956234248262125
0.0594987,0.010576071745533246
0.0600368,0.010604831255402207
0.0600156,0.010364601511340844
0.061314400000000005,0.010789376629094216
0.0619271,0.011079702988899216
0.062476,0.010736971981584627
0.0663565,0.0013032882558274596
0.063665,0.01103227179183367
0.0688844,0.0011522250166043461
0.0688533,0.0009114881665593776
0.0700592,0.0019339125454201184
0.0670787,0.011752471258325958
0.0681692,0.012184091812231589
0.06865210000000001,0.012158353072408012
0.0686312,0.011728008439439134
0.0700237,0.012220975902566501
0.0705417,0.012123840215322316
0.0710483,0.012308729612668311
0.07146759999999999,0.012240141059463146
0.0725333,0.012506502096021006
0.0776327,0.002444534768280732
0.0779063,0.0022065673718848163
0.0784095,0.0008622235144606581
0.0760713,0.013279809687809703
0.0761941,0.01319436437313716
0.07776279999999999,0.013730915570347085
0.07737279999999999,0.013352784585163417
0.07861939999999999,0.013511984920391558
0.0794481,0.01384347841203375
0.0799304,0.013912479731042437
0.0806658,0.01398503407058973
0.08184620000000001,0.01431990324920761
0.0823696,0.01432755074982772
0.0873275,0.0011630929312254738
0.0829966,0.014231485111852835
0.0852885,0.015216829734431107
0.0854656,0.01531813045018513
0.08504629999999999,0.014885670589530053
0.0852873,0.014842446017718537
0.0856174,0.014802544580052594
0.0899094,0.001034432555129193
0.08589179999999999,0.014792973420587973
0.09138120000000001,0.001188057125450344
0.0925863,0.0014781425318434085
0.0917448,0.0011965547579985169
0.0883111,0.015425244384521829
0.0886764,0.0154065520636153
0.0893276,0.015225025803298695
0.0902511,0.01569245868739362
0.0904932,0.015656172320632312
0.0915536,0.015850085335907677
0.09160090000000001,0.01571096514787611
0.09336330000000001,0.016248544003489462
0.0940397,0.01633185041601567
0.09906190000000001,0.0013681346140721035
0.100454,0.0017948317779421887
0.0956198,0.016507776563385715
0.0961644,0.016576494866057917
0.0973073,0.016933263760027677
0.09762180000000001,0.016878045086903742
0.0981346,0.016920824830171054
0.0995743,0.017099746730093207
0.1002994,0.017283535544943728
0.0995398,0.0172886440301141
0.0997339,0.01762286257772367
0.1000057,0.01835717047943694
