mean_accFULL,stdev_accFULL, mean_timeFULL, stdev_timeFULL
94.0,0.0,0.142043,0.0036212948267466726
mean_accI,stdev_accI
50.0,0.0
50.0,0.0
50.0,0.0
50.0,0.0
50.0,0.0
50.0,0.0
50.0,0.0
50.0,0.0
50.0,0.0
50.0,0.0
50.0,0.0
51.769226,0.0
52.30769299999999,0.0
53.76923000000001,0.0
53.84615699999999,0.0
53.84615699999999,0.0
53.84615699999999,0.0
53.84615699999999,0.0
53.84615699999999,0.0
53.84615699999999,0.0
53.84615699999999,0.0
55.769234,0.0
56.30769,0.0
56.923073,0.0
57.23076999999999,0.0
57.461536,0.0
57.53846,0.0
57.53846,0.0
57.615387,0.0
57.69230700000001,0.0
57.69230700000001,0.0
61.384617000000006,0.0
61.538464,0.0
61.538464,0.0
61.538464,0.0
61.538464,0.0
61.538464,0.0
61.538464,0.0
61.538464,0.0
61.538464,0.0
61.538464,0.0
64.307693,0.0
64.53846,0.0
64.846153,0.0
64.846153,0.0
64.92308,0.0
64.92308,0.0
65.0,0.0
64.92308,0.0
64.92308,0.0
64.92308,0.0
68.0,0.0
68.46154,0.0
68.615379,0.0
68.769226,0.0
68.769226,0.0
68.769226,0.0
68.769226,0.0
68.769226,0.0
68.769226,0.0
68.769226,0.0
71.53846,0.0
72.153847,0.0
72.07692,0.0
72.307693,0.0
72.307693,0.0
72.307693,0.0
72.307693,0.0
72.307693,0.0
72.307693,0.0
72.307693,0.0
74.0,0.0
74.384613,0.0
75.230774,0.0
75.230774,0.0
75.307693,0.0
76.0,0.0
76.076927,0.0
76.076927,0.0
76.076927,0.0
76.076927,0.0
76.692307,0.0
77.46154,0.0
78.0,0.0
78.153839,0.0
78.07692,0.0
78.230766,0.0
78.230766,0.0
78.230766,0.0
78.46154,0.0
78.53846,0.0
80.46154,0.0
80.769226,0.0
81.384621,0.0
81.46154,0.0
81.692307,0.0
81.384621,0.0
81.53846,0.0
81.769234,0.0
82.0,0.0
82.076927,0.0
84.692307,0.0
85.07692,0.0
85.0,0.0
85.384613,0.0
85.615387,0.0
85.615387,0.0
85.692307,0.0
85.692307,0.0
85.692307,0.0
85.846153,0.0
87.0,0.0
88.0,0.0
88.230774,0.0
88.307693,0.0
88.307693,0.0
88.153847,0.0
88.230774,0.0
88.230774,0.0
88.230774,0.0
88.461533,0.0
91.615387,0.0
91.692314,0.0
91.923073,0.0
91.692314,0.0
91.692314,0.0
91.615387,0.0
91.53846,0.0
91.53846,0.0
91.53846,0.0
91.53846,0.0
94.384613,0.0
94.846153,0.0
94.846153,0.0
94.92308,0.0
94.846153,0.0
94.846153,0.0
94.846153,0.0
94.846153,0.0
94.846153,0.0
94.769226,0.0
mean_timeI,stdev_timeI
0.0060127,0.00033595735509800125
5.3700000000000004e-05,8.920014947670584e-06
5.4e-05,1.1489125293076058e-05
5.2400000000000007e-05,9.686187187031966e-06
5.8e-05,2.4944382578492945e-06
5.94e-05,1.1927559124425527e-05
6.78e-05,1.967965672690682e-05
7.58e-05,1.6784913861361734e-05
8.19e-05,1.859778959386781e-05
8.180000000000001e-05,1.741519132507274e-05
8.83e-05,2.983286778035259e-06
0.0001357,1.441488428288236e-05
0.00013890000000000002,2.424412872795761e-06
0.0001483,2.4060109910158116e-06
0.00015920000000000002,3.047767853509994e-06
0.0001632,3.0669565080421705e-05
0.0001697,3.195500308593667e-05
0.0001719,2.9072514702225382e-05
0.0001782,3.402874601797068e-05
0.0001926,3.57714970332526e-05
0.0001988,3.7418949447810235e-05
0.000201,3.6917325050562495e-05
0.000216,4.107175293177647e-05
0.0002246,4.2066613840431705e-05
0.00023500000000000002,4.50579873299088e-05
0.0002362,4.4466716641651076e-05
0.0015367,0.0009299149363726174
0.0012464,0.0009336427106292379
0.0013406,0.0009836622274834884
0.0012803,0.0009582217384300984
0.0009670999999999999,0.0006121434926188103
0.0010484000000000001,0.0006973271510242202
0.0010162,0.0006574653011545341
0.0009019,0.000556203489940707
0.0008566000000000001,0.00044979704065031123
0.0010107,0.0004992251885561153
0.0010431,0.000663697965108293
0.0010194,0.0006830903958400299
0.0011743,0.0008794761129975807
0.001085,0.0007092258690525419
0.0011732,0.0007478894451870692
0.0012182999999999999,0.0006667500031246095
0.0012185,0.0007618425398699888
0.0013457,0.0008015636177705006
0.0012077,0.0007941841446135497
0.0011726,0.0007583239120293884
0.0012366,0.0005975126590941632
0.0014929,0.0009077910246551485
0.0012613,0.0007207417552617426
0.0014137,0.0008450577955251213
0.0015309,0.0008681358636629279
0.0016070999999999998,0.0009412580765479076
0.001322,0.0007340219494144723
0.001295,0.0007566115985835209
0.0013055,0.0007356264526087802
0.0013763,0.0007898420446871357
0.0016595,0.0008579809956455265
0.0015011999999999998,0.0008905230423121509
0.0014173999999999999,0.0009020362397253105
0.0015394000000000002,0.0008332385546101962
0.001646,0.0007961272930044961
0.001667,0.0007661112480863627
0.0016386999999999999,0.0008256340391884692
0.0014265,0.0007938844374340639
0.001557,0.0009537446665061299
0.001494,0.0008432903809878698
0.0015156000000000002,0.0007019908514756839
0.0015991000000000002,0.0008476260247171378
0.0015153,0.0009087867431055783
0.0014321,0.0007898757215888811
0.0016303000000000001,0.0007549231086673663
0.0018430999999999999,0.0009238306061659187
0.0017901999999999998,0.0008388747489610379
0.0015723,0.0007007857574022019
0.0015332,0.0007728532705357322
0.0017119,0.0009518414258688261
0.001597,0.0009329415844521028
0.0015533,0.0006592981200573161
0.0014824,0.0006652917822696712
0.0016561,0.0009014141297613063
0.0016427,0.0006759618743357909
0.0018049,0.0008080605656618679
0.0019464000000000003,0.0009343852643434733
0.0017649000000000002,0.0009983237562144968
0.0017509000000000001,0.0009124549851910504
0.0016765999999999999,0.0009234349161930387
0.0015834999999999998,0.0007789354915524135
0.0016798,0.0006699799001960183
0.0015958,0.0008081072261085707
0.0015845000000000002,0.0008398574283769836
0.0019898,0.0007675578588397533
0.0020169,0.0009104597678584644
0.0019290000000000002,0.0008666619230639414
0.0018252000000000001,0.0009272591391359326
0.0016814,0.000809566715389576
0.0016533,0.0007581250336630935
0.0018825,0.0009652847881440079
0.0020682,0.0009056797079173924
0.0020258,0.0010222222850241526
0.001838,0.0008817918625667221
0.0017655000000000001,0.0006611276982046157
0.0017524,0.0006237364471918854
0.0019002000000000001,0.000735336778474855
0.0019925999999999998,0.0009598347311444357
0.0021724,0.0011186625148909845
0.0020309,0.0010584163694459337
0.0017576999999999998,0.0007729622744854873
0.0015986,0.0006671053889753852
0.001807,0.0005855193326346184
0.0020982,0.000830439482041487
0.0021938,0.0009747123564302332
0.0022452,0.0009257658451249969
0.0018445,0.0006485885958499939
0.0017269,0.0006878093162756343
0.0016483000000000001,0.0006427423969903408
0.0019705,0.0009382507660535108
0.0022428,0.0009293665465131493
0.0023232,0.0009180555296688516
0.0019507,0.0005866816380665449
0.0018667,0.0004896838095478891
0.0017557,0.0006431932576346449
0.0020942,0.0009659791578151846
0.0021914,0.0010553971553664313
0.0019892,0.000904910775221022
0.0018244,0.0007540520465384925
0.0019238999999999999,0.0005537898618710089
0.0021058,0.000792914707476998
0.0021913,0.0008889098254478785
0.0022291999999999998,0.0010430393409007481
0.002035,0.0009442334927807258
0.0019091,0.0007316965749392147
0.0019198,0.0006865473682775929
0.002108,0.0006630381252654749
0.002216,0.0007554326207177211
0.0024018,0.0008936919429472826
0.0022052,0.0007353163793754208
0.0020979,0.0005525384752817369
0.0020345,0.0005412418334000268
0.0023162,0.0008495369719245106
0.0024165,0.0009587710015083546
0.0024344,0.0008925820472713481
mean_timeC,stdev_timeC
0.0049984,0.0009678652569214144
0.005328299999999999,0.0010341864274233472
0.0060681,0.0001390670901239957
0.005987,0.001352442563988907
0.0061236,0.0019364651759785864
0.0068933,0.001557737536728615
0.0074256,0.0016805320718285752
0.007967100000000001,0.001801230656461792
0.008532,0.0019334832700480125
0.009745199999999999,0.00013854626182855577
0.0108706,0.0006361144551100849
0.0116985,3.951441368524751e-05
0.0125897,3.557168037139148e-05
0.0136595,0.0003603761152524465
0.0137943,0.0027139286427203236
0.014505200000000001,0.002818403440878463
0.0153813,0.0030253060836880623
0.016317699999999997,0.003214568090912232
0.017189299999999998,0.003378662853523236
0.0180348,0.003534897414824556
0.018926699999999998,0.0036957005064443917
0.0198107,0.0038914249046960794
0.020710899999999997,0.00407802892066471
0.0216944,0.004246421008069947
0.0225566,0.00444745195964311
0.023431,0.004620401112938621
0.0244023,0.004816162073915518
0.0253802,0.0050429483395683875
0.0261794,0.005173864925436947
0.027001900000000002,0.0052111182090688445
0.027783600000000002,0.005426578914114408
0.028776599999999996,0.005663490211678465
0.0304641,0.006181076613341725
0.030645299999999997,0.006011405216567735
0.0335185,0.0004912331987514244
0.0326804,0.006455440138191801
0.0333183,0.006527499658283322
0.0340028,0.006603358855747414
0.0351928,0.006836774544898916
0.0357675,0.006971592600610629
0.0367348,0.007133397800331744
0.0382092,0.007575879777293197
0.041453000000000004,0.0008586306928282199
0.0397206,0.007808480862355864
0.042983900000000005,0.0004709023135310436
0.0441183,0.0006066161242682415
0.0448208,0.0005710582379329721
0.0462213,0.0010754182700491715
0.0467192,0.0006181184352533102
0.0482034,0.000921674707620137
0.046233800000000005,0.009180669847263023
0.047424100000000004,0.009355307518551523
0.0481432,0.00953764351049741
0.0487909,0.009575833569170071
0.049617,0.009755810678769858
0.0535342,0.0006927694501860713
0.0512642,0.009968454965540045
0.0555126,0.0007428503961842606
0.0564899,0.0008328627271178737
0.05753200000000001,0.0009300388283411723
0.0580063,0.0006138452664239668
0.0593778,0.001402429463466878
0.058807,0.004866109739822973
0.0609262,0.0017633524762666018
0.0599002,0.006405767172374178
0.0631002,0.0011324418846997055
0.0623988,0.004929994834344825
0.0630833,0.006135437792040596
0.0652532,0.0001637245654547065
0.0668366,0.00106963329126284
0.06811009999999999,0.0016050017964683622
0.06828419999999999,0.00031962749151681846
0.06584609999999999,0.012912556846814739
0.0676655,0.013486059948867365
0.0674553,0.013051158212119635
0.068077,0.013199055892163062
0.0738738,0.0013195362653430766
0.0701952,0.013653654909949936
0.0750771,0.0007630314468545107
0.0762243,0.001155748727977767
0.07727809999999999,0.0011017980708318952
0.0782992,0.0017222552269238922
0.074724,0.014690029294275308
0.075461,0.014698817866300224
0.0767408,0.014950452083837166
0.0776909,0.015286111092171945
0.0830975,0.0013117953981725435
0.07992780000000001,0.015817409809025833
0.0850981,0.002182188730507872
0.08589820000000001,0.0017280452540370597
0.0865307,0.0009748555505532326
0.0879654,0.0013883817278480077
0.0828922,0.016050290490967584
0.0842031,0.0164979029202704
0.0846999,0.01652464284670356
0.0854374,0.016414055868201632
0.0861549,0.01663757670956521
0.08766739999999999,0.017128413464831536
0.0943391,0.0015402326267302754
0.09508649999999999,0.0016308563701319617
0.0968154,0.002462463319523766
0.0963588,0.0006290733573192324
0.0930655,0.01857741518469253
0.0936268,0.01862287312718183
0.0930604,0.018031130760129518
0.0960574,0.01936685243858118
0.1012973,0.0015878069467035352
0.1033373,0.002388620338652048
0.10371269999999999,0.0023980238183415373
0.10453300000000001,0.0029293784323641075
0.10560270000000001,0.00283325207922706
0.10011650000000001,0.01929007530801497
0.1000173,0.019289832296085704
0.1008176,0.019609638096269567
0.1036284,0.02066894082756379
0.1101286,0.003205614629919756
0.10976179999999999,0.0011865845289925384
0.1122836,0.0019778629432350013
0.1126381,0.002060649813907147
0.1060593,0.020393617487668374
0.10646960000000001,0.020593759001751533
0.1082635,0.021224572694298362
0.1083315,0.020970604512295564
0.1106833,0.02180196736815791
0.11824140000000001,0.0015821084525264228
0.11860600000000002,0.0019931968180677876
0.12002679999999999,0.0020343852361066946
0.1132412,0.021880756805924242
0.1143243,0.022013672933227455
0.1158941,0.02275056719903435
0.1166055,0.022821392070939833
0.1230995,0.0001832255743915462
0.1243571,0.0011339691794753537
0.1259488,0.0017048874058619434
0.1269388,0.0021268891628646535
0.12722329999999998,0.0006834034191700682
0.1283299,0.001162497068096663
0.13057590000000002,0.003503630765997526
0.1301594,0.0015706566355084303
0.1317968,0.002167893847339704
