mean_accFULL,stdev_accFULL, mean_timeFULL, stdev_timeFULL
89.855072,0.0,0.18837790000000001,0.033481595108191736
mean_accI,stdev_accI
50.0,0.0
50.724636,0.0
50.724636,0.0
50.724636,0.0
51.376811999999994,0.0
51.449276,0.0
51.449276,0.0
51.811592,0.0
51.884056,0.0
52.028984,0.0
52.75362,0.0
52.75362,0.0
52.75362,0.0
53.260868,0.0
53.33332800000001,0.0
53.405792,0.0
53.405792,0.0
53.405792,0.0
53.405792,0.0
54.05797199999999,0.0
54.05797199999999,0.0
54.05797199999999,0.0
54.78261199999999,0.0
54.78261199999999,0.0
54.637684,0.0
55.217392,0.0
55.36232,0.0
55.36232,0.0
55.579711999999994,0.0
55.7971,0.0
55.94202800000001,0.0
56.666668,0.0
56.666668,0.0
56.594204000000005,0.0
57.318844,0.0
57.318844,0.0
57.318844,0.0
57.6087,0.0
57.6087,0.0
57.68116,0.0
58.188408,0.0
58.188408,0.0
58.188408,0.0
58.26087199999999,0.0
58.4058,0.0
58.55072800000001,0.0
59.275364,0.0
59.275364,0.0
59.275364,0.0
59.92753600000001,0.0
60.000004000000004,0.0
60.000004000000004,0.0
60.07246399999999,0.0
60.579711999999994,0.0
60.579711999999994,0.0
61.231888000000005,0.0
61.231888000000005,0.0
61.231888000000005,0.0
61.73912800000001,0.0
61.811595999999994,0.0
61.811595999999994,0.0
62.391304000000005,0.0
62.391304000000005,0.0
62.463768,0.0
62.463768,0.0
62.536232,0.0
62.753624,0.0
63.47826,0.0
63.47826,0.0
63.47826,0.0
64.202896,0.0
64.202896,0.0
64.202896,0.0
64.782608,0.0
64.927536,0.0
64.927536,0.0
65.507248,0.0
65.507248,0.0
65.507248,0.0
66.014496,0.0
66.159424,0.0
66.159424,0.0
66.666672,0.0
66.666672,0.0
66.884056,0.0
67.246376,0.0
67.536232,0.0
67.536232,0.0
68.260864,0.0
68.260864,0.0
68.260864,0.0
68.768112,0.0
68.913048,0.0
68.985512,0.0
69.202896,0.0
69.202896,0.0
69.347832,0.0
69.492752,0.0
69.63768,0.0
69.63768,0.0
69.63768,0.0
69.782608,0.0
69.927536,0.0
70.652176,0.0
70.652176,0.0
70.652176,0.0
71.014496,0.0
71.304352,0.0
71.376816,0.0
71.95652,0.0
72.101448,0.0
72.101448,0.0
72.101448,0.0
72.173912,0.0
72.246376,0.0
72.463768,0.0
72.608696,0.0
72.753616,0.0
73.478264,0.0
73.478264,0.0
73.478264,0.0
73.623184,0.0
73.91304,0.0
73.985512,0.0
74.710152,0.0
74.710144,0.0
74.710144,0.0
75.0,0.0
75.434784,0.0
75.434784,0.0
75.507248,0.0
75.942024,0.0
76.014488,0.0
76.5942,0.0
76.5942,0.0
76.666672,0.0
77.31884,0.0
77.173912,0.0
77.101448,0.0
77.826088,0.0
77.826088,0.0
77.826088,0.0
78.260872,0.0
78.333336,0.0
78.260872,0.0
78.913048,0.0
78.985504,0.0
78.985504,0.0
79.202896,0.0
79.202896,0.0
79.27536,0.0
79.927536,0.0
79.855072,0.0
79.855072,0.0
79.927536,0.0
80.0,0.0
80.289856,0.0
80.434784,0.0
80.797104,0.0
80.869568,0.0
81.08696,0.0
81.44928,0.0
81.521736,0.0
81.594208,0.0
81.739136,0.0
81.811592,0.0
82.173912,0.0
82.31884,0.0
82.31884,0.0
82.753624,0.0
82.826088,0.0
82.826088,0.0
83.4058,0.0
83.478256,0.0
83.478256,0.0
84.202896,0.0
84.202896,0.0
84.202896,0.0
84.63768,0.0
84.782616,0.0
84.782616,0.0
85.072464,0.0
85.217392,0.0
85.289856,0.0
85.72464,0.0
85.869568,0.0
85.869568,0.0
85.942032,0.0
85.942032,0.0
86.08696,0.0
86.44928,0.0
86.666664,0.0
86.8116,0.0
87.536232,0.0
87.536232,0.0
87.536232,0.0
88.04348,0.0
88.04348,0.0
88.260872,0.0
88.260872,0.0
88.478264,0.0
88.623192,0.0
89.347824,0.0
89.347824,0.0
89.347824,0.0
89.347824,0.0
89.347824,0.0
89.420288,0.0
89.927536,0.0
90.0,0.0
90.0,0.0
mean_timeI,stdev_timeI
0.0001807,5.121848624601605e-06
4.84e-05,4.5752959831395965e-06
5.550000000000001e-05,9.71825315807551e-07
6.91e-05,7.378647873726198e-07
6.56e-05,1.1737877907772699e-06
7.89e-05,1.286683937707919e-06
0.0001063,1.0593499054713773e-06
8.47e-05,8.232726023485687e-07
9.37e-05,1.2516655570345733e-06
0.00012069999999999999,2.6687491868330784e-06
0.000101,8.164965809277238e-07
0.0001134,1.4298407059684829e-06
0.0001518,1.4164117417693991e-05
0.0001248,7.842901957254795e-06
0.00013649999999999998,1.0801234497346404e-06
0.0001809,9.944289260117562e-07
7.08e-05,1.316561177208769e-06
0.00010660000000000002,8.432740427115655e-07
0.00010779999999999999,3.881580434135902e-06
0.0001495,1.4337208778404424e-06
0.00016230000000000001,1.1595018087284025e-06
0.0002111,3.3149493041204895e-06
0.0001783,1.5684741346643593e-05
0.0001829,2.4244128727957554e-06
0.00023920000000000001,2.485513584307634e-06
0.0002055,1.5811388300841854e-06
0.0002049,1.1005049346146088e-06
0.0002596,1.5055453054181642e-06
0.00022019999999999999,2.043961295567456e-06
0.0002166,4.247875285886402e-06
0.0002924,6.834552736727633e-06
0.0002275,1.5811388300841976e-06
0.00027780000000000003,0.00013542837385291325
0.0003085,2.0138409955991024e-06
0.0002553,2.002775851439979e-06
0.0002489,1.969207398365594e-06
0.0003327,5.498484639728778e-06
0.0002691,4.254409477236519e-06
0.00027529999999999997,5.498484639728781e-06
0.0019537,0.0004399111147594351
0.0010187,0.0002379799478013968
0.0009620999999999999,0.00017164138972481746
0.0010304000000000001,0.00019332655160519355
0.0010414,0.00021627307840885895
0.0010107,0.00021131022481439725
0.0011033,0.00022049945830117387
0.0010262000000000001,0.00022520351289938222
0.0010274,0.00024323751538134263
0.0011122999999999999,0.00021047831770095045
0.0010710000000000001,0.00019680503606925873
0.0010484000000000001,0.00018046864917024602
0.0011632,0.00019472076873764077
0.0011272,0.000272917895671533
0.0010498999999999999,0.0002022135559803601
0.0011683000000000002,0.00023897468485176415
0.0010935,0.0002304957218209869
0.0010652,0.00022386146509740254
0.0012271,0.00026808682258634876
0.0011237,0.0002022523451313015
0.0011027,0.0001797269843092263
0.0012090999999999998,0.0001942206362762607
0.0011242000000000001,0.0002225767283432839
0.0011987,0.0003760857024077831
0.0012829999999999999,0.0002649524066276391
0.001192,0.0002559266387940975
0.0011632,0.0002250771719507186
0.0013186,0.00021159878176502917
0.0012106999999999999,0.00020071098624639357
0.0011754,0.0002100524802149321
0.0013161,0.00020705310644587995
0.0012379,0.0002264535517741135
0.0012267,0.0001957475982540328
0.0013386000000000001,0.00019956018306933545
0.0013134,0.0003271126887039252
0.0012999,0.00036083866816687544
0.0014059,0.00025118096619325636
0.0012805,0.00020177283706628542
0.0012328,0.00018961469703937336
0.0014472999999999999,0.000268439958111886
0.0013523,0.00033514973436427547
0.001316,0.00020621348161553357
0.001529,0.00019953946977979074
0.001386,0.00020755722102591375
0.0013396,0.00017740925692997096
0.0015278,0.00018970725986225317
0.0013784,0.00018905155087670897
0.0013958,0.00019431806686747146
0.0015436,0.00017610236921871452
0.0014066,0.00020237599769845348
0.0013491,0.00018703502345817478
0.0015344999999999998,0.0001978777681072614
0.0014062,0.0002303276892699713
0.0014202,0.00021931854053458918
0.0015856,0.00018561441514901563
0.0014325000000000002,0.00020133071190346386
0.0014509,0.00020741715883161105
0.0016701,0.0001884359307563184
0.0015227,0.0002211862211903003
0.0015019,0.0002439027356231259
0.0016625999999999998,0.00020779701634046624
0.0014869,0.00024406531457332845
0.0015061,0.00023153183126492326
0.0016941999999999999,0.00025778147506927044
0.0015283,0.00021909817687765253
0.001454,0.00022932025156487552
0.0016617,0.00020645475694850603
0.0015304,0.00023216000229726625
0.0014838,0.00023776309404297568
0.0017274999999999999,0.000239240116479936
0.0015499,0.00023456790061728393
0.0015167,0.00023027136165837034
0.0017474,0.00021485250754878335
0.0015708,0.00024202837299236907
0.0015979,0.0002175471596382418
0.0018308999999999999,0.00018716864053574788
0.0016593,0.00024136834460586955
0.0016373,0.00022282830959183703
0.0018568,0.0002107630581166127
0.0016468,0.00021679524390027046
0.0016215000000000001,0.00019906238553110258
0.0018353000000000002,0.00021804945922122035
0.0016691000000000002,0.0002968203534500662
0.0016683,0.0002721723514409369
0.0018944000000000003,0.0002705361754409607
0.0017069000000000001,0.00030636523228910224
0.0016483000000000001,0.00029319165138940167
0.0019165000000000002,0.0003085799914302791
0.0016608,0.0002632990695008245
0.0016595,0.0002560652043696857
0.0019200000000000003,0.000244833276605394
0.0017142999999999998,0.00025653938402427713
0.0017100000000000001,0.0002684300032907399
0.0019814999999999998,0.00029428529241763566
0.0017469000000000002,0.0002525841773877902
0.0017085,0.00019983229079516764
0.0019864,0.00019907519517341514
0.0017255,0.00021869118256878433
0.001804,0.00030894767626034455
0.0020336,0.00029446682514522944
0.00179,0.0002881060761440326
0.001745,0.0002205180768604294
0.0019849,0.00024777160181640404
0.0017645,0.0002470421691398724
0.0017954999999999998,0.00029915445657534317
0.0020133,0.00031637181009410776
0.0017335,0.0002970201078116505
0.0017136999999999999,0.0002930601189744748
0.0019797,0.00025981191915178434
0.0017562,0.0002992445302572611
0.0017347999999999999,0.00022295879041253841
0.002138,0.00036549236198129593
0.0017266,0.0002556369821967601
0.0017266,0.0003048144061920667
0.0020197,0.0003162636206992163
0.0017673,0.00031210754912725555
0.0016977,0.00022916808484409667
0.0019767,0.00022716711909957394
0.0017180000000000001,0.0003151197303318921
0.0016859,0.0002784007702735194
0.0019449,0.00025096234777352555
0.0017031999999999998,0.0002841880441616861
0.00166,0.00027290413457231946
0.0019217000000000001,0.00027664058109957604
0.0017058,0.0003584530962653583
0.0017503999999999998,0.00035140012015428293
0.0021024999999999998,0.0003735845137166273
0.0018591,0.00043172044710025544
0.0018476,0.00039853682389460576
0.0021621,0.00042088173319037426
0.0018713,0.00040366131292898945
0.0018005,0.00039078930100218683
0.002051,0.0003679082011106092
0.0018133,0.00033049694905298795
0.0017871999999999999,0.00030959931093807897
0.0020439,0.00030593116509727765
0.0018502000000000002,0.00032514912817898734
0.0018147,0.00034115524325444566
0.0020787,0.0003520224266845635
0.0018194,0.0003215991984511847
0.0018457999999999999,0.0003213664574905104
0.0021943,0.0003681243902088894
0.0018460999999999998,0.00031542509235774015
0.0018594,0.00032846687639530547
0.002183,0.00026235556873152973
0.0017884,0.00032069029711961455
0.0018195,0.00032072738510385357
0.0020346,0.0002626633671535573
0.0017950000000000002,0.00022161929318340295
0.0017913000000000002,0.0002739375638514895
0.0020661,0.00029923660278188634
0.0018061000000000002,0.0003269986238503153
0.0017989999999999998,0.00030147415588515486
0.0021058,0.00031947241230225533
0.0018593,0.0004627111049744394
0.001831,0.00039605190456695326
0.0021976,0.00031799587698235615
0.001886,0.0003260794040993356
0.0017961000000000001,0.00022512784022515837
0.0021403,0.0003699033056834658
0.0018772,0.00035099882874131894
0.0018497,0.00035277032188096554
0.002139,0.0003259812537214032
0.0018787,0.00032531115019999616
0.0019149,0.0002930299377955168
0.0022106,0.0003907509010439601
0.0018947999999999999,0.00028973735232678123
0.0018622,0.00039111402145381824
0.0021809,0.0003666171027107164
0.0019348,0.00038737314769554627
0.0019167,0.00046740561732943594
0.0022467,0.0004445842127451471
mean_timeC,stdev_timeC
0.0032377000000000005,5.4984846397287565e-06
0.004440899999999999,1.2059574342958097e-05
0.0060423000000000004,8.111035007253319e-06
0.0072377,1.0414199707877397e-05
0.0084495,0.0001889098844540549
0.0099428,1.3339998334166075e-05
0.0112385,0.0003070360999404899
0.012355,2.95559732635477e-05
0.0140636,0.00022555373836159067
0.0152603,0.0002805621539378076
0.016537,0.0002907037438126084
0.0179673,0.00011346467879183059
0.0193247,0.0001651847786907476
0.020364399999999998,0.000173562796832859
0.022034,0.00019834089621434845
0.0224079,0.00020658732347901307
0.023084,0.00014093576156848505
0.0238748,0.00014831333198483688
0.0251259,0.0004482830083279478
0.0263459,0.0005205752053684884
0.0279203,0.0002657279519441726
0.0290702,0.0004260398520743757
0.0302166,0.0002370415809749658
0.0317557,0.0002166856658336629
0.0329156,0.00026760177710753383
0.0342321,0.00029710172219853104
0.0357793,0.0002593749109772279
0.0368902,0.00023302923040301667
0.0381861,0.0002992807860336002
0.0391069,0.00014056271830673273
0.040352,0.00026896261615490165
0.04142,0.0001825425368996983
0.0428834,2.972167185367896e-05
0.044328,0.0005945138069604989
0.0453906,0.0002455774148138765
0.046818900000000004,0.0002630405334206537
0.0481645,0.00040282840294872786
0.0494237,0.0004303448358906821
0.0508918,0.00038576728736376854
0.051988999999999994,0.0003246995192139619
0.0531592,0.000238753615446739
0.05487260000000001,0.00041755750103029753
0.0560505,0.0003580587319917717
0.057267,0.001112124493430879
0.059049,0.001128280599457028
0.0599407,0.0005143449015765372
0.061027399999999996,0.0005141195710467873
0.0629806,0.0013446227227987277
0.06381129999999999,0.0005109659806027532
0.0651813,0.0006540713603609645
0.0664082,0.0004148886865440189
0.0679604,0.001245414540535713
0.0691804,0.0014757308697726712
0.07054930000000001,0.0006136700253393521
0.0714522,0.00037674211633718663
0.0728603,0.0005366279592666293
0.0741607,0.000420188595223093
0.07574689999999999,0.0007198210348567367
0.07674410000000001,0.0005756153132856091
0.07823169999999999,0.0005719184188131877
0.07994029999999999,0.0012873854684764961
0.08098140000000001,0.0005668074727022484
0.0821871,0.0005466714329060534
0.0833816,0.000596936475310026
0.0849017,0.000562978596395992
0.0865003,0.0006103798544076184
0.0876509,0.001589094113009045
0.089308,0.0017269389746665097
0.0902741,0.0008385806063422478
0.0916829,0.0008773442818465791
0.0923725,0.0005936099074495157
0.09467909999999999,0.0007845256811886041
0.0951534,0.0008935385585163945
0.0964614,0.0008495837150563142
0.09837739999999999,0.0007315676014939107
0.09892039999999999,0.0005171170510091945
0.09997510000000001,0.00040002540197120354
0.10181389999999998,0.0006107202396442318
0.1028999,0.0007239854894187355
0.10414730000000001,0.0008233767937247487
0.10590079999999999,0.002227094709356665
0.10739309999999999,0.002402404325762932
0.1077434,0.0005863749653591986
0.1092028,0.0005213320119335364
0.11072610000000001,0.0008882732875266109
0.11172629999999999,0.0008923646551594112
0.11340429999999999,0.0009388334428072614
0.11427119999999999,0.0007709988903292206
0.1153605,0.0008177862054215484
0.11679919999999999,0.0006820892414730856
0.11802710000000001,0.000677103217143935
0.11900669999999999,0.0006446411663346788
0.12042489999999999,0.0008835996391025861
0.1218813,0.0008297500359880809
0.12293670000000001,0.0007992646689996427
0.12479009999999999,0.0009819340835537024
0.12557559999999998,0.00027061830438214403
0.1268446,0.0008576273731120702
0.1286726,0.0014652356807012329
0.1276065,0.004449298203087765
0.1288876,0.004531358103997815
0.1317598,0.0007663807872794728
0.1326758,0.003536297021210497
0.1339454,0.003290621123401748
0.13669320000000001,0.0011850481284178577
0.1363752,0.0035624806213897854
0.1373888,0.003424932855789535
0.1392588,0.001445469151060192
0.1387821,0.004719941276706266
0.1403829,0.005182400676005926
0.14318550000000002,0.0011152838452858317
0.1431103,0.004010734431220517
0.143601,0.004380021156722114
0.14620899999999998,0.0038929443869647035
0.1465174,0.004826896891378555
0.14954309999999998,0.004026988934399717
0.14962820000000002,0.004223414253368422
0.15069269999999998,0.005527239637568746
0.1527007,0.0038619794018093893
0.1535612,0.0028646431540420556
0.1540167,0.0053421522514598705
0.1534416,0.006553670238881415
0.15500560000000002,0.007096358051846034
0.1550763,0.006999900968347105
0.1586792,0.004992184086705495
0.1577186,0.005212984157104472
0.1566962,0.0064997944890588695
0.15945,0.006975105606528279
0.16037479999999998,0.008238600161570058
0.1609397,0.008478236622867591
0.1651768,0.006348701561036804
0.1671092,0.006405394944888255
0.1665693,0.007344290799283783
0.16810640000000002,0.007241249665017154
0.1690131,0.007405981103135493
0.1685198,0.007137442193577942
0.1717761,0.00779715901894188
0.1715027,0.0067551022206263555
0.1715446,0.006700100997580395
0.17253829999999998,0.007479581287300338
0.17141889999999999,0.008244825373125457
0.1710418,0.008310113327212279
0.1704635,0.0069598585274574494
0.1709405,0.006418057360119011
0.1708639,0.009295009813514632
0.17240260000000002,0.010258292041075846
0.17339359999999998,0.009590370450497612
0.1745443,0.012760201653317767
0.1769697,0.014922879957747206
0.1746008,0.013087011965218711
0.17483100000000001,0.01238538603893045
0.1750696,0.011024668382011922
0.1744858,0.011185770571976209
0.1749962,0.01421756031423426
0.1762834,0.01402160529880782
0.17227299999999998,0.00996360620792827
0.1733499,0.012053831852246082
0.1759414,0.014702476588052169
0.17553400000000002,0.014606186391008738
0.17537629999999998,0.014384289856568443
0.174207,0.015470014616095948
0.174003,0.016444923769290565
0.18240510000000001,0.02024676950610475
0.18833850000000002,0.01992574543008227
0.1932034,0.022529374904777095
0.190238,0.020765938911806732
0.188725,0.017882961667464368
0.1887719,0.019933297583301278
0.18782110000000002,0.019938167548977793
0.1879344,0.02180400918893383
0.19386019999999998,0.02446309186327663
0.1920596,0.024782935039166676
0.19551179999999999,0.023514722918961974
0.1916873,0.021036255280665647
0.1910888,0.020971739046207454
0.1964846,0.025270804736779645
0.1960924,0.024242763686418995
0.1928541,0.02346730948669754
0.1952529,0.02551380825465997
0.195198,0.02372714719472192
0.1938035,0.02241328609577612
0.1998267,0.02427994272851565
0.1987729,0.026511948557626275
0.19707,0.026311654891152537
0.1982671,0.024702206799528392
0.1939436,0.02268332379720593
0.1999803,0.02579087204182476
0.1915629,0.017604885208688838
0.19813920000000002,0.0267072056519085
0.1995547,0.02823747738595327
0.20212210000000003,0.027405964348619038
0.20901,0.03147322142887682
0.20453739999999998,0.030366418711757527
0.21295250000000002,0.029310361847154177
0.21403180000000002,0.029382701750822332
0.2080272,0.028861155793442048
0.2058216,0.027709394420585155
0.2064691,0.02969775208271944
0.20482619999999999,0.03157729831452406
0.19988679999999998,0.026703510821196864
0.2051869,0.03061587851444265
0.20201639999999998,0.03374432886739801
0.20579209999999998,0.03180239134422301
0.20094050000000002,0.024917562580325636
0.2018496,0.027091815214193387
0.2027005,0.02733677680037157
0.20146250000000002,0.026645708978078334
0.20839080000000001,0.03545719724086745
0.2075317,0.034753502672552464
0.2056904,0.034917130976069605
