mean_accFULL,stdev_accFULL, mean_timeFULL, stdev_timeFULL
89.855072,0.0,0.20479750000000002,0.028740014927893753
mean_accI,stdev_accI
50.0,0.0
50.652168,0.0
50.652168,0.0
50.652168,0.0
50.724636,0.0
50.724636,0.0
50.724636,0.0
51.086964,0.0
51.159416,0.0
51.30434799999999,0.0
52.028984,0.0
52.028984,0.0
52.028984,0.0
52.536232,0.0
52.6087,0.0
52.68116,0.0
53.405792,0.0
53.405792,0.0
53.405792,0.0
54.05797199999999,0.0
54.05797199999999,0.0
54.05797199999999,0.0
54.78261199999999,0.0
54.78261199999999,0.0
54.637684,0.0
55.217392,0.0
55.36232,0.0
55.36232,0.0
55.579711999999994,0.0
55.7971,0.0
55.94202800000001,0.0
56.666668,0.0
56.666668,0.0
56.594204000000005,0.0
57.318844,0.0
57.318844,0.0
57.318844,0.0
57.6087,0.0
57.6087,0.0
57.68116,0.0
58.188408,0.0
58.188408,0.0
58.188408,0.0
58.26087199999999,0.0
58.4058,0.0
58.55072800000001,0.0
59.275364,0.0
59.275364,0.0
59.275364,0.0
59.92753600000001,0.0
60.000004000000004,0.0
60.000004000000004,0.0
60.07246399999999,0.0
60.579711999999994,0.0
60.579711999999994,0.0
61.231888000000005,0.0
61.231888000000005,0.0
61.231888000000005,0.0
61.73912800000001,0.0
61.811595999999994,0.0
61.811595999999994,0.0
62.391304000000005,0.0
62.391304000000005,0.0
62.463768,0.0
62.463768,0.0
62.536232,0.0
62.753624,0.0
63.47826,0.0
63.47826,0.0
63.47826,0.0
64.202896,0.0
64.202896,0.0
64.202896,0.0
64.782608,0.0
64.927536,0.0
64.927536,0.0
65.507248,0.0
65.507248,0.0
65.507248,0.0
66.014496,0.0
66.159424,0.0
66.159424,0.0
66.666672,0.0
66.666672,0.0
66.884056,0.0
67.246376,0.0
67.536232,0.0
67.536232,0.0
68.260864,0.0
68.260864,0.0
68.260864,0.0
68.768112,0.0
68.913048,0.0
68.985512,0.0
69.202896,0.0
69.202896,0.0
69.347832,0.0
69.492752,0.0
69.63768,0.0
69.63768,0.0
69.63768,0.0
69.782608,0.0
69.927536,0.0
70.652176,0.0
70.652176,0.0
70.652176,0.0
71.014496,0.0
71.304352,0.0
71.376816,0.0
71.95652,0.0
72.101448,0.0
72.101448,0.0
72.101448,0.0
72.173912,0.0
72.246376,0.0
72.463768,0.0
72.608696,0.0
72.753616,0.0
73.478264,0.0
73.478264,0.0
73.478264,0.0
73.623184,0.0
73.91304,0.0
73.985512,0.0
74.710152,0.0
74.710144,0.0
74.710144,0.0
75.0,0.0
75.434784,0.0
75.434784,0.0
75.507248,0.0
75.942024,0.0
76.014488,0.0
76.5942,0.0
76.5942,0.0
76.666672,0.0
77.31884,0.0
77.173912,0.0
77.101448,0.0
77.826088,0.0
77.826088,0.0
77.826088,0.0
78.260872,0.0
78.333336,0.0
78.260872,0.0
78.913048,0.0
78.985504,0.0
78.985504,0.0
79.202896,0.0
79.202896,0.0
79.27536,0.0
79.927536,0.0
79.855072,0.0
79.855072,0.0
79.927536,0.0
80.0,0.0
80.289856,0.0
80.434784,0.0
80.797104,0.0
80.869568,0.0
81.08696,0.0
81.44928,0.0
81.521736,0.0
81.594208,0.0
81.739136,0.0
81.811592,0.0
82.173912,0.0
82.31884,0.0
82.31884,0.0
82.753624,0.0
82.826088,0.0
82.826088,0.0
83.4058,0.0
83.4058,0.0
83.4058,0.0
84.13044,0.0
84.13044,0.0
84.13044,0.0
84.565216,0.0
84.710144,0.0
84.710144,0.0
85.0,0.0
85.144928,0.0
85.217392,0.0
85.652176,0.0
85.797104,0.0
85.797104,0.0
85.869568,0.0
85.869568,0.0
86.014488,0.0
86.376808,0.0
86.5942,0.0
86.739128,0.0
87.463768,0.0
87.463768,0.0
87.463768,0.0
87.971016,0.0
87.971016,0.0
88.1884,0.0
88.1884,0.0
88.4058,0.0
88.55072,0.0
89.27536,0.0
89.27536,0.0
89.27536,0.0
89.27536,0.0
89.27536,0.0
89.347824,0.0
89.855072,0.0
89.927536,0.0
89.927536,0.0
mean_timeI,stdev_timeI
0.0001475,1.5811388300841854e-06
4.69e-05,1.197218999737864e-06
6.36e-05,4.835057163858332e-06
8.12e-05,4.289522117905443e-06
4.01e-05,1.1005049346146111e-06
5.909999999999999e-05,8.755950357709131e-07
5.29e-05,1.1972189997378656e-06
7.62e-05,1.0327955589886468e-06
8.57e-05,4.830458915396466e-07
0.0001068,1.0327955589886417e-06
9.779999999999999e-05,1.2292725943057176e-06
0.00010250000000000001,3.7785946829182092e-06
0.0001323,3.6224607965059113e-06
0.0001128,1.5491933384829677e-06
0.0001269,3.6953424138441543e-06
0.00017010000000000001,6.723920813863827e-06
0.0001343,1.1595018087284025e-06
0.0001415,1.0801234497346487e-06
0.0001702,1.229272594305726e-06
0.00015089999999999998,1.6633299933166271e-06
0.00016360000000000002,1.494582810612305e-05
0.0002049,1.8529256146249678e-06
0.0001721,4.0400770069668495e-06
0.0001807,1.4181364924121762e-06
0.0002359,4.483302354291977e-06
0.0002051,1.663329993316615e-06
0.00020470000000000002,1.8287822299126956e-06
0.0002578,3.7058512292499395e-06
0.0002247,4.762119042797833e-06
0.00021930000000000002,1.1595018087284025e-06
0.0003007,3.860051813123764e-06
0.00023600000000000002,2.0779263167344937e-05
0.00023359999999999999,2.2211108331943513e-06
0.0003124,1.0458383134011578e-05
0.00025469999999999996,2.5841396591085773e-06
0.00025309999999999997,6.789698078707184e-06
0.0003316,2.674987019698522e-06
0.0002688,2.201009869229222e-06
0.0002743,3.7133393177689694e-06
0.0019556,0.00043322875661197237
0.0011098,0.00032622037541106064
0.0009731,0.00019283870634980587
0.0010311,0.00021661919992876387
0.0009849,0.00020884308303923627
0.0010004,0.000265040541972146
0.001058,0.00020562047023041691
0.0010489,0.0002696880708439948
0.0009925,0.00022700428287687535
0.0010985,0.00020861940359313545
0.0010853999999999998,0.0002652626371479155
0.001083,0.00022267265461010496
0.0011601,0.00015787368368414033
0.0011018999999999998,0.00020757030937331412
0.0010137,0.00017719107702640608
0.0011662,0.000218777817278931
0.0010677,0.00023139866992799343
0.0010316000000000001,0.0001795049983828986
0.0011528,0.0002045318774394077
0.0011139,0.00023254555109340048
0.0010958,0.00021826833638131452
0.0013235,0.0004351506124958985
0.0011277000000000001,0.0002199353692944058
0.0011332,0.0002444334947042515
0.0012172,0.00019745030317075288
0.0012326,0.0003186907940656934
0.0011472,0.00020623761915701885
0.0012801,0.00019140559030498554
0.0011297,0.00019555451072953204
0.0011326,0.0002059127107403631
0.0012641,0.0001967527777581693
0.0011934,0.00022275357585357762
0.0012742,0.00043926954519216707
0.0013400999999999999,0.00024578918247600366
0.0012323,0.00032336771294886224
0.0012352,0.0002860857680253715
0.0013461,0.0002460331730117348
0.0012070000000000002,0.00014745017991021767
0.0011635,0.00018761737067174187
0.0013647,0.000213822382156572
0.0012829,0.0003010387387400868
0.0012174,0.00019060325285786707
0.0013419999999999999,0.00016657063900272996
0.0012257000000000001,0.00016097760368724863
0.0012238000000000001,0.00017998814775793803
0.0013892,0.00016396056436432106
0.0012499,0.00020576872130298782
0.0012482,0.0001983155734345305
0.001531,0.00033769118041982284
0.0013209,0.0002125602921003304
0.0012696,0.0001821935478794156
0.0014718,0.00018549022136550008
0.0013391,0.00021540063447755516
0.0013334,0.0002188968300871948
0.0015318,0.0002101765395513442
0.0013632,0.00021229738052500267
0.0013545,0.00020399142138825347
0.0015436999999999998,0.00021095973812818196
0.001388,0.00022861515454774406
0.0013463,0.0001660100733222067
0.0015480000000000001,0.00020078567899352003
0.0013947,0.00021840128713499431
0.0013782,0.00019461688861281625
0.0015931,0.0002114329155495373
0.0013726,0.00022904594395981877
0.0013484,0.00017787586183128448
0.001565,0.0002028590096046458
0.0014348,0.00024714359298908716
0.0013884000000000001,0.00021522866393159105
0.0016091999999999999,0.00020063886850646748
0.0014497,0.0003055530686767485
0.0014097,0.0002139356341415697
0.0016201,0.000188657508611652
0.0014811,0.00026673934426285487
0.0014732999999999999,0.00026622006352306014
0.0017025999999999999,0.00024423768023064017
0.0014926,0.0002602363028736255
0.0014891,0.00022211631087237947
0.0017468000000000002,0.00026171731993804986
0.0015379,0.00026770607846002384
0.0015133,0.00024336988309977878
0.0017347,0.000270825917847199
0.0015987000000000002,0.00030740564948180977
0.001586,0.0002808455486957595
0.0018333,0.0002600380527709145
0.0016187,0.0002833388430836831
0.0015997000000000001,0.0003116789837138347
0.0018638,0.00035596154598807747
0.0016374,0.000300919775207797
0.0015521,0.00025408767078401195
0.0018188,0.0002412531174237271
0.00166,0.0002783023934899272
0.00165,0.0002698287522773575
0.0019560000000000003,0.0002903909242536497
0.0017218000000000001,0.0003215406661683713
0.0016719,0.0003165422387121328
0.0019275,0.0002908459882633572
0.0016641,0.0003110992874737367
0.0016809000000000001,0.00034862920448841084
0.0018956,0.000288270783196016
0.0016247000000000002,0.00026103514024829
0.001642,0.00029250679004464537
0.0018695,0.00029275824307590197
0.0017072,0.00033685499682933146
0.0016178999999999998,0.0002663299749475368
0.0019131000000000003,0.00025387199311639107
0.001703,0.0003118917191020698
0.0016637,0.00027448944525346604
0.0019181,0.0002975692076363637
0.0016332,0.00033645102004435786
0.001623,0.0002896948586204303
0.0019196,0.0002996431952246613
0.0016181999999999998,0.00028783745412993075
0.0016415,0.0003531468847692447
0.0018708,0.0002989674081084945
0.0016131,0.0003288851369906116
0.0016251999999999998,0.0003731963439144482
0.0019418999999999999,0.00035772380717841835
0.0016593,0.00034171237092684315
0.0016351,0.00029327213376733295
0.0018861,0.0003387622732503986
0.0016694000000000001,0.00032230703098477733
0.0016343,0.00025871994726172764
0.0019553,0.00028637584084943723
0.0016442000000000002,0.00031253472695935014
0.0016935,0.00033464184834934596
0.0019722,0.0003028134005547897
0.0015964,0.00027785335860645784
0.0016032999999999998,0.00023447958925624585
0.0019242999999999999,0.00028573105069861296
0.0016326000000000001,0.00027685583894069405
0.0016167,0.0002900536540404589
0.0019373,0.00037611435908658304
0.0016556000000000001,0.00036429145840475956
0.0016920999999999998,0.0003467331506761039
0.0019373,0.0003394953935213587
0.0017272,0.00036172082543801037
0.0016598000000000001,0.0003104068298217679
0.0020382,0.00046561591229013835
0.0018439,0.000437769713687713
0.0019115,0.0005209871506199659
0.0021672,0.0005258334759640588
0.0017916000000000002,0.00042333916006488746
0.0017451,0.00034001158476995716
0.0021735,0.00044658637338021066
0.0017458,0.000439581315951137
0.0017062000000000002,0.00036356928118616165
0.0021241,0.0004419158919472749
0.0018047999999999999,0.0003941158318171054
0.0017620000000000001,0.00037053804722922103
0.0020608000000000002,0.00042184562737254173
0.0018485,0.00046922968789282716
0.001853,0.0004441083451391363
0.0021643,0.0005056303107123931
0.0018942,0.0004948658179524806
0.0018100999999999998,0.00039226789315466537
0.0021301000000000002,0.0004453022568997377
0.0018814,0.00042480719809762584
0.0017576000000000002,0.0003444377705446628
0.0020837,0.00030810497850209724
0.0017855,0.0003250289730675303
0.0017989000000000002,0.000335057026655331
0.0022124,0.00043621177323762263
0.0019068000000000002,0.00042603072398335047
0.0019389,0.0005042689868622808
0.0022006,0.0004912781968158843
0.0019313,0.0004408849812214821
0.0018562,0.00043162555788811005
0.0022513999999999998,0.0006130456209233807
0.0020410000000000003,0.0005864723162927454
0.0019717000000000003,0.000591831254103172
0.0023449,0.0006527991778998091
mean_timeC,stdev_timeC
0.0032523000000000005,7.7895941985304e-06
0.0044501,5.216427044549841e-06
0.0060062,9.647106647418469e-06
0.0064134,1.3475904422338378e-05
0.0071838,1.5512002521345308e-05
0.0079822,1.1013123484683734e-05
0.0091771,1.155133469921691e-05
0.0104406,0.00017851311809873594
0.012028,0.00013527749258468664
0.0132321,0.00017058946821731623
0.014446400000000002,0.00021148480376193034
0.015991,8.608135686662934e-05
0.0173219,0.00014396330550988805
0.0183853,0.00011934082844246329
0.0199892,0.00018946755805560863
0.0211449,0.0001333612054201345
0.0223993,0.00019053728127470314
0.0240403,0.0002999874256624027
0.0250294,0.00023696469497937097
0.026274199999999998,0.0002889520529238181
0.027780700000000002,0.0001819859884716398
0.0290892,0.0003401652539575434
0.030115999999999997,0.00016790672013551616
0.031831399999999996,0.00023616434955344077
0.032947500000000005,0.00022046125887934784
0.03407,0.00017093338533540666
0.0357851,0.00023980614856356232
0.036928,0.00024354283218996792
0.038162299999999996,0.0002782165623314965
0.0392318,0.00014927811479100174
0.0405364,0.0005925393939083995
0.0414927,0.00013853122391721003
0.0430879,0.00015945354600426173
0.0442961,0.00016545052969929607
0.0455352,0.000256258029684491
0.0469846,0.00020107499982731722
0.0484659,0.00037423832276000735
0.0498365,0.0008526384214764067
0.05110170000000001,0.00036592168257398774
0.0524187,0.0010599968605823533
0.0534998,0.0003354839953129076
0.0553632,0.001287904741128871
0.056628,0.0009222438819410933
0.0570692,0.00019734335560134744
0.058833899999999995,0.0004732545591727327
0.0600922,0.0004417520169104421
0.061141,0.00034993618465847896
0.06268169999999999,0.00037766682847892915
0.0638918,0.00028648009432497533
0.0655344,0.0013724339449799883
0.0667901,0.001151707085639012
0.0679371,0.0014650819051810317
0.0693169,0.0012787018981938075
0.07032160000000001,0.0003821367410873855
0.0715317,0.0004536868841931506
0.072774,0.0005749774874819965
0.0743451,0.0005638651237466088
0.0753181,0.00039827166886714733
0.0765386,0.0004872309970070091
0.0780594,0.00021897295621961012
0.07968610000000001,0.0006475906543145567
0.0806398,0.0005700915715917947
0.08232439999999999,0.0005769369694053812
0.0831123,0.00022938373961551916
0.0845531,0.00046427708441308294
0.0859606,0.00019853866122244445
0.0871291,0.0002282257410742456
0.08852960000000001,0.0006218914160312339
0.0901559,0.000722426536057472
0.0911893,0.0005883734736070665
0.0924185,0.0005957240692356358
0.0938054,0.0006082792122043953
0.0951312,0.0006736269656782524
0.0959905,0.0005529119379350682
0.09797020000000001,0.0006034662468697902
0.0986664,0.00022313035552240637
0.1001256,0.0007922659766630019
0.10271079999999999,0.002001366244455131
0.1030119,0.0007296643749012292
0.10436939999999999,0.0010427914673818775
0.10569310000000001,0.0007265885967236813
0.10692870000000002,0.0008707118479854408
0.1080028,0.000787352779889676
0.109626,0.0009459560713314791
0.1103537,0.0006993571730922319
0.1118095,0.0007497503658626042
0.11330389999999999,0.000896253244221619
0.11398939999999999,0.0006784130501889438
0.1153281,0.0007125304593879159
0.11765790000000001,0.0022637854457621303
0.11853050000000001,0.0008876081780705797
0.1192808,0.0008940551561409506
0.1206346,0.0009500717165912613
0.122059,0.0008152932669359609
0.1228361,0.0006643122508780555
0.1254849,0.0015730009853779537
0.12347349999999999,0.004070248374894748
0.1248944,0.004353127080361632
0.128134,0.001054027303040848
0.12779469999999998,0.004459943498645596
0.1290446,0.004596196403307609
0.13219039999999999,0.0011617662989316438
0.13288729999999999,0.0029736341047426947
0.1338937,0.0034715317480584536
0.1362485,0.001568356836522436
0.1363277,0.0026612094180403483
0.13761110000000001,0.0035057927127034286
0.1393634,0.0037327501389726025
0.1392918,0.005087180332299345
0.14135999999999999,0.0029479615556064044
0.1425548,0.0019429891519111623
0.1419382,0.005883819673949524
0.1443346,0.0046628282595199445
0.1462008,0.004348221035984461
0.14744949999999998,0.0037882804733077066
0.14901930000000002,0.0036894846388079703
0.1499321,0.004009593646631925
0.1493478,0.006107309041904903
0.15145809999999998,0.0052368742681107
0.1541651,0.004239261268192844
0.1553245,0.0029157311737843397
0.15798879999999998,0.0009506478259002591
0.1593647,0.0008724815247964343
0.1601166,0.0008251571163521955
0.1618079,0.0012879397372030548
0.16270800000000002,0.0025388171348965744
0.1632701,0.0037679703776259538
0.1642201,0.003662889189029759
0.16605589999999998,0.003567533833834735
0.16700969999999998,0.003449536588844625
0.168182,0.0045083192482836066
0.17020949999999999,0.004719871331814977
0.1692899,0.005880414959847652
0.1713421,0.005327216272229908
0.1702758,0.005799951279488855
0.1681457,0.00660082377098159
0.1707999,0.007126485941737191
0.1693192,0.008986779262400468
0.1694231,0.007684272111122674
0.1725405,0.006967768258201471
0.1737645,0.009386521628259202
0.17219040000000002,0.008846290851098114
0.17505759999999998,0.007030176798788368
0.17695270000000002,0.008001968911184022
0.17886470000000002,0.006463917182672169
0.1794453,0.007652654050139141
0.1739639,0.008727324541665422
0.1741936,0.011558280246934085
0.1757197,0.011979998266091512
0.1725339,0.007328947361888562
0.1761585,0.010868153448902382
0.17608459999999998,0.011453174855325779
0.17496240000000002,0.009452275566115168
0.1735999,0.01058318004560906
0.1773755,0.012698024397956994
0.1805793,0.014677724180615402
0.1807892,0.013559383588087219
0.1825632,0.013281309706166446
0.1814132,0.012405259321934566
0.1815321,0.0124846914032079
0.18304979999999998,0.012724060932824166
0.1819623,0.010229724988700553
0.1809411,0.012953332719591681
0.1881311,0.01741622255542228
0.18652660000000001,0.018786701113050985
0.1821769,0.013601223796653983
0.1840573,0.014750503208365465
0.1854763,0.014266624174780959
0.1868459,0.016990392575740497
0.1874694,0.015468979282565623
0.19135580000000002,0.01927954643196313
0.19601600000000002,0.022960118006858952
0.1978932,0.024280008639024638
0.1956695,0.023231966283310777
0.19694019999999998,0.023208518794232053
0.19322599999999998,0.020460388130347
0.20178859999999998,0.025530982825665852
0.1996772,0.025138393185634506
0.20095990000000002,0.02498000132305841
0.1970377,0.01886501660069358
0.1979564,0.019756996697091612
0.2006617,0.02369340542593609
0.20009549999999998,0.023665937689477296
0.2005459,0.021489347011691366
0.1972178,0.018566926005370115
0.20852469999999998,0.022359893808384292
0.20462660000000002,0.0234765488718707
0.20066869999999998,0.017911517846532905
0.20807539999999997,0.02558805942969841
0.2057203,0.025345906608146593
0.2075417,0.02820991384464373
0.20895989999999998,0.029584691872843814
0.2070341,0.02956134787729109
0.204532,0.026762084539304648
0.2081524,0.028504182840028546
0.20459860000000002,0.025857226237767872
0.20510060000000002,0.024124999178814034
0.20367860000000002,0.025894992094997828
0.2078178,0.025940221475110378
0.20988829999999997,0.028838673748400198
0.2166398,0.03287004475134701
0.21288810000000002,0.03254599623592569
0.21589550000000002,0.030456140841289205
0.2129864,0.027115449086370595
0.20981909999999998,0.025157256353010977
0.22679149999999998,0.030160266415895233
0.223833,0.0317428222682791
0.2252268,0.03129651068871558
0.22511589999999998,0.029130141058704123
0.22106409999999999,0.028084947116639628
