mean_accFULL,stdev_accFULL, mean_timeFULL, stdev_timeFULL
71.022224,0.0,0.0328508,0.0003960860736983543
mean_accI,stdev_accI
50.0,0.0
67.311111,0.0
65.155556,0.0
65.200005,0.0
64.08889,0.0
62.933330999999995,0.0
63.04444500000001,0.0
62.911109999999994,0.0
62.82222399999999,0.0
62.866669,0.0
62.866669,0.0
62.866669,0.0
63.288887,0.0
63.933330999999995,0.0
63.266666,0.0
63.555557,0.0
63.755554,0.0
63.622218999999994,0.0
64.577774,0.0
64.466667,0.0
64.666664,0.0
67.17778,0.0
70.26667,0.0
72.17778,0.0
71.666672,0.0
72.155556,0.0
72.17778,0.0
71.800003,0.0
71.755562,0.0
71.711113,0.0
71.26667,0.0
mean_timeI,stdev_timeI
0.011464499999999999,8.411797271293064e-05
0.000369,1.5634719199411466e-06
0.00047650000000000004,4.600724580614077e-06
0.0014919,0.0001460969617145484
0.001623,8.750365071749228e-05
0.0017232,4.8209727003767386e-05
0.0018204999999999999,5.5855468249163666e-05
0.0019456999999999999,4.617851833434633e-05
0.0020375999999999997,4.276343193794335e-05
0.0022096999999999998,0.000129057308545037
0.0022630999999999997,4.4202689712027496e-05
0.0013476999999999999,4.0287991042272406e-05
0.0013153,0.00011425901374605955
0.001312,8.346522895460387e-05
0.0012615,0.00018940506270366102
0.0013555,0.00012716677588461885
0.0013759,6.679728870079819e-05
0.0013683,4.645678995941644e-05
0.0013557,0.00020837255630773988
0.0013622,0.00018352160030301007
0.0013933,0.00014475423616906307
0.0017867999999999998,4.945210926857533e-05
0.0018284000000000002,5.336915463698732e-05
0.0018426000000000002,7.82520145285588e-05
0.0018838000000000001,4.240230601695568e-05
0.0018788,0.0001898910798911371
0.0019857,0.0001359730774005567
0.0020804,5.8338475963790654e-05
0.0020635000000000002,0.00020045739364430202
0.0021590999999999997,0.0001082922486197009
0.0020531,0.0001648766879283491
mean_timeC,stdev_timeC
0.0049927,0.00012151273367200841
0.0061931,1.3706851490323384e-05
0.007534299999999999,0.0002467049745028347
0.0090815,0.0005031258402339432
0.010449799999999999,6.77918382501415e-05
0.0121368,0.00010864294219547303
0.0136915,0.00013715137622349972
0.0152896,0.0002480498157852797
0.0165941,0.00022421589298411994
0.018240899999999997,0.00029918944202999973
0.0185689,0.00033600940793707265
0.0186448,0.00023755270760167892
0.019328900000000003,0.00035458534468681385
0.0198569,0.000368727978626822
0.0200062,0.00036449441391848205
0.0207515,0.0005223732701175794
0.0208143,0.0003914659201854829
0.0210131,0.00035628841313370483
0.021384900000000002,0.0003505796628442676
0.022023499999999998,0.00042207088662135075
0.0226348,0.00039136024893241813
0.023404,0.00039466103599587006
0.0242501,0.0004976159719658878
0.0249274,0.0005135121333630891
0.025455600000000002,0.000409320629553139
0.0265892,0.00040831382266313
0.0274506,0.0005219291565379772
0.0281379,0.0004960937299431315
0.0290741,0.0007606348883224674
0.0295751,0.0005235098322328286
