mean_accFULL,stdev_accFULL, mean_timeFULL, stdev_timeFULL
84.561043,0.0,0.0056962,8.011630434700688e-05
mean_accI,stdev_accI
50.0,0.0
71.294022,0.0
71.299721,0.0
71.772415,0.0
71.772415,0.0
71.772415,0.0
71.772415,0.0
71.772415,0.0
71.772415,0.0
71.772415,0.0
71.772415,0.0
71.772415,0.0
71.299721,0.0
71.299721,0.0
71.299721,0.0
71.299721,0.0
71.299721,0.0
71.299721,0.0
71.299721,0.0
71.299721,0.0
71.299721,0.0
84.783409,0.0
87.766289,0.0
88.063812,0.0
83.866501,0.0
84.673813,0.0
85.481133,0.0
84.529778,0.0
85.067986,0.0
84.798309,0.0
84.798309,0.0
mean_timeI,stdev_timeI
0.0012143,0.00027217031024301267
6.13e-05,2.002775851439972e-06
6.82e-05,2.2997584414213785e-06
7.48e-05,9.319036669336828e-06
7.3e-05,3.1269438398822856e-06
8.83e-05,1.7669811040931417e-06
9.389999999999999e-05,5.933895104491748e-06
9.36e-05,7.18331399842719e-06
0.000101,1.632993161855452e-06
0.0001062,1.1525816432879907e-05
0.0001052,9.784341231443914e-06
7.429999999999999e-05,6.8158312446506165e-06
6.82e-05,2.859681411936961e-06
0.00011980000000000001,0.0001317268217014119
6.82e-05,1.0737266360153727e-05
7.209999999999999e-05,1.3527338573750895e-05
8.58e-05,2.658320271650252e-06
8.96e-05,8.669230390037834e-06
9.38e-05,9.670114327716664e-06
9.77e-05,1.10559184753386e-05
9.790000000000001e-05,7.549098548097576e-06
0.00022890000000000003,2.609150564200286e-05
0.0002615,2.2672793289657883e-05
0.00026619999999999997,4.077035960378836e-06
0.0017059000000000002,0.00011404818669706632
0.0014583,0.00031575766023962107
0.0015818,0.0002048120005164628
0.0016226,0.00018433857738170574
0.0016278,0.00016892194121019986
0.0016749,0.00014274332052868728
0.0016485,0.00020141127078691503
mean_timeC,stdev_timeC
0.0007244,5.738757124441953e-06
0.0007953,0.00010521095211262202
0.0009056,3.239410097190194e-05
0.0010167000000000002,0.00010468051925315953
0.0011226,5.3645337376348205e-05
0.0012112,4.301369291025562e-05
0.0013174999999999999,3.6399786324159135e-05
0.0014348,3.6410621161047734e-05
0.0015532,4.243112065453847e-05
0.0016407000000000001,8.300602387778856e-06
0.0017054,2.9443731647556714e-05
0.0017595,6.638147331899165e-05
0.0017732999999999998,0.00032275758016746183
0.0018387,3.353621591321509e-05
0.0019031,8.73020936493253e-05
0.0019685,4.348499102500128e-05
0.0020404,5.424471300402368e-05
0.0020813,0.00010076601058337522
0.002173,3.448026810929538e-05
0.002229,1.0402991022884791e-05
0.0025255,4.881541195610709e-05
0.0027040000000000002,5.960611452601891e-05
0.0029444,6.234349293319322e-05
0.0030932999999999998,0.0002472147289750799
0.0031936,0.0004706631727915646
0.0036774,7.19509091904566e-05
0.0040104,0.00017228671194004233
0.0041171,0.00036286160508442394
0.0045079000000000004,3.818798531242818e-05
0.0047778000000000004,5.239762505220166e-05
