mean_accFULL,stdev_accFULL, mean_timeFULL, stdev_timeFULL
81.503311,0.0,0.5816877,0.21413416417182635
mean_accI,stdev_accI
50.0,0.0
50.0,0.0
50.0,0.0
50.0,0.0
50.0,0.0
50.0,0.0
50.0,0.0
50.0,0.0
50.0,0.0
50.0,0.0
50.0,0.0
58.041359,0.0
61.51012000000001,0.0
65.192459,0.0
69.508759,0.0
71.624184,0.0
73.760971,0.0
75.961838,0.0
78.469002,0.0
80.278137,0.0
80.976158,0.0
mean_timeI,stdev_timeI
0.9819431,0.0952109520771289
0.0317228,0.0008726069243619634
0.031016500000000002,0.002631849930287734
0.0321414,0.003255053786891325
0.0342207,0.00633838630094443
0.0369888,0.006676428566232098
0.0384903,0.007778231319236755
0.0378482,0.009187689442340163
0.0381829,0.0105857565357103
0.0434204,0.012540669432778389
0.0403756,0.011001993387058952
0.0066487000000000004,0.00200305400437543
0.0065039,0.0023404648374960807
0.0074697,0.0021743123587316827
0.0074548,0.0017106296306720905
0.0077056,0.0019492866045470753
0.0080983,0.0019726314095080658
0.007105,0.002281167878278337
0.0067098,0.002421625019141761
0.0074004,0.002434891747536679
0.0063272,0.0022695444378895858
mean_timeC,stdev_timeC
0.44431580000000004,0.01645682379102629
0.4572691,0.04223354104250422
0.4830869,0.06660622687014915
0.4893533,0.0949972358510733
0.5020962,0.1165192654111566
0.5454075,0.11103906598655569
0.5760467,0.09721913013399736
0.5899012,0.11069400652830708
0.5951894,0.1396686630272597
0.5714053,0.15751568829876386
0.5268274,0.18653476818616593
0.6533108000000001,0.18973518822108063
0.6431777999999999,0.19419003532038748
0.6721805,0.15210357223378343
0.6989224,0.1797119109730905
0.6208336,0.17804875248225946
0.5656498,0.1986053376438363
0.6060791,0.2129881967504042
0.594932,0.18473940084947288
0.5403899,0.16498158766861093
