mean_accFULL,stdev_accFULL, mean_timeFULL, stdev_timeFULL
79.9932,0.0,0.2009819,0.03177328130660868
mean_accI,stdev_accI
50.0198,0.0
50.0,0.0
50.0,0.0
50.0,0.0
50.0,0.0
50.0,0.0
50.0,0.0
50.0,0.0
50.0,0.0
50.0,0.0
50.0,0.0
53.2265,0.0
60.0714,0.0
64.0173,0.0
69.1597,0.0
71.7096,0.0
73.5401,0.0
74.2381,0.0
76.3963,0.0
79.7083,0.0
79.9932,0.0
mean_timeI,stdev_timeI
0.1078265,0.011801852446402921
7.39e-05,3.071373199943854e-06
7.63e-05,7.469196000165539e-06
7.659999999999999e-05,9.057838839615357e-06
8.450000000000001e-05,4.06201920231798e-06
8.48e-05,2.529822128134703e-06
9.31e-05,1.3666260156555879e-05
9.03e-05,3.831158803518564e-06
9.59e-05,3.142893217686179e-06
9.740000000000001e-05,3.4058772731852786e-06
0.0001038,1.2191071414039957e-05
0.0206137,0.0008895626953109538
0.0458967,0.00137209645352569
0.06389320000000001,0.002642039649799207
0.0827554,0.0030414561644054646
0.09707410000000001,0.0017670704852948008
0.1071126,0.0024489104697576996
0.1252229,0.0008521595377496984
0.1544919,0.004844707019005386
0.3317585,0.003657434566894003
0.3412335,0.028187136901824953
mean_timeC,stdev_timeC
0.1428923,0.014677877200815597
0.0123503,0.0001778426582997203
0.0120919,0.0012266212355717453
0.0120481,0.0011868008772419334
0.0136346,0.002324719490844242
0.0124145,0.00017981919932099697
0.0122551,0.0006982585401474795
0.012433900000000001,0.0008508127421602373
0.012662999999999999,0.0007629703649407216
0.0127823,0.0010284854074479293
0.0125279,0.0005379635365586281
0.0241172,0.0006766163856524115
0.036665,0.0012808489372287423
0.0488676,0.001956050794614269
0.0582428,0.0009912614634337844
0.06671289999999999,0.001322530104677308
0.073052,0.0011038920035744229
0.0849611,0.0011102729844502236
0.0962284,0.0012068623414089573
0.2051193,0.00950172955074788
0.2021878,0.016256680109351287
