mean_accFULL,stdev_accFULL, mean_timeFULL, stdev_timeFULL
96.6154,0.0,0.1340322,0.009269690319650501
mean_accI,stdev_accI
50.0,0.0
50.0,0.0
50.0,0.0
50.0,0.0
50.0,0.0
50.0,0.0
50.0,0.0
50.0,0.0
50.0,0.0
50.0,0.0
50.0,0.0
50.0,0.0
50.0,0.0
50.0,0.0
50.0,0.0
50.0,0.0
50.0,0.0
50.0,0.0
50.0,0.0
50.0,0.0
50.0,0.0
50.0,0.0
50.0,0.0
50.0,0.0
50.0,0.0
50.0,0.0
50.0,0.0
50.0,0.0
50.0,0.0
50.0,0.0
50.0,0.0
50.0,0.0
50.0,0.0
50.0,0.0
50.0,0.0
50.0,0.0
50.0,0.0
50.0,0.0
50.0,0.0
50.0,0.0
50.0,0.0
50.0,0.0
50.0,0.0
50.0,0.0
50.0,0.0
50.0,0.0
50.0,0.0
50.0,0.0
50.0,0.0
50.0,0.0
50.0,0.0
50.0,0.0
50.0,0.0
50.0,0.0
50.0,0.0
50.0,0.0
50.0,0.0
50.0,0.0
50.0,0.0
50.0,0.0
50.0,0.0
50.0,0.0
50.0,0.0
50.0,0.0
50.0,0.0
50.0,0.0
50.0,0.0
50.0,0.0
50.0,0.0
50.0,0.0
50.0,0.0
50.0,0.0
50.0,0.0
50.0,0.0
50.0,0.0
50.0,0.0
50.0,0.0
50.0,0.0
50.0,0.0
50.0,0.0
50.0,0.0
50.0,0.0
50.0,0.0
50.0,0.0
50.0,0.0
50.0,0.0
50.0,0.0
50.0,0.0
50.0,0.0
50.0,0.0
50.0,0.0
50.0,0.0
50.0,0.0
50.0,0.0
50.0,0.0
50.0,0.0
50.0,0.0
50.0,0.0
50.0,0.0
50.0,0.0
50.0,0.0
95.2308,0.0
95.6224,0.0
95.9161,0.0
96.3077,0.0
96.6014,0.0
96.6014,0.0
96.6014,0.0
96.6014,0.0
96.6014,0.0
96.6014,0.0
93.4359,0.0
95.141,0.0
95.3205,0.0
95.6795,0.0
95.7692,0.0
95.6795,0.0
95.7692,0.0
95.859,0.0
96.0385,0.0
96.3974,0.0
95.8107,0.0
96.0592,0.0
96.3905,0.0
96.4734,0.0
96.3077,0.0
96.4734,0.0
96.4734,0.0
96.4734,0.0
96.4734,0.0
96.4734,0.0
95.9231,0.0
96.3846,0.0
96.4615,0.0
96.4615,0.0
96.6154,0.0
96.6923,0.0
96.6154,0.0
96.6154,0.0
96.6154,0.0
96.6154,0.0
mean_timeI,stdev_timeI
0.0002609,3.890572651365805e-05
0.00024859999999999997,3.106695278838199e-05
0.0002926,8.382521498133284e-06
0.0004182,5.349974039397023e-06
0.00045329999999999996,7.184404405840937e-05
0.00048770000000000004,7.834262356257075e-05
0.0005658,1.035803499168106e-05
0.0006075000000000001,1.0200762498732916e-05
0.0005511,8.758037578260452e-05
0.0006336,0.00010153838901836313
0.0007006,1.6105209647122815e-05
0.0012588,1.4710540438746609e-05
0.0013894,0.00022230369617559967
0.0016284,0.0002593244214407034
0.0017579000000000002,2.28008284449881e-05
0.0019618,3.5878808353802465e-05
0.0020705999999999997,0.0003288830254732592
0.0021237,0.00033987613756909866
0.0021972,0.0003588236335583262
0.0023613,4.830930437181739e-05
0.0024829,0.00039674353596918664
0.0038592999999999995,0.0006191657559436999
0.004458999999999999,8.222462458952839e-05
0.0045474,0.0007166685581370388
0.0048603,0.0007849099099047397
0.005290700000000001,0.0008517987568799465
0.0055652,0.0009131263512424408
0.0058337,0.0009228328426944695
0.006411600000000001,0.0010285085426102315
0.0070953000000000006,0.0012953659328544965
0.007223499999999999,0.0011515705459164117
0.0073501999999999994,0.0011752234586570238
0.0074072,0.00119416003022115
0.0077120999999999995,0.0001680307180911342
0.0073491,0.0011539921480572465
0.0075125999999999995,0.0011968108733908906
0.007586900000000001,0.0012068580373110263
0.0082217,0.00016748867291717227
0.007710400000000001,0.0012086516086578097
0.0076263,0.0011955982277597362
0.0084143,0.00014793846318280084
0.0099422,0.0015622244681507485
0.0102008,0.0016320524092891954
0.010989200000000001,0.0017520661326940066
0.0113692,0.0018019198280352726
0.0112467,0.0017752749427123176
0.0115764,0.0018650400174437724
0.011508399999999998,0.0018187545922049699
0.0121621,0.001965821934402447
0.0125411,0.0020093266672085836
0.0127251,0.002018342138709116
0.0155919,0.0024596298027684304
0.0163798,0.002587809017510974
0.0172388,0.0027094142786464625
0.0179319,0.002825012230062022
0.0187346,0.0031216857696514623
0.0194021,0.0030700981688973183
0.020041700000000003,0.0031614701942116884
0.0207399,0.003273826997736916
0.0216738,0.0034218754701673955
0.0224012,0.0035471143451794415
0.0248822,0.003936058682941041
0.026516,0.0004130730363184379
0.025835399999999998,0.004069596381843181
0.027522400000000002,0.00047262181263434914
0.0278795,0.00043360638832932286
0.0275407,0.004353778436918647
0.0288524,0.00043466288341911937
0.0294821,0.0005220941698795561
0.028649800000000003,0.004552333047765484
0.0289704,0.0045888412287005765
0.0334227,0.0005663830760968133
0.034178599999999996,0.000838642712959459
0.034535300000000005,0.005447994412829571
0.0370433,0.0014874012422865447
0.0354874,0.005644332874662868
0.0357682,0.005714139359713081
0.038068000000000005,0.0006276959632036998
0.0369031,0.00576381059234639
0.0393631,0.0007730066048301981
0.0408139,0.0006925359918444666
0.0425524,0.006669135996014276
0.0451737,0.00041403033973637956
0.043761800000000003,0.006815668774555029
0.0474213,0.0005896121229720072
0.048907099999999995,0.0005328271452043956
0.0477074,0.007428494272432035
0.0513328,0.0007287042991197154
0.0492612,0.007761070613431285
0.0496809,0.007785071247087095
0.0523725,0.0007380301484356866
0.053430500000000006,0.008157698071964502
0.057588099999999996,0.0006854731455960436
0.0555732,0.008655118097916914
0.056606100000000006,0.008832163525685223
0.0603475,0.0009401719996303266
0.0581827,0.009097187050585105
0.0613721,0.0011001880091855
0.0588229,0.009229993095579458
0.06219909999999999,0.0011260640844206976
0.0602902,0.00952048320202289
0.06758220000000001,0.0006438096336996237
0.0649991,0.010190446696675164
0.0693903,0.0012377709400369682
0.0709407,0.002986184858830933
0.0675873,0.010496060785414265
0.0722163,0.0008818095095376956
0.07271659999999999,0.001270781841579775
0.0696325,0.010889118209886826
0.0740674,0.0011464228616779133
0.0747826,0.0011995483594531178
0.0763517,0.011984145489863776
0.0817044,0.0009771261945112288
0.0810199,0.013435777655614545
0.08455460000000001,0.0029432380203518104
0.0853148,0.0023053983410922974
0.082463,0.012948996915248343
0.08822490000000001,0.0029306538690196757
0.0853074,0.014076671206882212
0.0838388,0.012972364573285097
0.0895579,0.0019757723918620907
0.089806,0.014133815943018047
0.0987521,0.007023274283093003
0.0940871,0.015726366878942865
0.09245339999999999,0.015208072631190173
0.09823580000000001,0.0017770191520258475
0.0934466,0.014499092264307062
0.09935619999999999,0.0029031589614686203
0.0949228,0.015197678739421579
0.100666,0.004705559218154155
0.1002392,0.002101535882793027
0.1045999,0.0023750793881468476
0.1086632,0.005229082898133817
0.1029158,0.01621315313633416
0.1095474,0.006813932250258373
0.1062433,0.017212135757785678
0.108505,0.005126997865331242
0.1117859,0.0013856040359512677
0.1118328,0.003562307360873472
0.10703599999999999,0.017186544239284663
0.10896950000000001,0.016849323575278755
mean_timeC,stdev_timeC
0.0,0.0
0.0,0.0
0.0,0.0
0.0,0.0
0.0,0.0
0.0,0.0
0.0,0.0
0.0,0.0
0.0,0.0
0.0,0.0
0.0,0.0
0.0,0.0
0.0,0.0
0.0,0.0
0.0,0.0
0.0,0.0
0.0,0.0
0.0,0.0
0.0,0.0
0.0,0.0
0.0,0.0
0.0,0.0
0.0,0.0
0.0,0.0
0.0,0.0
0.0,0.0
0.0,0.0
0.0,0.0
0.0,0.0
0.0,0.0
0.0,0.0
0.0,0.0
0.0,0.0
0.0,0.0
0.0,0.0
0.0,0.0
0.0,0.0
0.0,0.0
0.0,0.0
0.0,0.0
0.0,0.0
0.0,0.0
0.0,0.0
0.0,0.0
0.0,0.0
0.0,0.0
0.0,0.0
0.0,0.0
0.0,0.0
0.0,0.0
0.0,0.0
0.0,0.0
0.0,0.0
0.0,0.0
0.0,0.0
0.0,0.0
0.0,0.0
0.0,0.0
0.0,0.0
0.0,0.0
0.0,0.0
0.0,0.0
0.0,0.0
0.0,0.0
0.0,0.0
0.0,0.0
0.0,0.0
0.0,0.0
0.0,0.0
0.0,0.0
0.0,0.0
0.0,0.0
0.0,0.0
0.0,0.0
0.0,0.0
0.0,0.0
0.0,0.0
0.0,0.0
0.0,0.0
0.0,0.0
0.0,0.0
0.0,0.0
0.0,0.0
0.0,0.0
0.0,0.0
0.0,0.0
0.0,0.0
0.0,0.0
0.0,0.0
0.0,0.0
0.0,0.0
0.0,0.0
0.0,0.0
0.0,0.0
0.0,0.0
0.0,0.0
0.0,0.0
0.0,0.0
0.0,0.0
0.0,0.0
0.0,0.0
0.1025372,0.0047678965965670395
0.09623040000000001,0.013588218141708894
0.10189650000000001,0.0005728141544650903
0.10131810000000001,0.0010553211675441102
0.09738240000000001,0.013778851034183592
0.10243690000000001,0.0006640191513302425
0.1031698,0.001371706139569745
0.09923499999999999,0.014132556606015142
0.10438460000000001,0.0007933550697302366
0.0997327,0.01407390088899781
0.1065223,0.0008785748624271501
0.1060544,0.002127580952892534
0.10486929999999998,0.01580119494110071
0.10902560000000001,0.0008362652689188994
0.11723919999999999,0.02336659678924407
0.1111256,0.0013262780167739255
0.11251579999999999,0.005878952775225646
0.1132272,0.020223963172434824
0.10791710000000002,0.015580093534521685
0.1107697,0.0159435581840023
0.1131386,0.016020922973828112
0.1221099,0.006636235871670357
0.11419699999999999,0.016164735733482725
0.12291389999999999,0.0050979558528666934
0.1231274,0.004875383157592167
0.11785140000000001,0.01639471564051458
0.1254245,0.007969639281534506
0.12340709999999999,0.00611163088708734
0.1246827,0.002050111761181161
0.12459830000000001,0.003044084356036586
0.1270048,0.0018481671280848324
0.123071,0.01780260967136872
0.1254528,0.02012766487421949
0.1292411,0.0070782701033201305
0.1235884,0.017903969356293903
0.12939240000000002,0.0029027239008290904
0.1299201,0.0018074234853944846
0.1302446,0.00467617900047084
0.1257317,0.017985849160134508
0.12460560000000001,0.017866439576915024
