mean_accFULL,stdev_accFULL, mean_timeFULL, stdev_timeFULL
79.5333,0.0,0.014653,0.00018820024796299624
mean_accI,stdev_accI
47.7,0.0
50.0,0.0
50.0,0.0
50.0,0.0
50.0,0.0
50.0,0.0
50.0,0.0
50.0,0.0
50.0,0.0
50.0,0.0
50.0,0.0
50.0,0.0
50.0,0.0
50.0,0.0
55.9667,0.0
68.6333,0.0
71.1667,0.0
73.2667,0.0
75.0667,0.0
76.6,0.0
77.1333,0.0
68.0889,0.0
68.0889,0.0
68.0889,0.0
71.7111,0.0
74.1778,0.0
77.4,0.0
78.8222,0.0
79.4222,0.0
79.5111,0.0
79.5333,0.0
mean_timeI,stdev_timeI
0.0014071,0.00024262428659234514
4.19e-05,1.2866839377079186e-06
4.35e-05,1.7159383568311673e-06
4.68e-05,1.932183566158592e-06
4.58e-05,2.440400695696418e-06
4.52e-05,6.663332499583072e-06
4.35e-05,1.8408935028645436e-06
4.5600000000000004e-05,2.270584848790187e-06
4.62e-05,2.1499353995462796e-06
4.71e-05,1.4491376746189442e-06
4.84e-05,7.77746031098127e-06
0.0010752,0.00016116575318596692
0.0020937,2.1039909167526813e-05
0.0032053999999999997,9.63721951602224e-05
0.0037732,3.0382012222146673e-05
0.0046937,3.2242311745076016e-05
0.0050811,5.533825279336376e-05
0.0059,5.058765769544091e-05
0.0066952999999999995,6.185835073420214e-05
0.0075535,6.922948954182901e-05
0.0078551,0.000586799880708918
0.009298200000000001,8.720066258667713e-05
0.0104594,9.83024810357187e-05
0.0120806,0.0005829387617923514
0.0129391,7.642200090433529e-05
0.0139209,9.762109289378897e-05
0.0151445,0.00012980690787987094
0.0162152,0.00011898814133256184
0.0171831,0.00020166663911845535
0.0182069,0.0005274724742686678
0.019090000000000003,0.000163782375934246
mean_timeC,stdev_timeC
0.0032606,3.712800679930037e-05
0.0011581,6.226288353960726e-06
0.0011574,1.2194716524426115e-05
0.0011528,6.23253114267743e-06
0.0011575000000000001,1.1217545780309218e-05
0.0011544,7.589466384404107e-06
0.0011821,0.0001043300851464556
0.0011518000000000001,5.245103536738899e-06
0.0011564,1.1908913561791535e-05
0.0011516999999999999,5.831904586934832e-06
0.0011551,9.982762921934795e-06
0.0021661,1.8847045155968406e-05
0.0034012,1.424234687277497e-05
0.0043257,6.38366839851682e-05
0.005121,7.160695186611118e-05
0.005882,0.0001252552948537063
0.006568599999999999,0.0008841017035512498
0.006925100000000001,0.00013001662286885558
0.007292999999999999,3.8145918669119964e-05
0.0077667,0.00011204765851091093
0.007966299999999999,4.6130370810466e-05
0.0089169,7.349293238884345e-05
0.009565,7.891627067834503e-05
0.010384899999999999,0.00010623501201476741
0.0109483,0.0001572104392914869
0.011693,0.00017933705076692228
0.0124797,0.00017767451514872214
0.013079799999999999,0.00020720242383824675
0.0135649,0.0001854031343376431
0.014072999999999999,0.0002049173275033399
0.014491300000000002,0.00019162988052783185
