mean_accFULL,stdev_accFULL, mean_timeFULL, stdev_timeFULL
96.6154,0.0,0.1287859,0.00639168462318208
mean_accI,stdev_accI
50.0,0.0
50.0,0.0
50.0,0.0
50.0,0.0
50.0,0.0
50.0,0.0
50.0,0.0
50.0,0.0
50.0,0.0
50.0,0.0
50.0,0.0
50.0,0.0
50.0,0.0
50.0,0.0
50.0,0.0
50.0,0.0
50.0,0.0
50.0,0.0
50.0,0.0
50.0,0.0
50.0,0.0
50.0,0.0
50.0,0.0
50.0,0.0
50.0,0.0
50.0,0.0
50.0,0.0
50.0,0.0
50.0,0.0
50.0,0.0
50.0,0.0
50.0,0.0
50.0,0.0
50.0,0.0
50.0,0.0
50.0,0.0
50.0,0.0
50.0,0.0
50.0,0.0
50.0,0.0
50.0,0.0
50.0,0.0
50.0,0.0
50.0,0.0
50.0,0.0
50.0,0.0
50.0,0.0
50.0,0.0
50.0,0.0
50.0,0.0
50.0,0.0
50.0,0.0
50.0,0.0
50.0,0.0
50.0,0.0
50.0,0.0
50.0,0.0
50.0,0.0
50.0,0.0
50.0,0.0
50.0,0.0
50.0,0.0
50.0,0.0
50.0,0.0
50.0,0.0
50.0,0.0
50.0,0.0
50.0,0.0
50.0,0.0
50.0,0.0
50.0,0.0
50.0,0.0
50.0,0.0
50.0,0.0
50.0,0.0
50.0,0.0
50.0,0.0
50.0,0.0
50.0,0.0
50.0,0.0
50.0,0.0
50.0,0.0
50.0,0.0
50.0,0.0
50.0,0.0
50.0,0.0
50.0,0.0
50.0,0.0
50.0,0.0
50.0,0.0
50.0,0.0
90.5455,0.0
91.2308,0.0
91.5245,0.0
91.5245,0.0
91.6224,0.0
91.9161,0.0
92.014,0.0
92.014,0.0
92.3077,0.0
92.3077,0.0
94.5128,0.0
94.9615,0.0
95.2308,0.0
95.5,0.0
95.6795,0.0
95.6795,0.0
95.6795,0.0
95.6795,0.0
95.6795,0.0
95.7692,0.0
95.9487,0.0
95.9487,0.0
95.9487,0.0
95.9487,0.0
96.2179,0.0
96.2179,0.0
96.1282,0.0
96.1282,0.0
96.3077,0.0
96.4872,0.0
95.8935,0.0
96.142,0.0
96.4734,0.0
96.5562,0.0
96.3905,0.0
96.5562,0.0
96.5562,0.0
96.5562,0.0
96.5562,0.0
96.5562,0.0
96.0,0.0
96.4615,0.0
96.5385,0.0
96.4615,0.0
96.6154,0.0
96.6923,0.0
96.6154,0.0
96.6154,0.0
96.6154,0.0
96.6154,0.0
mean_timeI,stdev_timeI
0.0003172,3.4896672875473093e-06
0.00038599999999999995,4.346134936801777e-06
0.0003792,8.50881895447306e-06
0.00045259999999999994,7.396695959082758e-06
0.0004888,2.7808871486152253e-06
0.0005845000000000001,9.935905707192586e-06
0.0006309,7.593125545883981e-06
0.0007773000000000001,6.634087059355725e-06
0.0008233000000000001,0.00013287007020226774
0.0008951,1.6782596806083248e-05
0.0009423000000000001,1.918361569441772e-05
0.0016771999999999998,1.3256444973420762e-05
0.0018964000000000001,2.620941306731865e-05
0.0021415,2.558319761093206e-05
0.0023604,3.285050312484655e-05
0.0027234,1.2536169891779311e-05
0.0029925,4.315926577482775e-05
0.0032086999999999997,6.049251560684541e-05
0.0033104000000000002,4.325685559024777e-05
0.0035534000000000004,4.5284777918314965e-05
0.0040393,0.0005371980909207412
0.0053904,7.412332066675546e-05
0.0059077999999999995,8.476346172994844e-05
0.0063013,9.89624507915333e-05
0.0067037,8.227602593978664e-05
0.007165099999999999,0.0001235839345905806
0.0075738,9.114189181953833e-05
0.0078915,0.00014748804094645183
0.008792900000000001,0.000565734026631675
0.0091868,0.00013962473515343436
0.0098841,0.0007276900210025326
0.0113064,0.0008396970617761833
0.0113472,0.0002017979187206845
0.0113277,0.0002024818510385564
0.0117401,0.00022581381219442215
0.011991100000000001,0.00023928989856564272
0.0123765,0.0002264534536426119
0.0121707,0.0002181187495124821
0.0124333,0.00023083137183282164
0.0126198,0.00028080511233079616
0.0126894,0.000245266838814835
0.015365600000000002,0.0007575686547545818
0.015353700000000001,0.0002575957427184437
0.0163171,0.0002527143534594832
0.0166385,0.0003054116529829491
0.0164902,0.0002861952713329372
0.017017499999999998,0.0003147846706701092
0.017057700000000002,0.00031944989174099525
0.0177704,0.00029581195227899594
0.0181272,0.0003432928131428846
0.0184518,0.00033444076040791164
0.0219045,0.00041557169457668024
0.0229408,0.0007412246323184055
0.0245841,0.001755528692129208
0.0249909,0.0012124451373613202
0.0257239,0.0014897308071520094
0.0271403,0.0010860259921178477
0.027822599999999996,0.0006444562221145998
0.028925899999999997,0.0018185880634284503
0.030363,0.0030300353866653832
0.0307744,0.0017739701362887834
0.0338824,0.0020243124594126597
0.03483,0.0013547034935939143
0.0357005,0.0034327372055288794
0.0351666,0.001229720040406668
0.0367863,0.004125529354586579
0.0365452,0.0011073639168965386
0.0362076,0.0006586520241287425
0.037863400000000005,0.0027521296077361226
0.0373213,0.0005776908150367093
0.0377232,0.0006038196566672693
0.0412135,0.0006460230904026061
0.042427000000000006,0.000999661942858684
0.0447633,0.0015426001894348544
0.0443701,0.0007080469931045858
0.0452488,0.0008529281329631459
0.0461028,0.0011556542927902117
0.046843,0.003240828563466105
0.0475318,0.0013448231440932638
0.0477605,0.0009711400230885579
0.0494066,0.0020147641273580616
0.0543098,0.001425910297942258
0.0559868,0.004505840106646781
0.0559681,0.0017890098720303982
0.0582748,0.0027632255226254852
0.0595206,0.0019864007204545182
0.0603278,0.002123293709729715
0.060976600000000006,0.0009376953070634864
0.0621684,0.0029004226205464937
0.061811099999999994,0.0010753730567161857
0.0625918,0.0009711919137499697
0.062459299999999995,0.014182566771686052
0.0695065,0.0029064584883401407
0.0679003,0.0026295690838361073
0.0692068,0.0008592104644510694
0.0708272,0.0010195038880640806
0.0719827,0.001247452965045176
0.07222110000000001,0.004945654848225641
0.0728718,0.0022844697804474848
0.0729515,0.0011394918214323038
0.0749676,0.003236845247390669
0.0789941,0.001367843757321881
0.07891329999999999,0.0007790800914468864
0.0797238,0.000581180369783961
0.0815794,0.0013430112268911086
0.0829092,0.00146297784596274
0.08384,0.0015904076346787447
0.0846781,0.004626316063805222
0.0844488,0.001966194338761502
0.0860689,0.0015634674746998862
0.0858033,0.0012467370791167042
0.0885549,0.002762126734963476
0.08756169999999999,0.0015668894203342985
0.0878259,0.0013982289949154307
0.0880814,0.0013306215924229594
0.0889119,0.0009949184723718153
0.08873400000000001,0.0011732849421839315
0.0893139,0.004083024980194083
0.0891799,0.00164815529540689
0.0881787,0.0010971802292948744
0.0887777,0.0028301105612482495
0.0956109,0.003844145171556349
0.0958412,0.0016405598502408322
0.0973392,0.002283406655757039
0.0964429,0.0030212038604944683
0.0965367,0.002833802159251378
0.0980565,0.001465496900940657
0.09987700000000001,0.0015998120722968256
0.10193250000000001,0.004092764082296137
0.10090239999999999,0.0019706567545984366
0.101487,0.0017513722873475225
0.1058472,0.0017470396421120822
0.10664,0.0008654847068422282
0.1069693,0.0006128902475611379
0.1095943,0.004399705597474045
0.1098917,0.0013657591336363494
0.1117851,0.005804756946773149
0.1103345,0.005501320553588322
0.1095858,0.00536608895027116
0.1133274,0.0024894291715170376
0.11324909999999999,0.0029825593204494704
mean_timeC,stdev_timeC
0.0,0.0
0.0,0.0
0.0,0.0
0.0,0.0
0.0,0.0
0.0,0.0
0.0,0.0
0.0,0.0
0.0,0.0
0.0,0.0
0.0,0.0
0.0,0.0
0.0,0.0
0.0,0.0
0.0,0.0
0.0,0.0
0.0,0.0
0.0,0.0
0.0,0.0
0.0,0.0
0.0,0.0
0.0,0.0
0.0,0.0
0.0,0.0
0.0,0.0
0.0,0.0
0.0,0.0
0.0,0.0
0.0,0.0
0.0,0.0
0.0,0.0
0.0,0.0
0.0,0.0
0.0,0.0
0.0,0.0
0.0,0.0
0.0,0.0
0.0,0.0
0.0,0.0
0.0,0.0
0.0,0.0
0.0,0.0
0.0,0.0
0.0,0.0
0.0,0.0
0.0,0.0
0.0,0.0
0.0,0.0
0.0,0.0
0.0,0.0
0.0,0.0
0.0,0.0
0.0,0.0
0.0,0.0
0.0,0.0
0.0,0.0
0.0,0.0
0.0,0.0
0.0,0.0
0.0,0.0
0.0,0.0
0.0,0.0
0.0,0.0
0.0,0.0
0.0,0.0
0.0,0.0
0.0,0.0
0.0,0.0
0.0,0.0
0.0,0.0
0.0,0.0
0.0,0.0
0.0,0.0
0.0,0.0
0.0,0.0
0.0,0.0
0.0,0.0
0.0,0.0
0.0,0.0
0.0,0.0
0.0,0.0
0.0,0.0
0.0,0.0
0.0,0.0
0.0,0.0
0.0,0.0
0.0,0.0
0.0,0.0
0.0,0.0
0.0,0.0
0.0,0.0
0.0975835,0.0006869972100865245
0.10134669999999998,0.003912878964252393
0.10112270000000001,0.0006010782995768699
0.1017441,0.0006989178063263223
0.102244,0.00046939961653158583
0.10258560000000001,0.0005584003342883456
0.10390570000000002,0.001638409123374122
0.1033217,0.0002641805148841302
0.10386290000000001,0.0007029410359340256
0.10611960000000001,0.003998182481522769
0.1066708,0.0006867912184774751
0.10885210000000001,0.005149375225317251
0.10965259999999999,0.0045482443059566054
0.10899410000000001,0.0033057685423446633
0.1086059,0.00036255986478863527
0.11129579999999999,0.004356094346493836
0.1109597,0.004299773121921667
0.11045560000000001,0.0005865047503833404
0.1106573,0.0007656581845416107
0.11090439999999999,0.000610977759187863
0.1115133,0.0007112472690828261
0.11183019999999999,0.0008564330161262512
0.1138472,0.005194373468796149
0.11435979999999998,0.006339727891111203
0.11289560000000001,0.000722311290234341
0.11309880000000001,0.0015260304205501438
0.1129613,0.000521161533926333
0.1140631,0.002502223964130046
0.11333820000000001,0.003338719375249538
0.1142617,0.005835947910246555
0.1175067,0.0010941324366313646
0.1189832,0.0009382311726506073
0.1202301,0.0021247723250582234
0.12013769999999999,0.0033870703187924003
0.12131810000000001,0.0034504919922945586
0.12340530000000001,0.0015103623590236744
0.12353130000000001,0.0007466052132448851
0.1241819,0.0009388985804890995
0.1241764,0.0008877546207520802
0.1242354,0.0009159620564678936
0.1273113,0.0014576777612200689
0.1281948,0.0009599635178253212
0.1287103,0.0009357906995334684
0.13274360000000002,0.0067071641995704884
0.1290395,0.0035491329222783427
0.1286702,0.004947769751222375
0.12228939999999999,0.022220487419396442
0.1297626,0.00895731160312934
0.130761,0.0027653450658703233
0.13086530000000002,0.0029813830888066406
