mean_accFULL,stdev_accFULL, mean_timeFULL, stdev_timeFULL
79.9932,0.0,0.1926861,0.026949489529076016
mean_accI,stdev_accI
47.5106,0.0
75.7206,0.0
74.5876,0.0
74.3168,0.0
73.3052,0.0
73.2838,0.0
72.9562,0.0
72.9989,0.0
71.6028,0.0
71.0543,0.0
70.748,0.0
72.2081,0.0
72.1868,0.0
72.8207,0.0
74.6939,0.0
76.1327,0.0
78.2909,0.0
79.3165,0.0
80.0573,0.0
79.6228,0.0
79.9932,0.0
mean_timeI,stdev_timeI
0.0005683,8.666160241614124e-05
0.015218599999999999,0.0010918583750244859
0.0426479,0.002442961838515789
0.0798157,0.0022330532187517997
0.1024072,0.004299023527370942
0.12911679999999998,0.0024155929476815615
0.1660081,0.002700607193042167
0.1955607,0.005700403846317479
0.2266226,0.008480040581663906
0.2528893,0.01299099969679863
0.2605969,0.0030796349513105116
0.2856286,0.012794457395467937
0.29727329999999996,0.014420588237732259
0.3058034,0.025556851854465778
0.2644247,0.032504372834196396
0.34064649999999996,0.015247834099380232
0.3470684,0.01760072742941167
0.3628112,0.02221839013970183
0.3747103,0.02283823760494667
0.3781915,0.049250864978867805
0.3777448,0.03641804787556118
mean_timeC,stdev_timeC
0.0205175,0.0010625962178655735
0.0744986,0.005025836054274397
0.0994085,0.005383833645481833
0.1169924,0.0017078407550016029
0.1336147,0.004116205967473771
0.1444608,0.004092658217942089
0.1538902,0.004495984845763311
0.1647953,0.00782894657380899
0.1651802,0.007035564492870016
0.1716914,0.007580816654922848
0.1600023,0.008377568130960737
0.1722147,0.014595689668528861
0.1773306,0.012051707949037304
0.183263,0.002134662502598477
0.1581129,0.012420603165260892
0.190154,0.012974630048247579
0.1853935,0.01769502557374687
0.1910272,0.013661013699169213
0.2020537,0.011083867376106187
0.20184370000000001,0.015022178604021158
0.200561,0.019172895283591247
