mean_accFULL,stdev_accFULL, mean_timeFULL, stdev_timeFULL
90.942,0.0,0.2849055,0.0877733113287354
mean_accI,stdev_accI
50.0,0.0
50.0,0.0
50.0,0.0
50.0,0.0
50.0,0.0
50.0,0.0
50.0,0.0
50.0,0.0
50.0,0.0
50.0,0.0
50.0,0.0
50.0,0.0
50.0,0.0
50.0,0.0
50.0,0.0
50.0,0.0
50.0,0.0
50.0,0.0
50.0,0.0
50.0,0.0
91.9118,0.0
91.9118,0.0
92.693,0.0
93.0147,0.0
93.0147,0.0
92.7288,0.0
93.8725,0.0
50.0,0.0
50.0,0.0
50.0,0.0
50.0,0.0
94.1845,0.0
94.1845,0.0
94.1845,0.0
94.7304,0.0
94.7304,0.0
94.7304,0.0
93.8066,0.0
94.2025,0.0
94.4005,0.0
94.3015,0.0
94.6691,0.0
94.8529,0.0
93.701,0.0
93.8725,0.0
94.7304,0.0
50.0,0.0
50.0,0.0
50.0,0.0
50.0,0.0
50.0,0.0
50.0,0.0
50.0,0.0
50.0,0.0
50.0,0.0
50.0,0.0
50.0,0.0
50.0,0.0
50.0,0.0
50.0,0.0
50.0,0.0
50.0,0.0
50.0,0.0
50.0,0.0
50.0,0.0
50.0,0.0
50.0,0.0
50.0,0.0
50.0,0.0
50.0,0.0
50.0,0.0
50.0,0.0
50.0,0.0
50.0,0.0
50.0,0.0
50.0,0.0
50.0,0.0
50.0,0.0
50.0,0.0
50.0,0.0
50.0,0.0
50.0,0.0
50.0,0.0
50.0,0.0
50.0,0.0
50.0,0.0
50.0,0.0
50.0,0.0
50.0,0.0
50.0,0.0
50.0,0.0
50.0,0.0
50.0,0.0
50.0,0.0
50.0,0.0
50.0,0.0
50.0,0.0
50.0,0.0
50.0,0.0
50.0,0.0
50.0,0.0
50.0,0.0
50.0,0.0
94.7348,0.0
94.7348,0.0
94.7348,0.0
94.1969,0.0
94.7607,0.0
94.761,0.0
94.5111,0.0
94.9225,0.0
94.9227,0.0
93.7405,0.0
94.0075,0.0
94.7414,0.0
50.0,0.0
50.0,0.0
50.0,0.0
50.0,0.0
50.0,0.0
50.0,0.0
50.0,0.0
50.0,0.0
50.0,0.0
50.0,0.0
50.0,0.0
50.0,0.0
50.0,0.0
50.0,0.0
50.0,0.0
50.0,0.0
50.0,0.0
50.0,0.0
50.0,0.0
50.0,0.0
50.0,0.0
50.0,0.0
50.0,0.0
50.0,0.0
92.9541,0.0
92.9541,0.0
92.9541,0.0
92.5876,0.0
92.9046,0.0
92.6932,0.0
92.6501,0.0
92.8571,0.0
92.8571,0.0
91.8986,0.0
92.5072,0.0
92.6087,0.0
92.6684,0.0
92.6684,0.0
92.5689,0.0
91.7503,0.0
91.7503,0.0
92.4331,0.0
91.8239,0.0
92.3024,0.0
92.3981,0.0
91.8948,0.0
92.4584,0.0
92.5523,0.0
91.7787,0.0
91.9631,0.0
92.0553,0.0
91.3043,0.0
91.8478,0.0
91.9384,0.0
91.6476,0.0
91.6476,0.0
91.6476,0.0
91.5417,0.0
91.6292,0.0
91.7166,0.0
91.8693,0.0
91.8693,0.0
91.8693,0.0
91.4251,0.0
91.8478,0.0
91.8478,0.0
91.4113,0.0
91.5776,0.0
91.7439,0.0
91.1524,0.0
91.316,0.0
91.5615,0.0
90.9018,0.0
90.9018,0.0
90.8213,0.0
90.4212,0.0
90.5797,0.0
90.659,0.0
90.8138,0.0
90.8138,0.0
90.8138,0.0
90.7334,0.0
90.7334,0.0
90.964,0.0
90.3526,0.0
90.6554,0.0
90.9583,0.0
90.9527,0.0
91.1019,0.0
91.1019,0.0
90.5062,0.0
90.7267,0.0
90.9473,0.0
90.7971,0.0
90.8696,0.0
90.942,0.0
mean_timeI,stdev_timeI
0.0001172,2.616188916046479e-06
0.0001598,1.3165611772087743e-06
0.0002098,6.250333324444918e-06
0.000288,5.011098792790971e-06
0.00029979999999999997,9.577751997902913e-06
0.0003537,7.860590874030335e-06
0.00041809999999999997,9.38616002420585e-06
0.0007207,7.242620765686641e-06
0.0008283,2.0607711609438284e-05
0.0010612,1.7389652095427324e-05
0.0014934,4.158311623189819e-05
0.0016254999999999998,5.4934809850707e-05
0.0018637999999999999,5.8770362901343e-05
0.00239,7.394292092929223e-05
0.0026527,8.658720716390179e-05
0.003127,6.625372106950341e-05
0.0037579,0.0001177496874258649
0.0040633,0.00011809511232712194
0.0044193999999999995,0.00014733499244918034
0.0052522,0.00017392386584684426
0.0056364,0.0001596100804391056
0.0060718000000000005,0.00016759660564051468
0.0070315,0.0002755121493590516
0.0074558,0.00048488344533047895
0.0077238,0.00024410371202057156
0.0090211,0.00020322316687709506
0.0094184,0.0006140318848036766
0.01009,0.00033194711760894805
0.011217099999999999,0.0003478826270773264
0.0120762,0.0003736700267467128
0.012751799999999999,0.00040617642581628084
0.014329,0.0005844570129616036
0.014920600000000001,0.0005895469446956704
0.0150973,0.0004290247467609918
0.016866,0.000595625907950806
0.0175051,0.0006724579210296773
0.018451699999999998,0.00052865679898315
0.0199243,0.0006790349442816296
0.0209526,0.0005850920535361172
0.0220131,0.0007322471425535083
0.0234153,0.0007068047113595094
0.0241338,0.0006477289899675979
0.025378699999999997,0.000858742886109949
0.027707,0.0008676128168716725
0.027979300000000002,0.0008778786362590222
0.0294598,0.0009313983274863896
0.0314303,0.00106291664249314
0.0323381,0.0009049775258105719
0.0337215,0.0007745486499317583
0.0353543,0.0011198633894860166
0.0361567,0.0012310155744118122
0.0375122,0.0013167911164814424
0.039414099999999994,0.0012546113563791607
0.0407728,0.0012937646875172727
0.0429465,0.0011744906461005878
0.0436108,0.00047605994020361215
0.0460377,0.001479227129280692
0.0462373,0.001400207448916053
0.0497992,0.0014726290020836133
0.0500964,0.0012748117246610708
0.0523956,0.0018928764824408862
0.0556604,0.001635568144577154
0.0556446,0.0017377010483202611
0.0579325,0.0020039169560305305
0.0598475,0.0013147188334815577
0.0629344,0.0020522643970881413
0.064505,0.00219479343497793
0.0668035,0.002045804989620359
0.0682315,0.0021174413411788606
0.0692888,0.001890869394396838
0.0738753,0.0025138219264255342
0.074101,0.0021364969771411643
0.0753802,0.0019348992394092929
0.07899629999999999,0.002515852894922294
0.0807963,0.0024772325082640105
0.081565,0.0023384869277186682
0.0853824,0.002370573685840624
0.0869066,0.0027840699703850853
0.0881285,0.0024638657633889068
0.0911613,0.001899288232177751
0.0932453,0.0025802935255078564
0.09602340000000001,0.0033937323668459434
0.09746010000000001,0.0006869524405339555
0.0996319,0.0028562528463394535
0.101189,0.0025128730347729264
0.1062284,0.003314625475742992
0.1068216,0.002995321655886428
0.1112263,0.0034285055717550683
0.1134008,0.003061101682582776
0.11508940000000001,0.0034080468893487943
0.11577440000000001,0.0031712691886162337
0.1197689,0.004865054218037498
0.12320139999999999,0.004079368066529695
0.1224124,0.0017615978352999117
0.1297115,0.004105064900014777
0.12683070000000002,0.004995180945449101
0.1293785,0.00340167443245888
0.1381524,0.0038784550818879125
0.1377705,0.004659324897450273
0.14279740000000002,0.004223274722034757
0.1460113,0.003173600200613392
0.14675069999999998,0.006047659768685553
0.15285759999999998,0.0076197123042802605
0.157251,0.0068872605745842275
0.1582548,0.006883996784814278
0.158083,0.004352153183578601
0.1627537,0.006166076981715721
0.1653307,0.004625748036804428
0.16794910000000002,0.005458426318800848
0.16704460000000002,0.025045585001042488
0.1692992,0.01852286061900567
0.1778941,0.0075908045752739566
0.1824768,0.004001188040236717
0.18226320000000001,0.002637112427553203
0.185475,0.002375316820973572
0.1908523,0.001370661158387117
0.1947271,0.004149764931762866
0.1991425,0.004988517554232807
0.20148700000000003,0.001801013295033909
0.2061234,0.005687255932736316
0.2077573,0.006693375980109824
0.21694110000000003,0.006819412608298621
0.2154022,0.005620058477354917
0.2205993,0.006276306115507399
0.2241882,0.004566862132069828
0.22726639999999998,0.005725579159448508
0.232044,0.005786577188248298
0.2336713,0.002453155158837966
0.2375731,0.004538898164141208
0.2415054,0.0055932068162091834
0.24833539999999998,0.007705451219032467
0.2496121,0.005459704233950981
0.25472700000000004,0.006125408412687453
0.2584271,0.004457075085997783
0.2644449,0.0076909453753531915
0.26316459999999997,0.003796524381296366
0.2692604,0.005269346031529919
0.2702604,0.0025358927947897675
0.2745094,0.007484906771482038
0.2756843,0.004487445178866619
0.27870819999999996,0.005384407360352886
0.2842002,0.008213143731577784
0.2886162,0.0030705103014175275
0.291973,0.004833986875355684
0.2996683,0.007045822703323347
0.3042304,0.003917414062022717
0.3061417,0.003492174364044396
0.3064638,0.003321247984986625
0.3149407,0.007282023895258175
0.3141635,0.007095179838766912
0.3178656,0.004478693837369207
0.3244378,0.0055849422318707456
0.32849110000000004,0.007049587213289705
0.3300685,0.006895311067836032
0.3404099,0.004396325370882664
0.3414749,0.006596809371035199
0.3417697,0.009804210093968134
0.3537503,0.008477153479926045
0.3594422,0.005023900273249419
0.3542078,0.009887726890780645
0.36650320000000003,0.012008201047617425
0.3705953,0.007733966957519276
0.3777552,0.005877033242490073
0.3803301,0.01722080592674647
0.3852817,0.012415465105620846
0.3780633,0.03129143774634419
0.3893866,0.025021691101921945
0.3911901,0.01903645211138065
0.3995549,0.011390442616021944
0.41380549999999994,0.009659878746075901
0.4094308,0.02203216973629444
0.4111581,0.022990905643802347
0.40624089999999996,0.02762647109989499
0.4070324,0.026679096491448128
0.4258418,0.011851775805056959
0.42607989999999996,0.011501823734135
0.4354521,0.010958522400903843
0.42903270000000004,0.03256764585375423
0.4301609,0.028275746420838403
0.43183610000000006,0.035473441710195903
0.454718,0.02402252343114686
0.4534876,0.022144863067236766
0.46791489999999997,0.011694195164458483
0.4668138,0.0310106401911774
0.46605740000000007,0.0305168313601964
0.46771050000000003,0.028176251561475588
0.4698554,0.029754355241245315
0.4927292,0.012316005266860412
0.4841032,0.03893384917980183
0.479315,0.037518238924555074
0.5098061,0.011086677996085616
0.49296940000000006,0.03943208854389194
0.49741749999999996,0.03569807110646487
0.5144040999999999,0.02969114058454323
0.5276258,0.01920706391351311
0.5192912,0.0378172854093645
0.5243007000000001,0.025351772276641073
0.5373917,0.019997727626741336
0.5346314,0.023500542883563822
0.5461484000000001,0.018921758669731406
0.4389457,0.09065567807926381
0.48644509999999996,0.08528134337128555
0.44799810000000007,0.11073986041213887
0.4034881,0.10128921310062808
0.4714322,0.11167379164612538
0.45572549999999995,0.10594365096204052
0.5121673,0.13246409244105867
0.4992008,0.10060883328217259
0.5368326999999999,0.1310432972206345
0.5387071,0.06722135616412722
0.5339202999999999,0.11491798488008739
mean_timeC,stdev_timeC
0.0,0.0
0.0,0.0
0.0,0.0
0.0,0.0
0.0,0.0
0.0,0.0
0.0,0.0
0.0,0.0
0.0,0.0
0.0,0.0
0.0,0.0
0.0,0.0
0.0,0.0
0.0,0.0
0.0,0.0
0.0,0.0
0.0,0.0
0.0,0.0
0.0,0.0
0.0,0.0
0.0889525,0.002337317752847863
0.0882391,0.0002732969284699546
0.0911119,0.003835905295146548
0.092737,0.004204847969242699
0.0929711,0.004484542549444455
0.0942902,0.004216949734899229
0.0957232,0.004472367203171045
0.0,0.0
0.0,0.0
0.0,0.0
0.0,0.0
0.1051995,0.005166817035446271
0.10605869999999999,0.004431565739103955
0.1068625,0.004603232227950753
0.10891809999999999,0.0051239257183010225
0.1099051,0.004855845971609892
0.11098369999999999,0.0013283337975741568
0.11229549999999999,0.0006134031210296288
0.1137601,0.0008320168868478547
0.11546510000000001,0.0013541108973131508
0.1176561,0.0010199342516935975
0.1193121,0.001317774171346011
0.1217862,0.0018014687711235336
0.1227393,0.0007077182505928646
0.124109,0.0009195879512042342
0.1293021,0.011733025596816682
0.0,0.0
0.0,0.0
0.0,0.0
0.0,0.0
0.0,0.0
0.0,0.0
0.0,0.0
0.0,0.0
0.0,0.0
0.0,0.0
0.0,0.0
0.0,0.0
0.0,0.0
0.0,0.0
0.0,0.0
0.0,0.0
0.0,0.0
0.0,0.0
0.0,0.0
0.0,0.0
0.0,0.0
0.0,0.0
0.0,0.0
0.0,0.0
0.0,0.0
0.0,0.0
0.0,0.0
0.0,0.0
0.0,0.0
0.0,0.0
0.0,0.0
0.0,0.0
0.0,0.0
0.0,0.0
0.0,0.0
0.0,0.0
0.0,0.0
0.0,0.0
0.0,0.0
0.0,0.0
0.0,0.0
0.0,0.0
0.0,0.0
0.0,0.0
0.0,0.0
0.0,0.0
0.0,0.0
0.0,0.0
0.0,0.0
0.0,0.0
0.0,0.0
0.0,0.0
0.0,0.0
0.0,0.0
0.0,0.0
0.0,0.0
0.0,0.0
0.21323790000000004,0.007722831036032775
0.21584609999999999,0.00832284579335698
0.2187288,0.00681391753529332
0.21875460000000002,0.007406457560804624
0.22767330000000002,0.002872278307855591
0.24027310000000002,0.03727789315532733
0.21980589999999997,0.03109510200247692
0.22685360000000002,0.008450616995225854
0.2342832,0.00535846789462975
0.23172679999999998,0.006607223568859227
0.23312170000000002,0.008561464127771083
0.22868969999999997,0.011665129965937897
0.0,0.0
0.0,0.0
0.0,0.0
0.0,0.0
0.0,0.0
0.0,0.0
0.0,0.0
0.0,0.0
0.0,0.0
0.0,0.0
0.0,0.0
0.0,0.0
0.0,0.0
0.0,0.0
0.0,0.0
0.0,0.0
0.0,0.0
0.0,0.0
0.0,0.0
0.0,0.0
0.0,0.0
0.0,0.0
0.0,0.0
0.0,0.0
0.2700468,0.01722236058668434
0.2746207,0.01736013028016912
0.2780299,0.014360057106432409
0.2721278,0.01998993201478073
0.2787826,0.020658407845502307
0.2797538,0.01899631833803592
0.283028,0.017544164677243033
0.2831629,0.019026397466268927
0.2813198,0.020439245500316842
0.3077305,0.07454542446387974
0.2818039,0.021194269982709943
0.2800299,0.015367480379395669
0.28296259999999995,0.019252820487167872
0.2950979,0.021093500765507003
0.2914105,0.019448520956332094
0.2893412,0.01980800263529869
0.2953582,0.022392749594455794
0.297284,0.023278312882738444
0.2986004,0.0255238057515811
0.282642,0.03785810404949279
0.29975680000000005,0.022792410797358744
0.3047965,0.024741421504342782
0.3001413,0.04624314888607825
0.30815760000000003,0.04830999301777819
0.3122992,0.045096694891951644
0.3101028,0.04762265846982226
0.3015522,0.039289358889597004
0.3082282,0.04711372543065932
0.3035671,0.04812170162653574
0.3163552,0.03108068908073523
0.3050632,0.045667897853963024
0.28196659999999996,0.05932749728639046
0.2949018,0.07083669035307748
0.29906730000000004,0.060023791755251334
0.325043,0.03653027427582042
0.3208881,0.031389041458055954
0.3206801,0.03386255234670496
0.3188719,0.06554170639702123
0.2787748,0.0586082594023895
0.3123424,0.06450931277678698
0.31697600000000004,0.05262749454842445
0.3163221,0.07249419359039883
0.3428813,0.05155711986622216
0.3266513,0.04874110705679778
0.2920795,0.07074827048259044
0.2962609,0.0525619207421114
0.306602,0.05650281055743058
0.327296,0.06584602905938132
0.3303516,0.07787060079987397
0.341297,0.08946358816486925
0.33346770000000003,0.0815457395536054
0.3233184,0.08746488559441694
0.3336393,0.0574831999748139
0.34139939999999996,0.06139173910986179
0.31922079999999997,0.06241788787732782
0.30107849999999997,0.07857145121374132
0.3207664,0.07004720008552963
0.3376329,0.05661094463960912
0.3253837,0.08380745945591929
0.3267125,0.09208299711703327
0.320524,0.07215632648323746
0.333534,0.09105903978799201
0.30637980000000004,0.08843382400768511
0.3025453,0.09971829060580834
0.31826030000000005,0.09122225303686718
0.3019024,0.09268856186558895
0.31763240000000004,0.09640229582812504
0.361586,0.09028671570305592
0.2956278,0.0987591990143478
0.3735145,0.06712998816268495
0.38342580000000004,0.08026559440424438
0.3382425,0.08101042238879583
