Full Accuracy
67.243813
Accuracy - I
50.000000
50.000000
50.000000
50.000000
50.000000
50.000000
50.000000
50.000000
50.000000
50.000000
50.000000
50.000000
50.370373
53.333328
58.433086
59.914566
62.400364
63.710983
64.366295
66.503075
67.243813
