Full Time (seconds)
0.426607
Time - I
0.016711
0.061445
0.104468
0.147304
0.217617
0.215322
0.275694
0.313287
0.362161
0.419751
0.398705
0.450291
0.425011
0.450567
0.450626
0.419903
0.355711
0.455845
0.455708
0.429931
0.387196
