Full Accuracy
93.000000
Accuracy - I
50.000000
58.692307
69.230766
73.000000
76.230774
81.230774
83.000000
83.692307
85.692307
86.538467
87.538460
88.769226
89.384613
89.769234
90.615387
91.230766
91.769234
92.000000
92.846153
93.076920
93.000000
