Full Time (seconds)
0.106670
Time - I
0.004338
0.010932
0.012712
0.017174
0.020751
0.025604
0.029998
0.034019
0.037292
0.046965
0.051745
0.053984
0.058283
0.063467
0.073951
0.075673
0.082148
0.089014
0.094131
0.101925
0.106352
