Full Time (seconds)
0.581743
Time - I
0.161177
0.176477
0.192758
0.219200
0.235370
0.238939
0.228720
0.237720
0.238131
0.222033
0.232428
0.234190
0.258141
0.287494
0.289153
0.288775
0.590027
0.658823
0.608389
0.653542
0.455457
