Full Accuracy
87.330620
Accuracy - I
cat: testS_0.svm.acc: No such file or directory
70.815628
71.296867
71.761017
71.772415
71.328705
71.328705
71.328705
71.328705
71.328705
71.328705
71.328705
71.294022
71.294022
71.294022
71.294022
71.294022
71.294022
71.294022
71.294022
71.294022
81.817551
86.093689
88.508224
87.556870
87.350296
87.350296
86.586540
87.537895
88.614311
87.393860
