Full Time (seconds)
0.141614
Incremental Time - I
0.005898
0.000086
0.000103
0.000105
0.000119
0.000119
0.000131
0.000134
0.000136
0.000151
0.000163
0.000175
0.000189
0.000197
0.000208
0.000215
0.000220
0.000224
0.000231
0.000263
0.000252
0.002315
0.001475
0.002069
0.002552
0.002591
0.002463
0.002387
0.002450
0.002530
0.002474
0.002148
0.001552
0.001501
0.001508
0.001504
0.001448
0.002296
0.002698
0.002699
0.002643
0.002409
0.002359
0.001782
0.001575
0.001396
0.001355
0.001310
0.001301
0.002243
0.002461
0.002691
0.002726
0.002713
0.002079
0.001842
0.001735
0.001694
0.001682
0.002611
0.002741
0.002862
0.002782
0.002108
0.001990
0.001922
0.001838
0.001806
0.001782
0.002750
0.002894
0.002174
0.001969
0.001957
0.002801
0.002912
0.002852
0.002864
0.002914
0.002390
0.002125
0.002035
0.002715
0.003053
0.002988
0.003057
0.002950
0.002445
0.002247
0.002169
0.002120
0.002926
0.003025
0.003061
0.003062
0.002593
0.002257
0.002151
0.002145
0.002884
0.003122
0.002472
0.002316
0.002218
0.002230
0.002927
0.003182
0.003206
0.002444
0.002358
0.002455
0.003184
0.003305
0.003256
0.002812
0.002560
0.002352
0.002373
0.002987
0.003339
0.002672
0.002608
0.002508
0.003235
0.002691
0.002555
0.002459
0.003250
0.003377
0.003330
0.002762
0.002776
0.002644
0.003252
0.003438
0.002963
0.002768
0.002625
0.002620
0.003287
0.003427
Classification Time - I
0.005753
0.006576
0.007506
0.008430
0.009390
0.010396
0.011341
0.012480
0.013526
0.014496
0.015657
0.016370
0.017529
0.018068
0.018821
0.019698
0.020533
0.021482
0.022280
0.023951
0.024883
0.024977
0.026004
0.026895
0.027910
0.029156
0.029817
0.030761
0.031641
0.032828
0.034605
0.034665
0.036584
0.036878
0.038577
0.038294
0.039287
0.040237
0.041197
0.042457
0.043977
0.044363
0.043287
0.043651
0.045616
0.044800
0.046612
0.045737
0.046266
0.046812
0.047733
0.048707
0.049807
0.052004
0.053407
0.054348
0.055384
0.054462
0.055360
0.056453
0.057971
0.058121
0.061198
0.062110
0.061067
0.063672
0.064943
0.063762
0.064760
0.065646
0.069087
0.069945
0.070973
0.069530
0.070646
0.071667
0.072435
0.073718
0.075863
0.075126
0.078495
0.077033
0.080817
0.079101
0.080124
0.080546
0.081528
0.085950
0.083577
0.087180
0.085401
0.086468
0.087342
0.088388
0.089443
0.090637
0.091099
0.091614
0.092981
0.093623
0.094417
0.095502
0.097053
0.101110
0.098584
0.099578
0.099789
0.103824
0.102102
0.106396
0.103665
0.104750
0.105352
0.107174
0.108621
0.112147
0.108885
0.109810
0.110769
0.111480
0.112956
0.113567
0.114271
0.115367
0.120852
0.117826
0.118340
0.119358
0.119770
0.123838
0.127049
0.122847
0.123883
0.124632
0.126509
0.131651
0.130926
0.128297
0.129508
0.131473
