Full Time (seconds)
0.142464
Incremental Time - I
0.005125
0.000088
0.000109
0.000106
0.000120
0.000122
0.000133
0.000137
0.000142
0.000155
0.000163
0.000183
0.000184
0.000196
0.000205
0.000212
0.000224
0.000223
0.000227
0.000247
0.000252
0.002498
0.002418
0.002342
0.002426
0.002363
0.002316
0.002428
0.002364
0.002329
0.001476
0.001287
0.001288
0.002099
0.002535
0.002425
0.002533
0.002396
0.002564
0.002443
0.002594
0.002063
0.001732
0.001616
0.001517
0.001432
0.002376
0.002691
0.002538
0.002665
0.002653
0.002072
0.001810
0.001703
0.001628
0.002723
0.002663
0.002705
0.002741
0.002309
0.001596
0.001826
0.001724
0.002430
0.002871
0.002917
0.002885
0.002350
0.001700
0.001718
0.002581
0.003003
0.002934
0.002349
0.001683
0.001700
0.001745
0.001679
0.001733
0.002608
0.002933
0.002211
0.001896
0.001827
0.001796
0.002777
0.003003
0.002328
0.002149
0.002813
0.002384
0.002009
0.001796
0.001944
0.001876
0.001761
0.002893
0.002297
0.002110
0.002131
0.001996
0.002493
0.002615
0.001954
0.001425
0.001382
0.001708
0.001468
0.002646
0.002805
0.002043
0.002439
0.002048
0.002229
0.003135
0.003218
0.002664
0.002176
0.002135
0.002137
0.003071
0.003297
0.002707
0.002282
0.002422
0.003038
0.003333
0.003204
0.002802
0.002155
0.002162
0.003226
0.002826
0.002399
0.002504
0.002347
0.003068
0.003422
0.002683
0.002379
0.002262
Classification Time - I
0.005767
0.006695
0.007651
0.008619
0.009589
0.010552
0.011559
0.012509
0.013567
0.014521
0.015478
0.016503
0.017394
0.018270
0.019074
0.020408
0.020734
0.022325
0.023151
0.023554
0.024588
0.025334
0.026224
0.027075
0.028164
0.029091
0.030071
0.031060
0.031813
0.032756
0.033530
0.035608
0.035560
0.036784
0.037446
0.038463
0.039387
0.040344
0.041280
0.042422
0.044514
0.044015
0.046400
0.045949
0.047161
0.047911
0.048854
0.049866
0.051134
0.051738
0.054355
0.055300
0.056402
0.055601
0.056488
0.057463
0.058632
0.059401
0.060124
0.060892
0.061844
0.064951
0.063805
0.064797
0.066190
0.069045
0.068612
0.069240
0.071961
0.071106
0.071406
0.072346
0.075674
0.073948
0.075287
0.075898
0.079496
0.078099
0.079366
0.079920
0.080590
0.081432
0.085746
0.083401
0.084998
0.085810
0.085969
0.087343
0.088233
0.088716
0.090505
0.091028
0.094910
0.096599
0.094229
0.094582
0.099032
0.097950
0.097174
0.101387
0.098884
0.098877
0.103108
0.103696
0.099758
0.100546
0.101532
0.102000
0.102448
0.107115
0.103535
0.108390
0.108011
0.106389
0.107860
0.111166
0.113210
0.109870
0.111499
0.112129
0.112881
0.118191
0.114420
0.115403
0.116838
0.117767
0.118993
0.119183
0.120100
0.121533
0.122733
0.127477
0.127320
0.124704
0.125966
0.127144
0.127806
0.133939
0.133887
0.130115
