Full Accuracy
71.066666
Accuracy - I
50.000000
70.266670
74.377785
76.088890
75.755554
73.822227
73.688889
74.555557
73.177780
73.688889
74.155556
73.755554
72.199997
72.511116
73.133331
72.511116
72.399994
71.688889
70.911110
71.311111
71.066666
