Full Time (seconds)
0.036351
Incremental Time - I
0.006456
0.000315
0.000391
0.000448
0.000787
0.000754
0.000848
0.000932
0.001186
0.001163
0.001142
0.001282
0.001461
0.001531
0.001552
0.001654
0.001846
0.001923
0.002088
0.002194
0.003163
Classification Time - I
0.004797
0.006031
0.007284
0.008486
0.009882
0.011279
0.012427
0.013743
0.014962
0.016251
0.017432
0.018766
0.020899
0.021368
0.023197
0.026130
0.026875
0.027404
0.030561
0.031771
