Full Time (seconds)
0.017183
Time - I
0.002619
0.003496
0.004448
0.005181
0.006028
0.006855
0.007703
0.008511
0.009745
0.010218
0.010868
0.011668
0.012132
0.012201
0.012445
0.012813
0.013381
0.013964
0.014123
0.014498
0.015687
0.015858
0.016186
0.016266
0.016220
0.015894
0.016513
0.017060
0.016536
0.017401
0.016946
