Full Time (seconds)
0.017484
Time - I
0.004815
0.005226
0.005622
0.006062
0.006432
0.006840
0.007301
0.007656
0.008132
0.008520
0.008956
0.009322
0.009903
0.010216
0.010614
0.010973
0.011397
0.011753
0.012375
0.012623
0.013667
0.013913
0.014007
0.014430
0.015109
0.015781
0.015357
0.016590
0.016857
0.016651
0.017206
