Full Time (seconds)
0.415075
Time - I
0.273672
0.280096
0.308578
0.236579
0.251144
0.234885
0.248667
0.390499
0.312459
0.413807
0.386159
0.359575
0.323050
0.318080
0.596791
0.385306
0.585666
0.648048
0.422460
0.796483
0.627660
