Full Time (seconds)
0.142298
Incremental Time - I
0.005095
0.000095
0.000111
0.000110
0.000117
0.000120
0.000128
0.000132
0.000145
0.000164
0.000163
0.000177
0.000175
0.000196
0.000203
0.000215
0.000217
0.000224
0.000228
0.000244
0.000254
0.002248
0.002092
0.002203
0.002177
0.002032
0.001911
0.001070
0.001371
0.000984
0.000993
0.001103
0.001756
0.002293
0.002191
0.002219
0.002303
0.001601
0.001092
0.001097
0.001077
0.001175
0.001147
0.001100
0.001143
0.002138
0.002328
0.002268
0.001578
0.001134
0.001115
0.001119
0.001122
0.002264
0.002525
0.002631
0.002569
0.002577
0.001579
0.001322
0.001184
0.001239
0.001248
0.001246
0.002682
0.002893
0.002659
0.001563
0.001302
0.001275
0.001272
0.000996
0.000950
0.002233
0.002478
0.002320
0.001340
0.001167
0.001064
0.001070
0.001092
0.001414
0.002689
0.001473
0.001505
0.002765
0.002787
0.001549
0.001451
0.001479
0.002773
0.002850
0.002877
0.002048
0.001491
0.001496
0.001618
0.001600
0.002572
0.002878
0.002938
0.002051
0.001633
0.001630
0.002668
0.002976
0.002913
0.002975
0.002035
0.001695
0.001683
0.002755
0.003023
0.002968
0.003062
0.002031
0.001718
0.001685
0.002884
0.003020
0.003092
0.002193
0.001851
0.001876
0.002804
0.003262
0.003158
0.002245
0.002089
0.001804
0.002829
0.003121
0.003216
0.002381
0.001909
0.001891
0.002861
0.003246
0.002054
0.001951
0.002008
Classification Time - I
0.005792
0.006631
0.007561
0.008481
0.009438
0.010417
0.011523
0.012388
0.013190
0.014197
0.015340
0.016259
0.017502
0.017927
0.018907
0.019599
0.020404
0.021400
0.022607
0.023204
0.024307
0.024898
0.025820
0.026795
0.027690
0.028630
0.029714
0.030507
0.032142
0.032868
0.033254
0.034175
0.035125
0.036319
0.036995
0.037956
0.039008
0.039826
0.041001
0.041753
0.042657
0.043633
0.044515
0.045699
0.046809
0.047695
0.048312
0.049625
0.050147
0.051573
0.053132
0.053031
0.053951
0.054911
0.056525
0.060894
0.062056
0.058946
0.059664
0.060551
0.061425
0.062306
0.066794
0.064534
0.069425
0.070401
0.066873
0.068455
0.073350
0.071161
0.070308
0.070942
0.071049
0.075495
0.071609
0.073250
0.072748
0.079289
0.073984
0.074600
0.075384
0.076385
0.077437
0.078824
0.079477
0.080196
0.081368
0.082476
0.082833
0.084212
0.085836
0.089355
0.087365
0.088196
0.088521
0.089367
0.090915
0.091997
0.091913
0.092865
0.094120
0.094852
0.096418
0.096900
0.097854
0.098555
0.099896
0.100546
0.101304
0.110744
0.103715
0.111768
0.105755
0.105646
0.106616
0.108210
0.108205
0.109317
0.111456
0.111168
0.111855
0.113180
0.113969
0.114697
0.116119
0.116758
0.117744
0.119090
0.119441
0.120592
0.121354
0.122276
0.123694
0.124020
0.124927
0.126619
0.126873
0.128100
0.128964
0.129861
