Full Time (seconds)
0.142435
Incremental Time - I
0.005871
0.000090
0.000102
0.000100
0.000112
0.000115
0.000128
0.000135
0.000135
0.000155
0.000158
0.000182
0.000183
0.000196
0.000205
0.000287
0.000225
0.000223
0.000232
0.000249
0.000253
0.001982
0.001662
0.002306
0.001009
0.000892
0.000907
0.002192
0.002343
0.002310
0.001065
0.000930
0.000929
0.000956
0.002293
0.002316
0.002348
0.001239
0.001026
0.001021
0.002303
0.002429
0.002459
0.001307
0.001057
0.001094
0.001061
0.002337
0.001172
0.001112
0.002405
0.002229
0.002250
0.002255
0.001199
0.000898
0.000988
0.000987
0.000943
0.000994
0.002195
0.002575
0.002516
0.002543
0.001609
0.001233
0.001232
0.001254
0.001291
0.001207
0.002333
0.002644
0.002686
0.001902
0.001525
0.001415
0.001344
0.001384
0.002507
0.002741
0.002727
0.001690
0.001511
0.001558
0.001405
0.002579
0.002789
0.002793
0.002828
0.001905
0.001586
0.001528
0.002592
0.002825
0.002880
0.002877
0.001826
0.001639
0.001591
0.001559
0.002747
0.002863
0.002927
0.001878
0.001769
0.001713
0.001686
0.002774
0.002975
0.003054
0.001918
0.001789
0.001669
0.002811
0.003065
0.002993
0.002991
0.002443
0.001795
0.001766
0.002667
0.003117
0.001998
0.001805
0.001795
0.002953
0.003057
0.003062
0.002148
0.001819
0.001948
0.002904
0.002272
0.002320
0.002606
0.001830
0.002810
0.002800
0.001799
0.001790
0.002141
Classification Time - I
0.005782
0.006709
0.007672
0.008653
0.009613
0.010509
0.011553
0.012575
0.013433
0.014604
0.016539
0.017740
0.018662
0.018120
0.019952
0.021210
0.021208
0.022216
0.022392
0.023857
0.024204
0.026447
0.026695
0.027629
0.028660
0.028744
0.029698
0.030682
0.031548
0.032755
0.034270
0.034227
0.035743
0.036083
0.037012
0.037986
0.040217
0.039892
0.041137
0.041703
0.042706
0.043871
0.046067
0.046082
0.046500
0.049189
0.048597
0.049625
0.050250
0.051112
0.051538
0.051914
0.052657
0.052652
0.054980
0.055494
0.056059
0.054826
0.055402
0.056392
0.057140
0.058211
0.058747
0.060285
0.060540
0.061350
0.062652
0.063218
0.064415
0.065303
0.066506
0.067482
0.070382
0.071421
0.069824
0.070968
0.072156
0.073012
0.073857
0.075172
0.075714
0.076678
0.077410
0.078720
0.079411
0.080430
0.080996
0.082404
0.086030
0.084879
0.085226
0.085860
0.086812
0.087652
0.088615
0.092806
0.093728
0.091943
0.092253
0.093023
0.094199
0.095234
0.100186
0.096750
0.098534
0.102550
0.099841
0.100724
0.101331
0.102401
0.104152
0.104318
0.105250
0.106266
0.106672
0.111593
0.108381
0.113785
0.110400
0.113334
0.113019
0.117471
0.114911
0.115359
0.115804
0.117130
0.118638
0.123016
0.119699
0.120543
0.122476
0.122660
0.129524
0.124462
0.125828
0.135332
0.127476
0.133447
0.134022
0.131521
