Full Time (seconds)
0.194073
Incremental Time - I
0.157087
0.013900
0.025175
0.034390
0.045380
0.056250
0.081543
0.069910
0.084985
0.112461
0.145592
0.167512
0.194636
0.119860
0.230909
0.255830
0.283546
0.268722
0.341497
0.281686
0.258157
Classification Time - C
0.078937
0.102083
0.111591
0.124296
0.135303
0.171513
0.134217
0.145886
0.203423
0.214331
0.226317
0.242506
0.254235
0.258619
0.258149
0.259369
0.207267
0.248379
0.203215
0.253338
