Full Time (seconds)
0.628394
Incremental Time - I
0.753151
0.020957
0.021894
0.023944
0.021267
0.019060
0.032499
0.017122
0.018003
0.019055
0.022291
0.032259
0.017662
0.015043
0.015646
0.016946
0.016963
0.017366
0.016212
0.017154
0.045097
Classification Time - I
0.379439
0.390565
0.389510
0.393723
0.356284
0.341264
0.324093
0.335359
0.403405
0.796269
0.571433
0.403088
0.365665
0.602764
0.396508
0.408286
0.391552
0.379136
0.389986
0.981457
