Full Accuracy
71.022224
Accuracy - I
50.000000
64.599998
63.333332
63.599998
62.844444
61.733334
62.000000
60.377777
60.311108
60.533333
60.799999
64.755554
66.644447
68.511108
68.577782
68.444443
70.155556
70.000000
70.222221
71.000000
70.844444
71.733330
71.711113
72.088890
72.577774
72.577774
72.466667
72.466667
71.888885
71.444443
71.222221
