Full Accuracy
71.066666
Accuracy - I
50.000000
67.311111
65.155556
65.200005
64.088890
62.933331
63.044445
62.911110
62.822224
62.866669
62.866669
62.866669
63.288887
63.933331
63.266666
63.444443
63.644444
63.511108
64.466667
64.355560
64.555557
67.066666
69.666664
71.577782
71.266670
71.644440
71.666664
71.599998
71.555557
71.622223
71.066666
