Full Time (seconds)
0.016335
Time - I
0.002060
0.002842
0.003645
0.004378
0.005206
0.005949
0.007822
0.007603
0.008362
0.009127
0.010391
0.012371
0.011156
0.011504
0.011873
0.012421
0.012296
0.012691
0.013716
0.013795
0.013889
0.014882
0.015868
0.014481
0.015896
0.015219
0.015809
0.016025
0.015515
0.015637
0.018416
