Full Accuracy
87.8063
Accuracy - I
39.1935
68.9972
70.0842
72.4194
71.9355
71.9355
71.9355
71.7742
71.9355
71.9355
71.7742
76.6055
79.5568
78.9874
84.2634
83.7252
86.0221
86.3727
87.9248
89.4143
89.4143
89.4143
89.9781
90.7854
90.7854
91.5302
91.5302
90.7542
89.058
89.058
87.8063
