Full Time (seconds)
0.393355
Time - I
0.160652
0.148888
0.226505
0.263519
0.293772
0.318250
0.308307
0.364690
0.395279
0.378319
0.488248
0.519198
0.552138
0.522915
0.481463
0.532199
0.473121
0.416986
0.408958
0.753132
0.455546
