Full Accuracy
94.000000
Accuracy - I
50.000000
70.846161
76.461533
79.230766
82.538460
85.923073
87.769226
89.384613
89.076927
90.076920
90.769234
92.230766
92.923073
93.000000
93.384621
93.923073
94.153847
94.230774
94.461533
94.769234
94.769226
