Full Time (seconds)
0.147528
Incremental Time - I
0.001743
0.000333
0.000571
0.000823
0.003022
0.003050
0.003174
0.003251
0.003934
0.004216
0.004394
0.005902
0.005781
0.006924
0.007073
0.010310
0.007375
0.008923
0.008757
0.009150
0.010593
Classification Time - I
0.010019
0.015431
0.020483
0.025332
0.030157
0.035465
0.040405
0.045454
0.050330
0.055261
0.062791
0.070190
0.079188
0.089287
0.092665
0.099930
0.100167
0.115723
0.134450
0.135534
