Full Time (seconds)
0.142325
Incremental Time - I
0.005130
0.000332
0.000583
0.000814
0.002685
0.002757
0.002785
0.002898
0.003936
0.003886
0.003206
0.005442
0.006233
0.006938
0.007462
0.008026
0.008701
0.009202
0.009650
0.010302
0.010748
Classification Time - I
0.010102
0.015059
0.020295
0.026219
0.030216
0.036459
0.041456
0.046009
0.050757
0.056150
0.064066
0.071728
0.079179
0.086554
0.096088
0.101168
0.108785
0.117196
0.124730
0.133329
