Full Time (seconds)
0.924319
Incremental Time - I
0.778176
0.016830
0.015130
0.024203
0.022512
0.022060
0.020058
0.018615
0.017350
0.016028
0.017091
0.012535
0.012886
0.013232
0.014142
0.013654
0.013764
0.014506
0.015283
0.017385
0.016317
Classification Time - I
0.377224
0.405340
0.424843
0.405038
0.376341
0.354071
0.339953
0.325437
0.306684
0.296462
0.303899
0.308559
0.323103
0.319664
0.323687
0.333289
0.344954
0.361137
0.396779
0.394388
