Full Time (seconds)
0.002552
Time - I
0.000339
0.000320
0.000387
0.000412
0.000440
0.000460
0.000528
0.000508
0.000548
0.000632
0.000621
0.000672
0.000735
0.000820
0.000858
0.000956
0.000985
0.001048
0.001025
0.001188
0.001244
0.001374
0.001497
0.001630
0.001747
0.001875
0.001828
0.001972
0.002105
0.002250
0.002589
