Full Time (seconds)
0.017260
Time - I
0.002318
0.003184
0.003990
0.004856
0.005627
0.006458
0.007210
0.009043
0.008865
0.009700
0.010604
0.010797
0.011356
0.011676
0.012780
0.012350
0.014493
0.013427
0.014265
0.014968
0.014457
0.015068
0.015654
0.014921
0.015998
0.016202
0.016353
0.015706
0.015982
0.016149
0.017266
