Full Time (seconds)
0.106226
Time - I
0.004282
0.005053
0.005834
0.006605
0.007402
0.008146
0.008914
0.009666
0.010440
0.011234
0.011992
0.012692
0.013430
0.014240
0.015236
0.015690
0.016428
0.017280
0.018094
0.018695
0.019445
0.020816
0.021671
0.022370
0.022924
0.023896
0.024687
0.025510
0.026251
0.027028
0.026996
0.028571
0.029297
0.030282
0.031046
0.031821
0.032634
0.033386
0.034222
0.034807
0.035729
0.035465
0.036858
0.037222
0.038888
0.039675
0.040465
0.041201
0.041960
0.042523
0.042291
0.043402
0.044289
0.046319
0.045676
0.046280
0.047812
0.049082
0.049283
0.048993
0.049732
0.050614
0.051095
0.050594
0.051437
0.052893
0.053002
0.053750
0.054356
0.053990
0.053544
0.055654
0.055065
0.058097
0.057228
0.057222
0.063333
0.058792
0.059481
0.060694
0.061229
0.061924
0.064368
0.065323
0.065544
0.065898
0.067752
0.066963
0.067579
0.067854
0.068620
0.071602
0.072287
0.071227
0.071597
0.072476
0.073856
0.074657
0.074637
0.075740
0.078772
0.077626
0.079781
0.079494
0.079224
0.080129
0.081023
0.082555
0.084821
0.082854
0.086409
0.087047
0.085425
0.086915
0.086492
0.087511
0.091591
0.091803
0.092655
0.094171
0.092847
0.092064
0.093146
0.096519
0.097486
0.095501
0.095594
0.097146
0.100747
0.098077
0.098907
0.100119
0.100838
0.104573
0.101765
0.102521
0.107184
0.106365
0.108575
0.111713
0.109303
