Full Time (seconds)
0.109725
Time - I
0.004367
0.005069
0.005844
0.006648
0.007402
0.008209
0.008931
0.009710
0.010503
0.011227
0.011953
0.012741
0.013566
0.014200
0.014935
0.016072
0.016927
0.017685
0.018510
0.018720
0.019605
0.020696
0.021344
0.022219
0.023163
0.023306
0.024097
0.024731
0.025883
0.027012
0.027335
0.028385
0.028595
0.030041
0.030157
0.030975
0.032316
0.033300
0.033586
0.033942
0.034977
0.035731
0.036318
0.037412
0.037794
0.038552
0.039959
0.040028
0.040806
0.041830
0.042364
0.043629
0.044074
0.045020
0.045756
0.046257
0.046776
0.048052
0.048335
0.049310
0.050020
0.050562
0.051262
0.052083
0.053435
0.054276
0.054571
0.055360
0.056504
0.056634
0.057500
0.058679
0.059145
0.059559
0.060387
0.061351
0.061793
0.062836
0.063635
0.064524
0.065192
0.067179
0.066532
0.067512
0.067781
0.069536
0.069619
0.070039
0.070928
0.071976
0.072746
0.073137
0.074232
0.075494
0.076516
0.076128
0.076847
0.077622
0.079759
0.082257
0.079806
0.080993
0.082810
0.084158
0.083088
0.083868
0.084694
0.085776
0.086914
0.086717
0.087573
0.088909
0.089670
0.090191
0.091100
0.091897
0.093917
0.092612
0.093396
0.094642
0.095358
0.095701
0.099534
0.098493
0.098837
0.104356
0.100367
0.100697
0.102886
0.103330
0.103745
0.106225
0.103038
0.104045
0.104278
0.104013
0.105491
0.104919
0.105461
0.106545
0.107275
