Full Time (seconds)
0.106462
Time - I
0.004215
0.005035
0.005912
0.006720
0.007511
0.008350
0.009233
0.009858
0.010656
0.011616
0.012216
0.012957
0.013804
0.014595
0.015184
0.015870
0.017085
0.017356
0.018664
0.018889
0.020206
0.020735
0.021840
0.022539
0.023861
0.023734
0.024851
0.025660
0.026417
0.026788
0.027509
0.028598
0.028780
0.030440
0.031314
0.032047
0.032011
0.033597
0.033646
0.034222
0.034962
0.035757
0.036638
0.037145
0.038234
0.039897
0.040742
0.041125
0.040947
0.043008
0.043765
0.044133
0.044541
0.043581
0.043993
0.044294
0.044382
0.044893
0.046706
0.047180
0.046876
0.046925
0.047816
0.048663
0.049241
0.050015
0.051537
0.051411
0.053874
0.053027
0.055467
0.054510
0.055626
0.056042
0.056880
0.057526
0.059443
0.060884
0.059782
0.061605
0.063178
0.063810
0.063137
0.063787
0.064687
0.066788
0.066997
0.069259
0.068487
0.068253
0.069447
0.070480
0.070918
0.073300
0.072956
0.075037
0.074106
0.074218
0.075273
0.075555
0.076450
0.079665
0.080300
0.079981
0.080090
0.080442
0.081024
0.081637
0.085147
0.083544
0.084630
0.084742
0.085816
0.086088
0.089624
0.087822
0.091334
0.089013
0.089822
0.090692
0.091440
0.093446
0.093105
0.096921
0.094446
0.098491
0.099160
0.098419
0.097507
0.101560
0.099007
0.100178
0.103816
0.101731
0.102095
0.102604
0.106354
0.108084
0.105654
0.108368
0.108493
