Full Time (seconds)
0.016657
Time - I
0.004063
0.004602
0.005136
0.005753
0.006320
0.006886
0.007462
0.008013
0.008627
0.009081
0.009674
0.010381
0.011219
0.011546
0.011998
0.013163
0.013882
0.014602
0.015284
0.015265
0.016702
