Full Time (seconds)
0.281179
Time - I
0.254160
0.285957
0.323395
0.354659
0.384399
0.385123
0.369006
0.164534
0.174217
0.181243
0.191758
0.202191
0.208501
0.218365
0.224883
0.232852
0.241424
0.251175
0.259603
0.271606
0.275334
