Full Time (seconds)
0.007131
Incremental Time - I
0.002364
0.000080
0.000099
0.000099
0.000099
0.000114
0.000155
0.000124
0.000123
0.000116
0.000132
0.000127
0.000149
0.000149
0.000145
0.000176
0.000165
0.001869
0.000839
0.000948
0.001911
0.002146
0.001905
0.002091
0.001960
0.002127
0.002037
0.001869
0.001923
0.002254
0.002121
Classification Time - I
0.001343
0.001431
0.001488
0.001568
0.001696
0.001788
0.001908
0.001997
0.002125
0.002281
0.002369
0.002494
0.002610
0.002733
0.002842
0.002949
0.003057
0.003259
0.003373
0.003424
0.003582
0.003704
0.003803
0.003952
0.004066
0.004133
0.004442
0.004482
0.004617
0.004812
