Full Time (seconds)
0.006841
Incremental Time - I
0.001327
0.000065
0.000108
0.000077
0.000075
0.000090
0.000096
0.000129
0.000099
0.000106
0.000105
0.000069
0.000070
0.000071
0.000078
0.000074
0.000088
0.000093
0.000096
0.000100
0.000099
0.000233
0.000260
0.000273
0.002289
0.002249
0.002180
0.002257
0.002081
0.002277
0.002128
Classification Time - I
0.000726
0.000807
0.000890
0.000982
0.001116
0.001188
0.001341
0.001414
0.001525
0.001650
0.001719
0.001757
0.001795
0.001828
0.001897
0.001952
0.002027
0.002096
0.002199
0.002221
0.002537
0.002708
0.002901
0.003160
0.003387
0.003661
0.003934
0.004244
0.004559
0.004881
