Full Time (seconds)
0.379790
Time - I
0.251077
0.280731
0.307907
0.270459
0.249397
0.260478
0.240670
0.246998
0.252255
0.507439
0.488698
0.566831
0.594347
0.552778
0.638556
0.636804
0.422516
0.721151
0.434782
0.395625
0.395884
