Full Time (seconds)
0.309002
Time - I
0.090998
0.198866
0.082383
0.093651
0.110149
0.109490
0.122490
0.132587
0.411118
0.460684
0.423284
0.508481
0.529471
0.537929
0.610299
0.660978
0.254782
0.245556
0.257991
0.785974
0.328332
