Full Accuracy
88.046768
Accuracy - I
50.000000
50.000000
50.000000
50.000000
50.000000
50.000000
50.000000
50.000000
50.000000
50.000000
50.000000
79.833626
83.665886
86.046867
87.553253
87.845573
87.997284
87.950333
87.864738
87.928162
88.046768
