Full Time (seconds)
0.175168
Time - I
0.002261
0.003358
0.004476
0.005926
0.007267
0.008087
0.009549
0.010896
0.011871
0.013896
0.013726
0.014259
0.016315
0.016737
0.018226
0.019787
0.020313
0.021629
0.023652
0.023574
0.025627
0.027262
0.027457
0.027832
0.029606
0.030414
0.032640
0.033861
0.034945
0.034961
0.036361
0.038264
0.039250
0.039956
0.043865
0.045454
0.045053
0.044975
0.045819
0.047767
0.049693
0.050662
0.050463
0.053235
0.053814
0.054260
0.057047
0.057950
0.059746
0.059290
0.059858
0.061422
0.062291
0.063333
0.064739
0.068376
0.068656
0.068342
0.074529
0.076835
0.081576
0.074290
0.076733
0.077175
0.077358
0.077561
0.080916
0.080260
0.081175
0.083901
0.085000
0.088778
0.088802
0.087095
0.091096
0.090097
0.091564
0.093899
0.095290
0.094260
0.095342
0.098350
0.100617
0.098856
0.101280
0.101847
0.112229
0.107008
0.108047
0.106915
0.107863
0.108540
0.110033
0.110918
0.113961
0.115614
0.116654
0.117124
0.118226
0.118875
0.120142
0.157484
0.123900
0.122679
0.123653
0.125683
0.127852
0.127457
0.138985
0.130645
0.135464
0.174628
0.127079
0.126533
0.127085
0.136842
0.128700
0.142854
0.150897
0.152765
0.143792
0.147233
0.147263
0.148801
0.149628
0.146712
0.140231
0.141109
0.152294
0.141770
0.156593
0.157261
0.164497
0.165027
0.163509
0.162855
0.164759
0.166973
0.168214
0.169627
0.166040
0.167770
0.172910
0.173451
0.174750
0.177998
0.174258
0.176546
0.180510
0.181249
0.178384
0.183323
0.183299
0.183363
0.187195
0.184249
0.187930
0.186483
0.191577
0.193131
0.193862
0.194514
0.199229
0.168799
0.196900
0.201313
0.199705
0.202387
0.197075
0.200771
0.198866
0.204131
0.204677
0.209983
0.216758
0.208578
0.209107
0.213900
0.216145
0.217818
0.204204
0.203248
0.186204
0.221330
0.204708
0.218226
0.238676
0.224545
0.224054
0.225922
0.228477
0.230659
0.199859
0.232756
0.186308
0.189323
0.188421
0.189339
0.237550
0.238113
0.233949
0.232216
0.228141
0.225292
0.197455
0.199190
0.198980
0.193274
0.187984
0.189386
0.189947
