Full Accuracy
80.976158
Accuracy - I
50.000000
80.724129
82.616798
81.939186
80.877594
81.361557
81.162056
81.375641
80.249969
80.378120
80.071831
80.442200
80.071831
81.353806
82.528992
83.027512
82.350853
82.393562
81.325165
81.389244
80.976158
