Full Accuracy
94.000000
Accuracy - I
50.000000
53.769230
53.769230
53.846157
53.846157
53.846157
53.846157
53.769230
53.769230
53.769230
53.769230
53.769230
53.846157
53.846157
53.846157
53.846157
53.846157
53.846157
53.846157
53.846157
53.846157
55.769234
56.307690
56.923073
57.230770
57.461536
57.538460
57.538460
57.615387
57.692307
57.692307
61.384617
61.538464
61.538464
61.538464
61.538464
61.538464
61.538464
61.538464
61.538464
61.538464
64.307693
64.538460
64.846153
64.846153
64.923080
64.923080
65.000000
64.923080
64.923080
64.923080
68.000000
68.461540
68.615379
68.769226
68.769226
68.769226
68.769226
68.769226
68.769226
68.769226
71.538460
72.153847
72.076920
72.307693
72.307693
72.307693
72.307693
72.307693
72.307693
72.307693
74.000000
74.384613
75.230774
75.230774
75.307693
76.000000
76.076927
76.076927
76.076927
76.076927
76.692307
77.461540
78.000000
78.153839
78.076920
78.230766
78.230766
78.230766
78.461540
78.538460
80.461540
80.769226
81.384621
81.461540
81.692307
81.384621
81.538460
81.769234
82.000000
82.076927
84.692307
85.076920
85.000000
85.384613
85.615387
85.615387
85.692307
85.692307
85.692307
85.846153
87.000000
88.000000
88.230774
88.307693
88.307693
88.153847
88.230774
88.230774
88.230774
88.461533
91.615387
91.692314
91.923073
91.692314
91.692314
91.615387
91.538460
91.538460
91.538460
91.538460
94.384613
94.846153
94.846153
94.923080
94.846153
94.846153
94.846153
94.846153
94.846153
94.769226
