Full Time (seconds)
0.122492
Incremental Time - I
0.000318
0.000386
0.000384
0.000452
0.000487
0.000600
0.000629
0.000774
0.000784
0.000892
0.000926
0.001676
0.001920
0.002161
0.002381
0.002727
0.003018
0.003137
0.003327
0.003574
0.003876
0.005434
0.005939
0.006363
0.006729
0.007172
0.007639
0.008059
0.008389
0.009297
0.009956
0.011232
0.011574
0.011170
0.011931
0.012168
0.012532
0.011950
0.012203
0.013162
0.012934
0.015384
0.015370
0.015991
0.016971
0.016865
0.017252
0.016761
0.017954
0.017797
0.018156
0.022280
0.023272
0.024014
0.025044
0.025988
0.026881
0.027958
0.027723
0.028827
0.029615
0.032398
0.033968
0.034978
0.035646
0.036010
0.036934
0.035722
0.036340
0.036975
0.037955
0.040474
0.042801
0.043704
0.043995
0.044522
0.045095
0.045545
0.046394
0.047162
0.049220
0.054805
0.053801
0.054352
0.055831
0.059509
0.060908
0.062537
0.062817
0.061312
0.062930
0.067869
0.069897
0.070090
0.068829
0.069999
0.073302
0.073771
0.074371
0.072080
0.073017
0.079936
0.078590
0.079233
0.080664
0.084577
0.085659
0.082729
0.083411
0.084501
0.085071
0.087682
0.090123
0.088432
0.087046
0.088207
0.088000
0.087782
0.087716
0.085342
0.082112
0.096608
0.097085
0.095255
0.096323
0.096642
0.098339
0.100217
0.102782
0.103113
0.103682
0.108377
0.105805
0.106340
0.107238
0.111458
0.109990
0.113525
0.105150
0.107275
0.115902
Classification Time - C
cat: testS_0.svm.time: No such file or directory
cat: test1II_0000.svm.time: No such file or directory
cat: test1II_0001.svm.time: No such file or directory
cat: test1II_0002.svm.time: No such file or directory
cat: test1II_0003.svm.time: No such file or directory
cat: test1II_0004.svm.time: No such file or directory
cat: test1II_0005.svm.time: No such file or directory
cat: test1II_0006.svm.time: No such file or directory
cat: test1II_0007.svm.time: No such file or directory
cat: test1II_0008.svm.time: No such file or directory
cat: test1II_0009.svm.time: No such file or directory
cat: test2II_0000.svm.time: No such file or directory
cat: test2II_0001.svm.time: No such file or directory
cat: test2II_0002.svm.time: No such file or directory
cat: test2II_0003.svm.time: No such file or directory
cat: test2II_0004.svm.time: No such file or directory
cat: test2II_0005.svm.time: No such file or directory
cat: test2II_0006.svm.time: No such file or directory
cat: test2II_0007.svm.time: No such file or directory
cat: test2II_0008.svm.time: No such file or directory
cat: test2II_0009.svm.time: No such file or directory
cat: test3II_0000.svm.time: No such file or directory
cat: test3II_0001.svm.time: No such file or directory
cat: test3II_0002.svm.time: No such file or directory
cat: test3II_0003.svm.time: No such file or directory
cat: test3II_0004.svm.time: No such file or directory
cat: test3II_0005.svm.time: No such file or directory
cat: test3II_0006.svm.time: No such file or directory
cat: test3II_0007.svm.time: No such file or directory
cat: test3II_0008.svm.time: No such file or directory
cat: test3II_0009.svm.time: No such file or directory
cat: test4II_0000.svm.time: No such file or directory
cat: test4II_0001.svm.time: No such file or directory
cat: test4II_0002.svm.time: No such file or directory
cat: test4II_0003.svm.time: No such file or directory
cat: test4II_0004.svm.time: No such file or directory
cat: test4II_0005.svm.time: No such file or directory
cat: test4II_0006.svm.time: No such file or directory
cat: test4II_0007.svm.time: No such file or directory
cat: test4II_0008.svm.time: No such file or directory
cat: test4II_0009.svm.time: No such file or directory
cat: test5II_0000.svm.time: No such file or directory
cat: test5II_0001.svm.time: No such file or directory
cat: test5II_0002.svm.time: No such file or directory
cat: test5II_0003.svm.time: No such file or directory
cat: test5II_0004.svm.time: No such file or directory
cat: test5II_0005.svm.time: No such file or directory
cat: test5II_0006.svm.time: No such file or directory
cat: test5II_0007.svm.time: No such file or directory
cat: test5II_0008.svm.time: No such file or directory
cat: test5II_0009.svm.time: No such file or directory
cat: test6II_0000.svm.time: No such file or directory
cat: test6II_0001.svm.time: No such file or directory
cat: test6II_0002.svm.time: No such file or directory
cat: test6II_0003.svm.time: No such file or directory
cat: test6II_0004.svm.time: No such file or directory
cat: test6II_0005.svm.time: No such file or directory
cat: test6II_0006.svm.time: No such file or directory
cat: test6II_0007.svm.time: No such file or directory
cat: test6II_0008.svm.time: No such file or directory
cat: test6II_0009.svm.time: No such file or directory
cat: test7II_0000.svm.time: No such file or directory
cat: test7II_0001.svm.time: No such file or directory
cat: test7II_0002.svm.time: No such file or directory
cat: test7II_0003.svm.time: No such file or directory
cat: test7II_0004.svm.time: No such file or directory
cat: test7II_0005.svm.time: No such file or directory
cat: test7II_0006.svm.time: No such file or directory
cat: test7II_0007.svm.time: No such file or directory
cat: test7II_0008.svm.time: No such file or directory
cat: test7II_0009.svm.time: No such file or directory
cat: test8II_0000.svm.time: No such file or directory
cat: test8II_0001.svm.time: No such file or directory
cat: test8II_0002.svm.time: No such file or directory
cat: test8II_0003.svm.time: No such file or directory
cat: test8II_0004.svm.time: No such file or directory
cat: test8II_0005.svm.time: No such file or directory
cat: test8II_0006.svm.time: No such file or directory
cat: test8II_0007.svm.time: No such file or directory
cat: test8II_0008.svm.time: No such file or directory
cat: test8II_0009.svm.time: No such file or directory
cat: test9II_0000.svm.time: No such file or directory
cat: test9II_0001.svm.time: No such file or directory
cat: test9II_0002.svm.time: No such file or directory
cat: test9II_0003.svm.time: No such file or directory
cat: test9II_0004.svm.time: No such file or directory
cat: test9II_0005.svm.time: No such file or directory
cat: test9II_0006.svm.time: No such file or directory
cat: test9II_0007.svm.time: No such file or directory
cat: test9II_0008.svm.time: No such file or directory
cat: test9II_0009.svm.time: No such file or directory
0.097193
0.100853
0.100760
0.100998
0.103473
0.102909
0.103290
0.102932
0.103458
0.103887
0.106719
0.106140
0.107904
0.107241
0.108648
0.111848
0.109362
0.111071
0.110070
0.110731
0.111798
0.111948
0.112778
0.113812
0.112222
0.112764
0.112550
0.113330
0.106082
0.106575
0.115057
0.119809
0.121441
0.122085
0.122426
0.122228
0.124901
0.125453
0.124834
0.125303
0.126460
0.127279
0.127810
0.130800
0.131090
0.130566
0.132166
0.120622
0.123096
0.132967
