Full Accuracy
94.923080
Accuracy - I
50.000000
70.923080
76.000000
80.461540
83.076927
86.846153
88.461540
89.461540
89.846153
90.692307
91.230766
92.538467
93.000000
93.153847
93.461540
94.000000
94.153847
94.153847
94.538460
94.923080
94.923080
