Full Time (seconds)
0.100634
Time - I
0.004011
0.008904
0.013579
0.016723
0.020186
0.026006
0.029032
0.032419
0.037083
0.042258
0.044499
0.050552
0.077240
0.067481
0.071825
0.075132
0.081535
0.089979
0.093392
0.102438
0.100137
