Full Time (seconds)
0.104846
Time - I
0.003953
0.008019
0.012149
0.016133
0.020207
0.024238
0.029976
0.032551
0.040209
0.041241
0.047727
0.056719
0.056465
0.062480
0.074720
0.076167
0.081124
0.090684
0.097594
0.099571
0.117066
