Full Time (seconds)
0.109396
Time - I
0.003934
0.007995
0.012102
0.016314
0.020769
0.024315
0.029856
0.033310
0.036939
0.040806
0.045098
0.051128
0.057224
0.063862
0.069512
0.074265
0.082283
0.088378
0.094285
0.101103
0.108950
