Full Time (seconds)
0.103282
Time - I
0.003918
0.008002
0.012024
0.016120
0.020237
0.024210
0.028267
0.032328
0.037096
0.041765
0.045011
0.050589
0.056507
0.062613
0.060669
0.065968
0.081121
0.088405
0.093081
0.101593
0.097106
