Full Accuracy
93.000000
Accuracy - I
50.000000
62.692307
72.384613
75.076927
78.538460
81.538460
83.923080
84.384613
85.769234
86.307693
87.307693
88.538460
89.000000
89.769234
90.769234
91.230766
91.769234
92.000000
92.769226
93.000000
93.000000
