Full Time (seconds)
0.107072
Time - I
0.004241
0.008651
0.013221
0.017487
0.021790
0.025788
0.030300
0.033738
0.037568
0.041327
0.045412
0.051755
0.057506
0.066329
0.073407
0.075796
0.084320
0.089636
0.093951
0.100123
0.108863
