Full Time (seconds)
0.108889
Time - I
0.004271
0.008577
0.012918
0.017388
0.021070
0.025411
0.029532
0.034917
0.040024
0.041847
0.046900
0.051344
0.058539
0.065387
0.071411
0.076918
0.083138
0.094059
0.094293
0.100914
0.107145
