Full Accuracy
71.022224
Accuracy - I
50.000000
66.888885
69.422218
70.266663
72.733330
72.333336
72.799995
72.488884
72.155556
73.711105
74.733337
73.577782
71.800003
70.866669
72.066666
71.666664
71.444443
70.800003
69.733337
69.911110
70.177773
