Full Time (seconds)
0.032556
Incremental Time - I
0.006468
0.000315
0.000368
0.000451
0.001996
0.001446
0.002246
0.002524
0.002687
0.002839
0.002726
0.003096
0.003126
0.003070
0.003244
0.003168
0.003478
0.003499
0.003884
0.004009
0.003804
Classification Time - I
0.004835
0.006018
0.007279
0.008474
0.009864
0.011283
0.012434
0.014033
0.015424
0.016826
0.017522
0.019435
0.020778
0.021348
0.023301
0.024785
0.026421
0.027823
0.028435
0.030572
