Full Time (seconds)
0.351270
Time - I
0.124832
0.106586
0.118042
0.142785
0.184105
0.412518
0.445144
0.490290
0.519749
0.505208
0.553330
0.318101
0.606644
0.342071
0.428467
0.302917
0.621770
0.749275
0.660065
0.434026
0.392960
