Full Accuracy
67.243813
Accuracy - I
50.000000
50.000000
50.000000
50.349010
50.349010
50.349010
51.068394
51.068394
54.729378
55.078392
55.690979
59.722340
60.071350
62.293579
61.901844
64.672585
65.370605
67.265175
67.635551
68.269493
67.243813
