Full Time (seconds)
0.422806
Time - I
0.166604
0.183382
0.199993
0.220224
0.213672
0.225409
0.230776
0.111627
0.121584
0.129008
0.139028
0.383788
0.221998
0.242089
0.255642
0.275051
0.287982
0.271085
0.282290
0.751171
0.466525
