Full Time (seconds)
0.293859
Time - I
0.254661
0.285562
0.139833
0.159590
0.210264
0.415877
0.406249
0.247459
0.236972
0.244585
0.247655
0.239750
0.253934
0.244295
0.252943
0.700939
0.596306
0.495686
0.288348
0.283451
0.289768
