Full Time (seconds)
0.002973
Time - I
0.000515
0.000664
0.001307
0.000922
0.001039
0.001144
0.001271
0.001336
0.001459
0.001562
0.001685
0.001770
0.001886
0.002057
0.002104
0.002231
0.002385
0.002509
0.002670
0.002808
0.002959
