Full Time (seconds)
0.232095
Time - I
0.002246
0.003371
0.004507
0.006022
0.007156
0.008395
0.009647
0.010729
0.011787
0.013187
0.014349
0.015393
0.016986
0.018133
0.019373
0.020473
0.020852
0.021466
0.022204
0.023697
0.024389
0.025802
0.026861
0.027931
0.029375
0.030979
0.031524
0.032892
0.031432
0.033923
0.038505
0.041138
0.041205
0.044281
0.045812
0.045485
0.037924
0.038367
0.040049
0.040825
0.041295
0.049226
0.052045
0.051779
0.052934
0.054696
0.055539
0.056344
0.057862
0.060334
0.060863
0.061883
0.064038
0.063579
0.064824
0.068154
0.067039
0.068447
0.069522
0.075177
0.072040
0.080651
0.059851
0.081337
0.062314
0.079652
0.079124
0.081068
0.082077
0.089280
0.087567
0.085236
0.075029
0.084286
0.090115
0.093274
0.091301
0.091938
0.094608
0.095813
0.096755
0.096944
0.097876
0.100187
0.100560
0.101654
0.103887
0.089805
0.105123
0.107507
0.107710
0.109197
0.110233
0.111179
0.112546
0.113321
0.114662
0.089257
0.087562
0.088670
0.129349
0.120696
0.127283
0.123467
0.124496
0.127067
0.126645
0.127587
0.129547
0.065283
0.067726
0.066206
0.103522
0.146246
0.136423
0.137048
0.138348
0.141451
0.142812
0.130383
0.122568
0.125136
0.133849
0.137910
0.144067
0.149004
0.150785
0.140287
0.142144
0.144306
0.155364
0.156475
0.161612
0.159039
0.160071
0.130182
0.131552
0.131575
0.132954
0.125302
0.126416
0.141181
0.170257
0.171807
0.171353
0.113842
0.104498
0.104928
0.177246
0.176896
0.127294
0.141785
0.137272
0.182017
0.184055
0.141607
0.142106
0.186571
0.192672
0.174545
0.129131
0.122521
0.121667
0.122239
0.123005
0.123813
0.197551
0.159341
0.182890
0.202946
0.204627
0.204447
0.206368
0.206570
0.195728
0.196020
0.194112
0.196019
0.201072
0.197429
0.198856
0.184479
0.185203
0.174116
0.175325
0.176886
0.176811
0.167602
0.225560
0.224289
0.226611
0.194708
0.171511
0.230746
0.230062
0.143722
0.132825
0.134755
0.148369
0.152497
0.156591
0.159613
0.161081
0.162001
0.165295
0.243181
0.163822
0.245941
0.248067
0.249266
0.250358
