Full Time (seconds)
0.217247
Time - I
0.002237
0.002791
0.003716
0.004951
0.005793
0.006695
0.007839
0.008151
0.010927
0.011585
0.012602
0.013715
0.015163
0.016425
0.018898
0.018738
0.019796
0.021160
0.022313
0.023604
0.024516
0.026072
0.027003
0.029215
0.029605
0.030678
0.031767
0.033012
0.034294
0.035742
0.037247
0.037665
0.042216
0.044084
0.044087
0.044963
0.047410
0.048205
0.046152
0.047251
0.048458
0.052205
0.050847
0.055882
0.057520
0.054981
0.060437
0.060394
0.057920
0.045125
0.042295
0.064639
0.041684
0.042412
0.045914
0.066477
0.067888
0.074633
0.076328
0.041151
0.072305
0.073754
0.074322
0.075737
0.076790
0.078142
0.079184
0.080342
0.081354
0.082954
0.084202
0.084911
0.033504
0.034556
0.034355
0.038806
0.039106
0.040180
0.040114
0.040550
0.095707
0.097005
0.053871
0.054046
0.055172
0.101783
0.102769
0.104075
0.090180
0.106856
0.108279
0.110485
0.109864
0.111521
0.112734
0.078110
0.076529
0.077607
0.077975
0.079509
0.120024
0.120525
0.121853
0.164024
0.124153
0.127792
0.138062
0.128134
0.131361
0.129941
0.131761
0.132538
0.144823
0.146483
0.055008
0.054148
0.138154
0.054547
0.143147
0.144198
0.145498
0.145470
0.146633
0.146774
0.147880
0.148803
0.150994
0.152971
0.152686
0.155495
0.156315
0.155931
0.140655
0.159516
0.160712
0.162459
0.153233
0.140083
0.142621
0.165441
0.153675
0.127713
0.126660
0.132301
0.138686
0.139054
0.138760
0.140283
0.162676
0.177373
0.179051
0.179779
0.181825
0.182166
0.116105
0.116539
0.171290
0.172360
0.175165
0.174739
0.176915
0.178763
0.178849
0.181466
0.180105
0.184794
0.182068
0.194669
0.217774
0.201231
0.163998
0.155437
0.153292
0.157250
0.155437
0.174859
0.180204
0.181851
0.182557
0.183968
0.186975
0.215552
0.217566
0.218751
0.219172
0.188158
0.166908
0.171078
0.179767
0.183546
0.225548
0.228160
0.230233
0.212699
0.230835
0.253292
0.234546
0.234054
0.235178
0.120352
0.130216
0.239184
0.241269
0.242225
0.242678
0.248106
0.244599
0.246334
0.247194
0.228727
0.231130
