Full Time (seconds)
0.424369
Incremental Time - I
1.092245
0.034039
0.033178
0.029691
0.036554
0.039840
0.043807
0.027383
0.023699
0.025704
0.023963
0.003372
0.003177
0.003494
0.008675
0.008457
0.008883
0.008843
0.006556
0.006046
0.005445
Classification Time - I
0.459292
0.485959
0.523639
0.571133
0.580964
0.616889
0.397152
0.378735
0.334692
0.306218
0.295986
0.283957
0.286047
0.738129
0.798076
0.665549
0.772395
0.609897
0.489569
0.438471
