Full Time (seconds)
0.195254
Time - I
0.002118
0.003210
0.004253
0.005670
0.006732
0.007782
0.009203
0.010285
0.011339
0.012754
0.013907
0.014873
0.016274
0.016642
0.017371
0.018071
0.019106
0.020205
0.021584
0.023045
0.023700
0.025160
0.026357
0.027267
0.028719
0.029788
0.031285
0.032162
0.033327
0.034316
0.035748
0.037400
0.038274
0.039294
0.040382
0.041394
0.042860
0.044347
0.044899
0.046339
0.047413
0.048469
0.050311
0.051068
0.052108
0.053941
0.054466
0.055978
0.057898
0.059012
0.059059
0.061324
0.062249
0.063070
0.064347
0.065107
0.066209
0.067658
0.068652
0.069881
0.072237
0.072427
0.074566
0.075169
0.075725
0.076921
0.078623
0.080380
0.080291
0.081716
0.082849
0.084058
0.085406
0.086916
0.087360
0.090723
0.090636
0.090967
0.093470
0.094952
0.095876
0.097761
0.097898
0.099291
0.099438
0.100886
0.101603
0.105339
0.105563
0.105712
0.107122
0.108149
0.108572
0.112211
0.111575
0.113180
0.115732
0.115128
0.116448
0.117235
0.118178
0.119321
0.120644
0.121742
0.122776
0.124703
0.125269
0.126342
0.128228
0.129206
0.130670
0.131422
0.132544
0.133814
0.134905
0.136314
0.138363
0.141199
0.142011
0.140695
0.143634
0.143927
0.146937
0.145561
0.148281
0.150371
0.149016
0.150882
0.151256
0.150904
0.142550
0.142797
0.143986
0.144971
0.158115
0.159785
0.162332
0.161834
0.163300
0.164169
0.165602
0.166890
0.168603
0.170036
0.172279
0.171269
0.172691
0.175046
0.175220
0.175872
0.177636
0.178380
0.180021
0.181042
0.182391
0.183119
0.173861
0.172441
0.172586
0.173428
0.190576
0.192065
0.193902
0.192467
0.195549
0.179954
0.185771
0.183632
0.183169
0.171125
0.172298
0.173281
0.174688
0.175055
0.176775
0.177166
0.178434
0.179751
0.210572
0.211230
0.213151
0.213490
0.198210
0.200054
0.200534
0.202897
0.202892
0.204216
0.207249
0.191292
0.192881
0.193225
0.194773
0.227767
0.223359
0.231365
0.213689
0.214909
0.216748
0.217464
0.217815
0.203494
0.204693
0.205247
0.207471
0.208993
0.209112
0.209173
0.185306
0.188404
0.198461
