Full Time (seconds)
0.212507
Time - I
0.002115
0.002487
0.003172
0.003901
0.004945
0.006008
0.007417
0.008496
0.009557
0.010961
0.012023
0.013100
0.014506
0.015576
0.016712
0.018047
0.019298
0.020466
0.022007
0.022811
0.023871
0.025128
0.026537
0.027295
0.028622
0.029765
0.031203
0.032250
0.033245
0.034319
0.035692
0.036744
0.038258
0.039236
0.040378
0.041371
0.042814
0.044831
0.044953
0.046310
0.047557
0.048521
0.049875
0.050884
0.052002
0.053379
0.054737
0.055963
0.056972
0.058084
0.060212
0.060628
0.061877
0.062559
0.064127
0.065203
0.066163
0.068426
0.069781
0.069709
0.076893
0.078080
0.077925
0.080288
0.075954
0.076970
0.079062
0.079744
0.080345
0.081817
0.082821
0.083846
0.085243
0.086413
0.088332
0.088866
0.089871
0.091562
0.092488
0.093451
0.095042
0.096058
0.096927
0.098833
0.099436
0.101536
0.101607
0.102955
0.104584
0.105590
0.106481
0.107592
0.108637
0.110126
0.111196
0.112144
0.115554
0.116676
0.117483
0.117164
0.118125
0.119947
0.122254
0.123212
0.122764
0.124325
0.127903
0.126936
0.127837
0.129185
0.132170
0.132866
0.132488
0.133570
0.135316
0.138806
0.147238
0.138345
0.141933
0.140917
0.144600
0.144557
0.143945
0.146961
0.148648
0.150196
0.151253
0.151177
0.151519
0.155285
0.154183
0.154631
0.156430
0.159992
0.158639
0.159703
0.160624
0.164606
0.163589
0.166438
0.165689
0.169656
0.167632
0.170842
0.160776
0.158131
0.159478
0.162251
0.170853
0.179078
0.169378
0.166707
0.166881
0.169871
0.169603
0.170841
0.181736
0.188712
0.186940
0.188104
0.189027
0.189994
0.176659
0.179767
0.180832
0.183052
0.167896
0.171074
0.173341
0.173821
0.187792
0.184015
0.174192
0.175619
0.206739
0.192807
0.207735
0.209260
0.212656
0.197438
0.195178
0.186454
0.187835
0.187676
0.219898
0.214060
0.205095
0.204963
0.205390
0.206933
0.207174
0.195661
0.194531
0.182170
0.183616
0.184146
0.211812
0.232474
0.218119
0.235336
0.235900
0.237167
0.238796
0.236744
0.206368
0.243835
0.244817
0.249124
0.246473
0.246885
0.247865
