Full Time (seconds)
0.110684
Time - I
0.004622
0.010125
0.013457
0.017651
0.022182
0.025795
0.029927
0.034015
0.041383
0.043085
0.046513
0.052328
0.058322
0.064535
0.070316
0.077274
0.083784
0.089525
0.095549
0.101734
0.117912
