Full Time (seconds)
0.118439
Time - I
0.004597
0.008750
0.014048
0.017054
0.024106
0.029182
0.029490
0.035185
0.037648
0.044638
0.045774
0.052091
0.057875
0.063843
0.070141
0.076107
0.082153
0.088318
0.094488
0.112346
0.117958
