Full Accuracy
91.153847
Accuracy - I
50.000000
52.153843
52.846157
53.615387
53.615387
53.615387
53.692307
53.692307
53.692307
53.692307
53.692307
53.692307
54.615383
55.076920
55.615383
56.461536
56.923073
57.307690
57.384617
57.384617
57.538460
57.769234
58.615387
58.999996
59.461540
59.692307
59.923077
60.384613
60.769230
60.923080
61.000000
63.846153
64.769234
64.692307
64.692307
64.692307
64.692307
64.692307
64.692307
64.692307
64.692307
64.692307
65.846153
66.846153
67.230766
67.384613
67.384613
67.538467
67.846153
67.846153
67.846153
68.384613
69.923080
70.692307
71.076927
71.230766
71.384613
71.461540
71.461540
71.615387
71.692307
71.846153
73.307693
73.692307
74.307693
74.384621
74.461540
74.846153
74.846153
74.846153
74.846153
74.923073
76.307693
76.615387
76.692307
77.076927
77.000000
77.230766
77.615387
77.615387
77.846153
78.000000
78.230766
79.000000
79.076920
79.153847
79.230766
79.692307
79.769226
79.923073
80.076920
80.230774
80.615387
81.923073
82.384613
82.923080
82.923080
83.076927
83.153847
83.153847
83.000000
83.000000
83.000000
83.000000
83.000000
83.000000
83.000000
83.076927
83.076927
83.076927
83.076927
82.923080
83.461540
83.923080
84.461540
84.615387
84.846153
84.769234
85.000000
85.230766
85.307693
88.461533
88.461533
88.461533
88.461533
88.538460
88.461533
88.230774
88.230774
88.153847
88.153847
89.615387
90.307693
91.230766
91.307693
91.230766
91.153847
91.076920
91.153847
91.307693
91.153847
