Full Time (seconds)
0.000810
Incremental Time - I
0.000161
0.000075
0.000130
0.000248
0.000224
0.000221
0.000241
0.000573
0.000718
0.000815
0.000879
0.001037
0.001089
0.001134
0.001550
0.001545
0.001364
0.001524
0.001308
0.005246
0.006009
0.004334
0.003772
0.003393
0.003307
0.003727
0.003668
0.005545
0.004124
0.004144
0.004331
Classification Time - C
0.000487
0.000334
0.000349
0.000391
0.000394
0.000375
0.000381
0.000392
0.000402
0.000400
0.000399
0.000489
0.000529
0.000530
0.000574
0.000602
0.000358
0.000368
0.000376
0.000645
0.000691
0.000681
0.000715
0.000882
0.000747
0.000760
0.000763
0.000774
0.000783
0.000789
0.000795
