Full Time (seconds)
0.001873
Incremental Time - I
0.000617
0.000050
0.000050
0.000049
0.000022
0.000053
0.000053
0.000054
0.000066
0.000065
0.000066
0.000076
0.000092
0.000102
0.000057
0.000109
0.000122
0.000048
0.000043
0.000043
0.000045
0.000081
0.000091
0.000269
0.001315
0.001705
0.001547
0.001518
0.001759
0.001782
0.001705
Classification Time - I
0.000609
0.000657
0.000698
0.000741
0.000791
0.000854
0.000885
0.000985
0.001030
0.001087
0.001200
0.001339
0.000510
0.000542
0.001679
0.001785
0.000650
0.000669
0.000729
0.000758
0.000833
0.002670
0.003062
0.003160
0.003406
0.003613
0.003886
0.004161
0.004477
0.004743
