Full Time (seconds)
0.016425
Time - I
0.002364
0.001745
0.003768
0.004492
0.005132
0.005808
0.006551
0.004133
0.004557
0.004896
0.005279
0.005748
0.007693
0.008001
0.007048
0.007620
0.013790
0.014882
0.015673
0.015739
0.016419
