Full Time (seconds)
0.322059
Time - I
0.012846
0.060667
0.099324
0.147639
0.187146
0.239608
0.262387
0.276897
0.324467
0.388452
0.380600
0.350519
0.318526
0.460027
0.477622
0.445882
0.451750
0.390899
0.451609
0.437739
0.386568
