Full Time (seconds)
0.514170
Incremental Time - I
0.035182
0.002313
0.005322
0.008550
0.010966
0.014045
0.016767
0.020522
0.021611
0.026672
0.022870
0.023984
0.031597
0.030089
0.029074
0.042415
0.028470
0.027599
0.028388
0.027313
0.038040
Classification Time - I
0.064455
0.104699
0.142151
0.179868
0.216946
0.259143
0.293988
0.319863
0.317959
0.328015
0.431216
0.409498
0.370518
0.565749
0.462501
0.393950
0.383507
0.353448
0.652348
0.774035
