Full Accuracy
96.6154
Accuracy - I
cat: testS_0.svm.acc: No such file or directory
71.5385
79.6923
84.4615
87.2308
89.7692
91.3846
91.7692
92.3077
92.6923
93.1538
93.8462
94.8462
95.1538
95.5385
96
95.5385
96
95.9231
96.4615
96.7692
