Full Accuracy
96.6154
Accuracy - I
cat: testS_0.svm.acc: No such file or directory
70.6923
79.3077
84.7692
87.1538
89.3846
90.6923
91.3077
91.8462
92.3846
93.3077
94.0769
95.0769
95.2308
95.6154
96
96
96.5385
96.3846
96.6923
96.7692
