Full Accuracy
96.6154
Accuracy - I
cat: testS_0.svm.acc: No such file or directory
73.1538
81.8462
85.6923
87.3077
89.2308
90.6154
91.6154
92.3077
92.1538
93.1538
93.8462
94.5385
94.9231
95.0769
95.6923
95.6923
96.0769
96.2308
96.6154
96.7692
