Full Time (seconds)
0.135026
Incremental Time - I
cat: testS_0.svm.time: No such file or directory
0.004229
0.006910
0.010259
0.013934
0.018106
0.022638
0.024388
0.031045
0.034697
0.039978
0.025352
0.055637
0.061041
0.066320
0.076265
0.093454
0.086967
0.082085
0.086569
0.098471
Classification Time - C
0.033354
0.037696
0.042625
0.047966
0.053343
0.058296
0.058673
0.067744
0.072356
0.076955
0.045692
0.059368
0.094316
0.099733
0.105576
0.110651
0.117365
0.106229
0.104280
0.118222
