Full Time (seconds)
0.140191
Incremental Time - I
cat: testS_0.svm.time: No such file or directory
0.003988
0.006243
0.009864
0.014010
0.018067
0.021615
0.020934
0.030117
0.034016
0.039103
0.043999
0.024237
0.027402
0.039671
0.043023
0.068599
0.087045
0.083509
0.107109
0.118789
Classification Time - C
0.032896
0.037361
0.043377
0.049669
0.054393
0.058920
0.063991
0.068465
0.073410
0.077528
0.037279
0.040704
0.043416
0.100629
0.060827
0.111065
0.119449
0.109685
0.128273
0.136341
