Full Time (seconds)
0.121021
Incremental Time - I
cat: testS_0.svm.time: No such file or directory
0.003197
0.005537
0.008490
0.012227
0.016618
0.021031
0.024946
0.029109
0.037397
0.037749
0.044050
0.052123
0.029221
0.034111
0.059292
0.082811
0.087580
0.061548
0.087522
0.100962
Classification Time - C
0.032203
0.037430
0.042173
0.048254
0.053386
0.059508
0.063893
0.068493
0.055148
0.076689
0.082740
0.088876
0.047612
0.051032
0.087190
0.113986
0.075574
0.084986
0.127623
0.112613
