Full Time (seconds)
0.114618
Time - I
0.003913
0.004247
0.004531
0.004815
0.005152
0.005422
0.005862
0.006343
0.006751
0.007623
0.007695
0.008453
0.009159
0.009994
0.010767
0.011537
0.012289
0.012932
0.013731
0.014469
0.015538
0.015921
0.016775
0.017418
0.018726
0.019488
0.019705
0.020447
0.021216
0.022436
0.022725
0.023461
0.024196
0.025710
0.025710
0.028055
0.027201
0.028634
0.029308
0.030260
0.030282
0.031511
0.031936
0.032982
0.033480
0.034094
0.037130
0.037202
0.039743
0.038920
0.037850
0.038678
0.039453
0.040350
0.041063
0.042191
0.042567
0.042998
0.043786
0.048745
0.049318
0.048800
0.048799
0.047569
0.049560
0.049050
0.049809
0.050928
0.051264
0.055114
0.057403
0.057398
0.055397
0.056291
0.055727
0.056466
0.057282
0.057971
0.065276
0.063438
0.063951
0.061084
0.061776
0.063068
0.063241
0.064023
0.064754
0.070994
0.071440
0.070461
0.067901
0.068955
0.069147
0.070427
0.070930
0.078645
0.078060
0.076796
0.075098
0.074998
0.075922
0.076018
0.076890
0.080030
0.085486
0.084975
0.086797
0.091352
0.081374
0.082184
0.083896
0.083423
0.089602
0.092141
0.095253
0.093971
0.087878
0.088078
0.090691
0.098597
0.096634
0.101632
0.100325
0.092588
0.095012
0.103930
0.102032
0.104827
0.105138
0.097840
0.097995
0.108101
0.109938
0.107278
0.109332
0.114559
0.104002
0.114242
0.115079
0.114943
0.114797
