Full Time (seconds)
0.004925
Incremental Time - I
0.002418
0.000110
0.000113
0.000158
0.000176
0.000176
0.000186
0.000148
0.000146
0.000164
0.000174
0.000193
0.000458
0.000401
0.000414
0.000415
0.000451
0.000433
0.000456
0.000475
0.000484
Classification Time - I
0.001374
0.001514
0.002153
0.002346
0.002510
0.002679
0.002206
0.002339
0.002516
0.002639
0.002836
0.002970
0.003207
0.003375
0.003633
0.003806
0.004018
0.004317
0.004571
0.004856
