Full Time (seconds)
0.005873
Incremental Time - I
0.001290
0.000090
0.000103
0.000107
0.000122
0.000132
0.000143
0.000152
0.000156
0.000178
0.000188
0.000214
0.000212
0.000455
0.000546
0.000453
0.000482
0.000487
0.000552
0.000547
0.000613
Classification Time - I
0.000781
0.000964
0.001155
0.001319
0.001508
0.001697
0.001920
0.002071
0.002301
0.002456
0.002657
0.002910
0.003132
0.003298
0.003515
0.003816
0.004125
0.004285
0.004798
0.005097
