Full Time (seconds)
0.002560
Time - I
0.000357
0.000416
0.000453
0.000507
0.000557
0.000618
0.000682
0.000740
0.000826
0.000874
0.000926
0.000954
0.001106
0.001002
0.001079
0.001052
0.001126
0.001155
0.001182
0.001219
0.001256
0.001408
0.001497
0.001638
0.002033
0.001906
0.002018
0.002177
0.002366
0.002491
0.002569
