Full Time (seconds)
0.294622
Incremental Time - I
0.033666
0.000050
0.000060
0.000057
0.000056
0.000060
0.000062
0.000062
0.000061
0.000066
0.000068
0.025441
0.042260
0.062762
0.088991
0.106590
0.241379
0.269775
0.132136
0.140594
0.307932
Classification Time - C
0.144634
0.041271
0.025737
0.044835
0.044790
0.044887
0.045018
0.044800
0.044904
0.045353
0.044926
0.058502
0.077879
0.101486
0.120402
0.260042
0.260379
0.267219
0.124917
0.314348
0.241156
