Full Time (seconds)
0.209833
Time - I
0.218434
0.261698
0.276223
0.291411
0.263136
0.279073
0.245094
0.250034
0.355471
0.352542
0.324237
0.283594
0.359042
0.250425
0.249082
0.268021
0.221907
0.418694
0.239711
0.245114
0.212706
