Full Time (seconds)
0.276848
Time - I
0.014677
0.040738
0.070577
0.082305
0.104360
0.132274
0.148240
0.173437
0.195857
0.212997
0.235574
0.255591
0.249456
0.350571
0.349671
0.336225
0.368087
0.393841
0.377946
0.347594
0.337944
