Full Time (seconds)
0.124021
Time - I
0.002127
0.003199
0.004257
0.003789
0.004527
0.005205
0.006183
0.010358
0.011792
0.012763
0.013940
0.014892
0.016305
0.017562
0.018750
0.020028
0.020221
0.021079
0.021641
0.022777
0.023810
0.025300
0.026202
0.027387
0.028913
0.030350
0.023102
0.032189
0.033240
0.034425
0.035755
0.036831
0.037842
0.028081
0.040353
0.044194
0.042827
0.047389
0.029564
0.050898
0.051252
0.048714
0.049867
0.054832
0.055854
0.053461
0.057919
0.060808
0.062314
0.061839
0.064292
0.065387
0.065508
0.064847
0.064149
0.065541
0.066226
0.067675
0.069401
0.034230
0.071410
0.072556
0.074093
0.038146
0.037887
0.038673
0.039079
0.043579
0.054101
0.054511
0.055221
0.055892
0.098675
0.051500
0.052150
0.053729
0.064598
0.083117
0.092405
0.093451
0.095189
0.095959
0.083128
0.098137
0.102191
0.101270
0.104899
0.103175
0.106258
0.105626
0.106651
0.107689
0.102558
0.101925
0.102678
0.110501
0.116764
0.114761
0.115742
0.119093
0.119591
0.124819
0.121447
0.122254
0.123425
0.124346
0.136797
0.095987
0.096180
0.103023
0.106996
0.105902
0.113642
0.114304
0.117738
0.147320
0.117487
0.139607
0.143126
0.141105
0.083460
0.081679
0.144615
0.145531
0.129051
0.145050
0.149080
0.153579
0.162970
0.152915
0.153666
0.135483
0.156241
0.160788
0.152604
0.159847
0.155313
0.151952
0.155005
0.140709
0.141639
0.159321
0.156567
0.156157
0.160227
0.161786
0.161874
0.159583
0.153049
0.161348
0.153464
0.155376
0.179590
0.187023
0.184041
0.168962
0.175026
0.174145
0.186947
0.188144
0.189468
0.165540
0.152689
0.147015
0.146679
0.149012
0.147009
0.160650
0.158751
0.163864
0.160391
0.157183
0.203153
0.220698
0.205588
0.207691
0.205351
0.114545
0.109959
0.117516
0.212576
0.231704
0.233668
0.126152
0.124175
0.126498
0.125638
0.221021
0.222226
0.208968
0.103553
0.220672
0.226741
0.230550
0.235487
0.215877
0.216100
0.218767
0.189579
0.190994
0.190158
0.185689
0.238409
0.230955
0.241692
0.242269
0.243375
0.242031
0.245668
0.126346
0.124006
