Full Time (seconds)
0.159105
Time - I
0.002126
0.003188
0.004274
0.005678
0.006020
0.002240
0.007457
0.008513
0.009570
0.010992
0.012067
0.013102
0.014537
0.015598
0.016669
0.018225
0.019137
0.006945
0.022245
0.022698
0.023783
0.025198
0.026389
0.009017
0.009361
0.009722
0.011599
0.012088
0.012470
0.012862
0.013522
0.013775
0.014175
0.014867
0.040914
0.041393
0.043081
0.045239
0.044990
0.046849
0.047375
0.048492
0.050383
0.052902
0.052761
0.053637
0.054926
0.055605
0.057384
0.058152
0.059135
0.061088
0.062014
0.062675
0.064915
0.038317
0.038224
0.039297
0.068674
0.069749
0.041314
0.041993
0.073227
0.074663
0.076183
0.077196
0.078692
0.079610
0.080751
0.082605
0.083342
0.084250
0.085852
0.086815
0.087903
0.041988
0.042287
0.050857
0.052349
0.053372
0.051666
0.062156
0.097033
0.098526
0.100234
0.100619
0.101640
0.103901
0.104187
0.105200
0.107383
0.107640
0.063130
0.062872
0.063473
0.064424
0.123422
0.124961
0.126079
0.117194
0.118314
0.064344
0.063071
0.122251
0.125069
0.075039
0.127691
0.126498
0.128356
0.128906
0.129994
0.131837
0.088398
0.088914
0.093981
0.103654
0.138532
0.152010
0.153327
0.109579
0.100709
0.101132
0.103489
0.112453
0.109832
0.115496
0.119262
0.120075
0.180987
0.166666
0.169390
0.167708
0.171080
0.171476
0.171908
0.099421
0.097629
0.152675
0.155611
0.164339
0.165691
0.167195
0.168674
0.135366
0.186987
0.186343
0.186867
0.173949
0.131059
0.111909
0.177847
0.193541
0.157182
0.181135
0.182278
0.182832
0.184973
0.186489
0.187919
0.188169
0.103128
0.103821
0.104758
0.115634
0.210916
0.205980
0.198002
0.198252
0.087444
0.085476
0.086316
0.090187
0.093771
0.096106
0.117045
0.124043
0.124648
0.132115
0.135734
0.138667
0.142836
0.145802
0.152711
0.152590
0.153410
0.153945
0.167362
0.165890
0.184825
0.184316
0.172871
0.173343
0.172141
0.170836
0.186751
0.202104
0.213763
0.250804
0.244509
0.189420
0.170468
0.171270
0.168659
0.171591
0.170339
0.172552
0.242923
0.236747
0.226613
0.166014
0.165330
