Full Time (seconds)
0.122686
Incremental Time - I
0.000169
0.000158
0.000178
0.000201
0.000222
0.000264
0.000250
0.000298
0.000315
0.000319
0.000337
0.000731
0.000838
0.000999
0.001101
0.001307
0.001426
0.001668
0.001439
0.001493
0.001579
0.002498
0.001679
0.002924
0.003130
0.003415
0.003814
0.002377
0.004513
0.004020
0.017260
0.003289
0.005436
0.005529
0.006984
0.006154
0.006321
0.007813
0.006850
0.007322
0.004400
0.010550
0.017379
0.011661
0.010533
0.011471
0.011846
0.008537
0.007887
0.008151
0.009192
0.019372
0.012811
0.020048
0.014686
0.015836
0.014520
0.015044
0.009507
0.015664
0.017192
0.018177
0.018672
0.012065
0.012191
0.026289
0.015619
0.020620
0.020902
0.036651
0.028371
0.038751
0.029843
0.014701
0.015590
0.043098
0.043072
0.031250
0.044663
0.045174
0.046324
0.051669
0.052563
0.052393
0.032221
0.055352
0.034361
0.034553
0.058469
0.075394
0.075270
0.098952
0.038036
0.058201
0.079460
0.085466
0.062989
0.035591
0.055427
0.041307
0.039697
0.023797
0.050431
0.049006
0.049339
0.043475
0.024113
0.040955
0.041747
0.041728
0.042035
0.042922
0.048715
0.046259
0.035561
0.052223
0.048418
0.030018
0.048658
0.049051
0.032389
0.049976
0.031708
0.034628
0.064128
0.077942
0.070848
0.082522
0.083404
0.102337
0.085433
0.105392
0.105852
0.107440
0.061792
0.074551
0.071170
0.088290
0.064705
0.112467
0.104602
Classification Time - C
0.014526
0.014257
0.014264
0.014367
0.014366
0.014639
0.014379
0.014643
0.014602
0.014511
0.014904
0.017452
0.010498
0.018505
0.018923
0.019279
0.019569
0.019651
0.019648
0.020071
0.019753
0.014978
0.023109
0.018106
0.028518
0.024777
0.027740
0.023032
0.025860
0.028631
0.030763
0.014959
0.028555
0.028675
0.019666
0.022858
0.032383
0.034747
0.032525
0.033005
0.018493
0.035119
0.035410
0.053169
0.035279
0.039123
0.039587
0.028684
0.028569
0.055389
0.030461
0.058659
0.058053
0.061164
0.043975
0.045085
0.040779
0.022429
0.023105
0.032164
0.023432
0.067656
0.064165
0.025706
0.025959
0.060463
0.032121
0.042566
0.043208
0.069990
0.056737
0.075079
0.075423
0.076953
0.077003
0.077744
0.078269
0.064458
0.053113
0.043250
0.080942
0.084297
0.069753
0.086310
0.059705
0.088437
0.062817
0.070548
0.171499
0.102500
0.136873
0.118757
0.077669
0.077830
0.087964
0.071949
0.091665
0.036623
0.077167
0.067966
0.065175
0.035625
0.065452
0.092399
0.070468
0.070311
0.044475
0.070528
0.065350
0.064563
0.068019
0.058236
0.076872
0.068294
0.041561
0.072743
0.069826
0.038681
0.070953
0.073560
0.057077
0.090637
0.040652
0.040710
0.075978
0.081971
0.102402
0.104207
0.105217
0.087215
0.100918
0.128689
0.128783
0.129080
0.118912
0.103389
0.105579
0.093235
0.121553
0.133414
0.122288
