Full Time (seconds)
0.069298
Incremental Time - I
0.000201
0.000248
0.000182
0.000220
0.000333
0.000382
0.000516
0.000629
0.000548
0.000626
0.000554
0.000967
0.001094
0.001236
0.001381
0.001546
0.001729
0.001785
0.001852
0.001951
0.003149
0.004437
0.004845
0.003496
0.004988
0.003968
0.004440
0.004331
0.004975
0.005328
0.005410
0.006875
0.007495
0.006310
0.006987
0.004130
0.013410
0.015454
0.006899
0.007006
0.007732
0.008369
0.008570
0.009298
0.010113
0.009171
0.017995
0.019651
0.010620
0.011728
0.011906
0.013913
0.015807
0.021948
0.014446
0.010739
0.008735
0.020932
0.018737
0.021372
0.010526
0.021822
0.024601
0.011295
0.022590
0.013464
0.012466
0.012672
0.013674
0.013830
0.014094
0.022384
0.030545
0.040262
0.074238
0.025887
0.043214
0.032345
0.023047
0.045701
0.032695
0.026859
0.032672
0.055271
0.056822
0.040110
0.025481
0.040048
0.022261
0.036598
0.037833
0.031121
0.040102
0.024156
0.024396
0.033619
0.051384
0.065422
0.058143
0.052852
0.045979
0.057017
0.052667
0.053268
0.051703
0.055161
0.053392
0.053197
0.037169
0.064032
0.051734
0.042765
0.052941
0.048530
0.029681
0.029624
0.042394
0.050168
0.051345
0.092798
0.089259
0.092860
0.031572
0.061051
0.037529
0.097987
0.090936
0.058215
0.057753
0.056486
0.056037
0.058640
0.059915
0.036116
0.041042
0.049993
0.089400
0.090826
0.087762
0.079352
0.070882
Classification Time - C
0.016123
0.015906
0.011038
0.010996
0.027463
0.020313
0.023299
0.023534
0.020102
0.018166
0.024743
0.020510
0.021488
0.020173
0.017410
0.023367
0.021397
0.032183
0.021349
0.020477
0.036250
0.035211
0.037157
0.025756
0.038054
0.029103
0.029443
0.034889
0.026989
0.030005
0.031202
0.018277
0.031199
0.031912
0.030388
0.016437
0.064434
0.037728
0.031131
0.041645
0.031535
0.044911
0.035266
0.033644
0.031710
0.032274
0.048828
0.059070
0.037387
0.036767
0.037911
0.039193
0.039788
0.042743
0.053922
0.040391
0.050902
0.040392
0.029205
0.052758
0.028299
0.051384
0.048511
0.023422
0.046887
0.045470
0.025686
0.025912
0.027875
0.027818
0.039979
0.041234
0.063882
0.051634
0.058656
0.049954
0.045956
0.054219
0.091499
0.055514
0.053481
0.060062
0.098259
0.099519
0.068802
0.070101
0.060687
0.059489
0.061901
0.043779
0.064786
0.071501
0.066481
0.036124
0.036451
0.049585
0.069483
0.105986
0.093301
0.076622
0.077113
0.074699
0.074642
0.072713
0.071714
0.082902
0.069580
0.071319
0.084938
0.069839
0.071288
0.063931
0.070660
0.071064
0.038040
0.054495
0.055097
0.093793
0.090266
0.104473
0.104222
0.075256
0.040373
0.079288
0.126747
0.131982
0.117634
0.081689
0.077477
0.077716
0.077826
0.079513
0.079633
0.049275
0.049502
0.251036
0.137545
0.082861
0.079456
0.053710
0.114661
