Full Time (seconds)
0.072037
Incremental Time - I
0.000148
0.000252
0.000293
0.000263
0.000266
0.000326
0.000320
0.000355
0.000376
0.008402
0.000492
0.000879
0.000993
0.001153
0.001244
0.000821
0.001005
0.001618
0.001007
0.001209
0.001203
0.002921
0.003268
0.002019
0.003561
0.003698
0.003913
0.004143
0.004463
0.004743
0.003529
0.005440
0.005741
0.005734
0.006234
0.006126
0.006285
0.006229
0.006446
0.006447
0.006526
0.006562
0.006626
0.006727
0.004074
0.003987
0.006872
0.007050
0.012147
0.008850
0.016305
0.009573
0.010078
0.006293
0.015401
0.012546
0.016280
0.011590
0.012060
0.012539
0.012981
0.020587
0.014887
0.015066
0.016280
0.015466
0.017035
0.016320
0.021232
0.010320
0.010083
0.035466
0.023433
0.026938
0.025704
0.022135
0.024339
0.024849
0.021342
0.021997
0.037309
0.041863
0.029485
0.036900
0.034556
0.027162
0.028270
0.028698
0.029040
0.030868
0.029451
0.031479
0.028311
0.037961
0.032284
0.027784
0.043628
0.034437
0.027304
0.079033
0.055198
0.042687
0.047315
0.047030
0.045821
0.032081
0.041925
0.053952
0.040962
0.053327
0.049974
0.035043
0.032295
0.046581
0.067819
0.048097
0.049230
0.060064
0.069625
0.055347
0.055417
0.041297
0.061130
0.053462
0.051163
0.051154
0.075507
0.064698
0.065024
0.061902
0.060475
0.070302
0.067105
0.072670
0.069597
0.070961
0.062220
0.074100
0.068765
0.076429
0.073600
Classification Time - C
0.014617
0.014989
0.015542
0.023281
0.014872
0.015526
0.015264
0.015305
0.023887
0.015461
0.015653
0.018148
0.018330
0.018816
0.018475
0.010052
0.010078
0.023971
0.015359
0.024305
0.022538
0.024778
0.026156
0.021564
0.022573
0.015739
0.020843
0.025747
0.027674
0.033105
0.026985
0.018066
0.029807
0.029519
0.030486
0.036179
0.035752
0.037818
0.030849
0.031088
0.034109
0.030961
0.030741
0.034488
0.016462
0.020121
0.031539
0.038007
0.041182
0.051135
0.035879
0.035538
0.034206
0.038851
0.041825
0.046296
0.044041
0.038690
0.039886
0.041271
0.047829
0.039055
0.039699
0.039612
0.049339
0.040394
0.048742
0.041851
0.044954
0.022442
0.041489
0.076211
0.047575
0.052257
0.047270
0.063034
0.076630
0.045820
0.024985
0.050450
0.073701
0.056489
0.061275
0.061755
0.063128
0.052461
0.061096
0.061146
0.071108
0.069709
0.060210
0.036938
0.047066
0.059135
0.050311
0.068604
0.059932
0.066579
0.042781
0.078096
0.062559
0.062935
0.067020
0.070741
0.035206
0.064134
0.074739
0.072481
0.071067
0.077762
0.071400
0.073816
0.068210
0.073397
0.070092
0.069980
0.078722
0.080095
0.086588
0.086436
0.042942
0.052615
0.085651
0.081388
0.068497
0.040792
0.101502
0.086393
0.087752
0.094214
0.088404
0.095054
0.091216
0.092177
0.098883
0.092317
0.110477
0.092342
0.081646
0.098860
0.043965
