Full Time (seconds)
0.241091
Incremental Time - I
0.155965
0.007731
0.013065
0.029000
0.039502
0.049226
0.082123
0.081048
0.109868
0.131073
0.148403
0.070653
0.195835
0.150128
0.142455
0.238706
0.244903
0.284050
0.175406
0.349999
0.394961
Classification Time - C
0.041187
0.052089
0.097812
0.108880
0.118130
0.147225
0.178367
0.194595
0.205267
0.213882
0.092546
0.245362
0.167863
0.258485
0.240302
0.281942
0.243278
0.303211
0.248440
0.309640
