Full Accuracy
76.577774
Accuracy - I
50.000000
61.911114
66.244438
66.888885
66.599998
66.000000
65.555557
64.066666
63.844444
63.844444
63.355560
64.755562
69.244446
72.466667
72.799995
74.000000
73.644440
74.199997
74.666664
74.711113
74.822220
75.088890
74.977783
75.177780
76.177773
76.355560
76.444450
76.622223
76.800003
76.400002
76.577774
