Full Accuracy
91.449272
Accuracy - I
cat: testS_0.svm.acc: No such file or directory
50.000000
50.000000
50.000000
50.579708
50.724636
50.724636
50.942028
51.376812
51.449276
52.173912
52.173912
52.173912
52.608700
52.681160
52.681160
53.333336
53.405792
53.405792
54.057972
54.057972
54.057972
54.710144
54.782612
54.782612
55.217392
55.507248
55.507248
55.652172
55.797100
55.942028
56.666668
56.666668
56.666668
57.391304
57.391304
57.391304
57.608700
57.753624
57.826084
58.333332
58.478260
58.550728
58.623188
58.695648
59.057968
59.782608
59.782608
59.782608
60.434784
60.507244
60.507244
60.579712
60.797100
60.942032
61.594200
61.594200
61.594200
62.101448
62.101448
62.173916
62.753624
62.753624
62.826084
62.826084
62.898552
63.115944
63.768112
63.840580
63.840580
64.565216
64.565216
64.565216
65.000000
65.289856
65.289856
65.869560
65.869560
65.869560
66.449272
66.594200
66.594200
67.101448
67.101448
67.318840
67.681160
67.898552
67.898552
68.550720
68.550720
68.550720
68.985512
69.275360
69.275360
69.420288
69.420288
69.492752
69.710144
69.782608
70.000000
70.000000
70.072464
70.434784
71.159424
71.159424
71.159424
71.521744
71.811592
71.811592
72.391304
72.536232
72.536232
72.536232
72.681160
73.043480
73.260864
73.405800
73.550728
74.275360
74.275360
74.275360
74.420288
74.710144
74.855072
75.579712
75.579712
75.579712
75.869568
76.304344
76.304344
76.376816
76.739136
76.956520
77.463768
77.536232
77.536232
78.260872
78.260872
78.260872
78.985504
78.985504
78.985504
79.347824
79.565216
79.420296
80.000000
80.144928
80.144928
80.289856
80.507248
80.507248
81.159416
81.159416
81.086960
81.086960
81.086960
81.666664
81.811592
82.173912
82.318840
82.536232
82.971016
83.043480
83.043480
83.188408
83.260872
83.550728
83.768120
83.695648
84.057968
84.130440
84.202896
84.710144
84.782608
84.855072
85.579712
85.579712
85.579712
85.869568
86.159424
86.159424
86.376808
86.521736
86.666664
87.101448
87.173912
87.173912
87.246376
87.246376
87.391304
87.608696
87.753624
87.826088
88.550720
88.550720
88.550720
89.057968
89.057968
89.275360
89.275360
89.492760
89.855072
90.434784
90.579704
90.579704
90.652176
90.797104
90.869560
91.376808
91.376808
91.449272
