Full Time (seconds)
0.284046
Incremental Time - I
0.000061
0.000022
0.000020
0.000019
0.000133
0.000177
0.000225
0.000396
0.000476
0.000580
0.000830
0.000907
0.001039
0.001368
0.001538
0.001803
0.002128
0.002296
0.002572
0.003010
0.003497
0.003454
0.003988
0.005074
0.004462
0.005016
0.003083
0.016970
0.007362
0.007262
0.007916
0.008125
0.008438
0.010785
0.015746
0.015587
0.012370
0.011386
0.011842
0.013869
0.014954
0.015150
0.019231
0.015869
0.016345
0.023949
0.022168
0.018505
0.025737
0.012454
0.023791
0.021623
0.032098
0.024815
0.029809
0.029605
0.029866
0.015167
0.036044
0.037349
0.036250
0.034426
0.032387
0.038047
0.042322
0.050738
0.037271
0.042892
0.067232
0.055923
0.059705
0.062255
0.065627
0.055627
0.046469
0.058197
0.049511
0.066500
0.059647
0.056909
0.068370
0.064813
0.065582
0.059207
0.079593
0.084691
0.062358
0.048512
0.066100
0.075088
0.068279
0.076061
0.078540
0.078805
0.075796
0.113788
0.083278
0.092561
0.084070
0.087702
0.085981
0.083353
0.090001
0.105569
0.104137
0.057395
0.096434
0.118486
0.101031
0.120617
0.103574
0.161930
0.151642
0.108759
0.118428
0.145606
0.118646
0.117412
0.134596
0.083674
0.140634
0.142423
0.136065
0.129863
0.148997
0.134459
0.156671
0.160994
0.141766
0.152637
0.170623
0.147103
0.151955
0.162088
0.176332
0.102739
0.175722
0.174716
0.186277
0.164721
0.172152
0.177359
0.171965
0.187838
0.236264
0.208502
0.183287
0.180808
0.196320
0.207856
0.284775
0.236420
0.217945
0.216378
0.209245
0.239458
0.209149
0.201239
0.216164
0.186487
0.246880
0.224321
0.231668
0.231641
0.250558
0.245338
0.269597
0.247064
0.207331
0.265223
0.248955
0.251406
0.254946
0.288864
0.226658
0.287103
0.248772
0.282639
0.387990
0.276566
0.286421
0.338470
0.265475
0.286659
0.312969
0.343754
0.303979
0.309073
0.301636
0.294872
0.314127
0.312237
0.320203
0.409553
0.309358
0.465248
0.255718
0.274106
0.358409
0.351858
0.351310
0.273841
0.370502
0.346804
0.365866
0.346916
0.363984
0.416031
0.378422
0.395976
0.432924
Classification Time - C
0.056922
0.053194
0.048835
0.041296
0.054458
0.051806
0.043279
0.063453
0.052730
0.071354
0.049746
0.053970
0.052074
0.056137
0.056002
0.052553
0.063497
0.068517
0.053507
0.055934
0.064477
0.060611
0.072099
0.075952
0.074378
0.074448
0.032778
0.084720
0.100207
0.067555
0.076283
0.081998
0.086553
0.096384
0.075705
0.088837
0.082572
0.088027
0.074773
0.088042
0.082021
0.105084
0.089081
0.079955
0.085358
0.097481
0.083410
0.079702
0.084009
0.067561
0.095330
0.091232
0.095341
0.110059
0.099689
0.098741
0.100221
0.051197
0.115827
0.107916
0.086791
0.147534
0.102006
0.100253
0.152269
0.116941
0.139028
0.140265
0.129167
0.144079
0.054977
0.169752
0.140021
0.126483
0.123890
0.114795
0.115489
0.062120
0.122749
0.117547
0.129871
0.120645
0.135269
0.139845
0.138878
0.166612
0.148538
0.135320
0.172590
0.133309
0.095113
0.126974
0.158895
0.131833
0.090682
0.145247
0.133188
0.165608
0.141285
0.145729
0.139520
0.148441
0.147989
0.155789
0.168727
0.160600
0.163624
0.207367
0.100446
0.179306
0.079002
0.174748
0.161627
0.154625
0.156998
0.166125
0.172703
0.163378
0.171717
0.164315
0.177649
0.144016
0.171166
0.185584
0.129636
0.197151
0.225257
0.209577
0.172216
0.197779
0.175263
0.199491
0.177178
0.202242
0.181958
0.178967
0.192693
0.192610
0.120231
0.189839
0.197689
0.188038
0.298486
0.249785
0.201848
0.203484
0.194425
0.193358
0.198398
0.282341
0.248184
0.230115
0.211727
0.203245
0.227787
0.220750
0.200791
0.241525
0.228022
0.268848
0.322694
0.216647
0.233728
0.223671
0.219798
0.283616
0.223037
0.275651
0.266388
0.227414
0.225831
0.234594
0.230581
0.174732
0.233949
0.234218
0.189343
0.285015
0.299266
0.239241
0.225385
0.229052
0.239652
0.259110
0.245597
0.271586
0.277174
0.253983
0.259649
0.263329
0.262517
0.267864
0.254280
0.255220
0.269824
0.272582
0.258053
0.228568
0.271636
0.375034
0.268646
0.265818
0.260976
0.188766
0.313984
0.270534
0.318423
0.282184
0.179139
0.402298
0.393627
