Full Time (seconds)
0.289419
Incremental Time - I
0.027384
0.000053
0.000056
0.000056
0.000059
0.000028
0.000025
0.000028
0.000061
0.000066
0.000069
0.065326
0.096502
0.131656
0.163405
0.176349
0.188421
0.280684
0.181456
0.354340
0.393153
Classification Time - C
0.127765
0.044714
0.044884
0.020250
0.044794
0.045111
0.016278
0.016264
0.044689
0.044618
0.044675
0.139791
0.182853
0.217464
0.218832
0.212432
0.282461
0.256214
0.172225
0.313465
0.195095
