Full Accuracy
93.000000
Accuracy - I
50.000000
60.846157
72.230766
75.769226
78.692314
83.384613
84.923080
85.000000
86.615387
87.384621
88.076927
89.153847
89.692307
89.923080
90.538460
91.230766
91.846153
92.000000
92.846153
93.076920
93.000000
