Full Time (seconds)
0.110010
Time - I
0.004331
0.008518
0.012863
0.016875
0.022422
0.025196
0.030189
0.034098
0.037173
0.041387
0.045537
0.051476
0.060774
0.065354
0.069929
0.075469
0.082024
0.087880
0.098629
0.102381
0.110222
