Full Time (seconds)
0.105985
Time - I
0.004334
0.008468
0.012581
0.017448
0.021829
0.025491
0.028922
0.033132
0.034235
0.037959
0.043199
0.053142
0.057300
0.063892
0.069537
0.075310
0.081620
0.087698
0.093735
0.101177
0.110650
