Full Time (seconds)
0.118917
Time - I
0.004307
0.008554
0.012707
0.018394
0.023322
0.023251
0.024843
0.028362
0.032011
0.035486
0.041679
0.044274
0.051114
0.062556
0.076057
0.081805
0.081518
0.096964
0.094369
0.109932
0.117093
