Full Time (seconds)
0.109463
Time - I
0.004281
0.009885
0.014748
0.016786
0.020961
0.025672
0.033499
0.035920
0.040549
0.043689
0.045533
0.053707
0.058110
0.063422
0.070039
0.075423
0.081657
0.096450
0.103226
0.146852
0.112667
