Full Time (seconds)
0.141814
Incremental Time - I
0.001925
0.000088
0.000111
0.000111
0.000120
0.000119
0.000124
0.000137
0.000160
0.000163
0.000166
0.000183
0.000185
0.000202
0.000200
0.000213
0.000218
0.000227
0.000229
0.000247
0.000255
0.000120
0.001844
0.001630
0.002073
0.002157
0.002174
0.001442
0.000940
0.000851
0.001849
0.000954
0.000939
0.000977
0.000922
0.002248
0.002285
0.001029
0.002287
0.002397
0.001111
0.001039
0.001082
0.001035
0.001067
0.001036
0.002325
0.002436
0.002384
0.002453
0.002441
0.001406
0.001228
0.001174
0.001155
0.001101
0.001126
0.002404
0.002528
0.002511
0.002531
0.001526
0.001290
0.001329
0.001331
0.001308
0.001335
0.002462
0.002640
0.002644
0.001509
0.001439
0.001361
0.001380
0.001354
0.001348
0.002575
0.002711
0.001614
0.001379
0.002594
0.001557
0.001403
0.001423
0.003009
0.001521
0.001482
0.002751
0.002770
0.001723
0.001519
0.001561
0.002725
0.001691
0.001645
0.002795
0.001650
0.001598
0.001663
0.001578
0.001586
0.002817
0.002947
0.001900
0.001629
0.002712
0.001747
0.001626
0.002850
0.002999
0.001903
0.001935
0.001788
0.002945
0.003057
0.001995
0.001781
0.002865
0.001977
0.003048
0.003099
0.002183
0.001997
0.001922
0.002874
0.001919
0.001850
0.001935
0.001929
0.003088
0.003078
0.002301
0.002165
0.001997
0.002981
0.002205
0.002052
0.002026
0.003096
0.003262
0.002206
Classification Time - I
0.005797
0.006813
0.007609
0.008561
0.010681
0.010488
0.011791
0.012511
0.013484
0.014436
0.015447
0.016474
0.017341
0.018507
0.019330
0.020128
0.020752
0.022314
0.022709
0.024253
0.023848
0.025045
0.024674
0.025091
0.025601
0.026027
0.026613
0.028035
0.028001
0.028336
0.029470
0.030036
0.030987
0.031949
0.033352
0.033870
0.034812
0.035776
0.036683
0.038025
0.038555
0.039616
0.040490
0.041439
0.042618
0.046324
0.044448
0.045500
0.046400
0.047088
0.048103
0.049042
0.053613
0.052684
0.053452
0.052813
0.054040
0.054786
0.055597
0.056483
0.059526
0.058695
0.064246
0.060403
0.062129
0.063346
0.063317
0.064644
0.065474
0.068245
0.066802
0.067624
0.069296
0.072175
0.073037
0.071333
0.072649
0.073209
0.074305
0.075542
0.078930
0.080835
0.080848
0.079204
0.083094
0.080672
0.085379
0.082743
0.085710
0.084252
0.088501
0.086373
0.090524
0.088348
0.088981
0.090492
0.094341
0.091964
0.092839
0.093356
0.094283
0.095978
0.099840
0.097131
0.098220
0.099098
0.100043
0.101038
0.102385
0.106978
0.104070
0.105039
0.105513
0.106630
0.107581
0.108082
0.109054
0.110625
0.111609
0.115872
0.112984
0.113685
0.123520
0.115565
0.116239
0.117040
0.117999
0.119509
0.120140
0.120879
0.122743
0.122795
0.124203
0.124364
0.131127
0.131971
0.129701
0.128253
0.129541
0.135341
