Full Time (seconds)
0.142153
Incremental Time - I
0.001732
0.000090
0.000100
0.000104
0.000115
0.000121
0.000130
0.000131
0.000144
0.000154
0.000161
0.000182
0.000179
0.000199
0.000200
0.000228
0.000230
0.000306
0.000267
0.000246
0.000252
0.001931
0.000957
0.000849
0.000894
0.001688
0.002332
0.001339
0.001022
0.002049
0.002371
0.001173
0.000990
0.001007
0.001037
0.001026
0.002210
0.002406
0.001369
0.001137
0.002240
0.002471
0.001348
0.001176
0.001214
0.001091
0.001152
0.001116
0.002291
0.002521
0.002509
0.001488
0.001252
0.001168
0.001200
0.002371
0.001353
0.001309
0.002456
0.002630
0.001466
0.001435
0.001384
0.002412
0.001569
0.002503
0.002671
0.001546
0.001327
0.001367
0.002519
0.001598
0.001350
0.002514
0.001509
0.001414
0.001390
0.002641
0.001589
0.001454
0.002681
0.001527
0.001478
0.001455
0.001574
0.001530
0.002697
0.002814
0.001760
0.002796
0.001804
0.001102
0.002226
0.002374
0.001282
0.001163
0.001214
0.001253
0.002376
0.002619
0.001484
0.001711
0.001616
0.001603
0.002655
0.002958
0.001928
0.001643
0.001622
0.002780
0.002930
0.003011
0.003042
0.002159
0.001988
0.002957
0.003063
0.002981
0.003082
0.002374
0.001890
0.001867
0.002729
0.003023
0.003101
0.002357
0.001767
0.001837
0.002808
0.003074
0.001957
0.002088
0.001910
0.003095
0.003155
0.002310
0.002068
0.001922
0.002978
0.003176
0.002147
Classification Time - I
0.005754
0.006681
0.007606
0.008582
0.009526
0.010430
0.011433
0.012413
0.013422
0.014400
0.015459
0.016414
0.017733
0.018662
0.019136
0.020497
0.021981
0.021731
0.022655
0.023877
0.024726
0.025807
0.026277
0.027239
0.028139
0.030037
0.031055
0.031122
0.031972
0.033591
0.033788
0.035823
0.035598
0.037510
0.037498
0.038503
0.039515
0.040398
0.041487
0.043202
0.043730
0.045698
0.045970
0.046146
0.047383
0.049625
0.049196
0.050268
0.050797
0.052125
0.053113
0.053929
0.055329
0.056492
0.056639
0.057371
0.059340
0.059416
0.060211
0.061191
0.062042
0.063110
0.064116
0.065489
0.066278
0.066639
0.067583
0.068567
0.069413
0.071655
0.071524
0.072544
0.073235
0.074516
0.075222
0.076002
0.079610
0.078575
0.079150
0.080094
0.081192
0.082151
0.082730
0.083667
0.085594
0.085174
0.087290
0.090791
0.088484
0.089658
0.089110
0.089796
0.090293
0.093695
0.094124
0.093295
0.091724
0.092453
0.093216
0.093497
0.094942
0.095662
0.096244
0.096950
0.098591
0.099154
0.103877
0.102066
0.101436
0.102765
0.103830
0.105052
0.109238
0.106361
0.115526
0.107781
0.109237
0.109579
0.114711
0.112425
0.116890
0.113075
0.114699
0.119167
0.116585
0.121542
0.117689
0.119341
0.119802
0.121355
0.121576
0.122588
0.124602
0.124456
0.126794
0.126163
0.127071
0.128348
0.128689
0.130129
