Full Time (seconds)
0.141760
Incremental Time - I
0.004392
0.000088
0.000101
0.000101
0.000113
0.000121
0.000123
0.000133
0.000139
0.000150
0.000155
0.000171
0.000177
0.000195
0.000198
0.000212
0.000236
0.000222
0.000229
0.000246
0.000254
0.001944
0.001549
0.001230
0.000950
0.001951
0.001494
0.001632
0.001720
0.001212
0.001231
0.001438
0.001210
0.001154
0.001626
0.002076
0.002046
0.001868
0.001902
0.001995
0.002013
0.002005
0.001882
0.001857
0.001768
0.001704
0.001844
0.002136
0.001939
0.002175
0.002113
0.002070
0.002131
0.002226
0.002232
0.002004
0.001927
0.001857
0.002108
0.002226
0.002073
0.001763
0.001345
0.001236
0.001795
0.002104
0.002400
0.002286
0.002184
0.002319
0.001829
0.001705
0.001594
0.002303
0.002614
0.002684
0.002069
0.001717
0.001595
0.001560
0.002398
0.002735
0.002694
0.003125
0.001974
0.001757
0.001690
0.001663
0.002541
0.002838
0.002157
0.001727
0.001730
0.001770
0.002460
0.002812
0.002830
0.002698
0.002163
0.001836
0.002638
0.002902
0.002876
0.002133
0.001829
0.001811
0.002655
0.002162
0.002767
0.002216
0.001821
0.001877
0.002696
0.002988
0.002992
0.002880
0.002360
0.001971
0.001846
0.002754
0.002994
0.003095
0.002329
0.002094
0.001947
0.002807
0.003043
0.003145
0.002473
0.002022
0.002862
0.003172
0.003180
0.003142
0.002715
0.002369
0.002174
0.002855
0.003266
0.003267
0.002660
Classification Time - I
0.005800
0.006664
0.007639
0.008559
0.009532
0.010498
0.011539
0.012432
0.013627
0.014411
0.015437
0.016398
0.017766
0.018747
0.019441
0.020327
0.021202
0.022241
0.023153
0.023446
0.024414
0.025836
0.026841
0.027841
0.028847
0.029860
0.030879
0.031885
0.032755
0.033683
0.034605
0.034653
0.036486
0.037483
0.037373
0.038754
0.040468
0.040173
0.042490
0.042137
0.043868
0.045462
0.044914
0.047381
0.048497
0.049316
0.049682
0.049830
0.050655
0.053092
0.053092
0.054511
0.055568
0.056697
0.056385
0.057111
0.058856
0.060882
0.059967
0.061281
0.061270
0.061748
0.061977
0.062502
0.062905
0.063335
0.063907
0.064558
0.065836
0.065976
0.066984
0.067641
0.069026
0.069550
0.072771
0.071173
0.072554
0.073766
0.073911
0.075181
0.076118
0.077035
0.077844
0.079267
0.079719
0.080655
0.081389
0.083208
0.084526
0.084200
0.085106
0.086761
0.087099
0.088268
0.088816
0.089798
0.090525
0.091742
0.092328
0.093465
0.094674
0.095308
0.096568
0.097742
0.098695
0.098953
0.100427
0.101011
0.102240
0.103266
0.103565
0.104476
0.105721
0.106039
0.106838
0.108903
0.109159
0.109403
0.110631
0.111444
0.112788
0.113235
0.114124
0.115475
0.116091
0.117090
0.118627
0.118878
0.119912
0.120590
0.121556
0.123012
0.123194
0.124211
0.125874
0.126203
0.127168
0.128263
0.128687
0.130157
