Full Time (seconds)
0.142044
Incremental Time - I
0.005756
0.000104
0.000104
0.000108
0.000122
0.000124
0.000132
0.000134
0.000146
0.000160
0.000162
0.000182
0.000185
0.000211
0.000200
0.000212
0.000219
0.000224
0.000228
0.000265
0.000251
0.001956
0.001270
0.000952
0.001690
0.002270
0.001159
0.002197
0.000973
0.000971
0.000969
0.000987
0.000998
0.001039
0.002437
0.002388
0.002562
0.002587
0.002432
0.002413
0.002082
0.002189
0.002159
0.002125
0.002212
0.002531
0.002501
0.002512
0.002488
0.002518
0.002196
0.002257
0.002273
0.002216
0.002272
0.002591
0.002618
0.002591
0.002331
0.002312
0.002349
0.002312
0.001917
0.001868
0.001690
0.001738
0.002671
0.002342
0.002116
0.002225
0.001916
0.001849
0.002563
0.002406
0.002423
0.002305
0.002042
0.002341
0.002155
0.002319
0.002313
0.002441
0.002543
0.002335
0.002904
0.002831
0.002493
0.002183
0.002570
0.002226
0.002574
0.002588
0.002928
0.002628
0.002165
0.002615
0.002495
0.002656
0.002970
0.002664
0.002164
0.002110
0.002407
0.002617
0.003006
0.002634
0.002172
0.002695
0.003198
0.002664
0.003044
0.002757
0.002253
0.001941
0.002543
0.002659
0.003383
0.002604
0.002487
0.002840
0.003504
0.002113
0.001857
0.001975
0.002334
0.002200
0.002126
0.002374
0.001767
0.001789
0.001735
0.002888
0.002851
0.003203
0.002865
0.002605
0.002461
0.002495
0.002604
0.002690
0.002625
Classification Time - I
0.005817
0.006618
0.007505
0.008374
0.009381
0.010327
0.011291
0.012284
0.013169
0.014191
0.015292
0.016447
0.017604
0.017985
0.018806
0.020251
0.020998
0.022026
0.022940
0.023952
0.024858
0.025184
0.026159
0.027924
0.028049
0.029459
0.030032
0.031090
0.031796
0.033847
0.033727
0.035206
0.035602
0.038286
0.041197
0.042484
0.043108
0.044430
0.043297
0.042236
0.044104
0.044172
0.046875
0.046109
0.046983
0.048573
0.049443
0.052409
0.054064
0.051731
0.053951
0.053697
0.055370
0.057446
0.056572
0.057976
0.058433
0.059472
0.062464
0.063453
0.062097
0.063289
0.063955
0.067261
0.072299
0.079326
0.070047
0.068670
0.069658
0.072892
0.071489
0.072275
0.074676
0.076878
0.075150
0.076161
0.077276
0.078240
0.079174
0.079918
0.081348
0.081732
0.109014
0.112039
0.084958
0.085276
0.089102
0.087370
0.091631
0.089017
0.096102
0.091647
0.095608
0.094238
0.093888
0.098485
0.096249
0.096957
0.098497
0.098516
0.099483
0.100635
0.105168
0.102665
0.107574
0.104107
0.132112
0.125479
0.106975
0.107805
0.110493
0.109976
0.114663
0.112784
0.112477
0.113953
0.115076
0.114646
0.115800
0.116592
0.117136
0.117747
0.121104
0.144770
0.118415
0.123669
0.120143
0.120378
0.120838
0.122016
0.122308
0.123143
0.124617
0.124921
0.127406
0.126960
0.129071
0.128753
0.131167
0.131494
