Full Time (seconds)
0.108924
Time - I
0.003904
0.004640
0.005409
0.006148
0.006935
0.007684
0.008589
0.009175
0.009976
0.010710
0.011426
0.012146
0.013193
0.013731
0.014804
0.015437
0.016546
0.017138
0.017949
0.018708
0.018963
0.020283
0.021015
0.021835
0.022005
0.023038
0.023572
0.024193
0.024904
0.026139
0.026914
0.027854
0.028810
0.029601
0.030387
0.030342
0.031854
0.032130
0.032475
0.033314
0.035190
0.034862
0.035643
0.036490
0.037512
0.038947
0.039516
0.040447
0.040885
0.042006
0.041516
0.042939
0.043087
0.044529
0.045512
0.045314
0.046047
0.046728
0.047978
0.049879
0.050502
0.051310
0.052074
0.052186
0.056593
0.057246
0.058824
0.058213
0.055779
0.057517
0.056463
0.058725
0.059099
0.062770
0.065092
0.058236
0.058639
0.066855
0.059323
0.060138
0.060115
0.061026
0.063540
0.070631
0.067737
0.070289
0.071775
0.065533
0.067342
0.066927
0.067702
0.068523
0.078157
0.077767
0.071000
0.071556
0.072255
0.075451
0.073981
0.076877
0.084123
0.081568
0.076787
0.077675
0.087995
0.080603
0.082587
0.081649
0.081673
0.081945
0.082765
0.092662
0.084841
0.087942
0.088724
0.086544
0.087148
0.088502
0.088946
0.089940
0.090450
0.091009
0.091844
0.094728
0.093284
0.093982
0.095366
0.095509
0.096293
0.097890
0.097800
0.098605
0.099326
0.100404
0.102124
0.101478
0.102702
0.103055
0.103683
0.104670
0.105290
