Full Time (seconds)
0.108806
Time - I
0.003972
0.004705
0.005446
0.006254
0.006959
0.007750
0.008477
0.009227
0.009996
0.010753
0.011492
0.012258
0.013068
0.013762
0.014727
0.015206
0.016424
0.017172
0.017599
0.018327
0.019527
0.019799
0.021130
0.021229
0.022256
0.023031
0.023537
0.024616
0.025034
0.026262
0.026527
0.028076
0.028434
0.028682
0.030450
0.031205
0.031322
0.031778
0.032802
0.034139
0.034045
0.034850
0.035951
0.036619
0.037749
0.038274
0.038586
0.039236
0.042538
0.043052
0.041746
0.042710
0.043242
0.043942
0.046071
0.048049
0.046009
0.048186
0.048991
0.048241
0.049248
0.049901
0.050476
0.051347
0.052184
0.053017
0.054407
0.054265
0.057037
0.055846
0.057623
0.058281
0.058194
0.058986
0.059884
0.060448
0.062278
0.063993
0.062493
0.063705
0.063946
0.064846
0.065590
0.068459
0.069157
0.067822
0.070454
0.070851
0.070816
0.071210
0.071460
0.072333
0.074071
0.074639
0.074630
0.075242
0.078340
0.076778
0.080021
0.080890
0.080924
0.079861
0.080581
0.084168
0.082893
0.085504
0.088272
0.084877
0.085075
0.085747
0.086603
0.087353
0.088182
0.092044
0.089968
0.090507
0.092015
0.092115
0.093131
0.094343
0.097509
0.094504
0.095525
0.098078
0.096121
0.095560
0.096417
0.096481
0.097879
0.099293
0.098827
0.098824
0.101421
0.099989
0.101077
0.106770
0.102228
0.109686
0.103890
0.105328
0.105961
