Full Time (seconds)
0.105234
Time - I
0.003970
0.004708
0.005450
0.006217
0.006957
0.007730
0.009036
0.009282
0.010047
0.010725
0.011575
0.012385
0.013087
0.013982
0.014554
0.015595
0.016387
0.016703
0.017801
0.018756
0.020048
0.019825
0.021115
0.021360
0.022909
0.023430
0.023474
0.024350
0.025734
0.026048
0.027316
0.029152
0.027172
0.027674
0.027694
0.028865
0.028624
0.029090
0.032670
0.034667
0.034583
0.033189
0.032244
0.036911
0.033741
0.035086
0.034941
0.035666
0.036270
0.037036
0.037768
0.038515
0.039327
0.040819
0.040825
0.046998
0.043286
0.044343
0.045142
0.045934
0.045288
0.046020
0.047012
0.048746
0.049113
0.049433
0.049755
0.050806
0.051661
0.052731
0.052859
0.054580
0.055493
0.055089
0.056026
0.058352
0.058110
0.058059
0.059059
0.059576
0.061536
0.061616
0.064142
0.062468
0.065354
0.066128
0.065079
0.066260
0.066360
0.067173
0.067793
0.068790
0.071505
0.070410
0.071453
0.071767
0.072294
0.073003
0.074026
0.075305
0.084055
0.076261
0.076862
0.077532
0.078205
0.079659
0.079833
0.080610
0.089413
0.082474
0.085582
0.084107
0.084559
0.084981
0.085792
0.087686
0.087431
0.088460
0.089067
0.089921
0.090722
0.091433
0.092320
0.092572
0.094111
0.103922
0.106738
0.097121
0.096959
0.097617
0.097792
0.108649
0.100628
0.100064
0.100812
0.104105
0.102355
0.103371
0.105016
0.105693
0.105582
