Full Time (seconds)
0.248377
Time - I
0.002132
0.003227
0.004266
0.006505
0.006027
0.006734
0.007447
0.008517
0.009700
0.010985
0.012126
0.013178
0.014972
0.015662
0.016934
0.018291
0.019266
0.020320
0.021634
0.022821
0.023743
0.025186
0.026298
0.027293
0.029184
0.029880
0.031800
0.034109
0.035099
0.036208
0.037824
0.039502
0.038729
0.039311
0.040610
0.042162
0.044097
0.045007
0.045424
0.046411
0.047611
0.049515
0.050822
0.054192
0.052712
0.054216
0.054625
0.055619
0.057189
0.059998
0.060822
0.062661
0.063773
0.064563
0.066183
0.067244
0.067736
0.069245
0.068635
0.071349
0.073989
0.074334
0.076128
0.076336
0.077513
0.077719
0.078548
0.079398
0.082623
0.084367
0.083816
0.084836
0.088128
0.088062
0.087464
0.089254
0.091868
0.112997
0.095271
0.096405
0.094720
0.098273
0.097038
0.098023
0.100530
0.102910
0.103737
0.103318
0.107007
0.107311
0.108775
0.109867
0.111433
0.110051
0.112366
0.112365
0.113708
0.126660
0.115688
0.126670
0.118667
0.062361
0.063532
0.063583
0.084117
0.086272
0.128750
0.126415
0.102293
0.131362
0.132103
0.132973
0.132394
0.134086
0.137373
0.135982
0.149715
0.139559
0.140176
0.141108
0.144869
0.144091
0.146429
0.147960
0.149066
0.147973
0.149873
0.146243
0.152511
0.156115
0.156281
0.148131
0.145171
0.159927
0.161355
0.172996
0.164852
0.152347
0.165878
0.164537
0.170531
0.155120
0.167148
0.172133
0.164368
0.159966
0.174086
0.151506
0.159054
0.176088
0.192523
0.181004
0.169017
0.155021
0.182990
0.185537
0.187528
0.188806
0.189653
0.192217
0.192752
0.192083
0.179971
0.185099
0.193474
0.195277
0.212228
0.203888
0.204824
0.205790
0.205613
0.187917
0.218783
0.209322
0.211854
0.216117
0.209367
0.215643
0.215353
0.215620
0.202860
0.199985
0.201799
0.218235
0.222060
0.190738
0.191519
0.190198
0.228425
0.230132
0.228560
0.227427
0.230059
0.214405
0.209907
0.200994
0.213840
0.232452
0.233802
0.229836
0.241958
0.231741
0.207314
0.208741
0.241763
0.243374
0.227562
0.219244
0.236749
0.252268
0.268808
