Full Time (seconds)
0.248296
Time - I
0.002103
0.002507
0.003184
0.003877
0.004967
0.007268
0.007406
0.008484
0.009528
0.010986
0.012759
0.013080
0.014627
0.016404
0.016650
0.025971
0.028629
0.020236
0.021558
0.023278
0.023687
0.025356
0.026478
0.027318
0.029134
0.030409
0.030996
0.033414
0.033871
0.034352
0.036649
0.037698
0.037843
0.039251
0.040522
0.041967
0.042873
0.043944
0.046726
0.046589
0.048058
0.051538
0.050010
0.051221
0.054277
0.055410
0.056529
0.057677
0.059873
0.061297
0.061108
0.060482
0.062218
0.063728
0.064038
0.067102
0.066813
0.069694
0.088804
0.070594
0.082031
0.081357
0.076395
0.075756
0.078889
0.077506
0.078857
0.115242
0.117637
0.119679
0.103813
0.085229
0.086671
0.086480
0.096666
0.088877
0.091409
0.092685
0.094661
0.093686
0.095168
0.096803
0.097073
0.101036
0.102068
0.103104
0.104278
0.104530
0.104621
0.110010
0.109141
0.109948
0.110983
0.113996
0.115661
0.113828
0.113994
0.116762
0.115929
0.117528
0.119070
0.120557
0.120851
0.121799
0.125410
0.127220
0.129983
0.128830
0.130524
0.131333
0.131286
0.132781
0.132719
0.133862
0.136033
0.148162
0.136941
0.138422
0.142647
0.142976
0.144819
0.142954
0.145472
0.145594
0.146763
0.147563
0.148930
0.150891
0.151398
0.153570
0.156135
0.157676
0.158542
0.159990
0.161018
0.158986
0.150109
0.156420
0.165524
0.166501
0.167120
0.167256
0.170594
0.175647
0.175161
0.173222
0.163763
0.163962
0.153687
0.177545
0.180452
0.183721
0.184028
0.157683
0.159094
0.160228
0.160588
0.153440
0.150631
0.191707
0.193624
0.207450
0.195800
0.206675
0.197669
0.199094
0.175377
0.168409
0.160087
0.202842
0.218105
0.196379
0.205106
0.208250
0.210232
0.209055
0.210887
0.212226
0.198257
0.205072
0.217024
0.217266
0.215557
0.220191
0.217685
0.220230
0.223731
0.219793
0.209643
0.200163
0.228114
0.228753
0.232251
0.228354
0.213857
0.210756
0.200825
0.236819
0.235704
0.239935
0.235880
0.237652
0.238443
0.243380
0.241272
0.242076
0.250579
0.239634
0.213486
0.232525
0.227295
