Full Accuracy
71.022224
Accuracy - I
50.000000
67.311111
65.155556
65.200005
64.088890
62.933331
63.044445
62.911110
62.822224
62.866669
62.866669
62.866669
63.288887
63.933331
63.266666
63.555557
63.755554
63.622219
64.577774
64.466667
64.666664
67.177780
70.266670
72.177780
71.666672
72.155556
72.177780
71.800003
71.755562
71.711113
71.266670
