Full Accuracy
71.066666
Accuracy - I
50.000000
50.000000
50.000000
50.000000
50.000000
50.000000
50.000000
50.000000
50.000000
50.000000
50.000000
58.533333
60.955555
61.355556
62.111111
62.088890
63.555557
63.400002
63.622219
64.222221
64.555557
67.066666
69.666664
71.577782
71.266670
71.644440
71.666664
71.599998
71.555557
71.622223
71.066666
