Full Time (seconds)
0.851585
Time - I
0.162112
0.192966
0.249262
0.287485
0.290834
0.324813
0.364119
0.417214
0.462991
0.389735
0.413225
0.518546
0.547669
0.610925
0.564407
0.611961
0.684241
0.598990
0.512881
0.353411
0.678987
