Full Time (seconds)
0.014664
Incremental Time - I
0.001489
0.000707
0.001191
0.001531
0.002351
0.002947
0.003642
0.004503
0.005538
0.006272
0.007157
0.008442
0.009507
0.010760
0.011735
0.013901
0.014027
0.015443
0.017043
0.018221
0.019553
Classification Time - C
0.002473
0.003507
0.004607
0.005468
0.006269
0.006965
0.007715
0.008735
0.008679
0.009541
0.009975
0.010587
0.011219
0.011859
0.012414
0.013539
0.013484
0.013582
0.014097
0.014430
