Full Time (seconds)
0.660672
Time - I
0.253190
0.277938
0.309631
0.305346
0.310122
0.312322
0.310740
0.300236
0.515581
0.552147
0.458022
0.389135
0.344064
0.342608
0.336485
0.562908
0.626777
0.433629
0.390873
0.332231
0.338287
