Full Time (seconds)
0.455029
Time - I
0.218403
0.231479
0.240432
0.253776
0.270151
0.281436
0.292090
0.299230
0.307897
0.324029
0.340696
0.352026
0.334813
0.374755
0.387080
0.399041
0.370396
0.324424
0.306890
0.301624
0.263610
