Full Time (seconds)
0.006839
Incremental Time - I
0.001294
0.000058
0.000067
0.000069
0.000069
0.000085
0.000089
0.000088
0.000097
0.000098
0.000097
0.000067
0.000064
0.000067
0.000071
0.000069
0.000083
0.000095
0.000087
0.000094
0.000102
0.000217
0.000250
0.000268
0.001949
0.001399
0.000988
0.000954
0.000988
0.000993
0.001034
Classification Time - I
0.000724
0.000801
0.000894
0.000973
0.001084
0.001200
0.001296
0.001404
0.001531
0.001645
0.001695
0.001721
0.001765
0.001865
0.001855
0.001937
0.002000
0.002083
0.002182
0.002224
0.002497
0.002739
0.002985
0.003222
0.003755
0.003707
0.003927
0.004301
0.004631
0.004789
