Full Time (seconds)
0.017187
Time - I
0.002640
0.003525
0.004356
0.005189
0.006049
0.006890
0.007644
0.008588
0.009295
0.010140
0.010881
0.013373
0.012402
0.012411
0.012958
0.013119
0.013890
0.014555
0.014506
0.014882
0.015417
0.015864
0.016567
0.016244
0.016462
0.017309
0.018405
0.017138
0.017261
0.016787
0.017858
