Full Accuracy
93.000000
Accuracy - I
50.000000
65.461533
71.615387
77.615387
81.615379
83.538460
84.307693
85.769234
86.384621
87.153847
87.384621
88.538460
89.461540
90.846153
91.153847
91.692307
92.153847
92.461540
92.615387
93.076920
93.000000
