Full Time (seconds)
0.106080
Time - I
0.004257
0.008405
0.010825
0.016644
0.020738
0.024803
0.028861
0.029615
0.037138
0.041105
0.045567
0.059900
0.058490
0.058551
0.069181
0.075276
0.081568
0.087641
0.095640
0.076140
0.106118
