Full Time (seconds)
0.107965
Time - I
0.004343
0.008439
0.012783
0.016877
0.020801
0.024877
0.028977
0.033105
0.037538
0.041187
0.045459
0.051303
0.061328
0.063251
0.076257
0.075857
0.082869
0.091791
0.093842
0.103410
0.106275
