Full Accuracy
94.923080
Accuracy - I
50.000000
75.153847
81.000000
85.461540
88.153847
90.307693
90.307693
90.538460
90.692307
91.846153
92.153847
92.692307
93.461540
93.846153
93.923073
94.307693
94.384613
94.384613
94.615379
95.153847
94.923080
