Full Time (seconds)
0.105361
Time - I
0.003922
0.008027
0.012133
0.016860
0.020657
0.024227
0.029973
0.032587
0.037620
0.045371
0.044741
0.050450
0.061853
0.070062
0.063401
0.069998
0.087767
0.094554
0.093124
0.111391
0.105855
