Full Time (seconds)
0.093570
Time - I
0.004983
0.009821
0.012926
0.017625
0.022329
0.024359
0.028225
0.032318
0.036408
0.040460
0.047277
0.050512
0.063763
0.068805
0.077664
0.084137
0.089893
0.082711
0.103137
0.099108
0.090388
