Full Time (seconds)
0.203060
Time - I
0.012833
0.034940
0.062321
0.080054
0.105216
0.123962
0.146128
0.145595
0.166775
0.179544
0.207191
0.190292
0.222802
0.202153
0.211777
0.228275
0.245103
0.212209
0.219113
0.206330
0.218585
