Full Accuracy
79.9932
Accuracy - I
47.5106
75.7206
74.5876
74.3168
73.3052
73.2838
72.9562
72.9989
71.6028
71.0543
70.748
72.2081
72.1868
72.8207
74.6939
76.1327
78.2909
79.3165
80.0573
79.6228
79.9932
