Full Time (seconds)
0.181775
Incremental Time - I
0.012079
0.000027
0.000042
0.000030
0.000034
0.000030
0.000034
0.000032
0.000030
0.000032
0.000036
0.042590
0.054371
0.072433
0.093157
0.072729
0.132627
0.155027
0.171125
0.176091
0.193817
Classification Time - C
0.068077
0.036348
0.035349
0.030593
0.050481
0.044878
0.032899
0.035253
0.035017
0.031797
0.028653
0.098794
0.126117
0.154122
0.125278
0.194368
0.215422
0.186146
0.174843
0.170759
0.174788
