Full Accuracy
96.615387
Accuracy - I
cat: testS_0.svm.acc: No such file or directory
71.538460
79.692307
84.461540
87.230766
89.769234
91.384613
91.769234
92.307693
92.692307
93.153847
93.846153
94.846153
95.153847
95.538460
96.000000
95.538460
96.000000
95.923080
96.461540
96.769234
