Full Time (seconds)
0.078975
Incremental Time - I
0.015590
0.002205
0.003479
0.005439
0.004607
0.010078
0.020143
0.022178
0.037009
0.024274
0.027224
0.026034
0.034968
0.064673
0.036769
0.040299
0.044509
0.064444
0.072919
0.071067
0.077642
Classification Time - C
0.021080
0.026963
0.039847
0.016543
0.054092
0.047193
0.048130
0.061194
0.052840
0.055557
0.057402
0.057048
0.077034
0.072377
0.073504
0.065263
0.086960
0.089696
0.090479
0.100928
