Full Time (seconds)
0.044814
Incremental Time - I
0.019420
0.001757
0.003037
0.004770
0.006945
0.010284
0.011176
0.013718
0.016535
0.020073
0.024460
0.030009
0.033058
0.043553
0.041154
0.051580
0.072987
0.052354
0.055052
0.062117
0.110574
Classification Time - C
0.025006
0.029554
0.028886
0.035553
0.033372
0.052346
0.045764
0.052658
0.055487
0.052867
0.053304
0.063909
0.068328
0.059905
0.059188
0.102199
0.133814
0.077564
0.090277
0.093747
