Full Time (seconds)
0.083975
Incremental Time - I
0.016996
0.002022
0.003327
0.005063
0.007752
0.009230
0.013596
0.017123
0.018177
0.018983
0.012827
0.025393
0.030289
0.039676
0.036807
0.041568
0.054916
0.053877
0.053734
0.068778
0.083024
Classification Time - C
0.024167
0.034763
0.036453
0.032913
0.033732
0.036666
0.048432
0.043364
0.050557
0.026403
0.059972
0.081217
0.072415
0.070307
0.074206
0.084430
0.072531
0.099710
0.095411
0.098137
