Full Time (seconds)
0.118724
Incremental Time - I
0.017335
0.002405
0.003511
0.005723
0.008126
0.011338
0.012632
0.023393
0.019328
0.031452
0.021825
0.028940
0.029462
0.033458
0.039674
0.042942
0.063828
0.053218
0.054036
0.060007
0.043593
Classification Time - C
0.019970
0.027872
0.030906
0.035704
0.034493
0.052255
0.044789
0.049105
0.052694
0.057873
0.058278
0.062490
0.075235
0.072475
0.077264
0.090171
0.077503
0.078444
0.043534
0.096608
