Full Time (seconds)
0.015850
Time - I
0.002071
0.002822
0.003585
0.004411
0.005273
0.006002
0.006761
0.010104
0.011329
0.009058
0.012116
0.010649
0.013181
0.011651
0.011586
0.011826
0.012241
0.013063
0.013097
0.013480
0.013928
0.014910
0.014343
0.014540
0.014661
0.014847
0.015806
0.015219
0.016837
0.016512
0.015875
