Full Time (seconds)
0.017834
Time - I
0.002635
0.003514
0.004381
0.005211
0.006046
0.006856
0.007690
0.008641
0.009323
0.010168
0.010964
0.011157
0.011739
0.011582
0.012082
0.012335
0.012509
0.012708
0.013016
0.013422
0.013926
0.013963
0.014404
0.014825
0.016291
0.016155
0.015405
0.018178
0.016961
0.016563
0.016995
