Full Time (seconds)
0.017865
Time - I
0.002620
0.003515
0.004337
0.005207
0.006010
0.006866
0.007690
0.008529
0.009250
0.010230
0.011176
0.011518
0.011950
0.012354
0.012705
0.013329
0.013700
0.013749
0.014112
0.015509
0.015081
0.015459
0.015838
0.016014
0.016176
0.016315
0.016673
0.016839
0.016773
0.017354
0.017528
