Full Time (seconds)
0.107861
Time - I
0.003922
0.007993
0.012240
0.016168
0.020207
0.024562
0.028700
0.033306
0.036710
0.040894
0.044607
0.050799
0.056538
0.062875
0.068611
0.074516
0.080615
0.091248
0.093279
0.100090
0.105495
