Full Time (seconds)
0.105469
Time - I
0.003928
0.007988
0.012379
0.016128
0.020169
0.024409
0.028324
0.032347
0.036415
0.041795
0.044511
0.050496
0.056565
0.063310
0.068978
0.074486
0.080744
0.089072
0.093074
0.099446
0.106031
