Full Time (seconds)
0.002794
Time - I
0.000443
0.000500
0.000562
0.000617
0.000676
0.000739
0.000812
0.000865
0.000974
0.001003
0.001089
0.001086
0.001122
0.001189
0.001185
0.001193
0.001264
0.001277
0.001314
0.001385
0.001429
0.001550
0.002004
0.001810
0.001928
0.002059
0.002231
0.002342
0.002828
0.002682
0.002781
