Full Time (seconds)
0.020273
Time - I
0.002313
0.003110
0.003791
0.004411
0.005187
0.005785
0.006491
0.007153
0.007858
0.008509
0.010844
0.009948
0.010686
0.011866
0.011961
0.014390
0.015877
0.016078
0.017548
0.016015
0.019598
