Full Time (seconds)
0.676722
Time - I
0.250498
0.283281
0.345066
0.324185
0.390467
0.409938
0.450631
0.499707
0.435753
0.504503
0.590202
0.597180
0.522338
0.654545
0.619421
0.721189
0.638157
0.754478
0.661320
0.785529
0.538387
