Full Time (seconds)
0.111226
Time - I
0.004563
0.013122
0.013643
0.021733
0.021336
0.027244
0.029766
0.034733
0.042087
0.041852
0.046941
0.052177
0.057959
0.064885
0.073222
0.083919
0.091543
0.096765
0.106160
0.107791
0.110889
