Full Time (seconds)
0.108878
Time - I
0.004562
0.008783
0.013033
0.017178
0.020053
0.025481
0.029539
0.036532
0.037901
0.047868
0.047860
0.052754
0.058345
0.068502
0.070470
0.080104
0.082643
0.088585
0.095724
0.101376
0.111259
