Full Time (seconds)
0.109068
Time - I
0.004578
0.008387
0.012358
0.018203
0.021704
0.025906
0.030043
0.034217
0.041178
0.042137
0.047665
0.052665
0.063474
0.070495
0.077277
0.076870
0.087486
0.091660
0.097722
0.101918
0.107945
