Full Time (seconds)
0.016332
Time - I
0.002066
0.002183
0.003371
0.004547
0.004655
0.005365
0.005989
0.006679
0.007318
0.008148
0.008717
0.009561
0.010295
0.010999
0.011466
0.012727
0.013747
0.014333
0.014472
0.016318
0.016394
