Full Time (seconds)
0.017490
Time - I
0.004808
0.005451
0.006090
0.006724
0.007293
0.010459
0.009578
0.009041
0.009722
0.010353
0.011014
0.011673
0.012326
0.013031
0.013644
0.014207
0.015112
0.015104
0.022171
0.017201
0.017325
