Full Time (seconds)
0.896431
Incremental Time - I
0.033538
0.003644
0.017249
0.028692
0.039609
0.048304
0.054044
0.049143
0.050500
0.050019
0.052972
0.004903
0.002489
0.005256
0.002505
0.002367
0.002182
0.002233
0.002377
0.003684
0.005384
Classification Time - I
0.070036
0.176833
0.246782
0.328965
0.401929
0.406616
0.388454
0.404194
0.384948
0.377117
0.338654
0.303586
0.284388
0.283866
0.284971
0.278569
0.421645
0.790198
0.694422
0.437590
