Full Accuracy
87.332100
Accuracy - I
50.000000
74.451050
80.058258
82.999832
84.680328
85.654465
86.363663
86.796936
86.705956
86.932251
87.161316
87.677238
88.049698
88.151756
88.110352
88.264832
88.187553
88.074402
88.270287
88.195786
88.082634
