Full Time (seconds)
0.546751
Incremental Time - I
0.463055
0.006411
0.007654
0.006870
0.007180
0.009154
0.010216
0.009971
0.009074
0.011613
0.012716
0.037960
0.041516
0.043677
0.034235
0.033299
0.061129
0.058555
0.036041
0.046561
0.037163
Classification Time - I
0.215251
0.218448
0.235263
0.258303
0.347598
0.337423
0.331663
0.314680
0.430007
0.448092
0.514433
0.578875
0.502592
0.449334
0.757176
0.768459
0.610749
0.447705
0.821108
0.507940
