Full Time (seconds)
0.328111
Incremental Time - I
cat: testS_0.svm.time: No such file or directory
0.062101
0.152238
0.240671
0.464871
0.564278
Classification Time - C
0.163477
0.236666
0.226431
0.371749
0.441504
