Full Time (seconds)
0.427455
Incremental Time - I
cat: testS_0.svm.time: No such file or directory
0.061706
0.151727
0.244822
0.453982
0.553448
Classification Time - C
0.171888
0.220467
0.236904
0.372410
0.229814
