Full Time (seconds)
0.140972
Incremental Time - I
0.002731
0.000321
0.000568
0.000805
0.001324
0.001492
0.001692
0.000905
0.001085
0.002449
0.002582
0.004170
0.004659
0.005129
0.005662
0.006273
0.007074
0.007674
0.008017
0.008510
0.009114
Classification Time - I
0.005847
0.016535
0.020837
0.025319
0.030156
0.016875
0.018346
0.020607
0.053719
0.056360
0.061846
0.069160
0.076992
0.083965
0.092468
0.100083
0.107685
0.114983
0.123336
0.130677
