Full Time (seconds)
0.142096
Incremental Time - I
0.004057
0.000322
0.000599
0.000808
0.001308
0.001791
0.001785
0.001900
0.002205
0.002502
0.002740
0.004192
0.004770
0.005277
0.005849
0.006350
0.007055
0.007619
0.008176
0.008747
0.009283
Classification Time - I
0.011298
0.017123
0.020199
0.025384
0.031742
0.035379
0.040755
0.045631
0.055665
0.056605
0.063185
0.075903
0.078986
0.085749
0.100078
0.102387
0.115665
0.125210
0.126627
0.134979
