Full Time (seconds)
0.137429
Incremental Time - I
0.005110
0.000318
0.000571
0.000823
0.001375
0.001475
0.001651
0.001927
0.002167
0.002355
0.002637
0.004157
0.004635
0.005157
0.005660
0.006301
0.007234
0.007753
0.008439
0.008796
0.009533
Classification Time - I
0.010038
0.015424
0.020422
0.025405
0.030507
0.035309
0.040543
0.045144
0.051688
0.055980
0.062310
0.069626
0.077637
0.089323
0.092728
0.104928
0.109191
0.118002
0.131250
0.138497
