Full Time (seconds)
0.002812
Time - I
0.000356
0.000458
0.000555
0.000654
0.000754
0.000856
0.000973
0.001075
0.001208
0.001293
0.001355
0.001796
0.002001
0.001693
0.001787
0.002394
0.002066
0.002192
0.002288
0.002946
0.003196
