Full Time (seconds)
0.002572
Time - I
0.000704
0.000996
0.001060
0.001065
0.001251
0.001080
0.001167
0.001266
0.001568
0.001911
0.001566
0.001574
0.001854
0.001754
0.002251
0.001991
0.002107
0.002223
0.002314
0.002536
0.002608
