Full Time (seconds)
0.002947
Time - I
0.000513
0.000653
0.000781
0.000895
0.001008
0.001133
0.001238
0.001342
0.001514
0.001561
0.001701
0.001856
0.001880
0.002034
0.002481
0.002217
0.002357
0.002493
0.002664
0.003235
0.003708
