Full Time (seconds)
0.395141
Time - I
0.166445
0.122002
0.198706
0.215100
0.231244
0.248815
0.247477
0.252917
0.295091
0.321699
0.328382
0.380942
0.440554
0.493855
0.613158
0.560877
0.362009
0.362493
0.732350
0.496404
0.459561
