Full Time (seconds)
0.392429
Time - I
0.220141
0.243362
0.265899
0.278588
0.312228
0.326737
0.360223
0.370728
0.389368
0.401557
0.373276
0.336544
0.318127
0.297826
0.283877
0.234144
0.255715
0.253679
0.238325
0.455642
0.433993
