Full Time (seconds)
0.642189
Time - I
0.257275
0.288874
0.313816
0.311153
0.313490
0.388404
0.293886
0.297312
0.281969
0.298723
0.257892
0.267419
0.547136
0.350898
0.535385
0.562058
0.521010
0.605892
0.407763
0.394914
0.818605
