Full Time (seconds)
0.108849
Time - I
0.003938
0.004702
0.005437
0.006239
0.006981
0.007748
0.008476
0.009269
0.009952
0.010721
0.011468
0.012223
0.013205
0.013723
0.014499
0.015214
0.016240
0.017211
0.018014
0.018533
0.019590
0.020325
0.020462
0.021863
0.022648
0.023443
0.023513
0.024264
0.025726
0.025815
0.026507
0.027213
0.028850
0.028781
0.030432
0.032066
0.030986
0.032872
0.033526
0.034314
0.034074
0.035867
0.035558
0.036265
0.037032
0.038175
0.039311
0.039431
0.040007
0.040735
0.041842
0.042455
0.044295
0.043768
0.044502
0.045289
0.045999
0.046871
0.049034
0.049831
0.050595
0.050940
0.051154
0.051551
0.051193
0.050603
0.050979
0.051436
0.052900
0.052265
0.054473
0.054510
0.055992
0.055783
0.057629
0.056451
0.057221
0.059085
0.059417
0.059630
0.062220
0.062883
0.063234
0.062827
0.063366
0.063963
0.064700
0.065857
0.066266
0.067722
0.069922
0.069688
0.069327
0.072344
0.073169
0.071517
0.074658
0.072980
0.073764
0.077014
0.075355
0.078640
0.076707
0.079688
0.078254
0.078999
0.079464
0.080316
0.084037
0.084766
0.085362
0.084721
0.084357
0.085003
0.085834
0.087454
0.087207
0.090926
0.089792
0.089581
0.090605
0.091037
0.094270
0.095744
0.093325
0.094485
0.094698
0.095677
0.099688
0.097850
0.101144
0.101994
0.100160
0.103726
0.102004
0.101962
0.102272
0.106462
0.106214
0.107415
0.111438
