Full Time (seconds)
0.106557
Time - I
0.004055
0.004676
0.005431
0.006190
0.006951
0.007709
0.008464
0.009308
0.010047
0.010732
0.011471
0.011778
0.012049
0.012660
0.012783
0.013140
0.013431
0.014090
0.014562
0.014814
0.015231
0.016007
0.016716
0.017668
0.018247
0.018956
0.020066
0.020867
0.021308
0.022428
0.022883
0.023485
0.024778
0.024967
0.025785
0.026468
0.027560
0.028735
0.028905
0.029505
0.030316
0.031071
0.031776
0.033004
0.033675
0.034431
0.035455
0.035505
0.036270
0.037015
0.038219
0.038513
0.039613
0.040437
0.040814
0.041839
0.042722
0.043500
0.044498
0.045072
0.045483
0.046173
0.046857
0.047564
0.049428
0.049397
0.049982
0.050541
0.051318
0.052349
0.052806
0.053501
0.054279
0.055639
0.056164
0.058009
0.058011
0.058184
0.058842
0.059998
0.060686
0.061496
0.062178
0.062595
0.063661
0.064237
0.068422
0.066485
0.066507
0.067391
0.069852
0.070760
0.069578
0.072858
0.072767
0.075705
0.072245
0.075617
0.073722
0.075192
0.075325
0.076045
0.076863
0.077406
0.078497
0.079005
0.080210
0.080358
0.083413
0.084740
0.082776
0.085330
0.084328
0.086649
0.086146
0.086666
0.087203
0.088101
0.088851
0.092685
0.090359
0.094082
0.091811
0.092499
0.102851
0.097383
0.094732
0.096118
0.099675
0.097230
0.099763
0.108958
0.099725
0.100111
0.101257
0.103816
0.105863
0.106750
0.103739
0.104550
0.109103
