Full Time (seconds)
0.105174
Time - I
0.003923
0.004669
0.005394
0.006168
0.006917
0.007670
0.008446
0.009187
0.009951
0.010691
0.011404
0.012187
0.012940
0.013722
0.014493
0.015199
0.015892
0.016968
0.017434
0.018177
0.019342
0.019689
0.020421
0.021217
0.021979
0.022719
0.023397
0.024245
0.024946
0.025698
0.026983
0.027255
0.027984
0.028712
0.029799
0.030182
0.030968
0.031713
0.032541
0.033228
0.035033
0.035212
0.035455
0.036239
0.037016
0.037873
0.038485
0.039237
0.039975
0.040744
0.041460
0.044037
0.043112
0.043748
0.046898
0.045718
0.047492
0.048183
0.048999
0.049754
0.050564
0.049757
0.051049
0.051224
0.052024
0.054475
0.056370
0.055927
0.055445
0.055752
0.058427
0.056756
0.057096
0.060502
0.057673
0.059858
0.060310
0.060789
0.060121
0.059845
0.060267
0.062590
0.063722
0.063531
0.064387
0.066045
0.065012
0.065549
0.066196
0.067337
0.068909
0.068806
0.069191
0.072292
0.072999
0.073041
0.074738
0.080097
0.082359
0.083632
0.077117
0.075974
0.081034
0.080065
0.078638
0.081396
0.080552
0.083112
0.087476
0.082077
0.082899
0.083398
0.087004
0.085426
0.088726
0.089368
0.087215
0.099132
0.088818
0.090539
0.090217
0.091053
0.091583
0.092548
0.093183
0.095457
0.097997
0.098886
0.096683
0.097263
0.097703
0.098495
0.102651
0.102107
0.102023
0.102589
0.102587
0.102985
0.103737
0.104447
0.105250
