Full Time (seconds)
0.392685
Incremental Time - I
1.016468
0.031065
0.029121
0.027968
0.027128
0.038754
0.042735
0.029547
0.033879
0.044140
0.038418
0.004716
0.006052
0.009428
0.008015
0.008726
0.008403
0.007523
0.008843
0.007931
0.005119
Classification Time - I
0.421416
0.402092
0.342615
0.373293
0.312703
0.399643
0.606706
0.617905
0.602417
0.506109
0.714516
0.625733
0.750134
0.771281
0.789486
0.762070
0.405402
0.793357
0.615886
0.404167
