Full Accuracy
81.503311
Accuracy - I
50.000000
80.724129
82.616798
81.939186
80.877594
81.361557
81.511070
81.332924
80.207253
80.356766
80.050468
80.420837
80.071831
81.353806
82.528992
83.027512
82.350853
82.393562
81.325165
81.389244
80.976158
