Full Time (seconds)
0.400222
Time - I
0.253865
0.287608
0.325105
0.300983
0.313269
0.475454
0.412921
0.479202
0.482748
0.448479
0.414938
0.384907
0.355317
0.343906
0.322481
0.638319
0.584337
0.659293
0.561200
0.570946
0.484741
