Full Accuracy
91.115028
Accuracy - I
cat: testS_0.svm.acc: No such file or directory
50.000000
50.000000
50.000000
50.000000
50.000000
50.000000
50.000000
50.000000
50.000000
50.000000
85.089752
89.026848
90.693245
91.611954
91.300072
91.487648
91.242035
90.886047
91.137115
91.115028
