Full Time (seconds)
0.199539
Incremental Time - I
0.054491
0.020166
0.036975
0.041929
0.049896
0.059979
0.080257
0.088961
0.089763
0.098885
0.083221
0.122326
0.149074
0.134391
0.171160
0.153765
0.154644
0.164524
0.196275
0.235789
0.213302
Classification Time - C
0.138663
0.072489
0.094353
0.099287
0.135914
0.155323
0.149185
0.143548
0.155360
0.144457
0.083267
0.174226
0.190196
0.181492
0.145703
0.164467
0.170385
0.169302
0.202478
0.185991
0.179391
