Full Time (seconds)
0.165028
Incremental Time - I
0.019413
0.000029
0.000020
0.000036
0.000033
0.000033
0.000034
0.000032
0.000033
0.000031
0.000031
0.064455
0.055957
0.070556
0.123596
0.109357
0.134319
0.183111
0.163508
0.183968
0.236001
Classification Time - C
0.098013
0.029531
0.014756
0.059473
0.035470
0.047929
0.030081
0.036296
0.035759
0.034000
0.028053
0.094223
0.127583
0.127272
0.166675
0.173261
0.169646
0.157602
0.093522
0.183479
0.196057
