Full Time (seconds)
0.107979
Time - I
0.004281
0.005048
0.005830
0.006620
0.007366
0.008128
0.008915
0.010169
0.010443
0.011182
0.011921
0.012722
0.013590
0.014373
0.015201
0.016034
0.016433
0.017217
0.017931
0.019227
0.019450
0.020306
0.020990
0.022393
0.022888
0.023229
0.024678
0.025459
0.025460
0.026354
0.026995
0.028696
0.028589
0.029719
0.030094
0.032013
0.031879
0.033393
0.034293
0.033903
0.035230
0.035532
0.036215
0.036902
0.037805
0.038489
0.039691
0.039970
0.040736
0.041844
0.043414
0.042954
0.044171
0.044527
0.045240
0.046575
0.046785
0.047571
0.048288
0.051059
0.050374
0.050067
0.050394
0.051236
0.050914
0.051815
0.052131
0.052377
0.053090
0.053143
0.054106
0.054380
0.055946
0.056309
0.056933
0.057320
0.058779
0.058793
0.059449
0.061378
0.061970
0.062069
0.062983
0.064371
0.064405
0.065426
0.065825
0.066393
0.067452
0.069132
0.068534
0.069420
0.070661
0.072402
0.073050
0.074483
0.075559
0.074195
0.074722
0.077733
0.076066
0.079538
0.081104
0.080234
0.080160
0.080056
0.080560
0.081634
0.082049
0.083186
0.084404
0.087821
0.085523
0.085988
0.089551
0.087814
0.096009
0.088879
0.092678
0.091258
0.092975
0.095512
0.093296
0.093386
0.094752
0.098258
0.095555
0.096727
0.097805
0.098402
0.101280
0.099395
0.101067
0.100956
0.101670
0.102347
0.104343
0.109624
0.104777
0.109262
0.108122
