Full Time (seconds)
0.107327
Time - I
0.004295
0.005108
0.005932
0.006775
0.007869
0.008328
0.009071
0.009872
0.010662
0.011409
0.012653
0.012965
0.013785
0.014372
0.015420
0.015872
0.016685
0.017592
0.018278
0.019585
0.020521
0.021009
0.022187
0.022549
0.023337
0.023582
0.024163
0.025595
0.025889
0.027206
0.028008
0.028052
0.029294
0.029891
0.030810
0.032035
0.033044
0.034037
0.033723
0.034531
0.035109
0.035896
0.036552
0.037976
0.038453
0.038978
0.041758
0.041362
0.041092
0.041801
0.042479
0.043312
0.044247
0.045278
0.045799
0.046343
0.047224
0.047857
0.048572
0.049313
0.051333
0.051334
0.051530
0.052643
0.053660
0.053829
0.054503
0.055358
0.057179
0.057286
0.058060
0.058737
0.059187
0.059791
0.060498
0.064923
0.062188
0.062866
0.065169
0.064397
0.065054
0.065870
0.067536
0.067596
0.068408
0.069382
0.070039
0.071020
0.072656
0.072876
0.073057
0.074697
0.076638
0.074938
0.076016
0.077205
0.077901
0.077807
0.078689
0.080424
0.080686
0.080854
0.084034
0.081655
0.081478
0.083009
0.082616
0.082493
0.083993
0.084610
0.084598
0.085000
0.085522
0.086713
0.087482
0.087618
0.088455
0.089151
0.089890
0.091983
0.091818
0.093955
0.096220
0.093607
0.096948
0.095731
0.095839
0.096721
0.097966
0.098227
0.098974
0.100493
0.100848
0.102021
0.102323
0.103548
0.104251
0.105048
0.105030
0.106372
0.107044
