Full Time (seconds)
0.106028
Time - I
0.004190
0.005012
0.005875
0.006628
0.007404
0.008187
0.008988
0.009731
0.010723
0.011248
0.012016
0.012873
0.013489
0.014327
0.015275
0.016175
0.016966
0.017268
0.018515
0.019024
0.019500
0.020679
0.021109
0.021837
0.023256
0.023656
0.024273
0.024846
0.025586
0.026886
0.027166
0.028351
0.029179
0.029888
0.030232
0.031066
0.031746
0.032881
0.033980
0.034088
0.035392
0.035572
0.036830
0.037041
0.038466
0.038648
0.039358
0.040060
0.040884
0.041874
0.042615
0.043145
0.044044
0.045144
0.045951
0.046527
0.046837
0.047747
0.048420
0.049665
0.049907
0.051321
0.052315
0.052500
0.053746
0.054531
0.054247
0.055523
0.055933
0.056943
0.058149
0.058162
0.058983
0.059941
0.060377
0.062349
0.062359
0.062727
0.063461
0.064232
0.064951
0.065838
0.066805
0.068069
0.069195
0.069763
0.069769
0.070177
0.071358
0.071769
0.072609
0.073439
0.074338
0.074994
0.075540
0.076577
0.076996
0.078067
0.078958
0.079266
0.085569
0.080980
0.082277
0.082900
0.083324
0.084266
0.084830
0.085290
0.086122
0.086852
0.088017
0.087726
0.088713
0.088694
0.088897
0.090282
0.089449
0.089827
0.092524
0.091072
0.091300
0.092436
0.094562
0.094086
0.094620
0.094948
0.096682
0.097393
0.097596
0.099262
0.098861
0.101021
0.100279
0.101083
0.102290
0.102603
0.104747
0.104135
0.105264
0.105643
0.107221
