Full Time (seconds)
0.106630
Time - I
0.004365
0.005053
0.005841
0.006651
0.007822
0.008191
0.009127
0.009703
0.010451
0.011243
0.012053
0.012836
0.013601
0.014409
0.015425
0.015738
0.016896
0.017421
0.018528
0.019362
0.020087
0.020885
0.021440
0.022432
0.022535
0.023911
0.024735
0.024842
0.025681
0.026347
0.028053
0.027834
0.028588
0.029393
0.030162
0.031370
0.032088
0.033010
0.033659
0.034131
0.034871
0.035567
0.036317
0.039172
0.038380
0.038543
0.039251
0.040392
0.041012
0.042084
0.042769
0.043074
0.043825
0.045938
0.045311
0.046675
0.046857
0.047594
0.049063
0.049523
0.050016
0.050575
0.051406
0.052139
0.052886
0.053734
0.055108
0.055378
0.056587
0.057218
0.057343
0.058236
0.058833
0.059962
0.060610
0.062435
0.061824
0.064382
0.064263
0.064186
0.064830
0.065557
0.066688
0.068416
0.067878
0.068716
0.069428
0.070594
0.073175
0.071661
0.072811
0.073517
0.074351
0.074606
0.076377
0.078406
0.076990
0.078044
0.078400
0.080249
0.080253
0.081385
0.081462
0.082579
0.083296
0.085094
0.084466
0.086390
0.086474
0.087594
0.087509
0.088662
0.089072
0.089783
0.090463
0.092163
0.094825
0.092814
0.093386
0.094649
0.096580
0.097103
0.098807
0.097276
0.098893
0.100176
0.100160
0.103646
0.100749
0.101684
0.104094
0.102996
0.105952
0.103360
0.107217
0.104898
0.106603
0.105753
0.105907
0.105682
0.106740
