Full Time (seconds)
0.106813
Time - I
0.004195
0.005062
0.005940
0.006789
0.007573
0.008366
0.009158
0.009943
0.010727
0.011884
0.012273
0.013227
0.013856
0.014990
0.015492
0.018122
0.016887
0.017903
0.018780
0.019541
0.019744
0.020620
0.020931
0.021136
0.021395
0.021334
0.022113
0.022198
0.022633
0.026194
0.023962
0.024764
0.025184
0.026925
0.026660
0.027849
0.029701
0.029928
0.029710
0.030880
0.031672
0.031991
0.032946
0.034507
0.038881
0.037528
0.038333
0.037634
0.037649
0.039298
0.040971
0.040294
0.040713
0.045959
0.044945
0.043476
0.043965
0.044140
0.044820
0.045566
0.047760
0.048999
0.049310
0.048590
0.049381
0.051014
0.050960
0.051721
0.052435
0.054876
0.055572
0.056363
0.057078
0.056239
0.056937
0.058333
0.059273
0.059701
0.060862
0.062582
0.063694
0.062832
0.063595
0.065653
0.071662
0.067551
0.066205
0.066778
0.067993
0.070494
0.069320
0.070201
0.071514
0.071589
0.071771
0.074978
0.073848
0.074114
0.075663
0.075727
0.079964
0.078388
0.078829
0.078573
0.082045
0.080822
0.083677
0.082021
0.085083
0.086231
0.084033
0.084808
0.088219
0.087220
0.087580
0.090541
0.091662
0.092159
0.090045
0.090627
0.099690
0.093010
0.098436
0.096774
0.094463
0.095384
0.099413
0.097147
0.098635
0.101575
0.102023
0.100972
0.101329
0.103873
0.102987
0.106342
0.107536
0.106976
0.105372
0.105972
0.110547
