Full Time (seconds)
0.432363
Incremental Time - I
0.687535
0.010656
0.011313
0.012708
0.012340
0.012590
0.029870
0.029403
0.020295
0.031610
0.022402
0.023912
0.017244
0.015368
0.014353
0.013712
0.013611
0.027791
0.017964
0.016568
0.015828
Classification Time - I
0.217906
0.239693
0.233171
0.248838
0.567616
0.605955
0.380180
0.552845
0.704384
0.444418
0.416637
0.416577
0.385768
0.357534
0.339121
0.351809
0.625934
0.450428
0.410645
0.399213
