Full Time (seconds)
0.008033
Incremental Time - I
0.001218
0.000368
0.000582
0.000844
0.001148
0.001549
0.001866
0.002351
0.002708
0.003175
0.003581
0.004214
0.004755
0.005338
0.005786
0.004588
0.006993
0.007554
0.008315
0.008985
0.009585
Classification Time - C
0.001587
0.002022
0.002604
0.003105
0.003529
0.003876
0.004262
0.004670
0.004958
0.005448
0.005597
0.006010
0.006297
0.006513
0.006825
0.007017
0.007343
0.007546
0.007816
0.008017
