Full Time (seconds)
0.107242
Time - I
0.004254
0.005068
0.005877
0.006660
0.007472
0.008220
0.008982
0.009748
0.010507
0.011255
0.012113
0.012806
0.013523
0.014505
0.015045
0.015753
0.016659
0.017299
0.018034
0.019186
0.019722
0.020701
0.021413
0.021833
0.022549
0.023372
0.024290
0.024811
0.025905
0.026553
0.027387
0.027956
0.028754
0.030359
0.030886
0.031163
0.031808
0.032570
0.033447
0.034091
0.034825
0.035597
0.036294
0.037079
0.037820
0.038772
0.040014
0.040693
0.040926
0.041648
0.042525
0.043903
0.043843
0.045153
0.045964
0.046710
0.047027
0.048756
0.048415
0.049571
0.051116
0.051477
0.051610
0.052117
0.053546
0.054018
0.055576
0.055553
0.056022
0.057296
0.057428
0.058366
0.058978
0.059669
0.061435
0.061651
0.062008
0.062684
0.063465
0.064317
0.064943
0.065825
0.066696
0.066557
0.066291
0.066951
0.066884
0.068765
0.068013
0.068643
0.069239
0.069404
0.073218
0.071326
0.073062
0.072511
0.073269
0.074121
0.074930
0.075592
0.077030
0.077244
0.077760
0.078618
0.079510
0.080024
0.081700
0.081974
0.082367
0.082964
0.084559
0.084972
0.085201
0.086672
0.086843
0.087665
0.088340
0.089289
0.090255
0.094747
0.091366
0.092066
0.092813
0.093998
0.094361
0.099135
0.096153
0.096657
0.098678
0.098544
0.098828
0.100165
0.100642
0.101083
0.102104
0.103042
0.103512
0.104115
0.105806
0.105573
0.106547
