Full Time (seconds)
0.052001
Time - I
0.004333
0.005128
0.005886
0.006653
0.007477
0.008200
0.008932
0.009705
0.010712
0.011223
0.005885
0.006217
0.006566
0.006933
0.007301
0.007694
0.008039
0.008458
0.008796
0.009150
0.009505
0.009934
0.010268
0.010649
0.011056
0.011380
0.011717
0.012133
0.026041
0.026358
0.027081
0.013362
0.029331
0.028218
0.028294
0.028675
0.029113
0.029558
0.030374
0.014845
0.015245
0.015433
0.015889
0.016197
0.016509
0.016970
0.036086
0.018154
0.018054
0.038476
0.039707
0.039288
0.040014
0.040781
0.020303
0.020733
0.020961
0.021432
0.021803
0.022426
0.023025
0.047051
0.047581
0.048595
0.049221
0.051798
0.051540
0.051293
0.025422
0.025863
0.026314
0.026659
0.055083
0.055989
0.056525
0.058561
0.058501
0.058971
0.029194
0.029614
0.029973
0.030130
0.030697
0.030980
0.064109
0.064956
0.065968
0.066342
0.067339
0.033180
0.033859
0.034451
0.034324
0.034726
0.071634
0.072384
0.073596
0.073859
0.074997
0.052891
0.062880
0.068503
0.061792
0.079365
0.079498
0.079839
0.080791
0.081441
0.040417
0.040789
0.041077
0.041396
0.085480
0.086003
0.086688
0.087874
0.088467
0.043606
0.044147
0.090367
0.091521
0.091956
0.093348
0.093489
0.046666
0.046704
0.047695
0.047388
0.097263
0.097949
0.099444
0.099915
0.049173
0.049583
0.049941
0.050262
0.109834
0.103983
0.105567
0.106305
0.106700
