Full Accuracy
91.153847
Accuracy - I
50.000000
61.615391
69.076920
75.384613
77.000000
80.153847
81.461540
82.692307
84.000000
85.230766
85.461540
86.230774
87.307693
88.307693
88.692307
89.076927
89.769234
90.615387
90.538460
91.307693
91.153847
