Full Time (seconds)
0.107139
Time - I
0.004699
0.009042
0.018003
0.017474
0.021606
0.027558
0.030031
0.033987
0.038101
0.042122
0.046753
0.055382
0.065367
0.070026
0.076798
0.084184
0.085355
0.093039
0.095350
0.103696
0.111189
