Full Time (seconds)
0.106788
Time - I
0.004577
0.009009
0.013278
0.018144
0.021686
0.025705
0.030057
0.034998
0.037946
0.042004
0.050925
0.052669
0.060288
0.066143
0.070622
0.076351
0.086722
0.092473
0.098261
0.102069
0.107052
