Full Time (seconds)
0.107197
Time - I
0.004421
0.009286
0.014146
0.015488
0.021999
0.026139
0.034184
0.038619
0.038344
0.042603
0.047008
0.053423
0.059777
0.064804
0.067506
0.070886
0.082094
0.090687
0.098443
0.101376
0.108745
