Full Time (seconds)
0.101454
Time - I
0.004612
0.009878
0.012942
0.017098
0.022328
0.025648
0.032630
0.034471
0.037632
0.045470
0.050816
0.051941
0.059200
0.067841
0.077127
0.076225
0.087955
0.089111
0.094955
0.100639
0.099417
