Full Time (seconds)
0.108571
Time - I
0.004605
0.009417
0.013290
0.017353
0.021590
0.025658
0.031005
0.034918
0.038298
0.046091
0.046351
0.052224
0.061606
0.067703
0.075899
0.077388
0.082367
0.093959
0.101932
0.101018
0.111754
