Full Time (seconds)
0.110952
Time - I
0.004692
0.008957
0.013079
0.017224
0.021367
0.025863
0.027982
0.033607
0.037677
0.042193
0.034458
0.038950
0.044231
0.050895
0.071378
0.076034
0.088624
0.089598
0.096335
0.103495
0.107455
