Full Time (seconds)
0.001346
Incremental Time - I
0.000151
0.000040
0.000041
0.000039
0.000039
0.000038
0.000039
0.000038
0.000041
0.000040
0.000043
0.000169
0.000187
0.000219
0.000234
0.000235
0.000231
0.000228
0.000239
0.000230
0.000233
0.000674
0.001721
0.002423
0.006922
0.007423
0.006764
0.006088
0.007235
0.010276
0.014018
Classification Time - C
0.000634
0.000169
0.000490
0.000494
0.000495
0.000494
0.000493
0.000493
0.000491
0.000524
0.000493
0.000580
0.000585
0.000568
0.000561
0.000565
0.000581
0.000563
0.000562
0.000601
0.000569
0.000741
0.000767
0.000825
0.001057
0.001139
0.001541
0.001177
0.001286
0.001296
0.001354
