Full Time (seconds)
0.312687
Time - I
0.262326
0.200850
0.213359
0.219111
0.397386
0.418326
0.413053
0.391513
0.363769
0.340388
0.326062
0.312616
0.324503
0.311578
0.297228
0.543307
0.719171
0.668134
0.433583
0.414526
0.375409
