Full Time (seconds)
0.577207
Time - I
0.170381
0.183536
0.198808
0.214702
0.230164
0.254120
0.264998
0.280108
0.296728
0.321899
0.329600
0.357166
0.372359
0.460896
0.529696
0.574894
0.535573
0.419630
0.742760
0.709535
0.749158
