Full Time (seconds)
0.718014
Time - I
0.253864
0.286103
0.341212
0.367376
0.356906
0.359602
0.446619
0.496309
0.538858
0.563213
0.500279
0.605761
0.618994
0.582890
0.688561
0.628581
0.686014
0.499429
0.673012
0.731981
0.692963
