Full Time (seconds)
0.002557
Time - I
0.000337
0.000478
0.000542
0.000638
0.000737
0.001002
0.000938
0.001457
0.001137
0.001701
0.001362
0.001596
0.001846
0.001917
0.001799
0.002073
0.002088
0.002154
0.002707
0.002707
0.002582
