Full Time (seconds)
0.002844
Time - I
0.000442
0.000501
0.000561
0.000633
0.000681
0.000736
0.000800
0.000920
0.000943
0.001013
0.001076
0.001083
0.001113
0.001213
0.001176
0.001197
0.001233
0.001271
0.001348
0.001413
0.001465
0.001588
0.001676
0.001796
0.001943
0.002060
0.002194
0.002349
0.002492
0.002624
0.002786
