Full Time (seconds)
0.428608
Incremental Time - I
cat: testS_0.svm.time: No such file or directory
0.061678
0.151482
0.259108
0.336698
0.390887
Classification Time - C
0.161813
0.242261
0.242309
0.235032
0.228777
