Full Time (seconds)
0.307285
Incremental Time - I
0.842159
0.022181
0.020607
0.018807
0.021077
0.022160
0.022239
0.043352
0.026599
0.023141
0.051219
0.005296
0.004827
0.003470
0.003622
0.003163
0.003249
0.002816
0.002689
0.002922
0.003081
Classification Time - I
0.323471
0.327828
0.304748
0.540399
0.316180
0.327637
0.627608
0.396952
0.366557
0.706838
0.593747
0.517210
0.386586
0.374937
0.345787
0.318389
0.288069
0.300515
0.307372
0.297164
