Full Time (seconds)
0.005668
Incremental Time - I
0.001298
0.000093
0.000106
0.000115
0.000124
0.000131
0.000141
0.000154
0.000161
0.000193
0.000191
0.000196
0.000212
0.001696
0.001626
0.001627
0.001684
0.001671
0.001778
0.001791
0.001793
Classification Time - I
0.000787
0.000965
0.001156
0.001336
0.001510
0.001701
0.001887
0.002076
0.002297
0.002528
0.002631
0.002832
0.003043
0.003215
0.003466
0.003732
0.004051
0.004464
0.004586
0.004887
