Full Time (seconds)
0.321866
Time - I
0.220114
0.241374
0.248356
0.256864
0.278835
0.285390
0.280554
0.280502
0.314299
0.334209
0.319765
0.374569
0.386403
0.387140
0.394684
0.369720
0.426966
0.423838
0.430632
0.420212
0.349641
