Full Accuracy
76.822220
Accuracy - I
50.000000
50.000000
50.000000
50.000000
50.000000
50.000000
50.000000
50.000000
50.000000
50.000000
50.000000
56.911110
59.999996
61.844444
63.644444
63.666664
64.711113
65.244446
65.288887
66.000000
66.622223
67.333336
71.466667
73.666672
73.777779
75.666664
76.066666
76.355560
77.244446
77.111115
76.822220
