Full Time (seconds)
0.174976
Time - I
0.002122
0.003186
0.004262
0.005680
0.006755
0.007814
0.009236
0.009573
0.010273
0.010993
0.012092
0.013168
0.014524
0.015607
0.016656
0.018292
0.019134
0.020228
0.022055
0.022656
0.023711
0.025135
0.026207
0.027443
0.028712
0.029770
0.030833
0.032219
0.033369
0.034358
0.035800
0.036776
0.037882
0.039497
0.040354
0.041875
0.043251
0.043906
0.044922
0.046433
0.047368
0.048890
0.049880
0.050910
0.051960
0.053435
0.054544
0.055685
0.057084
0.057992
0.059572
0.060514
0.061596
0.062616
0.064086
0.065621
0.066189
0.067883
0.068871
0.070461
0.071063
0.073371
0.073788
0.074688
0.080210
0.082672
0.078594
0.080281
0.080429
0.082600
0.084215
0.083825
0.085273
0.086905
0.087420
0.088886
0.090621
0.091606
0.093585
0.093443
0.094564
0.097518
0.097026
0.098079
0.099436
0.102355
0.102124
0.103040
0.104018
0.105566
0.107357
0.107595
0.108707
0.110115
0.111191
0.112268
0.114041
0.115223
0.115761
0.117191
0.118730
0.119300
0.120743
0.122301
0.124542
0.134323
0.126239
0.126397
0.128669
0.131398
0.132403
0.131380
0.132391
0.133834
0.136689
0.136970
0.138763
0.138479
0.139389
0.140541
0.142401
0.143701
0.148364
0.145624
0.146443
0.147580
0.149171
0.150504
0.153023
0.147732
0.141791
0.142776
0.143974
0.147647
0.157522
0.163281
0.161097
0.164851
0.163852
0.165149
0.165293
0.166716
0.167820
0.169228
0.173128
0.173522
0.175399
0.175641
0.174957
0.176299
0.177315
0.178802
0.181711
0.181136
0.185104
0.182954
0.184313
0.185604
0.186800
0.187905
0.179123
0.178557
0.176880
0.177696
0.180823
0.182957
0.167861
0.168919
0.173318
0.171059
0.174995
0.175297
0.175449
0.175022
0.179844
0.177191
0.177973
0.179155
0.173105
0.168993
0.212854
0.179813
0.218872
0.216197
0.216635
0.203308
0.203344
0.204483
0.205174
0.205984
0.192409
0.193222
0.181337
0.182142
0.183043
0.184288
0.173533
0.174282
0.175430
0.176202
0.176919
0.177929
0.178752
0.179896
0.180705
0.181843
0.182242
0.184042
0.173220
0.173977
0.175039
