Full Time (seconds)
0.083886
Incremental Time - I
0.000188
0.000257
0.000209
0.000246
0.000447
0.000503
0.000437
0.000476
0.000524
0.000558
0.000624
0.000988
0.001129
0.000802
0.001371
0.001608
0.001773
0.002363
0.002310
0.002448
0.002620
0.003265
0.002139
0.002290
0.002438
0.006299
0.006655
0.011867
0.003090
0.003130
0.005887
0.017770
0.012942
0.007203
0.007154
0.012339
0.010885
0.010780
0.012865
0.007394
0.008452
0.009295
0.015819
0.015788
0.010688
0.029169
0.019365
0.009876
0.010289
0.031071
0.031917
0.032725
0.011849
0.017514
0.016623
0.016876
0.015807
0.007597
0.022230
0.023793
0.021477
0.026879
0.022757
0.015860
0.023943
0.046880
0.048369
0.015952
0.031084
0.017028
0.017268
0.018907
0.019238
0.029972
0.019649
0.015007
0.015231
0.028187
0.032053
0.024027
0.026325
0.024003
0.021980
0.016101
0.016603
0.028789
0.018607
0.031913
0.032912
0.033478
0.030829
0.033160
0.034052
0.031696
0.033148
0.034883
0.034682
0.034760
0.034440
0.035000
0.039000
0.024793
0.022967
0.046907
0.047642
0.039471
0.039973
0.026642
0.040526
0.042159
0.041509
0.026557
0.030559
0.063769
0.132360
0.052131
0.055227
0.077731
0.064728
0.064672
0.056323
0.052759
0.053087
0.054832
0.048571
0.041549
0.053481
0.069973
0.042031
0.043035
0.063681
0.070136
0.077534
0.060001
0.060735
0.062656
0.063416
0.064003
0.063737
0.072290
0.047587
Classification Time - C
0.015191
0.016136
0.008448
0.009537
0.016709
0.008516
0.016287
0.016124
0.020753
0.016922
0.011544
0.014626
0.018382
0.010097
0.025076
0.019916
0.019765
0.024861
0.024910
0.025032
0.026355
0.018079
0.013401
0.013955
0.013877
0.034879
0.035157
0.031089
0.014315
0.014272
0.082672
0.028033
0.056534
0.028844
0.031578
0.040627
0.041634
0.040776
0.048078
0.031137
0.030712
0.074624
0.050893
0.052415
0.053545
0.091738
0.033613
0.036194
0.034769
0.055145
0.104314
0.104255
0.066714
0.049054
0.047190
0.036668
0.058985
0.025965
0.051274
0.114076
0.066714
0.065488
0.067431
0.053950
0.057652
0.041390
0.040792
0.041340
0.066119
0.032423
0.042340
0.044245
0.043685
0.050611
0.036401
0.030229
0.033438
0.069501
0.070102
0.057086
0.049629
0.052543
0.039776
0.029287
0.060969
0.052892
0.031941
0.061090
0.061580
0.059150
0.058310
0.060980
0.061837
0.060410
0.062314
0.059494
0.060410
0.060935
0.060702
0.070799
0.061696
0.039263
0.063583
0.064125
0.056378
0.063847
0.065148
0.064584
0.065899
0.066070
0.065459
0.036340
0.048535
0.092847
0.103871
0.060708
0.114216
0.081154
0.070892
0.071729
0.056056
0.075739
0.074180
0.074099
0.040425
0.052130
0.085347
0.097311
0.055559
0.089847
0.091364
0.095711
0.099436
0.081063
0.092717
0.082549
0.083062
0.083129
0.083848
0.064670
0.084451
