Full Time (seconds)
0.317227
Time - I
0.012870
0.056213
0.099007
0.142189
0.184116
0.227541
0.249790
0.274832
0.285849
0.287006
0.299944
0.437606
0.384191
0.375378
0.329776
0.431252
0.409103
0.365960
0.453846
0.451736
0.322510
