Full Accuracy
93.000000
Accuracy - I
50.000000
51.692307
53.615387
53.769230
53.692307
53.769230
53.769230
53.769230
53.769230
53.769230
53.769230
54.615383
55.000000
55.615383
56.076920
56.769234
57.076920
57.384617
57.461536
57.461536
57.461540
58.307690
59.076923
59.538460
59.846157
60.153847
60.307693
60.692310
60.692303
60.846157
61.000000
64.538460
64.615387
64.615387
64.615387
64.615387
64.615387
64.538460
64.461533
64.461533
64.461533
65.076920
66.692314
67.076920
67.307693
67.538460
67.538467
67.769226
67.769226
67.923073
67.923073
69.846153
70.692307
71.307693
71.538460
71.538460
71.538460
71.538460
71.538460
71.615387
71.692307
73.384613
74.153847
74.230774
74.923073
75.153847
75.000000
75.076927
75.076927
75.153847
75.076927
75.846153
76.846153
77.384613
77.307686
77.615387
77.769234
78.076920
78.230766
78.153839
78.153839
78.230766
78.846153
79.538460
79.692307
79.846153
80.000000
80.230766
80.384621
80.384621
80.384621
80.384621
80.307693
80.307693
80.538467
80.692307
80.769226
80.769226
80.769226
80.769226
80.769226
82.615379
83.307686
83.538460
83.846153
83.846153
84.076920
84.076920
84.153847
84.153847
84.307686
84.384613
85.000000
85.923073
86.076920
86.307693
86.615387
86.384613
86.384613
86.538467
86.615387
89.692307
89.923080
89.846153
90.307693
90.307693
90.076920
89.923080
89.846153
89.846153
89.846153
91.615387
92.846153
93.076920
92.923073
92.923073
92.923073
93.000000
93.076920
93.076927
93.000000
