Full Time (seconds)
0.107982
Time - I
0.004373
0.005121
0.006007
0.006705
0.008531
0.008467
0.008927
0.009775
0.012130
0.012054
0.012082
0.013726
0.013581
0.014371
0.015237
0.015922
0.016918
0.017660
0.021096
0.019303
0.020038
0.020809
0.021825
0.022048
0.022760
0.023230
0.024270
0.027227
0.025959
0.026255
0.027412
0.028652
0.028553
0.029527
0.030283
0.032968
0.029151
0.030749
0.031506
0.032800
0.031964
0.032648
0.040266
0.036905
0.037669
0.038454
0.039746
0.039894
0.040734
0.041477
0.042183
0.042849
0.047685
0.048930
0.045179
0.048768
0.046900
0.048007
0.048461
0.049124
0.050141
0.050477
0.052172
0.052142
0.057491
0.058374
0.054304
0.056155
0.056440
0.056503
0.057960
0.063630
0.063963
0.059543
0.068823
0.067611
0.056999
0.064441
0.063196
0.065176
0.069794
0.065490
0.070184
0.067497
0.067812
0.073903
0.068814
0.070480
0.069140
0.071595
0.077377
0.075357
0.081881
0.076102
0.077861
0.078044
0.078513
0.090712
0.086808
0.089256
0.079806
0.080773
0.081203
0.082081
0.085503
0.084181
0.086800
0.085049
0.087057
0.096886
0.087309
0.081304
0.082137
0.082741
0.090332
0.091090
0.091980
0.096901
0.093307
0.094493
0.094778
0.095113
0.095430
0.095873
0.096234
0.096350
0.097134
0.099278
0.110069
0.109299
0.099508
0.105461
0.101334
0.101746
0.103488
0.102891
0.097451
0.106648
0.106488
0.107147
0.107803
