Full Time (seconds)
0.109430
Time - I
0.005529
0.005073
0.005874
0.006684
0.007545
0.008319
0.009035
0.009793
0.010548
0.011343
0.012123
0.012906
0.013557
0.014535
0.015118
0.015848
0.016566
0.018575
0.018171
0.019013
0.019701
0.023211
0.023352
0.024182
0.022648
0.022591
0.024149
0.025340
0.025653
0.026483
0.027110
0.027931
0.028900
0.030113
0.030255
0.031044
0.031808
0.032551
0.034383
0.035229
0.035627
0.035836
0.037319
0.037342
0.038342
0.038713
0.039608
0.040420
0.041235
0.049465
0.042748
0.044373
0.043963
0.044687
0.046086
0.046222
0.047590
0.047700
0.048639
0.049224
0.050680
0.041122
0.051439
0.052205
0.053476
0.053746
0.055076
0.055144
0.056007
0.057880
0.057784
0.043382
0.042335
0.042768
0.065470
0.075759
0.067250
0.064866
0.060649
0.060876
0.061704
0.061957
0.074552
0.064355
0.065530
0.065090
0.067881
0.066496
0.071574
0.068057
0.069717
0.070298
0.072485
0.078383
0.066228
0.072446
0.074494
0.074435
0.113153
0.075613
0.083731
0.078771
0.086249
0.078605
0.081218
0.080431
0.080747
0.081606
0.084755
0.087817
0.084089
0.090598
0.086795
0.087716
0.088266
0.087643
0.088354
0.092089
0.090417
0.091319
0.078632
0.086646
0.102451
0.104172
0.099453
0.107072
0.096207
0.097337
0.097951
0.098613
0.099250
0.096253
0.102131
0.101702
0.111041
0.104829
0.109175
0.105332
0.137139
0.105769
0.106800
