Full Time (seconds)
0.107735
Time - I
0.004181
0.005000
0.005895
0.006725
0.007530
0.008301
0.009091
0.009858
0.010670
0.011384
0.012217
0.012949
0.013732
0.014389
0.015130
0.014771
0.017067
0.017892
0.018319
0.019008
0.019763
0.021163
0.021523
0.022293
0.023015
0.023453
0.024162
0.025685
0.025770
0.026871
0.027182
0.028985
0.028816
0.029579
0.030482
0.031279
0.031884
0.032640
0.033436
0.034797
0.035150
0.032517
0.036409
0.038384
0.038023
0.030972
0.032518
0.032139
0.036464
0.041774
0.042482
0.044179
0.043033
0.043569
0.043695
0.045349
0.044565
0.045216
0.045468
0.045779
0.039614
0.040251
0.041324
0.048533
0.049531
0.050472
0.052763
0.051523
0.052801
0.053157
0.055738
0.054643
0.055307
0.056130
0.056833
0.058207
0.058839
0.059501
0.059846
0.067341
0.061670
0.062286
0.070271
0.071299
0.072562
0.058811
0.057083
0.057386
0.062183
0.067988
0.068826
0.069550
0.070341
0.065238
0.067172
0.069776
0.063363
0.063429
0.072425
0.075487
0.084644
0.077055
0.090153
0.084061
0.079591
0.080896
0.081331
0.083212
0.087654
0.083320
0.085074
0.084715
0.085356
0.083959
0.080275
0.085872
0.088440
0.087743
0.093339
0.093018
0.096783
0.092484
0.098221
0.094418
0.097627
0.095818
0.096563
0.097074
0.098927
0.099662
0.098910
0.101434
0.102319
0.103582
0.103596
0.102731
0.105272
0.105415
0.106457
0.107385
0.108422
