Full Time (seconds)
0.109693
Time - I
0.005292
0.005070
0.006092
0.006708
0.007761
0.008189
0.011381
0.010754
0.010646
0.011261
0.011967
0.012864
0.013500
0.014231
0.015233
0.015732
0.016461
0.017244
0.018158
0.018700
0.019602
0.020628
0.021064
0.022057
0.021929
0.023375
0.024730
0.024989
0.025637
0.027039
0.024239
0.027835
0.028595
0.026945
0.025810
0.026508
0.034010
0.032479
0.033237
0.036827
0.035079
0.036073
0.039884
0.037074
0.041954
0.042136
0.043794
0.040593
0.039055
0.040253
0.042605
0.044356
0.043828
0.045953
0.045697
0.046089
0.048076
0.047546
0.048341
0.049424
0.050295
0.050621
0.052114
0.049682
0.048831
0.056652
0.054530
0.055513
0.055906
0.063605
0.057423
0.059114
0.059010
0.061132
0.062338
0.061083
0.061870
0.063098
0.064497
0.071107
0.064903
0.065781
0.066773
0.067155
0.067888
0.069087
0.070015
0.070446
0.070878
0.066593
0.069094
0.081409
0.079973
0.073271
0.077309
0.068314
0.070302
0.074792
0.077949
0.075766
0.078229
0.077035
0.078084
0.078989
0.084185
0.080473
0.087026
0.081220
0.085753
0.083361
0.086535
0.084729
0.078831
0.079520
0.086701
0.087476
0.088465
0.090080
0.089640
0.092126
0.091107
0.092584
0.093171
0.093554
0.094697
0.095064
0.106092
0.096893
0.097467
0.111996
0.098702
0.099472
0.082034
0.081313
0.100942
0.102538
0.107946
0.104517
0.103995
0.105558
0.112864
