Full Time (seconds)
0.084669
Incremental Time - I
0.000162
0.000218
0.000281
0.000412
0.000308
0.000342
0.000369
0.000378
0.000459
0.000485
0.000531
0.000525
0.000552
0.000598
0.000684
0.000611
0.000629
0.000659
0.000723
0.000734
0.000763
0.001458
0.001691
0.001851
0.002005
0.002152
0.002328
0.002480
0.002753
0.003000
0.003185
0.003799
0.004021
0.004002
0.004189
0.004248
0.004453
0.004455
0.002692
0.005211
0.004519
0.007454
0.006810
0.006618
0.006508
0.009698
0.007404
0.006577
0.008682
0.010653
0.007781
0.010704
0.009457
0.005927
0.012615
0.017315
0.012593
0.016893
0.013564
0.015823
0.013847
0.016129
0.015738
0.016543
0.019152
0.022214
0.016871
0.016692
0.016947
0.019002
0.010445
0.033726
0.019842
0.030562
0.023862
0.023984
0.012261
0.022574
0.024620
0.032553
0.026167
0.032406
0.032321
0.035022
0.032483
0.037291
0.032278
0.040851
0.037131
0.032727
0.046993
0.039659
0.039395
0.042445
0.044887
0.042897
0.042742
0.042071
0.020736
0.034957
0.036626
0.039864
0.047570
0.039684
0.045593
0.062786
0.046449
0.040281
0.045778
0.047817
0.045051
0.059961
0.046471
0.029001
0.057978
0.061734
0.057736
0.068559
0.058345
0.052105
0.049759
0.032231
0.068364
0.061661
0.056052
0.057777
0.059817
0.080163
0.059397
0.062489
0.072550
0.071376
0.065513
0.067111
0.073116
0.063500
0.080386
0.037384
0.085992
0.069350
0.088784
Classification Time - C
0.015071
0.022237
0.017267
0.022064
0.016874
0.015364
0.016066
0.017118
0.018351
0.017025
0.018607
0.017403
0.018733
0.016610
0.017610
0.017899
0.018750
0.018493
0.019757
0.017083
0.019810
0.030902
0.036170
0.024704
0.022292
0.025928
0.024101
0.029126
0.027290
0.028650
0.028832
0.044406
0.032177
0.031277
0.041779
0.038336
0.031212
0.030671
0.014197
0.044936
0.039674
0.054949
0.043604
0.039096
0.040335
0.041736
0.036527
0.036440
0.035761
0.037700
0.039849
0.052797
0.058118
0.018776
0.053869
0.044222
0.059194
0.042236
0.035961
0.043095
0.054620
0.044018
0.045422
0.056232
0.052833
0.051384
0.071042
0.061197
0.058286
0.048078
0.054152
0.066244
0.044242
0.054302
0.078445
0.084419
0.024943
0.069219
0.065964
0.077961
0.068993
0.062337
0.049691
0.070088
0.073107
0.064634
0.079551
0.069014
0.070637
0.076690
0.069927
0.065876
0.099527
0.080036
0.070953
0.096484
0.075245
0.076923
0.033024
0.066058
0.060943
0.076623
0.078149
0.063907
0.092293
0.063939
0.076463
0.082356
0.073566
0.089262
0.080020
0.082315
0.087416
0.037160
0.082019
0.092506
0.091800
0.077626
0.079729
0.078978
0.101863
0.040549
0.079558
0.089847
0.082057
0.092775
0.094786
0.083170
0.086040
0.101997
0.095362
0.089314
0.080167
0.083535
0.097625
0.096333
0.091403
0.045122
0.085962
0.090045
0.096321
