Full Time (seconds)
0.082349
Incremental Time - I
0.000165
0.000177
0.000202
0.000233
0.000251
0.000313
0.000338
0.000371
0.000422
0.000416
0.000432
0.000861
0.000936
0.001212
0.001258
0.001209
0.001336
0.001399
0.001493
0.001558
0.001606
0.002477
0.002726
0.002912
0.003475
0.003629
0.003872
0.002368
0.003957
0.004427
0.004633
0.008046
0.013286
0.006684
0.005797
0.008097
0.006065
0.006195
0.006660
0.006129
0.006169
0.004658
0.011463
0.009027
0.008693
0.008888
0.008371
0.008748
0.009769
0.015569
0.009661
0.012755
0.025517
0.013545
0.012568
0.013182
0.014095
0.031945
0.014158
0.018140
0.017084
0.017161
0.025280
0.018386
0.021050
0.019332
0.019288
0.021030
0.025501
0.025480
0.020347
0.023613
0.044922
0.015123
0.022971
0.030398
0.030062
0.060571
0.024868
0.030604
0.026270
0.027990
0.028462
0.064676
0.030209
0.037878
0.052251
0.097098
0.060907
0.020118
0.033101
0.085847
0.036345
0.059499
0.095930
0.023205
0.043063
0.115841
0.066429
0.087776
0.061000
0.082407
0.054633
0.052643
0.053783
0.079257
0.061538
0.044994
0.027667
0.061108
0.073888
0.083487
0.091509
0.091506
0.071476
0.067817
0.108682
0.060996
0.063311
0.064508
0.047834
0.069791
0.066927
0.100102
0.090334
0.068627
0.065753
0.107537
0.178382
0.078251
0.077616
0.061253
0.061783
0.111654
0.190333
0.091173
0.063365
0.064123
0.107258
0.067558
0.064626
Classification Time - C
0.013194
0.017234
0.030527
0.026568
0.014389
0.011868
0.012351
0.012227
0.031665
0.014997
0.015143
0.017141
0.017529
0.018315
0.027156
0.037493
0.027499
0.019717
0.019858
0.021002
0.020766
0.022337
0.023298
0.024829
0.023397
0.022949
0.032646
0.024339
0.024257
0.029017
0.026302
0.030752
0.033840
0.045495
0.029249
0.033751
0.036547
0.032990
0.027274
0.027651
0.015831
0.016390
0.039530
0.031936
0.037433
0.036430
0.031939
0.065890
0.034003
0.043376
0.034633
0.036098
0.039220
0.045324
0.035763
0.038223
0.038453
0.058667
0.038126
0.041769
0.049497
0.054622
0.054341
0.042278
0.070099
0.033961
0.032149
0.052004
0.089108
0.053941
0.068463
0.058026
0.046993
0.026440
0.045173
0.066380
0.060288
0.055837
0.070649
0.063760
0.141047
0.113656
0.073183
0.054324
0.054427
0.093251
0.083197
0.162340
0.145456
0.057479
0.086132
0.097529
0.060027
0.088386
0.165478
0.146530
0.063756
0.131882
0.069357
0.159301
0.075056
0.122794
0.102176
0.110609
0.068113
0.080216
0.076969
0.068403
0.113770
0.211685
0.109351
0.127844
0.040804
0.072489
0.077427
0.093152
0.100860
0.100770
0.065789
0.064155
0.041791
0.081175
0.107236
0.092833
0.115777
0.101477
0.090545
0.095319
0.210247
0.080713
0.082000
0.079084
0.072753
0.165848
0.146941
0.145616
0.082977
0.122963
0.113639
0.090870
0.083555
