Full Time (seconds)
0.052853
Incremental Time - I
0.000409
0.000170
0.000279
0.000271
0.000771
0.000348
0.000412
0.000460
0.000526
0.000480
0.000504
0.000569
0.001717
0.001315
0.002057
0.001471
0.001608
0.001674
0.001861
0.001642
0.001820
0.002640
0.002915
0.003597
0.003358
0.013337
0.003841
0.004064
0.008402
0.004697
0.004992
0.008182
0.005967
0.006173
0.007723
0.006329
0.008871
0.006442
0.006529
0.006846
0.006650
0.008654
0.008041
0.008968
0.009033
0.008914
0.023827
0.009095
0.005694
0.016394
0.017808
0.012448
0.023331
0.013511
0.013969
0.014469
0.014213
0.028634
0.021539
0.010982
0.016464
0.017924
0.018576
0.028510
0.025601
0.023801
0.026546
0.021008
0.024756
0.023544
0.048228
0.020708
0.038113
0.032233
0.021113
0.021203
0.013523
0.027782
0.014961
0.022100
0.023954
0.024739
0.024245
0.030188
0.027035
0.027826
0.040130
0.028730
0.029523
0.024727
0.038227
0.031796
0.032149
0.043165
0.037335
0.035373
0.032420
0.034850
0.039828
0.039018
0.038661
0.037826
0.039523
0.022873
0.034876
0.033465
0.044831
0.071888
0.040648
0.039492
0.039875
0.046241
0.105705
0.047759
0.051403
0.040137
0.054615
0.042047
0.041192
0.067414
0.052597
0.074274
0.056462
0.038854
0.047601
0.055145
0.055734
0.055936
0.050295
0.058125
0.057625
0.055606
0.042024
0.061580
0.060099
0.036329
0.106918
0.084111
0.063306
0.064081
0.047706
Classification Time - C
0.044294
0.016289
0.015989
0.016968
0.016511
0.018134
0.017246
0.019086
0.021524
0.023375
0.036812
0.009268
0.018102
0.020837
0.020591
0.021356
0.021216
0.021038
0.039292
0.022201
0.023160
0.030362
0.023586
0.025437
0.027776
0.041688
0.030592
0.023761
0.031369
0.033909
0.027466
0.031779
0.030047
0.028903
0.043773
0.030521
0.037535
0.016026
0.033981
0.035003
0.033039
0.038547
0.037997
0.039575
0.045568
0.039050
0.048358
0.041444
0.024779
0.039655
0.060406
0.041289
0.033498
0.040200
0.056736
0.038540
0.039813
0.059649
0.077913
0.059387
0.041435
0.042490
0.052030
0.032840
0.056769
0.045709
0.051163
0.047875
0.031278
0.025920
0.029631
0.045387
0.045103
0.051004
0.045373
0.045700
0.049550
0.046779
0.058561
0.050891
0.066702
0.045053
0.060503
0.029731
0.052713
0.047671
0.074637
0.055773
0.040834
0.050458
0.061221
0.044456
0.045244
0.053223
0.088239
0.060032
0.055727
0.053679
0.068128
0.059547
0.060363
0.060866
0.059724
0.048636
0.052528
0.053990
0.076757
0.053530
0.076343
0.071520
0.057223
0.075765
0.066789
0.148856
0.068726
0.052782
0.061585
0.054522
0.057648
0.055584
0.102572
0.063863
0.078672
0.040886
0.057630
0.080510
0.073567
0.071978
0.063678
0.078709
0.065341
0.067871
0.071839
0.081442
0.078284
0.086259
0.112589
0.094119
0.081181
0.065697
0.097981
