Full Time (seconds)
0.090474
Incremental Time - I
0.000103
0.000166
0.000225
0.000219
0.000243
0.000253
0.000321
0.000384
0.000352
0.000388
0.000407
0.000730
0.000777
0.000911
0.001134
0.001305
0.000839
0.000843
0.001404
0.001755
0.001949
0.002506
0.002878
0.003111
0.003321
0.003398
0.003459
0.003474
0.004018
0.004230
0.004454
0.005163
0.004692
0.006475
0.008132
0.005885
0.005088
0.005265
0.005213
0.005189
0.006131
0.007489
0.004548
0.010665
0.016039
0.011128
0.008914
0.010414
0.008515
0.017673
0.015749
0.023918
0.009971
0.021682
0.012622
0.018532
0.012259
0.017363
0.013123
0.030217
0.018798
0.018912
0.017069
0.030549
0.018992
0.022116
0.020095
0.019615
0.011562
0.038038
0.024635
0.032579
0.023569
0.028208
0.027567
0.041444
0.033050
0.033824
0.057897
0.030074
0.031134
0.031805
0.033446
0.039768
0.037639
0.063972
0.043356
0.032268
0.043608
0.042973
0.039179
0.033254
0.034656
0.047470
0.062114
0.041062
0.020619
0.040839
0.043174
0.040651
0.043092
0.044737
0.037843
0.038605
0.050368
0.042663
0.046579
0.043045
0.042744
0.041253
0.055293
0.048701
0.050762
0.054946
0.055801
0.056252
0.052721
0.048439
0.053702
0.049453
0.056289
0.053747
0.054388
0.071772
0.069424
0.067486
0.129826
0.065150
0.079558
0.090436
0.068606
0.080828
0.106398
0.107064
0.087166
0.051268
0.110872
0.082530
0.063218
0.113540
0.114984
Classification Time - C
0.007737
0.016287
0.014734
0.023884
0.023500
0.016241
0.013384
0.012414
0.015290
0.011162
0.022606
0.026508
0.014782
0.016785
0.014977
0.024128
0.010451
0.011300
0.028602
0.014393
0.026577
0.023631
0.043103
0.028044
0.023178
0.034911
0.033527
0.030350
0.027183
0.036418
0.040109
0.041488
0.031349
0.022808
0.023685
0.022588
0.033190
0.036986
0.023358
0.025592
0.032024
0.017104
0.017544
0.044820
0.038243
0.076603
0.059004
0.059057
0.032032
0.054205
0.027113
0.047753
0.039958
0.040132
0.045945
0.042588
0.041518
0.036581
0.039537
0.041721
0.044266
0.086846
0.043827
0.066371
0.075117
0.044576
0.065590
0.046512
0.044165
0.044122
0.059100
0.065985
0.052034
0.053278
0.053370
0.069626
0.057428
0.065289
0.068569
0.064539
0.064642
0.066702
0.055159
0.055277
0.062890
0.067353
0.071280
0.071042
0.066949
0.073041
0.032941
0.066343
0.062648
0.077964
0.067757
0.061229
0.033380
0.059945
0.065155
0.085617
0.070132
0.074059
0.063378
0.062886
0.068675
0.063860
0.062649
0.102814
0.069461
0.065333
0.065478
0.062072
0.075154
0.072075
0.075016
0.072693
0.070184
0.072591
0.076669
0.072430
0.073076
0.093472
0.065853
0.088212
0.107225
0.115606
0.077001
0.093074
0.076364
0.091772
0.104338
0.085896
0.088359
0.109230
0.130481
0.070818
0.131281
0.081956
0.098970
0.135036
0.132385
