Full Time (seconds)
0.092960
Incremental Time - I
0.000165
0.000161
0.000240
0.000264
0.000283
0.000277
0.000341
0.000374
0.000352
0.000413
0.000464
0.000806
0.000862
0.001068
0.001049
0.001243
0.001459
0.001561
0.001606
0.001657
0.001582
0.002381
0.002649
0.002850
0.003010
0.003606
0.002106
0.003579
0.003963
0.004301
0.004543
0.005136
0.005303
0.005673
0.005508
0.006289
0.006492
0.006427
0.007308
0.006033
0.006357
0.007803
0.007486
0.008460
0.011568
0.008044
0.011182
0.008362
0.008601
0.009265
0.009434
0.011481
0.014047
0.011948
0.013975
0.015909
0.014371
0.015808
0.014485
0.015909
0.021142
0.016724
0.019718
0.017861
0.018513
0.018481
0.018621
0.023900
0.021430
0.020527
0.033189
0.023094
0.025414
0.017775
0.023660
0.029636
0.024203
0.030551
0.028099
0.024832
0.026046
0.029865
0.032345
0.035187
0.047036
0.033283
0.032195
0.035388
0.035980
0.026509
0.037365
0.040476
0.036716
0.046470
0.041219
0.041077
0.042324
0.046000
0.035597
0.054375
0.043845
0.041532
0.046538
0.043248
0.052745
0.058414
0.046925
0.054674
0.057969
0.054075
0.027270
0.048802
0.070707
0.052358
0.069261
0.057976
0.062053
0.060511
0.071532
0.069629
0.061358
0.056155
0.079449
0.051203
0.060987
0.071514
0.079864
0.057364
0.099117
0.061507
0.064148
0.109458
0.080004
0.071317
0.062407
0.066481
0.068604
0.075934
0.075439
0.065260
0.067057
Classification Time - C
0.014416
0.018493
0.022981
0.015379
0.015091
0.012892
0.022670
0.015200
0.015115
0.017127
0.018337
0.014835
0.022800
0.024763
0.016957
0.018734
0.015996
0.016477
0.019251
0.019157
0.021662
0.020273
0.012966
0.024095
0.025944
0.035858
0.029698
0.027065
0.028907
0.025693
0.026000
0.028643
0.032813
0.026548
0.027866
0.023609
0.027342
0.031104
0.028009
0.029251
0.045082
0.033722
0.030905
0.034244
0.066900
0.033995
0.031070
0.033313
0.037421
0.034573
0.035307
0.036407
0.036884
0.041983
0.037046
0.040026
0.039257
0.040055
0.039116
0.035449
0.040191
0.053745
0.042776
0.042821
0.043102
0.042253
0.037695
0.042871
0.049049
0.041771
0.046043
0.071989
0.036765
0.032291
0.054151
0.050175
0.051150
0.067601
0.059877
0.055135
0.051219
0.097193
0.034902
0.064894
0.061330
0.063925
0.062928
0.060614
0.037818
0.039413
0.063968
0.062682
0.062901
0.073206
0.064775
0.078693
0.061051
0.064421
0.065237
0.075899
0.071977
0.076158
0.066684
0.063500
0.101047
0.123756
0.084702
0.073660
0.073521
0.087663
0.037187
0.089063
0.078816
0.070294
0.096630
0.076385
0.077472
0.085831
0.107801
0.072586
0.080759
0.076799
0.076713
0.077280
0.067939
0.131625
0.115301
0.108022
0.088224
0.042425
0.105207
0.097733
0.128508
0.130805
0.083692
0.130561
0.131173
0.131731
0.081048
0.083630
0.082931
