Full Time (seconds)
0.143403
Incremental Time - I
0.004741
0.000087
0.000101
0.000105
0.000113
0.000115
0.000126
0.000133
0.000138
0.000152
0.000162
0.000176
0.000198
0.000194
0.000267
0.000237
0.000224
0.000224
0.000224
0.000245
0.000253
0.002127
0.001223
0.001006
0.001796
0.002482
0.002487
0.002448
0.002495
0.002429
0.002468
0.001361
0.001205
0.001197
0.001101
0.001029
0.001087
0.001068
0.001094
0.001065
0.002344
0.002598
0.002569
0.001262
0.001214
0.001246
0.001123
0.001161
0.002603
0.002732
0.002688
0.002907
0.002698
0.001679
0.001378
0.001285
0.001320
0.001312
0.002518
0.002782
0.002732
0.002894
0.002799
0.001752
0.001534
0.001486
0.001409
0.002607
0.002849
0.002830
0.002824
0.001834
0.001719
0.001556
0.001454
0.002709
0.002876
0.002872
0.002937
0.001957
0.001772
0.001194
0.002274
0.002534
0.001384
0.002323
0.002699
0.001446
0.001302
0.001254
0.001255
0.002836
0.003044
0.003066
0.003003
0.001793
0.001680
0.002953
0.003068
0.003078
0.003077
0.003108
0.002221
0.002049
0.001852
0.002854
0.003145
0.003099
0.003089
0.002380
0.002075
0.002170
0.003166
0.003213
0.003196
0.003098
0.002566
0.002259
0.002166
0.002904
0.003236
0.003282
0.002564
0.002038
0.002083
0.002918
0.003281
0.002478
0.002216
0.002181
0.003014
0.003307
0.002607
0.002324
0.002463
0.003079
0.003408
0.002490
0.002273
0.002210
0.002303
Classification Time - I
0.005804
0.006657
0.007619
0.008600
0.009556
0.010493
0.011494
0.012588
0.013468
0.014908
0.015538
0.016419
0.017428
0.018224
0.019039
0.019899
0.021269
0.021691
0.022574
0.023552
0.024945
0.026169
0.027188
0.027350
0.028411
0.029565
0.030291
0.031216
0.032130
0.033095
0.035113
0.034933
0.035844
0.037340
0.037838
0.038809
0.039715
0.040725
0.042033
0.042838
0.043562
0.045009
0.046621
0.046701
0.047594
0.049817
0.049303
0.052584
0.051389
0.052334
0.052992
0.053969
0.056324
0.056068
0.058722
0.059681
0.058781
0.060503
0.060778
0.061890
0.066435
0.063806
0.064560
0.065498
0.066855
0.067124
0.070312
0.068915
0.069912
0.070906
0.071775
0.075237
0.076249
0.074942
0.078058
0.076531
0.078141
0.078396
0.079493
0.080504
0.080620
0.082155
0.081808
0.081789
0.082975
0.083144
0.083656
0.086888
0.084757
0.085036
0.086153
0.087092
0.089661
0.091159
0.090093
0.090566
0.091712
0.092763
0.093415
0.095669
0.095384
0.099294
0.097585
0.097809
0.098799
0.099907
0.100556
0.101569
0.102997
0.104948
0.104345
0.105431
0.105973
0.107522
0.112298
0.108414
0.109748
0.110565
0.111997
0.112440
0.113846
0.116089
0.114993
0.116127
0.117005
0.117719
0.121258
0.119957
0.122672
0.121845
0.123025
0.125774
0.124483
0.125518
0.126287
0.127310
0.128611
0.133747
0.131273
0.130602
