Full Time (seconds)
0.142101
Incremental Time - I
0.005891
0.000089
0.000105
0.000100
0.000111
0.000116
0.000126
0.000134
0.000138
0.000154
0.000152
0.000172
0.000178
0.000193
0.000212
0.000213
0.000217
0.000225
0.000230
0.000247
0.000253
0.002148
0.001439
0.001136
0.001871
0.002360
0.001560
0.001229
0.002254
0.002504
0.002449
0.001652
0.001070
0.001143
0.002198
0.002419
0.002383
0.002413
0.001928
0.001377
0.001459
0.002220
0.002500
0.001822
0.001448
0.001508
0.002367
0.002609
0.002591
0.001933
0.001436
0.002111
0.002358
0.001630
0.001097
0.001066
0.001316
0.001237
0.002114
0.001497
0.001177
0.002585
0.001818
0.001462
0.001607
0.001608
0.002473
0.002747
0.002728
0.002069
0.001650
0.001583
0.001637
0.001831
0.001749
0.002484
0.002799
0.002036
0.001812
0.001859
0.001779
0.002016
0.001951
0.001982
0.002563
0.002104
0.001861
0.002728
0.002068
0.001927
0.001893
0.002821
0.003033
0.002289
0.002764
0.002972
0.002425
0.002156
0.002710
0.002968
0.002457
0.002916
0.002417
0.002156
0.002140
0.002786
0.002350
0.002008
0.002868
0.002268
0.002109
0.002233
0.002185
0.002097
0.002936
0.002936
0.002550
0.002258
0.002193
0.002263
0.002765
0.003261
0.002578
0.002311
0.002186
0.002315
0.002943
0.003284
0.002569
0.002184
0.002659
0.002385
0.003052
0.003234
0.002655
0.002455
0.002474
0.002477
0.003152
0.003300
0.002697
Classification Time - I
0.005782
0.006712
0.007667
0.008637
0.009584
0.010506
0.011470
0.012562
0.013414
0.014672
0.015405
0.016366
0.017469
0.018569
0.018850
0.020300
0.020628
0.022253
0.022318
0.023961
0.025094
0.025026
0.026672
0.026897
0.027811
0.029643
0.029927
0.030947
0.031601
0.032523
0.033363
0.035297
0.035167
0.036067
0.037520
0.037979
0.038858
0.041188
0.042196
0.042182
0.042669
0.045130
0.044621
0.045946
0.048065
0.047968
0.048484
0.049240
0.051921
0.051464
0.051479
0.051912
0.054115
0.052900
0.053072
0.053646
0.054290
0.054761
0.057235
0.056001
0.057210
0.059757
0.060718
0.060142
0.060544
0.061505
0.062396
0.065645
0.064783
0.065255
0.066564
0.066978
0.069544
0.069091
0.069737
0.070953
0.073928
0.072671
0.073742
0.077238
0.077296
0.077219
0.080499
0.078444
0.080121
0.080660
0.081220
0.084976
0.082861
0.083672
0.084970
0.086340
0.090197
0.087789
0.092298
0.089253
0.094103
0.091358
0.095080
0.096696
0.094101
0.098456
0.095924
0.100820
0.098091
0.098577
0.099442
0.100694
0.101708
0.106369
0.107792
0.104800
0.104913
0.105839
0.107822
0.107546
0.115149
0.109975
0.110220
0.111407
0.112921
0.117449
0.118861
0.114937
0.115895
0.116971
0.117784
0.119091
0.119739
0.121215
0.121550
0.122827
0.123271
0.129515
0.125586
0.127940
0.127666
0.127805
0.129181
0.135280
