Full Time (seconds)
0.151214
Incremental Time - I
0.001930
0.000088
0.000148
0.000103
0.000114
0.000114
0.000126
0.000129
0.000141
0.000153
0.000206
0.000177
0.000234
0.000198
0.000201
0.000279
0.000217
0.000222
0.000300
0.000246
0.000275
0.000161
0.002342
0.002030
0.002224
0.001947
0.002071
0.002284
0.001938
0.001105
0.000994
0.001125
0.001228
0.001290
0.001138
0.001116
0.001918
0.002497
0.002348
0.001622
0.001246
0.001240
0.001266
0.001165
0.001162
0.002265
0.002283
0.002395
0.002541
0.002339
0.001985
0.001606
0.001620
0.001566
0.001459
0.001493
0.002425
0.002427
0.002626
0.001986
0.001388
0.002488
0.001661
0.001425
0.001531
0.002544
0.002762
0.001816
0.001579
0.002550
0.001899
0.001630
0.001856
0.002748
0.002613
0.002856
0.002082
0.001506
0.002637
0.001864
0.001843
0.001892
0.001979
0.001962
0.001641
0.002759
0.002305
0.001794
0.001889
0.002046
0.002196
0.002861
0.002988
0.002233
0.001872
0.002089
0.001939
0.002788
0.003067
0.002168
0.002295
0.002024
0.002912
0.002466
0.001992
0.002304
0.002055
0.001961
0.002778
0.002202
0.002130
0.003063
0.002274
0.002080
0.002437
0.002183
0.003003
0.003206
0.002399
0.002367
0.002450
0.002223
0.002934
0.003193
0.002445
0.002256
0.002216
0.002288
0.003070
0.003227
0.002606
0.002576
0.002589
0.002405
0.002984
0.002577
0.002365
0.002273
0.002689
0.003196
0.003223
Classification Time - I
0.005800
0.007630
0.007625
0.008543
0.010608
0.012066
0.011458
0.012573
0.013984
0.014414
0.016514
0.017989
0.017349
0.019209
0.019887
0.021464
0.020731
0.021652
0.024286
0.024514
0.025308
0.024296
0.024700
0.025045
0.025436
0.026032
0.027452
0.028697
0.028636
0.029172
0.030092
0.031088
0.032144
0.033608
0.035290
0.033870
0.035280
0.036079
0.038759
0.038885
0.040474
0.042833
0.043796
0.043970
0.042311
0.043265
0.045039
0.045594
0.046314
0.049850
0.049904
0.051369
0.051584
0.054278
0.051826
0.052993
0.054530
0.055058
0.059057
0.061258
0.057385
0.062071
0.061306
0.064651
0.061147
0.062035
0.066888
0.064444
0.065523
0.069098
0.070818
0.069977
0.069162
0.069588
0.074908
0.076513
0.073089
0.077930
0.077846
0.079372
0.080366
0.080786
0.084538
0.078990
0.080000
0.085835
0.085650
0.087310
0.086657
0.090337
0.085986
0.086283
0.093108
0.095970
0.094525
0.095147
0.090812
0.091644
0.096812
0.099593
0.100941
0.095880
0.102954
0.097296
0.102832
0.106989
0.106936
0.101133
0.107724
0.102659
0.103747
0.111510
0.111738
0.113470
0.115188
0.107894
0.108805
0.117381
0.118555
0.119894
0.112274
0.113266
0.114903
0.121482
0.123844
0.125799
0.118166
0.119757
0.127869
0.128933
0.129544
0.131395
0.124231
0.125289
0.133349
0.133240
0.135953
0.128116
0.130053
0.130902
