Full Time (seconds)
0.142326
Incremental Time - I
0.004407
0.000088
0.000103
0.000098
0.000112
0.000119
0.000123
0.000129
0.000138
0.000149
0.000156
0.000169
0.000177
0.000192
0.000199
0.000211
0.000223
0.000221
0.000227
0.000248
0.000252
0.002123
0.001107
0.001021
0.001068
0.001156
0.001862
0.002213
0.002289
0.002378
0.002384
0.001661
0.001158
0.001162
0.001110
0.001210
0.001272
0.001425
0.002306
0.002483
0.002575
0.002581
0.002562
0.001965
0.001380
0.001457
0.001393
0.001464
0.001504
0.001534
0.002317
0.002617
0.002132
0.002640
0.001376
0.002031
0.001558
0.001515
0.001941
0.001691
0.002444
0.002317
0.002379
0.002037
0.001256
0.000938
0.001476
0.001002
0.002326
0.002185
0.002594
0.002427
0.002729
0.001748
0.001868
0.001667
0.002515
0.002855
0.002798
0.002826
0.002602
0.001853
0.001699
0.001787
0.002450
0.002995
0.002938
0.002889
0.002940
0.002308
0.001713
0.001800
0.002572
0.002937
0.003011
0.003044
0.002291
0.001970
0.001909
0.002793
0.003056
0.003073
0.003031
0.002363
0.002001
0.001978
0.002843
0.003092
0.002908
0.003133
0.002422
0.002152
0.002027
0.002114
0.002915
0.003101
0.002457
0.002188
0.002147
0.002914
0.003183
0.003172
0.002411
0.002217
0.002253
0.002114
0.003005
0.003152
0.002526
0.002337
0.002320
0.002339
0.003085
0.003732
0.002583
0.002318
0.002291
0.003117
0.003421
0.003266
0.002717
Classification Time - I
0.005827
0.006682
0.007699
0.008574
0.009560
0.010521
0.011533
0.012576
0.013617
0.014434
0.015750
0.016805
0.017354
0.018199
0.019451
0.019895
0.021097
0.021632
0.023111
0.023496
0.024446
0.025819
0.026822
0.027500
0.028052
0.028943
0.030622
0.031451
0.031798
0.032736
0.034542
0.035540
0.036523
0.036499
0.037365
0.039526
0.039713
0.040632
0.041292
0.042075
0.043134
0.044390
0.044899
0.046027
0.046771
0.049378
0.050273
0.049672
0.050590
0.051443
0.052857
0.053847
0.054944
0.055397
0.056561
0.057182
0.058686
0.059094
0.060306
0.061345
0.061514
0.061991
0.062130
0.062865
0.063646
0.064835
0.063885
0.064664
0.065099
0.065600
0.066980
0.067755
0.068375
0.069328
0.070642
0.071130
0.072308
0.073085
0.074533
0.074962
0.076008
0.076910
0.077833
0.079054
0.079693
0.080361
0.081440
0.082336
0.083429
0.086043
0.085074
0.086000
0.087006
0.087971
0.089599
0.090246
0.090894
0.094530
0.092716
0.093217
0.094445
0.095175
0.097001
0.097314
0.100095
0.099334
0.099753
0.100667
0.101892
0.102401
0.103489
0.106904
0.109134
0.106253
0.107738
0.107714
0.109868
0.110425
0.110510
0.111433
0.112830
0.113351
0.114115
0.116773
0.116326
0.117116
0.118505
0.118781
0.124562
0.121956
0.121615
0.122395
0.123382
0.129338
0.125692
0.131125
0.127004
0.128321
0.128880
0.129706
