Full Time (seconds)
0.150232
Incremental Time - I
0.001411
0.000089
0.000098
0.000104
0.000135
0.000117
0.000127
0.000133
0.000144
0.000198
0.000180
0.000170
0.000177
0.000250
0.000198
0.000278
0.000284
0.000220
0.000227
0.000252
0.000255
0.002450
0.002362
0.002450
0.002342
0.002464
0.002371
0.002164
0.002300
0.002180
0.001285
0.001118
0.000873
0.000980
0.001851
0.002329
0.002312
0.002325
0.002306
0.002250
0.002351
0.002011
0.001513
0.002195
0.002577
0.002520
0.002427
0.002333
0.002546
0.002381
0.002584
0.001977
0.001401
0.001782
0.001819
0.002454
0.002676
0.002510
0.002506
0.002696
0.002690
0.002157
0.001688
0.001573
0.001532
0.002333
0.002782
0.002601
0.002498
0.002699
0.002031
0.001713
0.001909
0.002649
0.002786
0.002704
0.002638
0.002269
0.001820
0.001837
0.001956
0.002632
0.002808
0.002884
0.002187
0.001919
0.001757
0.002563
0.002878
0.002659
0.002968
0.002198
0.001886
0.001818
0.002752
0.003014
0.002951
0.002926
0.002444
0.002054
0.001869
0.002235
0.002750
0.002987
0.003071
0.002275
0.002251
0.001838
0.001963
0.001969
0.002886
0.002283
0.002522
0.001916
0.002152
0.002973
0.003144
0.002402
0.002302
0.002230
0.002273
0.003055
0.002620
0.001974
0.002067
0.002463
0.002260
0.002994
0.002419
0.002594
0.002555
0.002314
0.003075
0.003327
0.002833
0.002167
0.002513
0.002437
0.003141
0.002640
0.002315
Classification Time - I
0.005771
0.007704
0.007625
0.008577
0.009584
0.011413
0.011696
0.013640
0.014421
0.015229
0.015781
0.017984
0.017319
0.019707
0.019847
0.020705
0.021526
0.022945
0.023561
0.023717
0.024425
0.025225
0.027051
0.027052
0.027974
0.029135
0.030211
0.030958
0.032511
0.033774
0.035278
0.035144
0.034339
0.034470
0.034598
0.035786
0.035826
0.036334
0.037141
0.038102
0.040894
0.042261
0.040359
0.041297
0.042221
0.043089
0.044084
0.045076
0.046966
0.047227
0.050649
0.051363
0.051708
0.053248
0.051817
0.053050
0.055696
0.055199
0.056100
0.056664
0.060810
0.061413
0.063119
0.062643
0.063074
0.063249
0.062766
0.063702
0.064626
0.069044
0.071264
0.070776
0.068484
0.069518
0.070709
0.071246
0.076519
0.077502
0.078169
0.079261
0.075972
0.077571
0.077848
0.082294
0.085863
0.086865
0.081493
0.082782
0.083399
0.084568
0.090274
0.092484
0.092178
0.088039
0.089343
0.090233
0.090662
0.097359
0.099969
0.100769
0.100290
0.095661
0.096025
0.097895
0.104580
0.105556
0.106259
0.108050
0.101862
0.102745
0.103451
0.112008
0.112116
0.115054
0.107228
0.108316
0.117623
0.117376
0.119089
0.118407
0.112259
0.120642
0.121955
0.121453
0.113361
0.114351
0.117743
0.127170
0.127166
0.128828
0.129297
0.122462
0.123692
0.132471
0.134475
0.133828
0.135749
0.128169
0.138251
0.130147
