Full Time (seconds)
0.142530
Incremental Time - I
0.005914
0.000104
0.000102
0.000107
0.000118
0.000118
0.000129
0.000135
0.000136
0.000206
0.000159
0.000171
0.000186
0.000194
0.000205
0.000219
0.000223
0.000225
0.000229
0.000248
0.000259
0.002452
0.002393
0.002138
0.002014
0.002103
0.001160
0.001099
0.001822
0.002327
0.002282
0.001443
0.001120
0.001076
0.002322
0.002486
0.001613
0.001267
0.002284
0.002472
0.002494
0.002375
0.001536
0.001151
0.001224
0.001997
0.002437
0.001546
0.001240
0.001493
0.002219
0.002648
0.001856
0.001463
0.001575
0.002447
0.002691
0.001832
0.001417
0.001525
0.002431
0.002678
0.001844
0.001814
0.001722
0.001532
0.001598
0.002558
0.002689
0.002797
0.002001
0.001735
0.001843
0.001775
0.001783
0.001637
0.002575
0.002796
0.002046
0.001837
0.001818
0.001934
0.002629
0.002694
0.002949
0.002801
0.002299
0.001904
0.001834
0.001929
0.002590
0.003001
0.002776
0.002287
0.002000
0.001875
0.001849
0.002741
0.002785
0.002998
0.002792
0.002412
0.001993
0.002803
0.003083
0.002943
0.003512
0.002488
0.001965
0.002095
0.002022
0.002809
0.002976
0.002356
0.002026
0.002100
0.003012
0.003223
0.002553
0.002401
0.002311
0.002900
0.003258
0.003120
0.002576
0.002203
0.002144
0.003072
0.003303
0.003149
0.002646
0.002507
0.002498
0.003133
0.003310
0.003327
0.002711
0.002313
0.002445
0.003096
0.003248
Classification Time - I
0.005788
0.006562
0.007510
0.009817
0.009405
0.010410
0.012156
0.012821
0.013706
0.015275
0.015329
0.016652
0.017481
0.018508
0.019101
0.020192
0.021091
0.022135
0.022919
0.023179
0.024218
0.025021
0.025955
0.027775
0.027894
0.028832
0.029970
0.030742
0.032125
0.032563
0.033540
0.034512
0.036676
0.036817
0.037363
0.039587
0.039281
0.040677
0.041326
0.042811
0.042495
0.042885
0.043230
0.043715
0.043943
0.044510
0.046895
0.047272
0.046216
0.046907
0.047835
0.050521
0.051466
0.050566
0.051580
0.052608
0.055601
0.054749
0.055893
0.056279
0.057380
0.060224
0.061427
0.059934
0.061028
0.062495
0.063366
0.063837
0.064552
0.067969
0.067188
0.069879
0.068741
0.071930
0.070323
0.071337
0.072196
0.074406
0.074163
0.077792
0.076452
0.077695
0.077896
0.079292
0.080439
0.083697
0.081664
0.082416
0.084335
0.084201
0.085573
0.086911
0.087375
0.088221
0.092862
0.090081
0.090948
0.091830
0.092877
0.096791
0.094579
0.096033
0.096310
0.097949
0.099037
0.099083
0.104011
0.101063
0.102537
0.102602
0.103425
0.104913
0.105598
0.109978
0.111586
0.107880
0.108749
0.111911
0.111393
0.111839
0.112770
0.114431
0.115355
0.115646
0.116475
0.117199
0.119087
0.119297
0.119717
0.121119
0.126550
0.123256
0.124176
0.124618
0.126133
0.131737
0.129906
0.128050
0.129844
0.130707
