Full Time (seconds)
0.143653
Incremental Time - I
0.005910
0.000090
0.000105
0.000109
0.000114
0.000113
0.000125
0.000129
0.000140
0.000161
0.000157
0.000181
0.000181
0.000197
0.000204
0.000210
0.000219
0.000223
0.000229
0.000247
0.000252
0.002462
0.002111
0.001814
0.002470
0.002462
0.001488
0.000972
0.000964
0.000999
0.000974
0.000999
0.001008
0.002250
0.002535
0.002563
0.002548
0.002546
0.001568
0.001325
0.001223
0.001142
0.002298
0.002630
0.001217
0.002554
0.002656
0.002657
0.001470
0.001300
0.001286
0.001316
0.002579
0.002753
0.002803
0.002730
0.002968
0.001744
0.001566
0.001439
0.001389
0.002471
0.002769
0.001676
0.002600
0.001457
0.001500
0.001445
0.001409
0.002712
0.002843
0.002809
0.002900
0.002899
0.001952
0.001697
0.001682
0.002677
0.003019
0.003032
0.003058
0.002109
0.001928
0.001670
0.002784
0.003230
0.003183
0.001924
0.001881
0.001734
0.001699
0.003056
0.001852
0.002855
0.001776
0.001799
0.001693
0.001676
0.002963
0.003133
0.003133
0.002051
0.001934
0.001796
0.002871
0.003180
0.003172
0.002026
0.002009
0.001846
0.001803
0.003192
0.003227
0.002188
0.002083
0.001956
0.001884
0.003203
0.001975
0.001946
0.001917
0.001872
0.003434
0.003238
0.002049
0.002105
0.001976
0.001962
0.003364
0.002024
0.002066
0.001390
0.002611
0.002734
0.001596
0.001522
0.001758
0.002810
0.002969
0.002983
0.001969
Classification Time - I
0.005806
0.006628
0.007573
0.008448
0.009454
0.010449
0.011480
0.012375
0.013396
0.014316
0.015543
0.016350
0.017317
0.018316
0.019343
0.019757
0.020843
0.021847
0.022508
0.023406
0.024379
0.025429
0.026371
0.027669
0.028058
0.029228
0.029968
0.030933
0.032005
0.032801
0.033530
0.034816
0.035439
0.036615
0.037813
0.038557
0.039524
0.040322
0.041159
0.042150
0.043222
0.044464
0.045220
0.046382
0.046757
0.048006
0.049553
0.049566
0.050501
0.051504
0.052472
0.054082
0.054566
0.055549
0.056195
0.057176
0.058011
0.059016
0.059985
0.062108
0.061727
0.063361
0.063430
0.064322
0.065331
0.066421
0.067287
0.068700
0.069158
0.070121
0.070984
0.072245
0.078123
0.073756
0.075040
0.075594
0.082233
0.083742
0.084137
0.080447
0.080648
0.081636
0.082328
0.083651
0.084849
0.091650
0.085962
0.086745
0.087851
0.089377
0.095298
0.097898
0.098234
0.093369
0.099693
0.099807
0.102217
0.104732
0.097214
0.098039
0.099092
0.099716
0.101468
0.102244
0.102481
0.109743
0.106168
0.105354
0.109908
0.115350
0.108318
0.118386
0.113850
0.110303
0.115056
0.112989
0.122942
0.114275
0.115758
0.116502
0.117333
0.117598
0.118983
0.124613
0.121750
0.121650
0.127300
0.133330
0.125216
0.125354
0.130973
0.135836
0.125945
0.126311
0.130616
0.127264
0.127894
0.138630
0.128943
0.132523
