Full Time (seconds)
0.005648
Incremental Time - I
0.001297
0.000092
0.000103
0.000109
0.000130
0.000146
0.000146
0.000156
0.000172
0.000182
0.000191
0.000200
0.000218
0.001667
0.001499
0.001394
0.001507
0.001566
0.001529
0.001510
0.001561
Classification Time - I
0.000789
0.000977
0.001160
0.001326
0.001511
0.001717
0.001882
0.002111
0.002289
0.002457
0.002656
0.002865
0.003059
0.003246
0.003494
0.003751
0.004060
0.004362
0.004695
0.005012
