Full Time (seconds)
0.002963
Time - I
0.000515
0.000574
0.000638
0.000702
0.000793
0.000831
0.000891
0.000963
0.001067
0.001129
0.001176
0.001228
0.001048
0.001287
0.001276
0.001321
0.001345
0.001389
0.001431
0.001519
0.001531
0.001682
0.001813
0.003094
0.002089
0.002270
0.002378
0.002531
0.002658
0.002876
0.002978
