Full Time (seconds)
0.105530
Time - I
0.003950
0.004692
0.005439
0.006210
0.006928
0.007709
0.008479
0.009200
0.009969
0.010719
0.011447
0.012297
0.013287
0.013696
0.014450
0.015221
0.015963
0.016727
0.017798
0.018401
0.019566
0.019783
0.020736
0.021208
0.022069
0.023351
0.023507
0.024219
0.025032
0.025704
0.026993
0.027821
0.027964
0.028839
0.029937
0.030263
0.031157
0.032172
0.033599
0.033790
0.034589
0.034985
0.035302
0.034943
0.037204
0.035563
0.035980
0.037264
0.037220
0.037464
0.037795
0.038504
0.039726
0.040919
0.041176
0.041741
0.042585
0.043662
0.043726
0.044534
0.045373
0.046059
0.047036
0.047879
0.048270
0.049010
0.050519
0.050484
0.051238
0.052018
0.052881
0.053526
0.054737
0.055343
0.055754
0.056596
0.057658
0.058639
0.058731
0.059994
0.060935
0.062784
0.061844
0.062540
0.063197
0.064386
0.065662
0.066019
0.066733
0.067938
0.067780
0.069574
0.070198
0.070319
0.070669
0.071627
0.072325
0.073028
0.073931
0.075729
0.075574
0.077564
0.076715
0.077503
0.078244
0.081093
0.080584
0.080848
0.083187
0.082081
0.083436
0.083818
0.084320
0.085428
0.085800
0.086413
0.087526
0.088174
0.088966
0.089725
0.090273
0.091534
0.091961
0.093000
0.095523
0.094517
0.094810
0.095510
0.097324
0.097217
0.103201
0.098510
0.099304
0.100600
0.101445
0.102333
0.103315
0.103074
0.103680
0.105829
0.105367
