Full Time (seconds)
0.108870
Time - I
0.003915
0.004689
0.005585
0.006179
0.006937
0.007794
0.008452
0.009218
0.009974
0.010751
0.011461
0.012313
0.013107
0.013740
0.014473
0.015729
0.016000
0.016681
0.017962
0.018737
0.019520
0.019843
0.019552
0.020500
0.020166
0.020663
0.020947
0.022043
0.022304
0.022975
0.022933
0.023549
0.024219
0.025368
0.026492
0.026961
0.027812
0.028365
0.029602
0.030283
0.030472
0.031106
0.032817
0.032507
0.033931
0.034517
0.034854
0.035771
0.036903
0.037587
0.037896
0.040351
0.039283
0.040176
0.040812
0.041615
0.042871
0.043231
0.043693
0.044536
0.047169
0.046594
0.046944
0.047986
0.048332
0.048938
0.051214
0.050723
0.051234
0.052174
0.053712
0.054007
0.054697
0.056442
0.056153
0.057010
0.058107
0.058766
0.060339
0.061419
0.060549
0.060740
0.063933
0.062481
0.063943
0.066083
0.066858
0.067773
0.068944
0.067069
0.067785
0.068441
0.069869
0.072338
0.071243
0.072844
0.072595
0.072993
0.076114
0.074905
0.077684
0.078561
0.077376
0.077636
0.078692
0.084230
0.080083
0.080327
0.084068
0.081940
0.082950
0.083582
0.084451
0.087844
0.089405
0.089401
0.087965
0.087996
0.088751
0.089946
0.090279
0.093848
0.092204
0.092595
0.094281
0.096473
0.094857
0.098811
0.096619
0.100454
0.098482
0.098676
0.099457
0.099968
0.100685
0.101519
0.103492
0.103506
0.103788
0.104875
0.105194
