Full Time (seconds)
0.105228
Time - I
0.003960
0.004729
0.005484
0.006188
0.006964
0.007721
0.008461
0.009239
0.009995
0.010708
0.011551
0.012298
0.013129
0.013904
0.014743
0.015256
0.015968
0.016732
0.017968
0.018747
0.019583
0.020232
0.021077
0.021152
0.022643
0.023470
0.024171
0.024244
0.025287
0.026508
0.027329
0.028648
0.028842
0.029645
0.030388
0.031276
0.031988
0.032406
0.033005
0.034482
0.035043
0.035360
0.036882
0.036260
0.038211
0.038278
0.039695
0.039884
0.041271
0.041465
0.042821
0.043568
0.043362
0.043737
0.045900
0.045633
0.046565
0.047314
0.048992
0.048803
0.049321
0.050809
0.050535
0.052940
0.053683
0.054445
0.055579
0.054278
0.055148
0.057493
0.056926
0.057221
0.059777
0.060795
0.060637
0.060208
0.061084
0.061732
0.062510
0.063063
0.066063
0.065232
0.068197
0.067514
0.069139
0.068656
0.070703
0.071452
0.072343
0.070669
0.073966
0.074665
0.072934
0.077514
0.075456
0.075539
0.078729
0.080543
0.080252
0.078207
0.081833
0.081497
0.080582
0.084046
0.083463
0.085086
0.086303
0.085552
0.087236
0.086020
0.087069
0.087261
0.088941
0.091772
0.089601
0.090253
0.091355
0.095000
0.093114
0.093222
0.094380
0.094402
0.094559
0.094959
0.095146
0.097413
0.095948
0.096350
0.096772
0.097395
0.098287
0.098497
0.100986
0.100102
0.103151
0.102618
0.103617
0.103987
0.103697
0.104985
0.105203
