Full Time (seconds)
0.105177
Time - I
0.004343
0.004778
0.005452
0.006361
0.006987
0.007835
0.008462
0.009195
0.009974
0.010739
0.011483
0.012199
0.012969
0.013705
0.014491
0.015210
0.016184
0.016698
0.018032
0.018243
0.018929
0.019767
0.020539
0.021664
0.021984
0.022760
0.023482
0.024506
0.025401
0.025884
0.026584
0.027276
0.028580
0.028803
0.029537
0.030488
0.031023
0.010445
0.010631
0.010867
0.011146
0.034896
0.035605
0.036542
0.037174
0.037903
0.038604
0.039909
0.040188
0.040950
0.040780
0.042373
0.043048
0.043877
0.044634
0.045384
0.045951
0.046736
0.047495
0.048415
0.049014
0.075187
0.057355
0.077210
0.078883
0.079571
0.080526
0.081880
0.049885
0.048037
0.048662
0.049488
0.049933
0.043066
0.035923
0.036316
0.036854
0.037126
0.037632
0.038096
0.034066
0.034407
0.034829
0.035138
0.035588
0.036244
0.036829
0.036736
0.037273
0.037484
0.037951
0.038184
0.038800
0.036972
0.035535
0.035854
0.035887
0.036489
0.036493
0.036605
0.036704
0.037085
0.037927
0.037853
0.025478
0.025792
0.026910
0.027621
0.081400
0.027564
0.027230
0.028175
0.061449
0.061795
0.062797
0.063141
0.088248
0.088645
0.088719
0.092720
0.090533
0.091637
0.091787
0.093136
0.096447
0.094368
0.097990
0.097236
0.097321
0.100553
0.100705
0.100761
0.102944
0.104560
0.102549
0.101806
0.103684
0.105816
0.103863
0.106807
0.106347
