Full Time (seconds)
0.775749
Time - I
0.161286
0.181009
0.192943
0.208878
0.230095
0.244440
0.254758
0.277489
0.301805
0.316413
0.330134
0.361767
0.423983
0.484931
0.541531
0.569614
0.511276
0.625371
0.705724
0.746589
0.783990
