Full Time (seconds)
0.169885
Incremental Time - I
0.023446
0.000028
0.000032
0.000029
0.000030
0.000031
0.000044
0.000029
0.000024
0.000047
0.000052
0.038280
0.067798
0.098680
0.095180
0.111040
0.125647
0.144216
0.163336
0.190136
0.165239
Classification Time - C
0.115278
0.028674
0.028198
0.033853
0.038355
0.032609
0.033362
0.042929
0.014832
0.028669
0.048499
0.096801
0.114549
0.133161
0.150599
0.162670
0.183619
0.168774
0.146493
0.135488
0.177610
