Full Time (seconds)
0.417793
Time - I
0.251747
0.279071
0.309507
0.343036
0.385875
0.407649
0.446435
0.415985
0.518087
0.466658
0.544365
0.566391
0.593708
0.641782
0.642081
0.397283
0.695227
0.666430
0.439449
0.766587
0.653470
