Full Time (seconds)
0.001179
Time - I
0.000709
0.000745
0.000887
0.000857
0.000907
0.001003
0.001057
0.001132
0.001146
0.001226
0.001270
0.001330
0.000760
0.001453
0.001507
0.001606
0.001646
0.001713
0.001757
0.001830
0.001914
0.001965
0.000937
0.001014
0.001008
0.001043
0.001051
0.001088
0.001136
0.001170
0.001172
