Full Time (seconds)
0.001624
Time - I
0.000355
0.000442
0.000454
0.000519
0.000558
0.000613
0.000680
0.000797
0.000801
0.000872
0.000528
0.001009
0.000982
0.000999
0.001036
0.001062
0.001086
0.001133
0.001185
0.001214
0.001251
0.001380
0.001487
0.001613
0.001758
0.002520
0.002011
0.002129
0.002264
0.002427
0.002553
