Full Time (seconds)
0.805437
Time - I
0.250350
0.214735
0.314406
0.313982
0.386390
0.400906
0.443870
0.479707
0.509983
0.539773
0.582536
0.480951
0.438149
0.396635
0.388917
0.654017
0.696881
0.755751
0.635543
0.798765
0.686612
