Full Time (seconds)
0.002931
Time - I
0.000929
0.001017
0.001063
0.001160
0.001244
0.001285
0.001346
0.001450
0.001508
0.001566
0.001620
0.001690
0.001792
0.001835
0.001902
0.001964
0.002016
0.002103
0.002121
0.003331
0.002363
0.002410
0.004199
0.002450
0.002535
0.002629
0.002673
0.002847
0.002953
0.003396
0.003010
