Full Accuracy
94.923080
Accuracy - I
50.000000
71.461533
78.692314
80.692307
84.153847
86.923073
89.076920
89.846153
89.615387
89.923080
90.846153
91.846153
92.692307
92.846153
93.153847
93.615379
94.153847
94.307693
94.692307
94.923080
94.923080
