Full Accuracy
94.923080
Accuracy - I
50.000000
70.846161
77.153847
79.923073
82.846153
86.230766
88.153847
89.461540
89.230766
90.153847
90.846153
92.307693
93.000000
93.000000
93.384621
93.923073
94.153847
94.307693
94.538460
94.923080
94.923080
