Full Time (seconds)
0.105370
Time - I
0.003949
0.006388
0.009609
0.016348
0.020949
0.024137
0.028824
0.032467
0.036374
0.041677
0.044473
0.052032
0.056449
0.062866
0.069935
0.074681
0.082234
0.086870
0.093207
0.100740
0.109075
