Full Time (seconds)
0.106220
Time - I
0.003930
0.008007
0.012079
0.016346
0.020443
0.024653
0.029084
0.032298
0.037759
0.046229
0.045990
0.051775
0.059176
0.062979
0.069450
0.074703
0.086410
0.087900
0.093261
0.099076
0.108393
