Full Time (seconds)
0.132471
Incremental Time - I
0.005899
0.000089
0.000103
0.000122
0.000114
0.000112
0.000121
0.000128
0.000137
0.000153
0.000151
0.000173
0.000176
0.000191
0.000200
0.000213
0.000218
0.000221
0.000227
0.000249
0.000253
0.000566
0.000418
0.000421
0.000449
0.000459
0.000451
0.000468
0.000478
0.000480
0.000485
0.000505
0.000489
0.000497
0.000497
0.000508
0.000514
0.000520
0.000544
0.000560
0.000558
0.000584
0.000587
0.000584
0.000599
0.000618
0.000622
0.000633
0.000647
0.000658
0.000651
0.000686
0.000708
0.000685
0.000724
0.000725
0.000718
0.000719
0.000743
0.000750
0.000742
0.000774
0.000768
0.000761
0.000790
0.000791
0.000811
0.000798
0.000803
0.000799
0.000866
0.000855
0.000879
0.000864
0.000858
0.000888
0.000890
0.000896
0.000895
0.000925
0.000924
0.000934
0.000929
0.000954
0.000985
0.000976
0.000977
0.000966
0.000975
0.001015
0.001008
0.001020
0.001032
0.001044
0.001057
0.001069
0.001102
0.001075
0.001088
0.001169
0.001132
0.001209
0.001102
0.001142
0.001121
0.001133
0.001143
0.001192
0.001170
0.001230
0.001159
0.001204
0.001166
0.001215
0.001305
0.001285
0.001257
0.001225
0.001282
0.001276
0.001258
0.001291
0.001282
0.001286
0.001287
0.001317
0.001294
0.001326
0.001318
0.001325
0.001348
0.000710
0.000701
0.000695
0.000697
0.000697
0.000945
0.000928
0.000945
0.000949
0.000936
Classification Time - I
0.005799
0.006637
0.007571
0.008462
0.009415
0.010387
0.011817
0.012390
0.013343
0.014307
0.015327
0.016314
0.017263
0.018074
0.019347
0.019784
0.021191
0.022143
0.023071
0.023975
0.024912
0.025180
0.026178
0.027883
0.028914
0.029951
0.030935
0.030996
0.031817
0.032758
0.033617
0.034449
0.035395
0.036356
0.037306
0.038272
0.039682
0.041478
0.041539
0.043547
0.042982
0.044158
0.044846
0.045970
0.046898
0.047791
0.048858
0.049643
0.050781
0.051992
0.053177
0.053679
0.054545
0.055207
0.056315
0.057448
0.058039
0.059339
0.059915
0.060957
0.061613
0.063004
0.063537
0.064571
0.065320
0.068256
0.067177
0.072625
0.072988
0.070121
0.071867
0.072040
0.072793
0.074353
0.075040
0.075963
0.076740
0.077598
0.079137
0.082326
0.080323
0.081357
0.082337
0.083114
0.084379
0.091436
0.092709
0.093498
0.088602
0.088781
0.089715
0.090850
0.092783
0.092652
0.093447
0.094929
0.095111
0.096118
0.097537
0.097981
0.099492
0.099943
0.100701
0.102228
0.102641
0.103579
0.104776
0.105356
0.106767
0.111568
0.107898
0.109401
0.110205
0.110935
0.111898
0.112810
0.117792
0.114323
0.115355
0.120346
0.121199
0.120985
0.121480
0.123388
0.125719
0.126491
0.124500
0.125173
0.129277
0.125341
0.126042
0.127114
0.126306
0.131287
0.131957
0.132693
0.128478
0.133601
0.132724
0.132302
