Full Time (seconds)
0.143319
Incremental Time - I
0.001391
0.000089
0.000099
0.000106
0.000115
0.000115
0.000124
0.000137
0.000141
0.000148
0.000161
0.000170
0.000176
0.000198
0.000196
0.000208
0.000212
0.000218
0.000228
0.000243
0.000253
0.000556
0.000421
0.000432
0.000440
0.000485
0.000451
0.000463
0.000480
0.000475
0.000481
0.000309
0.000312
0.000308
0.000315
0.000319
0.000380
0.000380
0.000380
0.000393
0.000410
0.000541
0.000549
0.000556
0.000564
0.000568
0.000586
0.000607
0.000600
0.000603
0.000614
0.000628
0.000626
0.000639
0.000642
0.000660
0.000669
0.000679
0.000688
0.000700
0.000709
0.000717
0.000703
0.000723
0.000728
0.000733
0.000757
0.000748
0.000781
0.000767
0.000757
0.000787
0.000816
0.000830
0.000820
0.000870
0.000864
0.000843
0.000861
0.000864
0.000884
0.000899
0.000905
0.000916
0.000930
0.000903
0.000947
0.000944
0.000934
0.000982
0.000970
0.000992
0.001004
0.001015
0.001017
0.001039
0.001037
0.001027
0.001047
0.001059
0.001075
0.001084
0.001073
0.001094
0.001078
0.001088
0.001108
0.001108
0.001126
0.001143
0.001136
0.001165
0.001165
0.001181
0.001193
0.001207
0.001198
0.001164
0.001213
0.001214
0.001231
0.001243
0.001222
0.001247
0.001249
0.001266
0.001269
0.001270
0.001283
0.001281
0.001288
0.001349
0.001340
0.001335
0.001336
0.001349
0.001360
0.001344
0.001391
0.001368
0.001395
Classification Time - I
0.005790
0.006726
0.007635
0.008557
0.009495
0.010523
0.011486
0.012470
0.013539
0.014461
0.015425
0.016869
0.017303
0.018164
0.018947
0.019820
0.020690
0.022027
0.022790
0.023439
0.024848
0.026272
0.026081
0.027063
0.028049
0.029924
0.029957
0.031869
0.031963
0.032701
0.033066
0.033570
0.033911
0.034402
0.035851
0.036455
0.035748
0.037612
0.037024
0.038784
0.038532
0.039352
0.040335
0.041187
0.043645
0.044650
0.044097
0.045008
0.046613
0.048687
0.047894
0.048842
0.049993
0.050707
0.053548
0.053315
0.053606
0.054652
0.057577
0.056612
0.057407
0.058291
0.059104
0.062264
0.061084
0.061969
0.062880
0.063774
0.064689
0.065711
0.066809
0.067761
0.069327
0.069621
0.071012
0.074162
0.072237
0.073240
0.074393
0.075450
0.076090
0.076965
0.078029
0.078967
0.079997
0.080702
0.082099
0.082800
0.084463
0.084379
0.088487
0.086257
0.087381
0.090429
0.089060
0.090577
0.094606
0.091858
0.092407
0.096987
0.094473
0.095171
0.096278
0.100936
0.099971
0.099550
0.100911
0.100894
0.101696
0.106533
0.103947
0.104536
0.105931
0.106483
0.111265
0.111812
0.109039
0.113813
0.113515
0.111487
0.116795
0.113855
0.114251
0.115283
0.115995
0.117144
0.118201
0.119504
0.119852
0.120685
0.121970
0.122339
0.123557
0.124453
0.130421
0.126953
0.128303
0.127976
0.128735
0.130134
