Full Time (seconds)
0.141418
Incremental Time - I
0.005893
0.000090
0.000101
0.000105
0.000118
0.000117
0.000131
0.000135
0.000138
0.000155
0.000159
0.000172
0.000185
0.000194
0.000202
0.000213
0.000218
0.000225
0.000228
0.000249
0.000251
0.000554
0.000449
0.000435
0.000440
0.000450
0.000440
0.000459
0.000478
0.000473
0.000484
0.000490
0.000496
0.000636
0.000514
0.000516
0.000516
0.000522
0.000579
0.000560
0.000556
0.000363
0.000354
0.000365
0.000385
0.000510
0.000545
0.000450
0.000487
0.000433
0.000435
0.000621
0.000634
0.000728
0.000681
0.000702
0.000703
0.000698
0.000675
0.000763
0.000919
0.000753
0.000765
0.000782
0.000726
0.000766
0.000758
0.000769
0.000780
0.000787
0.000796
0.000788
0.000820
0.000840
0.000825
0.000844
0.000855
0.000859
0.000853
0.000851
0.000896
0.000902
0.000907
0.000929
0.000921
0.000930
0.000939
0.000958
0.000950
0.000938
0.000946
0.000998
0.000998
0.001005
0.000981
0.001021
0.001046
0.001042
0.001058
0.001066
0.001075
0.001069
0.001106
0.001087
0.001076
0.001113
0.001126
0.001108
0.001104
0.001136
0.001140
0.001173
0.001172
0.001180
0.001192
0.001183
0.001167
0.001188
0.001193
0.001194
0.001204
0.001213
0.001254
0.001269
0.001243
0.001255
0.001254
0.001249
0.001287
0.001262
0.001317
0.001364
0.001343
0.001351
0.001377
0.001380
0.001381
0.001369
0.001400
0.001393
0.001406
Classification Time - I
0.005757
0.006572
0.007508
0.008414
0.009355
0.010368
0.011408
0.012461
0.013338
0.014587
0.015357
0.016323
0.017236
0.018513
0.019318
0.019797
0.020651
0.021638
0.022471
0.023236
0.024953
0.025081
0.025950
0.027403
0.028351
0.028860
0.030090
0.031775
0.031796
0.032835
0.033925
0.035623
0.035473
0.037766
0.037405
0.040349
0.039944
0.040414
0.041190
0.042594
0.042599
0.043043
0.046110
0.049287
0.045314
0.046138
0.046634
0.045645
0.046222
0.047457
0.047731
0.049094
0.051464
0.050613
0.052159
0.052583
0.062443
0.056663
0.055747
0.056551
0.057406
0.058144
0.059070
0.060576
0.060873
0.065452
0.066672
0.065937
0.064661
0.065590
0.066844
0.070208
0.071385
0.070199
0.073230
0.071413
0.072608
0.073780
0.074327
0.075303
0.076638
0.077678
0.078042
0.079809
0.080264
0.081145
0.081750
0.082663
0.083407
0.084343
0.089049
0.089705
0.087581
0.091725
0.089455
0.090536
0.091297
0.095685
0.092711
0.096933
0.098409
0.099430
0.097083
0.101029
0.098204
0.101468
0.099990
0.104859
0.103833
0.103847
0.104164
0.108633
0.109867
0.106268
0.110888
0.108331
0.113555
0.111995
0.115076
0.111656
0.117860
0.117980
0.114764
0.119745
0.116101
0.117771
0.122718
0.124113
0.121990
0.125859
0.121934
0.127604
0.126812
0.129599
0.130486
0.126349
0.132482
0.128533
0.129772
0.130066
