Full Time (seconds)
0.237205
Time - I
0.002306
0.003457
0.004627
0.006227
0.002543
0.008468
0.003389
0.003497
0.003581
0.005438
0.005954
0.006509
0.007211
0.007675
0.017885
0.008837
0.010162
0.009982
0.011482
0.023807
0.025154
0.026398
0.028907
0.029065
0.031843
0.031591
0.033228
0.037091
0.036380
0.038209
0.037479
0.038204
0.039298
0.041882
0.045268
0.046278
0.039220
0.049164
0.051377
0.052227
0.049307
0.049920
0.056655
0.052449
0.053476
0.055389
0.056017
0.057592
0.064192
0.064371
0.065953
0.066851
0.034416
0.064226
0.072019
0.066664
0.068649
0.069215
0.070350
0.066261
0.070060
0.073826
0.076524
0.082636
0.077331
0.078905
0.067849
0.089119
0.083009
0.083480
0.092135
0.092252
0.088051
0.088022
0.090762
0.045126
0.039275
0.039670
0.040385
0.040881
0.096658
0.098793
0.099211
0.099773
0.101686
0.103977
0.103463
0.106418
0.106547
0.107879
0.109319
0.110055
0.085753
0.079036
0.113234
0.084563
0.117906
0.117168
0.118726
0.125323
0.120917
0.123685
0.122811
0.124260
0.126222
0.126078
0.110572
0.110145
0.130815
0.132043
0.132307
0.135158
0.134796
0.137657
0.139033
0.138010
0.152494
0.153487
0.123714
0.122155
0.116065
0.118023
0.120992
0.127922
0.127361
0.152797
0.152429
0.153183
0.152999
0.155826
0.155440
0.157546
0.145926
0.160735
0.160528
0.164161
0.163831
0.164728
0.117995
0.115727
0.111510
0.112419
0.120071
0.124627
0.123953
0.123668
0.124243
0.163465
0.165002
0.165566
0.166802
0.167816
0.168008
0.184030
0.185898
0.186522
0.186912
0.189265
0.190594
0.191359
0.193046
0.192149
0.181772
0.180121
0.181883
0.185298
0.216461
0.217075
0.200464
0.202663
0.128165
0.131051
0.205353
0.190909
0.209142
0.192829
0.201419
0.211642
0.213678
0.213358
0.214675
0.216057
0.164179
0.189166
0.204291
0.205172
0.205307
0.180082
0.179714
0.151786
0.232868
0.227612
0.248120
0.130315
0.131936
0.133744
0.233542
0.236143
0.236074
0.101618
0.238791
0.243842
0.243354
0.242332
0.214444
0.244415
0.242894
0.228911
0.230269
0.237304
0.251870
