Full Time (seconds)
0.249780
Time - I
0.002288
0.003464
0.004659
0.006415
0.006586
0.007336
0.008078
0.009221
0.010246
0.011713
0.013169
0.014014
0.015989
0.016688
0.017658
0.019089
0.020095
0.021181
0.022643
0.024282
0.024964
0.026966
0.027378
0.028447
0.029867
0.031010
0.032007
0.033394
0.035499
0.035630
0.037007
0.038521
0.027651
0.028661
0.029494
0.030230
0.047922
0.045947
0.049460
0.051322
0.049863
0.049886
0.051714
0.052300
0.054922
0.054857
0.055901
0.056979
0.058438
0.051179
0.052020
0.058427
0.064481
0.065097
0.065947
0.071668
0.067787
0.069116
0.070271
0.071691
0.072746
0.073695
0.074865
0.076200
0.078695
0.078563
0.086601
0.082827
0.082356
0.084730
0.084394
0.090191
0.087442
0.088960
0.082916
0.085811
0.089092
0.092701
0.094027
0.095228
0.096622
0.100532
0.099199
0.100947
0.103064
0.102727
0.104000
0.105408
0.106419
0.109234
0.108249
0.110325
0.113964
0.111780
0.111391
0.114129
0.126134
0.125491
0.117606
0.117109
0.120947
0.121865
0.124304
0.115242
0.115683
0.116774
0.128455
0.121242
0.111622
0.112527
0.114539
0.133121
0.134838
0.136357
0.137825
0.104210
0.105203
0.140227
0.142217
0.142524
0.143784
0.096618
0.097868
0.098784
0.149338
0.105943
0.106567
0.130325
0.153040
0.137974
0.136483
0.136690
0.137256
0.159987
0.162526
0.164149
0.165904
0.165731
0.165815
0.168340
0.169827
0.168645
0.170160
0.172070
0.173014
0.176372
0.175933
0.179251
0.178250
0.182022
0.174232
0.169210
0.168438
0.174951
0.172010
0.174254
0.169301
0.163318
0.188970
0.190265
0.207875
0.191950
0.155171
0.156002
0.158907
0.158439
0.159262
0.159971
0.217416
0.201880
0.155968
0.136011
0.137203
0.147694
0.148673
0.148703
0.150564
0.149426
0.149680
0.150550
0.152585
0.215714
0.220168
0.218726
0.219913
0.220778
0.223261
0.224049
0.226007
0.097028
0.096991
0.102850
0.106188
0.226032
0.095897
0.096467
0.107871
0.118464
0.117940
0.135695
0.137394
0.135501
0.131069
0.131869
0.147788
0.149081
0.147471
0.149556
0.149005
0.149175
0.151110
