Full Time (seconds)
0.106732
Time - I
0.004304
0.004618
0.004900
0.005233
0.005616
0.005892
0.006339
0.006797
0.007307
0.007740
0.008632
0.008923
0.009707
0.010499
0.011210
0.012218
0.012807
0.013579
0.014261
0.015127
0.016193
0.016465
0.017169
0.018476
0.018702
0.020040
0.020229
0.020944
0.022272
0.022918
0.023382
0.024109
0.024896
0.025670
0.026658
0.027157
0.028694
0.028871
0.029449
0.030578
0.031155
0.031930
0.033053
0.033558
0.034062
0.035187
0.036283
0.036458
0.037722
0.038756
0.038852
0.039719
0.040750
0.040858
0.041571
0.042403
0.043941
0.044023
0.045952
0.045281
0.047145
0.048262
0.047616
0.048662
0.049125
0.049985
0.050618
0.051896
0.053734
0.054636
0.055338
0.056250
0.055137
0.055890
0.056661
0.058389
0.058691
0.060453
0.059694
0.062773
0.061855
0.063610
0.062657
0.064154
0.064221
0.065284
0.065643
0.069435
0.069310
0.068901
0.068933
0.069592
0.070141
0.071356
0.071633
0.073135
0.075634
0.075477
0.077592
0.075666
0.076230
0.078466
0.077683
0.078439
0.081887
0.080925
0.081242
0.082278
0.085647
0.083349
0.083812
0.087369
0.085509
0.086557
0.089564
0.087500
0.089878
0.089044
0.092668
0.093287
0.095750
0.095099
0.094386
0.094559
0.095133
0.098325
0.098269
0.099758
0.100679
0.097921
0.099473
0.099951
0.100196
0.101360
0.101724
0.106079
0.103777
0.104869
0.104722
0.105483
0.109760
