Full Time (seconds)
0.109772
Time - I
0.004271
0.005499
0.005814
0.006612
0.007380
0.008161
0.008904
0.009678
0.010461
0.011193
0.012012
0.012992
0.013593
0.014441
0.015083
0.016051
0.016889
0.017716
0.018477
0.018908
0.020246
0.020350
0.021630
0.022081
0.023124
0.025350
0.024946
0.024719
0.026258
0.026245
0.027050
0.028637
0.029442
0.029305
0.030245
0.031281
0.034554
0.032999
0.033741
0.034955
0.034935
0.036365
0.036786
0.037025
0.038196
0.038458
0.039571
0.039934
0.041996
0.043774
0.042658
0.043767
0.045124
0.044602
0.045455
0.046072
0.047022
0.048994
0.049545
0.049327
0.050492
0.051876
0.050673
0.051044
0.051850
0.051825
0.052132
0.052432
0.053732
0.053125
0.053593
0.054365
0.055418
0.056712
0.058263
0.059658
0.058241
0.059221
0.060305
0.060600
0.061481
0.061949
0.063245
0.063568
0.064527
0.065336
0.066124
0.068456
0.069324
0.068296
0.072748
0.071543
0.072582
0.074175
0.074042
0.073237
0.075479
0.075365
0.074904
0.075693
0.078733
0.079367
0.080135
0.079447
0.079123
0.079935
0.081046
0.081534
0.083821
0.085787
0.086394
0.087724
0.085146
0.086168
0.087245
0.087459
0.088239
0.091903
0.090319
0.090668
0.091427
0.092014
0.092977
0.093687
0.097462
0.098337
0.096061
0.096638
0.097604
0.097929
0.099066
0.100276
0.100537
0.101230
0.102302
0.103287
0.103916
0.103893
0.105190
0.105621
0.107255
