Full Time (seconds)
0.107623
Time - I
0.004687
0.005074
0.005928
0.006654
0.007429
0.008217
0.008991
0.009759
0.010544
0.011325
0.012212
0.012860
0.013664
0.014372
0.015007
0.016042
0.016541
0.019430
0.018566
0.018708
0.020104
0.020891
0.021394
0.022437
0.022539
0.023585
0.024672
0.024935
0.025572
0.027093
0.027535
0.028304
0.029816
0.034034
0.030336
0.031983
0.032866
0.033079
0.033569
0.034174
0.035406
0.036346
0.036460
0.037232
0.035589
0.042744
0.039869
0.040403
0.042695
0.041744
0.042501
0.044161
0.043906
0.045155
0.045368
0.046757
0.047369
0.048235
0.049003
0.049461
0.050472
0.050696
0.051459
0.052421
0.053563
0.053632
0.054431
0.055246
0.055980
0.057425
0.057927
0.058669
0.059037
0.059699
0.060834
0.061141
0.062168
0.062696
0.063498
0.064197
0.064962
0.065998
0.067014
0.066170
0.066808
0.066486
0.069698
0.068153
0.068424
0.068279
0.069121
0.069398
0.070190
0.071135
0.071749
0.072623
0.073635
0.074088
0.074811
0.075402
0.076928
0.078573
0.078209
0.078944
0.079624
0.080338
0.081686
0.081525
0.082568
0.083033
0.086098
0.084621
0.085336
0.086359
0.086832
0.088068
0.088227
0.089380
0.089792
0.090747
0.091326
0.092147
0.093255
0.093596
0.094540
0.095333
0.096079
0.096543
0.098124
0.098454
0.099192
0.100597
0.100312
0.101101
0.101736
0.102791
0.104159
0.104559
0.104936
0.106281
0.106323
