Full Time (seconds)
0.823818
Time - I
0.166453
0.184740
0.204013
0.215682
0.217092
0.218937
0.233173
0.258024
0.289699
0.306689
0.350933
0.400566
0.452202
0.480611
0.537506
0.574881
0.359656
0.706417
0.731156
0.730426
0.799389
