Full Time (seconds)
0.107616
Time - I
0.004313
0.004592
0.004935
0.005235
0.005569
0.005903
0.006346
0.003731
0.007322
0.007807
0.008187
0.008931
0.009693
0.005745
0.011217
0.012014
0.012685
0.013587
0.014433
0.014979
0.015797
0.016904
0.017690
0.018445
0.019270
0.019960
0.020224
0.021613
0.021930
0.023750
0.023901
0.024247
0.024823
0.026780
0.027266
0.027858
0.027949
0.028829
0.030341
0.031040
0.032548
0.031724
0.032569
0.033693
0.034074
0.035149
0.035580
0.037010
0.037507
0.039115
0.038586
0.040505
0.040173
0.041971
0.042857
0.042458
0.044422
0.044068
0.044578
0.045668
0.046181
0.047367
0.047554
0.049029
0.050639
0.051404
0.050980
0.051849
0.055558
0.057829
0.061209
0.060073
0.060482
0.062397
0.058646
0.059164
0.059015
0.058924
0.063195
0.061047
0.061332
0.063015
0.062624
0.065369
0.066370
0.065651
0.067754
0.068988
0.067604
0.075751
0.068657
0.070903
0.071472
0.071038
0.073921
0.072910
0.082222
0.074114
0.074741
0.077734
0.078606
0.079669
0.078615
0.079113
0.080705
0.087868
0.081483
0.083911
0.083841
0.090462
0.085481
0.086922
0.085306
0.087510
0.086761
0.087486
0.089996
0.090301
0.090012
0.090605
0.091635
0.095634
0.095919
0.093420
0.097826
0.095322
0.100492
0.097321
0.099200
0.098694
0.099242
0.100092
0.112577
0.100983
0.105281
0.105701
0.106738
0.104454
0.105150
0.109164
0.107434
