Full Time (seconds)
0.106142
Time - I
0.004293
0.005054
0.005905
0.006624
0.007401
0.008198
0.009056
0.009706
0.010508
0.011222
0.011971
0.012722
0.013625
0.014648
0.015233
0.015707
0.016518
0.017281
0.018166
0.019283
0.019792
0.020482
0.021440
0.022404
0.023170
0.023950
0.024702
0.024724
0.026263
0.026913
0.027871
0.028640
0.029148
0.029374
0.030163
0.031894
0.032492
0.033262
0.034218
0.033986
0.034954
0.035540
0.036325
0.037777
0.039393
0.039675
0.040064
0.041157
0.041971
0.041892
0.043551
0.043071
0.044257
0.045338
0.046098
0.047060
0.048193
0.049130
0.048539
0.050550
0.050306
0.052112
0.051257
0.053632
0.053190
0.055527
0.054246
0.055088
0.055883
0.058408
0.059129
0.058377
0.059207
0.061488
0.060425
0.061073
0.061967
0.063312
0.065341
0.066131
0.066932
0.065808
0.068484
0.069330
0.068180
0.068511
0.071671
0.074201
0.073044
0.072016
0.072334
0.074540
0.073955
0.074639
0.077819
0.078755
0.076900
0.078845
0.078311
0.079125
0.079901
0.083386
0.082950
0.082408
0.082769
0.084042
0.084844
0.085562
0.088635
0.088046
0.090373
0.091108
0.089478
0.089799
0.093697
0.092629
0.095222
0.093170
0.093432
0.094210
0.095790
0.097499
0.096323
0.097047
0.100007
0.099076
0.099604
0.100238
0.100962
0.105334
0.105967
0.108993
0.103178
0.103330
0.107393
0.107617
0.104396
0.108814
0.108999
0.106444
0.106369
