Full Time (seconds)
0.106043
Time - I
0.004295
0.005113
0.005921
0.006739
0.007517
0.008297
0.009074
0.009874
0.011197
0.011422
0.012197
0.012932
0.013773
0.014415
0.015404
0.015901
0.016664
0.017814
0.018202
0.018896
0.020221
0.020458
0.021809
0.022350
0.023332
0.024115
0.024239
0.024913
0.025939
0.026828
0.027477
0.028425
0.029161
0.030142
0.030577
0.031677
0.032138
0.032749
0.034803
0.034765
0.036031
0.035836
0.036381
0.037232
0.038065
0.038748
0.039696
0.040588
0.041532
0.041743
0.042917
0.043264
0.044534
0.045017
0.046037
0.046389
0.047139
0.048162
0.048603
0.050800
0.051623
0.051132
0.053341
0.054257
0.054664
0.053732
0.054694
0.056567
0.057753
0.058935
0.057884
0.058444
0.060090
0.061223
0.060617
0.061310
0.064086
0.064822
0.065600
0.067738
0.065127
0.066324
0.066892
0.068016
0.068305
0.071221
0.071822
0.072579
0.071686
0.072388
0.072882
0.073937
0.074084
0.076013
0.078181
0.083193
0.079642
0.078769
0.078526
0.079541
0.079977
0.080791
0.083494
0.083735
0.081385
0.081862
0.081981
0.085339
0.083175
0.086041
0.086772
0.084884
0.089203
0.088929
0.089864
0.089444
0.091260
0.092380
0.090891
0.098573
0.091371
0.092256
0.094353
0.096870
0.096158
0.096255
0.095951
0.098883
0.097977
0.100485
0.102267
0.101996
0.101133
0.105351
0.102112
0.103506
0.103498
0.107947
0.104857
0.109493
0.109702
