Full Time (seconds)
0.052187
Time - I
0.004690
0.002605
0.002977
0.003384
0.003774
0.004124
0.004506
0.004883
0.005262
0.005654
0.005997
0.006383
0.006746
0.007098
0.015755
0.024194
0.017484
0.017809
0.019057
0.019870
0.020063
0.010081
0.010410
0.010817
0.011310
0.011508
0.011990
0.012269
0.012721
0.013012
0.013362
0.013752
0.014150
0.014561
0.014911
0.015297
0.015695
0.016102
0.016439
0.016813
0.017114
0.017589
0.017897
0.018286
0.018605
0.019019
0.019382
0.019810
0.020258
0.020510
0.020931
0.021247
0.021611
0.021941
0.022263
0.022718
0.023075
0.023456
0.023881
0.024210
0.024591
0.025203
0.025318
0.025625
0.026040
0.026362
0.026726
0.027158
0.027495
0.027897
0.028277
0.028508
0.028953
0.029327
0.029779
0.030195
0.030344
0.030800
0.031160
0.031564
0.031930
0.032269
0.032690
0.033112
0.033359
0.033705
0.034135
0.034997
0.034867
0.035344
0.035710
0.035923
0.036327
0.036794
0.037200
0.037577
0.037836
0.038372
0.038487
0.038947
0.039709
0.039568
0.040213
0.040619
0.090910
0.041335
0.041464
0.041826
0.042419
0.042957
0.043031
0.043162
0.104070
0.094198
0.091141
0.044890
0.045175
0.045496
0.046653
0.046232
0.046565
0.047190
0.047393
0.048165
0.048222
0.048523
0.048861
0.049130
0.049600
0.049970
0.050353
0.050480
0.050769
0.050907
0.051058
0.051198
0.105458
0.051528
0.051720
0.052077
0.052177
