Full Time (seconds)
0.052204
Time - I
0.004848
0.002677
0.003014
0.003411
0.003822
0.004164
0.004542
0.004975
0.005358
0.005681
0.006075
0.006412
0.006820
0.007166
0.007546
0.016355
0.017349
0.017890
0.009032
0.019671
0.020197
0.010133
0.010500
0.010831
0.011226
0.011607
0.011976
0.012334
0.012915
0.013054
0.013453
0.014397
0.014166
0.014571
0.014980
0.015429
0.015678
0.016121
0.016536
0.034784
0.036464
0.017682
0.017919
0.018297
0.018808
0.019107
0.019462
0.020104
0.020164
0.020616
0.020963
0.021273
0.021733
0.021996
0.022504
0.022747
0.023269
0.023960
0.023874
0.024383
0.024643
0.024901
0.025434
0.025841
0.026134
0.026442
0.026943
0.027204
0.027532
0.027849
0.028444
0.028736
0.029046
0.029456
0.029787
0.030109
0.030759
0.031096
0.031213
0.032027
0.031977
0.032368
0.032629
0.032945
0.033395
0.033918
0.034308
0.034464
0.035124
0.035270
0.035687
0.035773
0.036416
0.036289
0.036223
0.036381
0.036669
0.036921
0.036964
0.037230
0.077295
0.037976
0.038278
0.038578
0.039297
0.039498
0.039870
0.040003
0.040391
0.085769
0.041219
0.042343
0.041918
0.042166
0.042568
0.042897
0.043433
0.043772
0.044155
0.044434
0.044844
0.046219
0.045632
0.045924
0.046306
0.046946
0.047046
0.047527
0.047882
0.048102
0.048514
0.049165
0.049914
0.049628
0.049985
0.050462
0.050918
0.051766
0.052557
0.052006
0.052397
