Full Accuracy
96.615387
Accuracy - I
cat: testS_0.svm.acc: No such file or directory
72.615387
80.692307
85.230766
86.692307
89.307693
90.769234
91.769234
92.307693
92.769226
93.384621
93.769226
94.846153
95.076927
95.461533
95.846153
95.461533
96.000000
95.923080
96.461540
96.692307
