Full Accuracy
96.615387
Accuracy - I
cat: testS_0.svm.acc: No such file or directory
72.230766
79.923073
86.384621
90.307693
92.461540
93.000000
93.846153
94.076927
94.615387
94.846153
95.307693
95.461533
96.000000
96.076927
96.153847
95.769234
95.615387
96.076927
96.615387
96.769234
