Full Time (seconds)
0.099408
Incremental Time - I
0.014759
0.002081
0.003288
0.005545
0.007503
0.009709
0.011848
0.016812
0.016204
0.026860
0.026246
0.039985
0.039935
0.040005
0.022278
0.071263
0.064396
0.050331
0.056450
0.084227
0.100574
Classification Time - C
0.020705
0.023704
0.030369
0.035466
0.033787
0.042885
0.040610
0.042788
0.054377
0.048941
0.073340
0.077563
0.078562
0.034794
0.098241
0.098451
0.098897
0.138840
0.108684
0.102503
