Full Time (seconds)
0.089369
Incremental Time - I
0.014676
0.001860
0.003353
0.004744
0.007634
0.010873
0.011843
0.016079
0.016539
0.018456
0.013025
0.023500
0.032787
0.044996
0.044620
0.038091
0.066100
0.047340
0.065847
0.065494
0.070824
Classification Time - C
0.020100
0.027860
0.028509
0.040182
0.043945
0.036124
0.042368
0.043431
0.044550
0.026136
0.063149
0.063111
0.064857
0.062500
0.077839
0.072709
0.081433
0.080756
0.090075
0.085738
