Full Time (seconds)
0.081137
Incremental Time - I
0.013486
0.001087
0.003146
0.004751
0.011269
0.009263
0.025752
0.016019
0.021456
0.024657
0.031027
0.029399
0.037538
0.059744
0.049410
0.041382
0.045357
0.064979
0.053646
0.071715
0.064910
Classification Time - C
0.014580
0.036208
0.033705
0.036141
0.051794
0.050288
0.046189
0.054502
0.071300
0.053351
0.075302
0.071232
0.074951
0.075024
0.066584
0.090833
0.079353
0.107721
0.105589
0.094234
