Full Time (seconds)
0.114361
Incremental Time - I
0.018431
0.002313
0.003470
0.005294
0.007345
0.010213
0.019267
0.022568
0.021195
0.019085
0.021276
0.047025
0.042743
0.037875
0.043811
0.041354
0.065438
0.059997
0.060710
0.077084
0.077331
Classification Time - C
0.021950
0.024427
0.032711
0.030855
0.044792
0.041490
0.044706
0.053510
0.073854
0.066338
0.073411
0.056402
0.060945
0.074914
0.072220
0.074476
0.082860
0.056232
0.109921
0.113456
