Full Time (seconds)
0.094788
Incremental Time - I
0.017209
0.002016
0.003312
0.005149
0.007361
0.009232
0.006980
0.008349
0.009629
0.023290
0.034013
0.035140
0.033070
0.071230
0.044473
0.054330
0.059906
0.035475
0.069174
0.063203
0.078515
Classification Time - C
0.026623
0.027008
0.033573
0.034445
0.050147
0.019383
0.022205
0.022821
0.136451
0.056593
0.083794
0.064469
0.065759
0.075298
0.084484
0.092678
0.079878
0.099986
0.097673
0.124385
