Full Time (seconds)
0.002979
Time - I
0.001114
0.000996
0.001147
0.001154
0.001182
0.001268
0.001318
0.001447
0.001538
0.001532
0.001587
0.001688
0.001750
0.001778
0.001858
0.001934
0.001991
0.002054
0.002125
0.002190
0.002249
0.002329
0.002395
0.002457
0.002528
0.002611
0.002690
0.002741
0.002788
0.002916
0.002945
