Full Time (seconds)
0.013682
Time - I
0.004012
0.004649
0.005158
0.005707
0.006282
0.009220
0.006986
0.008414
0.009791
0.011158
0.010860
0.013090
0.011854
0.011602
0.011096
0.015637
0.013462
0.016973
0.017175
0.013184
0.015355
