Full Time (seconds)
0.014656
Time - I
0.002043
0.002699
0.003367
0.005045
0.004727
0.005313
0.008399
0.006708
0.009610
0.007989
0.011099
0.009334
0.012185
0.011167
0.014756
0.015488
0.013016
0.013453
0.013283
0.013955
0.014801
