Full Time (seconds)
0.003591
Time - I
0.000484
0.000525
0.000568
0.000575
0.000604
0.000677
0.000660
0.000697
0.000732
0.000774
0.000839
0.000888
0.000969
0.001107
0.001176
0.001238
0.001477
0.001379
0.001485
0.001541
0.001620
0.001758
0.001928
0.002040
0.002152
0.002335
0.002437
0.002596
0.002722
0.002907
0.003074
