Full Accuracy
91.153847
Accuracy - I
50.000000
52.923077
52.769234
52.461540
52.461540
52.307693
52.307693
52.307693
52.307693
52.230770
52.230770
52.230770
53.153843
53.461540
54.000004
54.923077
55.384617
55.846153
55.923073
55.923073
56.076920
56.076920
56.153847
56.230770
56.230770
56.615387
56.923073
57.076923
57.153847
57.153847
57.307690
60.153847
61.076920
61.153847
61.153847
61.153847
61.153847
61.153847
61.153847
61.153847
61.153847
61.153847
62.461536
63.307697
63.692307
63.846153
63.846153
64.000000
64.307693
64.307693
64.307693
64.846153
66.384613
67.153847
67.538467
67.692307
67.846153
67.923073
67.923073
68.076927
68.153847
68.230766
69.692307
70.076927
70.846161
70.923080
71.000000
71.461540
71.461540
71.461540
71.461540
71.538460
72.923073
73.230766
73.307693
73.692307
73.615387
73.846153
74.230774
74.230774
74.461540
74.538460
74.769226
75.461540
75.538460
75.615387
75.692307
76.307693
76.384613
76.461533
76.615387
76.769234
77.153847
78.461540
78.923073
79.461540
79.461540
79.615387
79.692307
79.692307
79.538460
80.923073
81.461540
82.692307
82.923080
82.923080
82.923080
82.923080
82.923080
83.000000
83.076927
82.923080
83.461540
83.923080
84.461540
84.615387
84.846153
84.769234
85.000000
85.230766
85.307693
88.461533
88.461533
88.461533
88.461533
88.538460
88.461533
88.230774
88.230774
88.153847
88.153847
89.615387
90.307693
91.230766
91.307693
91.230766
91.153847
91.076920
91.153847
91.307693
91.153847
