Full Time (seconds)
0.106893
Time - I
0.004593
0.005315
0.006290
0.007213
0.008055
0.008974
0.009738
0.010536
0.011360
0.012215
0.012871
0.013584
0.014330
0.015103
0.016100
0.016636
0.017767
0.018604
0.018871
0.019629
0.020436
0.021116
0.022003
0.022696
0.024045
0.024120
0.026147
0.026386
0.026409
0.027128
0.028614
0.028830
0.030011
0.031293
0.032313
0.032081
0.034389
0.033521
0.035282
0.035695
0.036986
0.037665
0.038279
0.038063
0.040057
0.040605
0.040367
0.042331
0.041838
0.043223
0.044803
0.045007
0.044050
0.044263
0.046087
0.045537
0.045772
0.046492
0.047595
0.046691
0.047231
0.047920
0.049010
0.050373
0.050179
0.051013
0.051651
0.052528
0.053244
0.054006
0.054817
0.056018
0.056743
0.056957
0.057717
0.059356
0.059263
0.060265
0.060773
0.062324
0.062590
0.064071
0.064250
0.065713
0.065274
0.068052
0.066963
0.068016
0.068828
0.070559
0.070683
0.070534
0.072621
0.072454
0.074359
0.073493
0.074413
0.075004
0.075877
0.076627
0.078509
0.078370
0.079699
0.080572
0.080851
0.082298
0.082697
0.083187
0.084938
0.084440
0.085290
0.085734
0.086472
0.088682
0.088162
0.088936
0.089731
0.090732
0.090924
0.091666
0.094150
0.093267
0.093976
0.094952
0.095694
0.096218
0.097275
0.097797
0.099274
0.099851
0.100042
0.101601
0.101513
0.102491
0.106047
0.105719
0.104875
0.105345
0.106293
0.107132
0.107668
