Full Time (seconds)
0.002582
Time - I
0.000356
0.000433
0.000476
0.000506
0.000561
0.000624
0.000683
0.000801
0.000804
0.000866
0.000925
0.001005
0.001033
0.000999
0.001027
0.001063
0.001103
0.001153
0.001171
0.001202
0.001254
0.001376
0.001491
0.001707
0.001796
0.001925
0.002072
0.002172
0.002382
0.002431
0.002573
