Full Time (seconds)
0.008035
Incremental Time - I
0.001273
0.000391
0.000572
0.000803
0.001172
0.001489
0.001843
0.002275
0.002749
0.003181
0.003629
0.004200
0.004745
0.005376
0.005833
0.006367
0.006931
0.013797
0.008176
0.009083
0.009621
Classification Time - C
0.001481
0.001996
0.002519
0.003133
0.003488
0.003930
0.005847
0.004644
0.005001
0.005275
0.005554
0.005917
0.006297
0.006456
0.010072
0.007147
0.008071
0.007517
0.007853
0.008049
