Full Time (seconds)
0.007985
Incremental Time - I
0.001884
0.000379
0.000738
0.001145
0.001395
0.001825
0.002134
0.002843
0.002956
0.003439
0.003174
0.008550
0.003254
0.003610
0.004006
0.006241
0.008213
0.007507
0.009411
0.009025
0.009999
Classification Time - C
0.001492
0.002136
0.002518
0.003251
0.003333
0.003751
0.004053
0.004421
0.004722
0.005080
0.005421
0.003396
0.003540
0.003806
0.006536
0.007051
0.008779
0.007578
0.008389
0.008020
