Full Time (seconds)
0.014657
Incremental Time - I
0.003292
0.000724
0.001438
0.003319
0.002742
0.003517
0.004229
0.005098
0.005912
0.006893
0.007846
0.008974
0.009870
0.010762
0.011901
0.012492
0.014164
0.015622
0.016790
0.018120
0.019101
Classification Time - C
0.002439
0.003650
0.004405
0.005299
0.005844
0.006598
0.007162
0.007809
0.008603
0.008954
0.009731
0.010463
0.010651
0.011982
0.011685
0.012612
0.014348
0.013957
0.014367
0.014763
