Full Time (seconds)
0.456466
Time - I
0.166293
0.097632
0.116104
0.215267
0.146164
0.248761
0.258786
0.121587
0.127133
0.312746
0.153221
0.385151
0.394072
0.387857
0.377068
0.355890
0.345001
0.346128
0.333622
0.326381
0.309647
