Full Time (seconds)
0.167817
Time - I
0.002293
0.002676
0.003491
0.004265
0.005438
0.006504
0.007957
0.009036
0.010520
0.011528
0.012705
0.013824
0.015306
0.016401
0.017530
0.019164
0.020009
0.021067
0.022546
0.023604
0.024763
0.026181
0.027275
0.028313
0.029921
0.030872
0.031910
0.033341
0.034422
0.035498
0.036854
0.038048
0.039415
0.040572
0.044292
0.042727
0.044073
0.045844
0.046215
0.048228
0.048665
0.049964
0.051172
0.052184
0.053350
0.058283
0.059726
0.056883
0.062845
0.059371
0.060454
0.062308
0.063371
0.064006
0.069203
0.070103
0.073598
0.068985
0.070046
0.071210
0.072965
0.073675
0.075105
0.076162
0.077796
0.078280
0.080414
0.080796
0.081791
0.083331
0.084629
0.085840
0.086978
0.094356
0.096201
0.097811
0.098074
0.097938
0.094683
0.095142
0.101651
0.104559
0.105824
0.107241
0.108669
0.102146
0.111873
0.111488
0.112854
0.114101
0.115725
0.117638
0.118579
0.120045
0.113769
0.115173
0.115297
0.116751
0.117482
0.119319
0.119875
0.120985
0.122950
0.123505
0.124449
0.126607
0.127033
0.128117
0.129438
0.130787
0.131967
0.133168
0.134133
0.135552
0.136688
0.138502
0.138779
0.140133
0.141302
0.142230
0.144268
0.144741
0.155883
0.143822
0.148652
0.149305
0.150823
0.152342
0.152976
0.150140
0.143508
0.144531
0.145910
0.146850
0.158882
0.161389
0.164325
0.166526
0.159383
0.155165
0.155720
0.155496
0.156655
0.159529
0.158824
0.176197
0.174286
0.175717
0.179285
0.177775
0.179231
0.182473
0.183567
0.168988
0.172633
0.173060
0.174723
0.172923
0.176355
0.175351
0.178081
0.180408
0.180289
0.179582
0.182080
0.181731
0.200492
0.199059
0.201658
0.202080
0.205944
0.203939
0.207866
0.207844
0.193885
0.194956
0.195613
0.190313
0.181704
0.183323
0.183952
0.185305
0.185709
0.179757
0.219418
0.213903
0.221892
0.206310
0.205217
0.196792
0.194285
0.195804
0.196298
0.200498
0.198398
0.199067
0.187208
0.190794
0.176731
0.178391
0.178817
0.180051
0.180386
0.181270
0.171655
0.172293
0.173117
0.174108
0.176165
0.175473
0.166789
