Full Time (seconds)
0.200012
Time - I
0.002312
0.003438
0.004630
0.006215
0.007352
0.008457
0.009912
0.010717
0.010990
0.011710
0.012873
0.013987
0.015684
0.016605
0.017875
0.019080
0.020342
0.021233
0.022812
0.023791
0.024883
0.026354
0.027759
0.028657
0.029928
0.031792
0.032147
0.033546
0.034577
0.035952
0.037104
0.038232
0.039979
0.040701
0.042348
0.042860
0.044273
0.045334
0.046424
0.047806
0.048880
0.050398
0.051357
0.052474
0.054095
0.054880
0.057194
0.057003
0.059381
0.060020
0.060643
0.066224
0.063111
0.065221
0.067031
0.066699
0.067929
0.069436
0.070424
0.076518
0.072746
0.073794
0.076168
0.076321
0.078627
0.079715
0.080337
0.081801
0.081906
0.084529
0.085035
0.086636
0.087446
0.094183
0.090549
0.091098
0.092771
0.094435
0.094631
0.102636
0.096270
0.097653
0.098814
0.099919
0.101270
0.104115
0.103279
0.105211
0.107051
0.108994
0.108510
0.110624
0.111063
0.113888
0.112993
0.114847
0.115459
0.118807
0.117819
0.118968
0.120523
0.121181
0.122568
0.124243
0.124965
0.126121
0.127170
0.129796
0.129632
0.130733
0.132251
0.133202
0.134626
0.135443
0.136775
0.138320
0.140628
0.137917
0.130451
0.132086
0.144639
0.148310
0.147390
0.149076
0.148828
0.149411
0.152799
0.152326
0.153004
0.155010
0.155552
0.157992
0.161533
0.159740
0.160060
0.163604
0.162946
0.166732
0.165624
0.168263
0.167859
0.173675
0.169688
0.170889
0.160814
0.162888
0.161439
0.164106
0.164483
0.164478
0.167092
0.168497
0.169450
0.168738
0.170140
0.170738
0.170911
0.187580
0.167948
0.190198
0.193185
0.192035
0.186916
0.181877
0.182058
0.185062
0.199512
0.199652
0.201266
0.201572
0.187252
0.188513
0.175968
0.180230
0.178220
0.179877
0.179919
0.181198
0.170038
0.170636
0.171890
0.172602
0.173492
0.174588
0.175631
0.176292
0.178350
0.180480
0.168026
0.168955
0.170978
0.173069
0.172137
0.172452
0.173884
0.176514
0.176343
0.179401
0.169215
0.169394
0.168788
0.172320
0.170768
0.170533
0.244460
0.198114
0.245922
0.240060
0.231519
0.229514
0.228781
