Full Time (seconds)
0.230633
Time - I
0.002289
0.003461
0.004640
0.006198
0.006584
0.007354
0.008070
0.009155
0.010206
0.011638
0.012799
0.013986
0.015477
0.016517
0.017911
0.019046
0.020284
0.021442
0.022867
0.024014
0.024823
0.026290
0.027380
0.028453
0.029922
0.030967
0.032597
0.033481
0.034821
0.036194
0.037338
0.038605
0.039559
0.040893
0.042002
0.042776
0.044634
0.045252
0.046369
0.047712
0.048794
0.050528
0.051802
0.052853
0.053388
0.054876
0.055927
0.057587
0.058523
0.060407
0.061024
0.061958
0.063110
0.065233
0.066524
0.066613
0.067693
0.069216
0.070685
0.071321
0.073975
0.075013
0.075318
0.076301
0.077303
0.080093
0.080909
0.081880
0.082789
0.084817
0.085876
0.085726
0.086936
0.087885
0.089016
0.090507
0.091528
0.093139
0.094511
0.095126
0.096870
0.098056
0.098797
0.100476
0.101951
0.102294
0.103355
0.105200
0.105743
0.106933
0.108742
0.109490
0.110467
0.112344
0.112939
0.113983
0.115860
0.116430
0.117610
0.119124
0.120044
0.121510
0.122487
0.125059
0.125694
0.126068
0.129413
0.129264
0.130719
0.131181
0.132876
0.133355
0.134356
0.135462
0.133890
0.138365
0.129307
0.140353
0.141564
0.142940
0.143842
0.145689
0.145907
0.149253
0.149694
0.149539
0.147226
0.140320
0.141410
0.142568
0.143565
0.154939
0.158001
0.159519
0.160825
0.159919
0.150067
0.152215
0.152469
0.153515
0.155452
0.157111
0.161211
0.157701
0.159308
0.159867
0.165119
0.163819
0.164075
0.164151
0.165463
0.166618
0.167524
0.168717
0.170222
0.170712
0.171963
0.172935
0.184115
0.190082
0.191033
0.195011
0.178663
0.185007
0.195716
0.197436
0.197970
0.199626
0.200737
0.186463
0.191621
0.204116
0.205662
0.206174
0.191612
0.192862
0.179940
0.181272
0.169881
0.170647
0.171774
0.172609
0.173345
0.174604
0.175386
0.176241
0.177632
0.178294
0.179078
0.180438
0.169758
0.171160
0.171525
0.172852
0.176426
0.235081
0.233992
0.235527
0.236168
0.203881
0.205776
0.205262
0.206663
0.207100
0.194576
0.195250
0.183885
0.187040
0.250053
0.219329
0.253155
