Full Time (seconds)
0.214319
Time - I
0.002269
0.003888
0.004606
0.006164
0.007295
0.008408
0.009885
0.010912
0.012001
0.013434
0.014596
0.015709
0.017210
0.018451
0.019514
0.021290
0.021176
0.021870
0.022601
0.023662
0.025016
0.026593
0.027691
0.028529
0.029840
0.031159
0.032019
0.033521
0.034467
0.036083
0.036954
0.038029
0.039156
0.040585
0.041668
0.043471
0.044161
0.045222
0.046303
0.047710
0.049070
0.049906
0.054144
0.052287
0.053418
0.054799
0.056409
0.056890
0.058318
0.059850
0.060686
0.062050
0.063024
0.064663
0.066177
0.066956
0.068310
0.069068
0.070137
0.071632
0.072686
0.074121
0.075407
0.076174
0.077737
0.079201
0.079819
0.080998
0.082483
0.085070
0.084314
0.085990
0.086824
0.087912
0.089381
0.090401
0.091451
0.093097
0.093962
0.095138
0.096611
0.097559
0.098626
0.101632
0.103043
0.103018
0.105966
0.106132
0.105788
0.106837
0.109508
0.109462
0.111545
0.113923
0.112909
0.114404
0.115375
0.116431
0.119595
0.119666
0.120910
0.121109
0.122679
0.125051
0.126260
0.128516
0.129300
0.128675
0.130684
0.131818
0.134256
0.133248
0.135374
0.136541
0.138366
0.139276
0.138813
0.141420
0.141289
0.144125
0.143743
0.144791
0.147224
0.147909
0.145461
0.139979
0.140076
0.153354
0.144783
0.157093
0.155434
0.159444
0.158224
0.159396
0.160405
0.162755
0.164779
0.165474
0.166327
0.168167
0.167498
0.168910
0.169822
0.171463
0.173893
0.173610
0.174288
0.166545
0.163113
0.177822
0.179188
0.180274
0.181524
0.168783
0.169793
0.170676
0.175065
0.187352
0.191194
0.178020
0.176737
0.177264
0.193776
0.199382
0.196171
0.196870
0.197986
0.199102
0.200584
0.190462
0.203549
0.204486
0.205153
0.206407
0.207947
0.194360
0.201908
0.211267
0.212485
0.213438
0.198191
0.199108
0.185904
0.187707
0.188166
0.220729
0.223819
0.223007
0.224262
0.225300
0.226363
0.228086
0.229039
0.230376
0.230316
0.200783
0.200564
0.238772
0.236328
0.237339
0.238044
0.221028
0.217649
0.212525
0.241692
0.244372
0.226127
0.228793
0.229295
0.217036
0.215223
