Full Time (seconds)
0.106842
Time - I
0.004458
0.005381
0.006378
0.007336
0.008202
0.009083
0.009880
0.010686
0.011451
0.012230
0.013002
0.013309
0.013667
0.014145
0.014191
0.014527
0.015012
0.015881
0.015825
0.016538
0.016993
0.017932
0.018548
0.018988
0.020176
0.020742
0.021507
0.022506
0.023269
0.023820
0.024310
0.025150
0.025963
0.026748
0.027902
0.028397
0.029994
0.030532
0.031109
0.032182
0.032555
0.033003
0.033952
0.034790
0.035667
0.036054
0.037383
0.037610
0.038347
0.040058
0.041086
0.041804
0.041890
0.043449
0.044228
0.044040
0.044538
0.045469
0.046025
0.046990
0.047544
0.049621
0.048858
0.050203
0.050443
0.051663
0.055566
0.053309
0.053897
0.054192
0.055205
0.056445
0.056896
0.057545
0.058080
0.060497
0.059753
0.060281
0.060933
0.061776
0.062877
0.063271
0.065922
0.064843
0.067591
0.067429
0.066982
0.068354
0.070190
0.069978
0.070790
0.071380
0.073712
0.074053
0.074355
0.074170
0.074523
0.079294
0.075953
0.077102
0.077725
0.079405
0.081534
0.052153
0.080586
0.081438
0.082398
0.082895
0.083648
0.085240
0.085254
0.088752
0.089435
0.087681
0.077053
0.089567
0.090322
0.091419
0.094202
0.093099
0.093252
0.094157
0.095040
0.095716
0.096537
0.099733
0.097204
0.098434
0.099482
0.100215
0.102610
0.101485
0.103007
0.102970
0.104226
0.104897
0.105714
0.106592
0.109786
0.110870
0.112410
