Full Accuracy
87.332100
Accuracy - I
50.000000
50.000000
50.000000
50.000000
50.000000
50.000000
50.000000
50.000000
50.000000
50.000000
50.000000
79.833626
83.630013
86.046867
87.517380
87.845573
87.997284
87.950333
87.864738
87.928162
88.046768
