Full Accuracy
96.6154
Accuracy - I
cat: testS_0.svm.acc: No such file or directory
73.6154
79.7692
84.3077
86.6923
89.0769
90.8462
91.9231
92.2308
92.7692
93.3077
93.6154
94.6923
95
95.4615
95.8462
95.5385
96.0769
95.8462
96.3846
96.7692
