Full Accuracy
96.6154
Accuracy - I
cat: testS_0.svm.acc: No such file or directory
72.6154
79.1538
84.3846
87.4615
90.1538
90.6923
91.3846
91.9231
92.0769
92.7692
93.4615
94.6923
94.8462
95.3077
95.8462
95.3846
95.9231
95.6923
96.3846
96.7692
