Full Time (seconds)
0.133354
Incremental Time - I
cat: testS_0.svm.time: No such file or directory
0.003560
0.009655
0.009025
0.013085
0.017642
0.021711
0.025607
0.030526
0.034937
0.040283
0.044201
0.051111
0.060781
0.069260
0.075452
0.081282
0.087779
0.097278
0.108010
0.107579
Classification Time - C
0.032949
0.037314
0.014239
0.049650
0.054693
0.059368
0.064652
0.068875
0.073319
0.077509
0.084607
0.089921
0.095553
0.101914
0.108987
0.112069
0.119615
0.127471
0.129429
0.131405
