Full Time (seconds)
0.110806
Incremental Time - I
cat: testS_0.svm.time: No such file or directory
0.003758
0.005881
0.008971
0.013070
0.017454
0.021768
0.025142
0.029085
0.034173
0.039152
0.046054
0.053308
0.058975
0.068047
0.075794
0.082948
0.089963
0.096261
0.101923
0.107737
Classification Time - C
0.032563
0.037914
0.042898
0.049233
0.054128
0.060366
0.063593
0.070006
0.073253
0.078950
0.084919
0.090545
0.097050
0.104363
0.109524
0.115108
0.118283
0.115126
0.119815
0.114421
