Full Time (seconds)
0.133945
Incremental Time - I
cat: testS_0.svm.time: No such file or directory
0.003283
0.005828
0.008709
0.012616
0.017228
0.020988
0.025053
0.030517
0.034200
0.038622
0.044039
0.053334
0.058678
0.070032
0.074706
0.093217
0.091701
0.098557
0.107917
0.115166
Classification Time - C
0.033584
0.038664
0.042853
0.049399
0.054042
0.059187
0.065221
0.070101
0.074637
0.077916
0.089826
0.092154
0.105561
0.104312
0.108186
0.114154
0.119110
0.126306
0.127940
0.131249
