Full Time (seconds)
0.126506
Incremental Time - I
cat: testS_0.svm.time: No such file or directory
0.004308
0.007178
0.010349
0.014634
0.019223
0.023210
0.026982
0.031758
0.035799
0.041664
0.046341
0.053618
0.058875
0.067846
0.076358
0.084494
0.090945
0.096226
0.109776
0.119210
Classification Time - C
0.033335
0.038551
0.043359
0.048993
0.054233
0.059296
0.064528
0.067502
0.074400
0.078090
0.083289
0.089984
0.094625
0.102970
0.107272
0.113618
0.120391
0.123697
0.128177
0.134876
