Full Time (seconds)
0.123847
Incremental Time - I
cat: testS_0.svm.time: No such file or directory
0.004425
0.007176
0.010218
0.014156
0.017786
0.022446
0.026790
0.031786
0.034573
0.039414
0.044922
0.054978
0.059391
0.065930
0.074937
0.081872
0.082694
0.095536
0.109215
0.111670
Classification Time - C
0.033248
0.038308
0.044493
0.050393
0.053632
0.058783
0.066011
0.069303
0.072958
0.078415
0.083751
0.088747
0.094798
0.102324
0.107350
0.112473
0.109910
0.123429
0.129303
0.123378
