Full Time (seconds)
0.184761
Incremental Time - I
0.000150
0.000035
0.000044
0.000042
0.000055
0.000069
0.000090
0.000075
0.000083
0.000110
0.000093
0.000106
0.000136
0.000111
0.000126
0.000169
0.000135
0.000143
0.000176
0.000151
0.000165
0.000211
0.000172
0.000184
0.000244
0.000204
0.000206
0.000262
0.000224
0.000215
0.000378
0.000227
0.000233
0.000312
0.000252
0.000256
0.000347
0.000271
0.000273
0.002260
0.001145
0.001008
0.001188
0.001106
0.001082
0.001150
0.001100
0.001085
0.001151
0.001042
0.001087
0.001206
0.001195
0.001128
0.001229
0.001143
0.001127
0.001239
0.001150
0.001291
0.001255
0.001333
0.001196
0.001334
0.001281
0.001269
0.001404
0.001245
0.001336
0.001450
0.001320
0.001378
0.001496
0.001389
0.001392
0.001520
0.001386
0.001357
0.001525
0.001449
0.001387
0.001521
0.001405
0.001441
0.001578
0.001413
0.001415
0.001715
0.001595
0.001526
0.001636
0.001452
0.001418
0.001609
0.001463
0.001496
0.001694
0.001554
0.001523
0.001771
0.001640
0.001600
0.001819
0.001561
0.001528
0.001760
0.001612
0.001593
0.001802
0.001662
0.001647
0.001824
0.001664
0.001683
0.001993
0.001719
0.001752
0.001975
0.001787
0.001764
0.001893
0.001712
0.001757
0.001949
0.001750
0.001735
0.002000
0.001794
0.001761
0.002039
0.001768
0.001908
0.002082
0.001852
0.001839
0.002077
0.001791
0.001816
0.002072
0.001856
0.001846
0.002149
0.001877
0.001881
0.002164
0.001913
0.001962
0.002256
0.001868
0.001852
0.002159
0.001852
0.001758
0.001971
0.001744
0.001816
0.002030
0.002007
0.002078
0.002418
0.002037
0.001948
0.002426
0.002143
0.002165
0.002264
0.002003
0.001951
0.002182
0.001846
0.001815
0.002049
0.002223
0.002343
0.002629
0.002160
0.002039
0.002277
0.001906
0.001897
0.002173
0.001929
0.001858
0.002263
0.001897
0.001811
0.002045
0.001820
0.001795
0.002027
0.001863
0.001754
0.002060
0.001805
0.001849
0.002579
0.002309
0.002045
0.002285
0.002053
0.002071
0.002451
0.002157
0.002062
0.002264
0.001940
0.002128
0.002475
0.002044
0.002107
0.002389
Classification Time - I
0.002452
0.003234
0.004027
0.005223
0.006381
0.007946
0.009164
0.010352
0.011970
0.013268
0.014488
0.015931
0.017562
0.018329
0.019862
0.021025
0.022625
0.023858
0.025347
0.026140
0.027753
0.028916
0.030118
0.031681
0.033342
0.034033
0.035591
0.036832
0.038066
0.039230
0.040265
0.041402
0.043694
0.044218
0.045375
0.047026
0.048040
0.049230
0.054077
0.051973
0.053325
0.054753
0.055998
0.056906
0.058891
0.059637
0.060988
0.062727
0.064073
0.064836
0.066424
0.067577
0.068761
0.071155
0.071720
0.073266
0.074137
0.075380
0.077553
0.079416
0.079337
0.080532
0.082402
0.083634
0.084482
0.087524
0.087642
0.088451
0.089745
0.091757
0.092240
0.093659
0.095077
0.096164
0.097467
0.100758
0.101993
0.102065
0.102858
0.105791
0.105856
0.106992
0.109774
0.109424
0.112685
0.113644
0.112872
0.114252
0.116110
0.117122
0.120140
0.119111
0.120512
0.123624
0.123851
0.127138
0.128090
0.129300
0.128811
0.129776
0.131392
0.132537
0.136067
0.134621
0.139057
0.138248
0.138670
0.142163
0.143867
0.141973
0.143697
0.146314
0.148215
0.148355
0.149525
0.151998
0.151711
0.152848
0.156331
0.156753
0.159637
0.159505
0.161705
0.162250
0.163222
0.163285
0.164652
0.166055
0.162729
0.155260
0.169376
0.170756
0.171876
0.173067
0.163691
0.171011
0.177103
0.178699
0.179361
0.182193
0.182372
0.184082
0.186249
0.186027
0.187957
0.188510
0.177220
0.179627
0.177155
0.181912
0.167069
0.168103
0.172373
0.170235
0.172075
0.187913
0.202502
0.204166
0.205383
0.192816
0.199542
0.208825
0.210507
0.214358
0.184579
0.183849
0.185804
0.182051
0.175213
0.177269
0.176921
0.221338
0.222937
0.223829
0.207656
0.207766
0.195158
0.196410
0.196987
0.189542
0.186098
0.200298
0.202222
0.177511
0.178756
0.179501
0.180972
0.182603
0.183220
0.184315
0.185035
0.185750
0.187384
0.215607
0.251015
0.233216
0.226906
0.218575
0.220020
0.229614
0.238916
0.222924
0.220142
0.210251
0.243899
0.238339
0.228560
0.230130
0.225752
0.203055
