Full Time (seconds)
0.148424
Incremental Time - I
0.000179
0.000046
0.000055
0.000070
0.000065
0.000078
0.000105
0.000085
0.000094
0.000122
0.000102
0.000113
0.000192
0.000147
0.000139
0.000181
0.000072
0.000107
0.000107
0.000150
0.000163
0.000210
0.000185
0.000186
0.000238
0.000203
0.000206
0.000260
0.000222
0.000228
0.000291
0.000230
0.000235
0.000308
0.000258
0.000248
0.000327
0.000270
0.000274
0.002236
0.001227
0.001070
0.001114
0.001146
0.001197
0.001289
0.001197
0.001069
0.001165
0.001106
0.001104
0.001251
0.001693
0.001084
0.001245
0.001213
0.001110
0.001244
0.001163
0.001189
0.001339
0.001230
0.001288
0.001487
0.001279
0.001333
0.001469
0.001298
0.001312
0.001471
0.001358
0.001360
0.001477
0.001387
0.001302
0.001516
0.001320
0.001373
0.001510
0.001395
0.001329
0.001594
0.001460
0.001405
0.001556
0.001450
0.001460
0.001650
0.001497
0.001342
0.001550
0.001459
0.001635
0.001576
0.001470
0.001493
0.001755
0.001599
0.001576
0.001681
0.001442
0.001439
0.001595
0.001482
0.001476
0.001705
0.001532
0.001544
0.001791
0.001551
0.001557
0.001763
0.001514
0.001534
0.001791
0.001685
0.001612
0.001792
0.001684
0.001702
0.001963
0.001916
0.001769
0.001894
0.001902
0.001843
0.002189
0.001873
0.001886
0.002065
0.001963
0.001893
0.002177
0.001832
0.001781
0.002043
0.001697
0.001679
0.001958
0.001788
0.001750
0.001956
0.001679
0.001637
0.001954
0.001678
0.001696
0.001935
0.001587
0.001590
0.001897
0.001588
0.001555
0.001873
0.001621
0.001547
0.001863
0.001519
0.001521
0.001894
0.001540
0.001479
0.001664
0.001568
0.001651
0.001919
0.001634
0.001648
0.001946
0.001831
0.001799
0.001918
0.001744
0.001693
0.001982
0.001791
0.001831
0.001977
0.001784
0.001704
0.002086
0.001835
0.001915
0.002142
0.001712
0.001709
0.001820
0.001609
0.001690
0.001838
0.001560
0.001598
0.001815
0.001498
0.001489
0.001742
0.001595
0.001529
0.001763
0.001527
0.001572
0.002068
0.001828
0.001886
0.002176
0.001846
0.001828
0.002054
0.002028
0.001764
0.002195
Classification Time - I
0.003237
0.004438
0.006044
0.007223
0.008395
0.009938
0.011145
0.012339
0.014108
0.015148
0.016564
0.017901
0.019099
0.020557
0.021806
0.022627
0.023015
0.023784
0.025063
0.026101
0.028190
0.029327
0.030486
0.031599
0.032790
0.034552
0.036108
0.037334
0.037970
0.039466
0.040748
0.041321
0.042914
0.044074
0.045237
0.046711
0.048754
0.049955
0.051432
0.051810
0.052988
0.055464
0.055953
0.060315
0.062035
0.060548
0.061724
0.062680
0.064573
0.064787
0.066184
0.071441
0.073357
0.070135
0.071736
0.073089
0.073993
0.076895
0.076357
0.077804
0.080834
0.081771
0.081810
0.082977
0.085793
0.085989
0.087069
0.089541
0.090141
0.092620
0.093119
0.094300
0.094482
0.097579
0.098408
0.098891
0.099760
0.102032
0.102670
0.105439
0.104922
0.106391
0.107559
0.108802
0.109987
0.111550
0.112841
0.113629
0.115299
0.116277
0.117984
0.118752
0.120118
0.121589
0.122549
0.123973
0.125372
0.126334
0.125902
0.119308
0.120499
0.131118
0.135546
0.136743
0.138859
0.139808
0.138127
0.139295
0.141648
0.144377
0.140942
0.135689
0.134266
0.135887
0.137663
0.138495
0.139555
0.153647
0.153291
0.155384
0.155767
0.157219
0.158591
0.162303
0.161170
0.162205
0.163170
0.167496
0.166505
0.170646
0.169056
0.170220
0.171250
0.172312
0.161551
0.161828
0.163024
0.164075
0.165953
0.166175
0.160062
0.156492
0.158000
0.162009
0.160469
0.160956
0.163646
0.152468
0.153172
0.154318
0.155286
0.156127
0.157245
0.158880
0.159519
0.155087
0.151482
0.152735
0.154210
0.154134
0.145942
0.147163
0.157072
0.158249
0.159426
0.160005
0.161305
0.162095
0.163254
0.163752
0.165212
0.165876
0.168928
0.167679
0.168788
0.169240
0.167361
0.161084
0.162079
0.162962
0.164204
0.164985
0.165182
0.157349
0.158254
0.159038
0.160098
0.160704
0.161834
0.162855
0.163661
0.157855
0.156862
0.157715
0.158265
0.159349
0.159665
0.159565
0.153676
0.154268
0.155082
0.156031
0.164696
0.165532
0.166471
0.167478
0.168193
0.168949
0.169519
0.170721
