Full Time (seconds)
0.166566
Incremental Time - I
0.000179
0.000046
0.000062
0.000080
0.000066
0.000079
0.000104
0.000085
0.000095
0.000122
0.000057
0.000074
0.000101
0.000113
0.000125
0.000167
0.000135
0.000140
0.000168
0.000150
0.000204
0.000204
0.000169
0.000179
0.000231
0.000207
0.000202
0.000257
0.000222
0.000219
0.000297
0.000229
0.000232
0.000303
0.000252
0.000247
0.000332
0.000270
0.000289
0.002220
0.001332
0.001180
0.001291
0.001139
0.001225
0.001189
0.001085
0.001146
0.001210
0.001154
0.001108
0.001231
0.001255
0.001165
0.001286
0.001194
0.001185
0.001262
0.001351
0.001286
0.001430
0.001223
0.001302
0.001360
0.001274
0.001291
0.001434
0.001349
0.001229
0.001465
0.001369
0.001302
0.002015
0.001268
0.001306
0.001420
0.001295
0.001322
0.001449
0.001383
0.001322
0.001479
0.001370
0.001428
0.001516
0.001445
0.001307
0.001535
0.001421
0.001838
0.001574
0.001497
0.001477
0.001593
0.001478
0.001479
0.001917
0.001529
0.001411
0.001655
0.001511
0.001464
0.001686
0.001520
0.001497
0.001766
0.001598
0.001534
0.001714
0.001479
0.001385
0.001624
0.001560
0.001545
0.001933
0.001667
0.001683
0.002141
0.001737
0.001679
0.001894
0.001765
0.001796
0.001989
0.001833
0.001835
0.002051
0.001820
0.001799
0.002036
0.001824
0.001875
0.002092
0.001956
0.002005
0.002137
0.001948
0.001834
0.002184
0.001956
0.001955
0.002167
0.001976
0.001985
0.002166
0.001838
0.001780
0.001975
0.001800
0.001873
0.002060
0.001721
0.001883
0.002099
0.001829
0.001714
0.002032
0.001832
0.001805
0.002003
0.001917
0.001670
0.002054
0.001675
0.001720
0.001975
0.001770
0.001771
0.002039
0.001802
0.001788
0.002016
0.001751
0.002348
0.002148
0.001774
0.001768
0.002025
0.001856
0.001657
0.001957
0.001912
0.001797
0.002076
0.001734
0.001819
0.002035
0.001770
0.001763
0.002020
0.001885
0.001824
0.002505
0.001754
0.001747
0.001953
0.001741
0.001749
0.001968
0.001708
0.001804
0.002057
0.001714
0.001651
0.002068
0.001911
0.001931
0.002369
0.002016
0.001938
0.002202
Classification Time - I
0.003233
0.004413
0.005958
0.007154
0.008305
0.009886
0.011076
0.012287
0.013935
0.014835
0.015775
0.015894
0.017090
0.018246
0.019797
0.020944
0.022143
0.023714
0.026513
0.025939
0.027556
0.028691
0.029929
0.031461
0.032934
0.033866
0.035435
0.037213
0.037814
0.039036
0.040146
0.041337
0.042926
0.044104
0.045333
0.047575
0.047964
0.049693
0.051137
0.052651
0.053040
0.054815
0.056297
0.057849
0.059353
0.060541
0.060778
0.063479
0.064798
0.065056
0.066681
0.068460
0.068811
0.070769
0.071963
0.073463
0.074196
0.075379
0.076481
0.078133
0.079956
0.080853
0.082060
0.083154
0.084910
0.086029
0.088311
0.088458
0.089732
0.091018
0.091924
0.093544
0.094783
0.095950
0.097398
0.098861
0.099941
0.101540
0.104505
0.104211
0.105533
0.106619
0.108146
0.111453
0.110350
0.111707
0.112868
0.113989
0.117498
0.116676
0.119209
0.121236
0.122002
0.121615
0.122827
0.124684
0.125520
0.126978
0.128755
0.129624
0.131071
0.132352
0.133280
0.135134
0.138919
0.138456
0.138672
0.139320
0.132864
0.131016
0.143669
0.144880
0.146500
0.150161
0.159659
0.150110
0.152346
0.152626
0.154386
0.158222
0.157979
0.157518
0.159289
0.162645
0.161139
0.165639
0.163851
0.164941
0.169545
0.168018
0.169105
0.170669
0.173951
0.176400
0.176474
0.164837
0.163099
0.178233
0.179690
0.180440
0.175901
0.169111
0.170577
0.171666
0.173302
0.177193
0.175504
0.176257
0.177514
0.181624
0.179443
0.180800
0.168919
0.170195
0.171141
0.172437
0.173580
0.174767
0.175886
0.178648
0.165979
0.167081
0.168231
0.169062
0.170241
0.172967
0.171865
0.173208
0.174236
0.175583
0.176384
0.177722
0.178141
0.177140
0.168929
0.170595
0.171009
0.171980
0.172401
0.173914
0.178145
0.175752
0.176737
0.177803
0.178460
0.179911
0.180610
0.184767
0.182644
0.172853
0.173583
0.174389
0.175759
0.176415
0.178030
0.178167
0.179242
0.180087
0.181163
0.181742
0.183151
0.183700
0.184683
0.185581
0.186814
0.187182
0.177808
0.178999
0.179381
0.180791
