Full Accuracy
96.615387
Accuracy - I
cat: testS_0.svm.acc: No such file or directory
53.615387
53.615387
53.769230
53.692307
53.692307
53.769230
53.769230
53.769230
53.846157
53.846157
56.538464
57.230770
57.615383
57.615383
57.615387
57.615387
57.615383
57.615387
57.615383
57.538460
59.692307
60.076923
60.923080
61.230766
61.230766
61.230766
61.230766
61.230766
61.230766
61.230766
64.692307
64.923080
65.000000
64.846153
64.846153
65.000000
64.846153
64.846153
64.846153
64.846153
67.384613
67.923073
68.153847
68.153847
68.307693
68.307693
68.307693
68.230774
68.230774
68.230774
70.769234
71.692307
71.846161
72.000000
72.000000
72.000000
72.000000
72.000000
72.000000
72.000000
74.384613
75.230774
75.538460
75.461540
75.615379
75.461540
75.538460
75.538460
75.615387
75.538460
77.615387
77.538460
78.384613
78.384613
78.461540
79.307693
79.307693
79.307693
79.307693
79.307693
80.461540
81.076927
81.846153
82.000000
82.000000
82.307693
82.615387
82.615387
82.692307
82.692307
82.692307
82.769234
82.769234
82.769234
82.769234
82.769234
82.769234
82.769234
82.846153
82.846153
85.538467
85.846153
86.076920
86.384621
86.615387
86.615387
86.615387
86.615387
86.615387
86.615387
87.230774
88.692307
88.846153
89.153847
89.230766
89.153847
89.230766
89.307693
89.461540
89.769234
92.538467
92.769226
93.076920
93.153847
93.076920
93.153847
93.153847
93.153847
93.153847
93.153847
95.923080
96.384613
96.461540
96.461540
96.615387
96.692307
96.615387
96.615387
96.615387
96.615387
