Full Accuracy
96.615387
Accuracy - I
cat: testS_0.svm.acc: No such file or directory
53.615387
53.538460
53.461540
53.461540
53.461540
53.461540
53.461540
53.461540
53.538460
53.538460
55.461536
55.923073
57.076923
57.076923
57.076923
57.076923
57.076923
57.076923
57.076923
57.076923
58.615387
59.153851
60.076923
60.461540
60.538464
60.538464
60.538464
60.538464
60.615383
60.615383
62.769230
63.923080
63.846153
64.076927
64.076927
64.000000
64.000000
64.000000
64.000000
64.000000
66.307693
66.923073
67.230766
67.153847
67.307693
67.307693
67.307693
67.153847
67.153847
67.153847
69.615379
70.615387
70.769234
70.923080
70.923080
70.923080
70.923080
70.923080
70.923080
70.923080
73.307693
74.153847
74.461540
74.384613
74.461540
74.307693
74.461540
74.461540
74.615387
74.538460
76.384613
76.615387
77.461540
77.461540
77.538460
78.230766
78.307693
78.384613
78.384613
78.384613
78.461540
78.538460
78.692307
79.000000
79.153847
79.153847
79.307693
79.307693
79.307693
79.307693
81.538460
82.076927
82.307693
82.307693
82.384613
82.615387
82.692307
82.692307
82.923080
82.923080
85.615387
85.923073
86.153847
86.461540
86.692307
86.692307
86.692307
86.692307
86.692307
86.692307
87.307693
88.769234
88.923080
89.230766
89.307693
89.230766
89.307693
89.384613
89.538460
89.846153
92.615387
92.846153
93.153847
93.230774
93.076920
93.230774
93.230774
93.230774
93.230774
93.230774
96.000000
96.461540
96.538460
96.538460
96.692307
96.769234
96.692307
96.692307
96.692307
96.692307
