Full Accuracy
96.615387
Accuracy - I
cat: testS_0.svm.acc: No such file or directory
53.538460
53.538460
53.538460
53.538460
53.538460
53.538460
53.538460
53.538460
53.538460
53.538460
56.692307
57.076923
57.307690
57.307690
57.307690
57.307690
57.307690
57.307690
57.307690
57.307690
59.461540
59.923077
60.769230
61.076920
61.076920
61.076920
61.076920
61.076920
61.076920
61.076920
64.384613
64.846153
64.923080
64.923080
64.923080
64.923080
64.923080
64.923080
64.923080
64.923080
67.307693
67.923073
68.230766
68.230766
68.384621
68.384613
68.384613
68.384613
68.307693
68.307693
70.846161
71.769234
71.923080
72.076920
72.076920
72.076920
72.076920
72.076920
72.076920
72.076920
74.461540
75.307693
75.615387
75.538460
75.692307
75.538460
75.615379
75.615379
75.692307
75.615379
77.769234
77.692307
78.538460
78.538460
78.615387
79.384621
79.384621
79.384621
79.384621
79.384621
80.538467
81.153847
81.923073
82.076927
82.076927
82.384613
82.692307
82.692307
82.769234
82.769234
84.307686
85.000000
85.384613
85.538467
85.615387
85.692307
85.846153
86.000000
86.230766
86.230766
88.923080
89.230766
89.461533
89.769234
90.000000
90.000000
90.000000
90.000000
90.000000
90.000000
90.615387
92.076920
92.230766
92.538467
92.615387
92.538467
92.615387
92.692307
92.846153
93.153847
93.153847
93.153847
93.153847
93.153847
93.153847
93.153847
93.153847
93.153847
93.153847
93.153847
95.923080
96.384613
96.461540
96.461540
96.615387
96.692307
96.615387
96.615387
96.615387
96.615387
