Full Time (seconds)
0.097013
Incremental Time - I
0.000161
0.000155
0.000167
0.000229
0.000266
0.000272
0.000297
0.000354
0.000381
0.000434
0.000687
0.000820
0.000872
0.001025
0.001166
0.001246
0.001355
0.001412
0.001721
0.001776
0.001700
0.002554
0.002804
0.002913
0.003114
0.003251
0.003466
0.005527
0.002350
0.004275
0.007850
0.006092
0.010794
0.015228
0.009442
0.012427
0.006005
0.005914
0.006057
0.007221
0.008426
0.007483
0.007572
0.008097
0.009621
0.010544
0.011302
0.015935
0.008910
0.009026
0.009229
0.011263
0.011478
0.012144
0.018441
0.015205
0.020230
0.014796
0.025095
0.023653
0.017842
0.009303
0.024397
0.016825
0.019418
0.017388
0.016072
0.040194
0.019080
0.021597
0.016546
0.020352
0.011542
0.028251
0.020259
0.028882
0.024534
0.051855
0.022601
0.032906
0.039380
0.038985
0.041135
0.040291
0.038047
0.034184
0.027409
0.028567
0.037172
0.036031
0.045634
0.041100
0.041560
0.040737
0.040226
0.036351
0.043255
0.021932
0.039484
0.054775
0.062916
0.072671
0.037891
0.054187
0.039615
0.045997
0.060086
0.053130
0.040503
0.048657
0.055500
0.051919
0.072002
0.066845
0.062770
0.068772
0.058333
0.046791
0.079510
0.059287
0.052194
0.068071
0.065400
0.064410
0.062033
0.054320
0.073579
0.055147
0.055331
0.092606
0.067729
0.096525
0.092363
0.070409
0.074046
0.072229
0.071363
0.065740
0.066092
0.063272
0.099685
Classification Time - C
0.014521
0.014077
0.014501
0.017358
0.026235
0.015127
0.022971
0.019484
0.023460
0.023372
0.031330
0.022901
0.018459
0.026613
0.022407
0.016061
0.010053
0.022106
0.043543
0.022808
0.032425
0.031423
0.024701
0.025592
0.034174
0.034560
0.032890
0.013545
0.013719
0.037351
0.043006
0.031168
0.038069
0.037190
0.043678
0.031473
0.052018
0.032796
0.045646
0.029617
0.038542
0.041006
0.039115
0.040084
0.064376
0.034216
0.053295
0.036418
0.050963
0.041366
0.034483
0.043782
0.079222
0.057976
0.046741
0.036675
0.063028
0.052400
0.064771
0.052017
0.051877
0.039528
0.058364
0.061286
0.051473
0.054006
0.046347
0.051019
0.047450
0.046353
0.072166
0.023829
0.025483
0.080290
0.065574
0.045073
0.053882
0.061037
0.075136
0.069544
0.067593
0.110886
0.074502
0.075434
0.050978
0.073188
0.052055
0.053635
0.071725
0.052526
0.071307
0.067324
0.080881
0.064273
0.087280
0.081944
0.062943
0.034744
0.097428
0.084524
0.082022
0.078843
0.063525
0.089176
0.110623
0.090069
0.094938
0.097221
0.095934
0.088065
0.085327
0.086767
0.093948
0.067426
0.081507
0.093464
0.103420
0.038161
0.111470
0.102028
0.095132
0.084692
0.103795
0.082168
0.100228
0.105823
0.093685
0.077393
0.088010
0.102458
0.084506
0.109373
0.096987
0.091273
0.080514
0.114875
0.093362
0.082387
0.087528
0.044624
0.105635
