Full Time (seconds)
0.088820
Incremental Time - I
0.000169
0.000217
0.000148
0.000170
0.000251
0.000302
0.000330
0.000411
0.000416
0.000472
0.000500
0.000898
0.001131
0.001151
0.001270
0.001442
0.001016
0.001072
0.001790
0.002224
0.002087
0.003629
0.003181
0.004688
0.003736
0.003955
0.005818
0.004361
0.004669
0.006571
0.005351
0.006080
0.007114
0.007002
0.006479
0.009157
0.006830
0.006750
0.006852
0.008042
0.010784
0.008583
0.005020
0.009612
0.016543
0.016228
0.016624
0.040516
0.043024
0.034579
0.018237
0.015614
0.016554
0.022363
0.023167
0.017456
0.014573
0.015066
0.009362
0.017659
0.031212
0.025506
0.023802
0.031358
0.029220
0.040143
0.023598
0.028307
0.023605
0.020837
0.028272
0.027556
0.027004
0.027898
0.028974
0.028740
0.035929
0.032511
0.026874
0.048684
0.038194
0.030714
0.039658
0.037033
0.050579
0.019178
0.034168
0.037681
0.041154
0.054296
0.041759
0.049234
0.038217
0.043331
0.046591
0.050061
0.050620
0.048019
0.040273
0.041148
0.041137
0.075997
0.049881
0.046970
0.076842
0.051887
0.060335
0.046434
0.047984
0.028538
0.053373
0.069296
0.062586
0.076775
0.058057
0.067702
0.061341
0.057489
0.059211
0.056157
0.061893
0.070394
0.053028
0.033675
0.062157
0.058131
0.064718
0.058476
0.065525
0.034531
0.074100
0.058823
0.059385
0.069286
0.064166
0.068798
0.062666
0.072778
0.073663
0.071806
0.076025
Classification Time - C
0.014817
0.017628
0.007872
0.017716
0.022502
0.029002
0.024078
0.017686
0.016557
0.022737
0.026573
0.030810
0.024418
0.026849
0.020049
0.032931
0.010697
0.012111
0.026337
0.026201
0.022748
0.045837
0.029773
0.032408
0.029034
0.028271
0.036431
0.039001
0.046881
0.029149
0.033928
0.037563
0.039398
0.036756
0.045510
0.030404
0.039856
0.044195
0.033968
0.041630
0.038242
0.017608
0.017251
0.031308
0.053115
0.055871
0.054192
0.115491
0.095106
0.064369
0.057353
0.053272
0.043281
0.053766
0.058414
0.065891
0.046316
0.050001
0.048075
0.044658
0.058179
0.057745
0.058647
0.065892
0.058695
0.051881
0.052667
0.066269
0.051381
0.046813
0.061675
0.081781
0.055322
0.061976
0.062530
0.051761
0.055238
0.027181
0.066251
0.074518
0.069485
0.065777
0.053972
0.061827
0.057406
0.031209
0.077830
0.082972
0.058416
0.091791
0.091771
0.062018
0.097437
0.068808
0.079802
0.087359
0.089203
0.087725
0.078959
0.062268
0.103311
0.078125
0.082043
0.086878
0.083497
0.084041
0.067406
0.080835
0.080226
0.038367
0.078786
0.082815
0.101173
0.080878
0.077965
0.074695
0.094801
0.114847
0.083913
0.090734
0.075754
0.079505
0.079977
0.106587
0.106971
0.076530
0.076835
0.066573
0.105024
0.048234
0.082079
0.079705
0.100532
0.086098
0.090349
0.083230
0.079638
0.091604
0.083455
0.096349
0.103904
