Full Time (seconds)
0.084440
Incremental Time - I
0.000149
0.000144
0.000184
0.000215
0.000251
0.000277
0.000321
0.000321
0.000305
0.000367
0.000378
0.000678
0.000776
0.000918
0.000941
0.000668
0.000710
0.000810
0.002298
0.002376
0.002610
0.009289
0.013905
0.010290
0.005399
0.005112
0.003786
0.004044
0.004444
0.004183
0.004396
0.004792
0.004461
0.005012
0.004796
0.002677
0.004333
0.006626
0.004931
0.004453
0.004619
0.006015
0.008131
0.008844
0.006593
0.008157
0.006791
0.006998
0.007442
0.009912
0.009911
0.009400
0.011568
0.012020
0.014966
0.014417
0.013938
0.018978
0.012138
0.014137
0.013696
0.014384
0.022749
0.018344
0.012172
0.016278
0.025790
0.017548
0.019236
0.027227
0.027609
0.022727
0.026391
0.023972
0.027810
0.024419
0.020897
0.021366
0.023546
0.041517
0.042968
0.031245
0.032050
0.033925
0.031034
0.040827
0.033286
0.036383
0.028613
0.039567
0.029285
0.031637
0.032600
0.035265
0.040142
0.022071
0.035358
0.052425
0.036228
0.038063
0.044995
0.047173
0.038532
0.049841
0.041380
0.039531
0.040792
0.040521
0.041653
0.048915
0.067448
0.052590
0.055824
0.034911
0.058337
0.055958
0.059742
0.055167
0.060279
0.029399
0.063741
0.058966
0.072843
0.066419
0.061244
0.070551
0.077346
0.058465
0.064379
0.064052
0.062180
0.060302
0.059811
0.047352
0.075333
0.086317
0.061940
0.073262
0.081882
0.075817
0.079723
Classification Time - C
0.014669
0.014041
0.015937
0.016747
0.014534
0.016195
0.018560
0.016158
0.014668
0.016027
0.017578
0.019070
0.017636
0.024371
0.009708
0.009724
0.009856
0.013056
0.029410
0.029293
0.030308
0.067209
0.079486
0.071389
0.046097
0.058520
0.032679
0.039559
0.034273
0.033845
0.033066
0.035969
0.026525
0.042253
0.040044
0.014284
0.027146
0.026477
0.031064
0.031263
0.050071
0.037773
0.039154
0.045000
0.053745
0.066032
0.035383
0.038451
0.031431
0.040878
0.042928
0.035296
0.034091
0.036397
0.043116
0.038989
0.042878
0.046130
0.043324
0.042864
0.045086
0.021779
0.052625
0.043272
0.053999
0.058561
0.073486
0.057044
0.066599
0.076303
0.055754
0.054367
0.056136
0.068333
0.051648
0.069159
0.046987
0.058538
0.049397
0.067781
0.058084
0.049936
0.064407
0.078556
0.068987
0.068065
0.084742
0.028870
0.055129
0.072336
0.057165
0.061099
0.071074
0.109384
0.073724
0.032275
0.083444
0.081982
0.062229
0.061633
0.083230
0.077322
0.074421
0.066275
0.071221
0.112345
0.073635
0.079210
0.071661
0.066504
0.065327
0.073741
0.087986
0.068637
0.094941
0.092282
0.075591
0.070575
0.069779
0.061616
0.061667
0.088543
0.118803
0.073890
0.074491
0.080686
0.078835
0.052895
0.095218
0.078238
0.082478
0.079682
0.080001
0.128490
0.085190
0.084178
0.086671
0.092691
0.106058
0.109488
0.107454
