Full Time (seconds)
0.102352
Incremental Time - I
0.000174
0.000159
0.000177
0.000204
0.000234
0.000246
0.000239
0.000287
0.000313
0.000302
0.000328
0.000714
0.000806
0.000969
0.001076
0.001257
0.001410
0.001700
0.001397
0.001442
0.001547
0.002342
0.002907
0.002892
0.003088
0.003376
0.003641
0.003750
0.004142
0.004259
0.004501
0.005232
0.005415
0.005462
0.003385
0.006538
0.006855
0.005847
0.006334
0.006411
0.007229
0.006337
0.004568
0.012401
0.010474
0.013694
0.011577
0.008450
0.009889
0.009782
0.009713
0.012458
0.027408
0.019487
0.012665
0.014069
0.015679
0.014544
0.016057
0.019521
0.016691
0.022640
0.025718
0.017871
0.021739
0.023666
0.026971
0.020771
0.029549
0.021882
0.024256
0.021763
0.013290
0.033230
0.029518
0.039672
0.024062
0.033171
0.042715
0.042509
0.031826
0.040161
0.032305
0.037484
0.036501
0.031133
0.038658
0.034381
0.036973
0.039927
0.039816
0.055643
0.036745
0.052115
0.054640
0.048157
0.045645
0.050232
0.055483
0.066023
0.058848
0.062440
0.050525
0.056350
0.036892
0.045240
0.044449
0.050505
0.050954
0.041251
0.049697
0.050230
0.066135
0.061314
0.046940
0.048518
0.070242
0.057795
0.068582
0.030340
0.077376
0.055375
0.063231
0.053427
0.062879
0.058351
0.073716
0.054973
0.063330
0.056148
0.068595
0.066937
0.059322
0.035776
0.074648
0.067560
0.080357
0.062517
0.062164
0.081115
0.063531
Classification Time - C
0.017502
0.016504
0.014851
0.024034
0.017856
0.017858
0.027798
0.019743
0.014670
0.017768
0.025621
0.018086
0.019701
0.025355
0.020582
0.021469
0.026166
0.019495
0.023848
0.024782
0.022188
0.023826
0.024795
0.028778
0.035257
0.031947
0.036455
0.032524
0.031348
0.035573
0.029533
0.045224
0.044491
0.024322
0.015331
0.048325
0.052990
0.043772
0.052850
0.034753
0.030996
0.016178
0.036996
0.046158
0.035745
0.037498
0.050792
0.054002
0.061419
0.041836
0.053864
0.035351
0.043894
0.044996
0.044959
0.063447
0.043529
0.052533
0.061321
0.053481
0.060143
0.065847
0.051468
0.062438
0.065845
0.049657
0.056689
0.056437
0.057331
0.061163
0.043901
0.051233
0.068178
0.077514
0.066628
0.053765
0.062856
0.054425
0.061180
0.067829
0.053965
0.072658
0.053563
0.054523
0.054287
0.064942
0.069026
0.062304
0.064505
0.057622
0.073070
0.088871
0.034873
0.068395
0.075928
0.067242
0.071311
0.063559
0.034737
0.088261
0.078224
0.080102
0.097739
0.096432
0.074522
0.066682
0.076919
0.069362
0.063770
0.087541
0.069178
0.087960
0.093110
0.080330
0.080001
0.073549
0.105454
0.083175
0.082129
0.127868
0.087240
0.085876
0.084281
0.080314
0.092438
0.094169
0.075867
0.076742
0.083582
0.102883
0.110765
0.099147
0.100458
0.106395
0.113091
0.080603
0.053481
0.157700
0.103086
0.099803
0.089290
