Full Time (seconds)
0.091782
Incremental Time - I
0.000147
0.000020
0.000019
0.000024
0.000021
0.000019
0.000022
0.000018
0.000019
0.000019
0.000020
0.000276
0.000321
0.000461
0.000447
0.000572
0.000625
0.000664
0.000731
0.000673
0.000766
0.001684
0.001695
0.001117
0.001232
0.002158
0.002325
0.002470
0.002726
0.002969
0.003188
0.004004
0.003996
0.004223
0.004202
0.004260
0.004433
0.004326
0.004800
0.004598
0.004933
0.006898
0.005786
0.006260
0.005658
0.006444
0.006573
0.006616
0.009697
0.007956
0.008037
0.008966
0.010145
0.018043
0.010310
0.006837
0.011079
0.021560
0.014550
0.014405
0.018557
0.014219
0.015444
0.015703
0.016706
0.020131
0.009534
0.015905
0.026275
0.035938
0.020816
0.029085
0.018933
0.020029
0.026015
0.020487
0.027509
0.031355
0.041447
0.024956
0.027900
0.028354
0.026741
0.025968
0.032234
0.028846
0.030084
0.038399
0.035884
0.034058
0.029194
0.051955
0.032060
0.038888
0.038581
0.025103
0.035212
0.041452
0.038756
0.035555
0.038333
0.038885
0.042709
0.049890
0.046417
0.052111
0.040117
0.040369
0.043922
0.043826
0.044517
0.044639
0.043000
0.040758
0.047243
0.061554
0.059855
0.065081
0.055222
0.071362
0.029531
0.067436
0.061282
0.061307
0.065985
0.064722
0.067032
0.055194
0.055673
0.055732
0.079758
0.066474
0.070007
0.060494
0.060910
0.078914
0.037928
0.069449
0.072148
0.069345
0.065138
Classification Time - C
0.015209
0.013013
0.014673
0.012584
0.014252
0.015965
0.020594
0.012939
0.012864
0.013099
0.014976
0.022928
0.017704
0.026175
0.017532
0.016705
0.018393
0.035910
0.018412
0.027788
0.018525
0.023718
0.023925
0.011443
0.021456
0.031464
0.031605
0.027346
0.024385
0.026646
0.024128
0.032596
0.028274
0.028848
0.034202
0.026620
0.033427
0.026830
0.026379
0.028059
0.032553
0.039934
0.034124
0.039660
0.030124
0.030321
0.030460
0.038906
0.036364
0.042052
0.032765
0.039820
0.050172
0.039506
0.035874
0.018842
0.036233
0.036258
0.053923
0.045995
0.064166
0.038609
0.070956
0.039726
0.046629
0.041659
0.022990
0.057802
0.060540
0.038828
0.025171
0.044934
0.043823
0.045560
0.076854
0.058611
0.044937
0.044584
0.060045
0.055750
0.060243
0.056130
0.059855
0.059244
0.077400
0.047943
0.061315
0.061392
0.039117
0.066372
0.066024
0.066822
0.092051
0.034628
0.068757
0.033323
0.076102
0.086913
0.075763
0.061141
0.061786
0.085146
0.063347
0.074411
0.062842
0.063366
0.063734
0.068117
0.073477
0.071051
0.072001
0.068791
0.079890
0.036961
0.070962
0.086940
0.081249
0.073279
0.084164
0.070672
0.069703
0.080458
0.086890
0.111416
0.091151
0.075167
0.084959
0.093215
0.079677
0.082484
0.089734
0.080007
0.087710
0.083387
0.090945
0.080076
0.104585
0.090725
0.101414
0.103255
0.083230
