Full Time (seconds)
0.249810
Time - I
0.002206
0.003357
0.004484
0.006276
0.007121
0.008588
0.009641
0.011268
0.011783
0.013232
0.014519
0.015465
0.017141
0.018094
0.020271
0.020425
0.022416
0.021658
0.022638
0.023349
0.024382
0.025882
0.026910
0.028520
0.029385
0.030463
0.031656
0.032903
0.035131
0.035019
0.037831
0.037615
0.038714
0.040132
0.041161
0.044199
0.044242
0.044660
0.045961
0.047772
0.048229
0.049971
0.050733
0.051778
0.053684
0.056991
0.056369
0.056379
0.069315
0.060541
0.060037
0.062127
0.063225
0.065546
0.068007
0.068855
0.067139
0.068561
0.070618
0.074511
0.072900
0.076317
0.076834
0.077448
0.082671
0.078257
0.079274
0.080303
0.083104
0.085483
0.110455
0.093662
0.093584
0.088614
0.090046
0.091140
0.092476
0.093448
0.094846
0.095926
0.096012
0.099072
0.100604
0.100188
0.103072
0.101457
0.104759
0.106387
0.105078
0.106581
0.110129
0.111295
0.112647
0.113604
0.115089
0.116860
0.115233
0.118287
0.119912
0.120545
0.120887
0.115758
0.114124
0.129809
0.117229
0.125634
0.126420
0.130398
0.129303
0.121643
0.122695
0.133561
0.135449
0.135050
0.136801
0.140501
0.142834
0.142676
0.144707
0.145413
0.147326
0.147233
0.148409
0.149867
0.149937
0.150615
0.150387
0.152925
0.155849
0.158058
0.154844
0.156221
0.157224
0.160323
0.161646
0.164452
0.163921
0.176449
0.167164
0.166029
0.167103
0.168999
0.170648
0.171828
0.174183
0.172484
0.176296
0.177104
0.176683
0.179301
0.181075
0.183184
0.183282
0.186692
0.186415
0.187319
0.186919
0.194362
0.189602
0.191545
0.193209
0.194801
0.185140
0.181464
0.182788
0.183600
0.184026
0.185558
0.175827
0.173185
0.176469
0.200351
0.210566
0.210361
0.211434
0.183359
0.182985
0.210517
0.206816
0.212545
0.216373
0.221606
0.216592
0.222330
0.220714
0.209762
0.221453
0.206762
0.228996
0.223374
0.183574
0.185032
0.228491
0.229414
0.234657
0.234902
0.232915
0.237715
0.243038
0.238870
0.237736
0.241732
0.244318
0.235191
0.209309
0.250791
0.244690
0.250139
0.251154
0.243378
0.234175
