Full Time (seconds)
0.345362
Time - I
0.016161
0.061703
0.104283
0.149141
0.194040
0.227555
0.275118
0.334222
0.379661
0.395260
0.456540
0.471196
0.359611
0.489000
0.464820
0.447038
0.416063
0.368162
0.333599
0.298982
0.381516
