Full Accuracy
86.532555
Accuracy - I
50.000000
70.361504
72.839058
72.839058
73.648071
73.648071
73.648071
73.381821
73.381821
73.381821
73.381821
76.198730
79.385086
78.378304
79.704437
79.404060
78.803322
79.247734
80.499458
82.495972
83.747696
83.747696
83.810234
85.424866
85.963074
85.994339
85.994339
85.994339
85.994339
86.532555
86.532555
