Full Time (seconds)
0.140886
Incremental Time - I
0.005092
0.000088
0.000104
0.000107
0.000113
0.000114
0.000126
0.000126
0.000143
0.000161
0.000154
0.000178
0.000174
0.000195
0.000196
0.000209
0.000218
0.000223
0.000224
0.000240
0.000252
0.000556
0.000427
0.000427
0.000429
0.000436
0.000442
0.000475
0.000466
0.000474
0.000481
0.000487
0.000497
0.000514
0.000525
0.000507
0.000524
0.000538
0.000531
0.000578
0.000574
0.000563
0.000576
0.000595
0.000606
0.000622
0.000619
0.000635
0.000633
0.000634
0.000636
0.000672
0.000673
0.000696
0.000703
0.000712
0.000722
0.000735
0.000739
0.000742
0.000745
0.000755
0.000757
0.000762
0.000779
0.000771
0.000792
0.000813
0.000805
0.000831
0.000799
0.000461
0.000460
0.000456
0.000468
0.000468
0.000608
0.000600
0.000607
0.000608
0.000607
0.000890
0.000901
0.000898
0.000913
0.000917
0.000907
0.000950
0.000930
0.000950
0.000976
0.001415
0.001001
0.000991
0.000984
0.000986
0.001015
0.001024
0.001045
0.001055
0.001062
0.001053
0.001069
0.001063
0.001066
0.001073
0.001101
0.001093
0.001119
0.001100
0.001112
0.001164
0.001160
0.001174
0.001161
0.001168
0.001183
0.001189
0.001216
0.001215
0.001218
0.001218
0.001203
0.001201
0.001234
0.001277
0.001229
0.001255
0.001235
0.001244
0.001271
0.001317
0.001329
0.001305
0.001355
0.001358
0.001362
0.001334
0.001379
0.001390
0.001361
Classification Time - I
0.005785
0.006616
0.007576
0.008928
0.009455
0.010415
0.011402
0.012452
0.013204
0.014179
0.015197
0.016171
0.017091
0.017944
0.018744
0.019552
0.020417
0.021394
0.022212
0.023273
0.024168
0.024859
0.025772
0.026680
0.027766
0.028650
0.030013
0.030570
0.031507
0.032425
0.033755
0.034166
0.035530
0.036095
0.037144
0.037950
0.038888
0.039848
0.041203
0.041774
0.042665
0.043866
0.044787
0.045415
0.046364
0.047341
0.048208
0.049209
0.050271
0.051184
0.052296
0.053064
0.053966
0.055324
0.056126
0.056782
0.059733
0.060726
0.060085
0.062517
0.061482
0.064543
0.063645
0.064443
0.065078
0.065927
0.066865
0.067837
0.068995
0.069973
0.070147
0.070591
0.070885
0.071150
0.071537
0.072238
0.072721
0.073323
0.074116
0.075100
0.075472
0.076370
0.077760
0.078222
0.079379
0.080134
0.081245
0.082460
0.086041
0.083763
0.084852
0.092706
0.093874
0.088235
0.089082
0.089234
0.090346
0.091332
0.092122
0.093328
0.094409
0.094918
0.099284
0.099150
0.099389
0.098575
0.107654
0.100721
0.101423
0.102213
0.103083
0.104803
0.105607
0.105983
0.106588
0.111403
0.108634
0.109059
0.114715
0.111148
0.112328
0.113092
0.113816
0.115235
0.116329
0.116551
0.117898
0.118966
0.121845
0.120358
0.121618
0.122623
0.123309
0.124240
0.125741
0.126100
0.126663
0.127403
0.128849
0.129510
