Full Time (seconds)
0.143107
Incremental Time - I
0.005121
0.000088
0.000103
0.000105
0.000116
0.000117
0.000130
0.000132
0.000136
0.000152
0.000159
0.000174
0.000185
0.000190
0.000200
0.000224
0.000217
0.000237
0.000302
0.000247
0.000254
0.000552
0.000443
0.000427
0.000431
0.000446
0.000453
0.000460
0.000473
0.000476
0.000487
0.000483
0.000501
0.000500
0.000505
0.000535
0.000522
0.000532
0.000543
0.000556
0.000561
0.000590
0.000584
0.000601
0.000613
0.000619
0.000623
0.000636
0.000639
0.000651
0.000656
0.000663
0.000670
0.000698
0.000704
0.000727
0.000721
0.000715
0.000718
0.000735
0.000749
0.000775
0.000778
0.000775
0.000802
0.000779
0.000825
0.000790
0.000806
0.000813
0.000835
0.000837
0.000875
0.000866
0.000864
0.000883
0.000897
0.000931
0.000998
0.000966
0.000917
0.000930
0.001015
0.000986
0.000998
0.001032
0.000978
0.000975
0.001036
0.001001
0.001066
0.001107
0.001048
0.001037
0.001050
0.001063
0.001068
0.001076
0.001078
0.001097
0.001090
0.000562
0.000567
0.000573
0.000572
0.000573
0.000757
0.000767
0.000764
0.000766
0.000775
0.001143
0.001155
0.001151
0.001156
0.001164
0.001167
0.001192
0.001195
0.001215
0.001235
0.001229
0.001248
0.001239
0.001233
0.001235
0.001261
0.001248
0.001263
0.001256
0.001261
0.001334
0.001314
0.001308
0.001323
0.001341
0.001333
0.001235
0.001262
0.001374
0.001407
Classification Time - I
0.005773
0.006668
0.007633
0.008542
0.009558
0.010541
0.011521
0.012492
0.013480
0.014499
0.015799
0.016443
0.017772
0.018663
0.019020
0.020402
0.020745
0.022299
0.024446
0.023457
0.024427
0.025230
0.026310
0.027866
0.028891
0.029874
0.030227
0.030943
0.032947
0.032718
0.033547
0.034467
0.035507
0.036311
0.037355
0.038274
0.040506
0.041161
0.041116
0.043022
0.044741
0.043949
0.045661
0.046887
0.048403
0.047885
0.050367
0.051262
0.052494
0.052017
0.052429
0.053554
0.056358
0.055276
0.058276
0.059365
0.058133
0.059086
0.062096
0.063060
0.064014
0.064912
0.066125
0.066912
0.067850
0.070872
0.067495
0.068465
0.069643
0.070421
0.071205
0.072389
0.073031
0.074458
0.077607
0.076870
0.077022
0.078629
0.079313
0.080325
0.080672
0.081605
0.084805
0.083344
0.085438
0.088502
0.089279
0.087872
0.087913
0.088995
0.090062
0.097684
0.098627
0.093469
0.096890
0.095057
0.098971
0.096007
0.097716
0.101975
0.098698
0.101305
0.103148
0.103747
0.100027
0.104384
0.102492
0.102046
0.101916
0.102631
0.103905
0.104854
0.105371
0.106132
0.107538
0.108312
0.109011
0.109605
0.110803
0.112125
0.112599
0.113766
0.114015
0.115206
0.116040
0.121852
0.119843
0.119846
0.125127
0.121196
0.122158
0.122658
0.123379
0.125171
0.125419
0.131175
0.122330
0.128096
0.129000
0.134332
