Full Time (seconds)
0.001348
Incremental Time - I
0.000819
0.000351
0.000661
0.001201
0.001340
0.001698
0.001614
0.002659
0.003032
0.003320
0.002242
0.008586
0.003935
0.004757
0.005810
0.009735
0.005971
0.007786
0.006918
0.008796
0.010874
Classification Time - C
0.000787
0.000760
0.000810
0.000828
0.000863
0.000880
0.000887
0.000887
0.001171
0.001133
0.001020
0.001084
0.001106
0.001124
0.001164
0.001324
0.001197
0.001279
0.001552
0.001395
