Full Accuracy
96.6154
Accuracy - I
cat: testS_0.svm.acc: No such file or directory
72.6154
80.6923
85.2308
86.6923
89.3077
90.7692
91.7692
92.3077
92.7692
93.3846
93.7692
94.8462
95.0769
95.4615
95.8462
95.4615
96
95.9231
96.4615
96.6923
