Full Accuracy
96.6154
Accuracy - I
cat: testS_0.svm.acc: No such file or directory
69.3846
78.4615
85.0769
89
91.3077
92.1538
92.7692
92.9231
93.7692
94.0769
94.3077
94.5385
95.1538
95.1538
96.0769
95.9231
95.9231
96.2308
96.6923
96.7692
