Full Time (seconds)
0.131358
Incremental Time - I
cat: testS_0.svm.time: No such file or directory
0.003599
0.006134
0.009214
0.013106
0.016933
0.021558
0.025417
0.032633
0.037027
0.038289
0.050118
0.038761
0.043250
0.076150
0.080697
0.083703
0.090143
0.040096
0.045151
0.113604
Classification Time - C
0.032182
0.036875
0.041832
0.047940
0.052666
0.059125
0.062722
0.073775
0.080609
0.086031
0.062389
0.068151
0.071018
0.116250
0.107667
0.116601
0.051208
0.051251
0.053402
0.131090
