Full Time (seconds)
0.131228
Incremental Time - I
cat: testS_0.svm.time: No such file or directory
0.004041
0.006723
0.009929
0.014224
0.019011
0.025309
0.029985
0.034234
0.022676
0.033928
0.044138
0.054004
0.058577
0.065784
0.072950
0.080800
0.093451
0.093497
0.120312
0.113823
Classification Time - C
0.033598
0.040054
0.043959
0.049464
0.054467
0.067035
0.065621
0.078776
0.047733
0.066782
0.082335
0.090022
0.094124
0.101848
0.106084
0.111430
0.117892
0.143253
0.144692
0.150122
