Full Time (seconds)
0.115860
Incremental Time - I
cat: testS_0.svm.time: No such file or directory
0.003585
0.006327
0.009021
0.012888
0.016633
0.020757
0.025177
0.029234
0.033235
0.038753
0.043280
0.038409
0.044768
0.050873
0.074545
0.080219
0.086963
0.098608
0.098959
0.093885
Classification Time - C
0.033509
0.037307
0.042418
0.048358
0.053599
0.058188
0.063574
0.067238
0.071531
0.076609
0.082410
0.067370
0.070787
0.075234
0.105600
0.102313
0.113168
0.124906
0.119380
0.106566
