Full Time (seconds)
0.133138
Incremental Time - I
0.000279
0.000324
0.000377
0.000420
0.000456
0.000572
0.000625
0.000257
0.000288
0.000262
0.000792
0.001427
0.001657
0.002003
0.002099
0.002241
0.002427
0.002532
0.002709
0.002830
0.002961
0.004313
0.005015
0.005421
0.005761
0.005993
0.006354
0.006714
0.007302
0.007870
0.008358
0.009663
0.010446
0.010013
0.010037
0.010695
0.011109
0.010864
0.011097
0.011032
0.011019
0.013351
0.013476
0.014756
0.015426
0.014788
0.015220
0.015386
0.015758
0.016078
0.016937
0.020113
0.020702
0.021918
0.022393
0.023717
0.024150
0.024776
0.026123
0.026610
0.028409
0.029942
0.032072
0.031716
0.031855
0.033255
0.034342
0.033279
0.037408
0.034405
0.036075
0.043662
0.040368
0.046277
0.042788
0.047438
0.044054
0.048220
0.045470
0.046158
0.049870
0.050495
0.050915
0.053506
0.059025
0.056691
0.055951
0.059068
0.057390
0.058065
0.058611
0.062715
0.064230
0.065151
0.065951
0.068879
0.067627
0.070552
0.068380
0.071457
0.069572
0.074463
0.078103
0.076162
0.077966
0.078351
0.079192
0.079444
0.080267
0.081098
0.082378
0.087819
0.089328
0.091282
0.092393
0.093130
0.094464
0.095037
0.095714
0.096075
0.097260
0.101746
0.103855
0.108365
0.109534
0.109846
0.110202
0.111106
0.112269
0.108804
0.109184
0.109118
0.109475
0.110417
0.111118
0.111215
0.111212
0.114583
0.112747
0.113141
0.113460
Classification Time - C
cat: testS_0.svm.time: No such file or directory
cat: test1II_0000.svm.time: No such file or directory
cat: test1II_0001.svm.time: No such file or directory
cat: test1II_0002.svm.time: No such file or directory
cat: test1II_0003.svm.time: No such file or directory
cat: test1II_0004.svm.time: No such file or directory
cat: test1II_0005.svm.time: No such file or directory
cat: test1II_0006.svm.time: No such file or directory
cat: test1II_0007.svm.time: No such file or directory
cat: test1II_0008.svm.time: No such file or directory
cat: test1II_0009.svm.time: No such file or directory
cat: test2II_0000.svm.time: No such file or directory
cat: test2II_0001.svm.time: No such file or directory
cat: test2II_0002.svm.time: No such file or directory
cat: test2II_0003.svm.time: No such file or directory
cat: test2II_0004.svm.time: No such file or directory
cat: test2II_0005.svm.time: No such file or directory
cat: test2II_0006.svm.time: No such file or directory
cat: test2II_0007.svm.time: No such file or directory
cat: test2II_0008.svm.time: No such file or directory
cat: test2II_0009.svm.time: No such file or directory
cat: test3II_0000.svm.time: No such file or directory
cat: test3II_0001.svm.time: No such file or directory
cat: test3II_0002.svm.time: No such file or directory
cat: test3II_0003.svm.time: No such file or directory
cat: test3II_0004.svm.time: No such file or directory
cat: test3II_0005.svm.time: No such file or directory
cat: test3II_0006.svm.time: No such file or directory
cat: test3II_0007.svm.time: No such file or directory
cat: test3II_0008.svm.time: No such file or directory
cat: test3II_0009.svm.time: No such file or directory
cat: test4II_0000.svm.time: No such file or directory
cat: test4II_0001.svm.time: No such file or directory
cat: test4II_0002.svm.time: No such file or directory
cat: test4II_0003.svm.time: No such file or directory
cat: test4II_0004.svm.time: No such file or directory
cat: test4II_0005.svm.time: No such file or directory
cat: test4II_0006.svm.time: No such file or directory
cat: test4II_0007.svm.time: No such file or directory
cat: test4II_0008.svm.time: No such file or directory
cat: test4II_0009.svm.time: No such file or directory
cat: test5II_0000.svm.time: No such file or directory
cat: test5II_0001.svm.time: No such file or directory
cat: test5II_0002.svm.time: No such file or directory
cat: test5II_0003.svm.time: No such file or directory
cat: test5II_0004.svm.time: No such file or directory
cat: test5II_0005.svm.time: No such file or directory
cat: test5II_0006.svm.time: No such file or directory
cat: test5II_0007.svm.time: No such file or directory
cat: test5II_0008.svm.time: No such file or directory
cat: test5II_0009.svm.time: No such file or directory
cat: test6II_0000.svm.time: No such file or directory
cat: test6II_0001.svm.time: No such file or directory
cat: test6II_0002.svm.time: No such file or directory
cat: test6II_0003.svm.time: No such file or directory
cat: test6II_0004.svm.time: No such file or directory
cat: test6II_0005.svm.time: No such file or directory
cat: test6II_0006.svm.time: No such file or directory
cat: test6II_0007.svm.time: No such file or directory
cat: test6II_0008.svm.time: No such file or directory
cat: test6II_0009.svm.time: No such file or directory
cat: test7II_0000.svm.time: No such file or directory
cat: test7II_0001.svm.time: No such file or directory
cat: test7II_0002.svm.time: No such file or directory
cat: test7II_0003.svm.time: No such file or directory
cat: test7II_0004.svm.time: No such file or directory
cat: test7II_0005.svm.time: No such file or directory
cat: test7II_0006.svm.time: No such file or directory
cat: test7II_0007.svm.time: No such file or directory
cat: test7II_0008.svm.time: No such file or directory
cat: test7II_0009.svm.time: No such file or directory
cat: test8II_0000.svm.time: No such file or directory
cat: test8II_0001.svm.time: No such file or directory
cat: test8II_0002.svm.time: No such file or directory
cat: test8II_0003.svm.time: No such file or directory
cat: test8II_0004.svm.time: No such file or directory
cat: test8II_0005.svm.time: No such file or directory
cat: test8II_0006.svm.time: No such file or directory
cat: test8II_0007.svm.time: No such file or directory
cat: test8II_0008.svm.time: No such file or directory
cat: test8II_0009.svm.time: No such file or directory
cat: test9II_0000.svm.time: No such file or directory
cat: test9II_0001.svm.time: No such file or directory
cat: test9II_0002.svm.time: No such file or directory
cat: test9II_0003.svm.time: No such file or directory
cat: test9II_0004.svm.time: No such file or directory
cat: test9II_0005.svm.time: No such file or directory
cat: test9II_0006.svm.time: No such file or directory
cat: test9II_0007.svm.time: No such file or directory
cat: test9II_0008.svm.time: No such file or directory
cat: test9II_0009.svm.time: No such file or directory
0.096323
0.098208
0.100174
0.100927
0.102880
0.100528
0.101107
0.101769
0.104187
0.104445
0.107452
0.106239
0.106956
0.108326
0.107522
0.108551
0.108604
0.109341
0.111380
0.110249
0.112050
0.113134
0.115119
0.116199
0.116538
0.117849
0.118110
0.119638
0.120170
0.121040
0.123347
0.128252
0.126382
0.127035
0.128251
0.129156
0.130013
0.130267
0.129428
0.129047
0.129424
0.129387
0.132164
0.129608
0.134389
0.130359
0.132815
0.130439
0.133017
0.131160
