Full Time (seconds)
0.143387
Incremental Time - I
0.005881
0.000055
0.000053
0.000053
0.000055
0.000057
0.000073
0.000077
0.000103
0.000087
0.000088
0.000128
0.000135
0.000158
0.000155
0.000167
0.000179
0.000232
0.000188
0.000200
0.000208
0.000212
0.000229
0.000235
0.000244
0.000250
0.000662
0.000472
0.000444
0.000477
0.000457
0.000454
0.000471
0.000562
0.000480
0.000504
0.000526
0.000564
0.000547
0.000570
0.000637
0.000672
0.000631
0.000601
0.000684
0.000640
0.000744
0.000651
0.000657
0.000697
0.000865
0.000700
0.000728
0.000751
0.000730
0.000689
0.000717
0.000684
0.000870
0.000652
0.000664
0.000787
0.000857
0.000801
0.000839
0.000810
0.000869
0.000891
0.000839
0.000955
0.001000
0.000918
0.000867
0.000943
0.000943
0.000880
0.000910
0.000953
0.001327
0.000955
0.000954
0.000903
0.000902
0.001011
0.001017
0.001030
0.001023
0.000976
0.001013
0.001009
0.001030
0.001005
0.000979
0.001086
0.001090
0.001113
0.001075
0.001043
0.001159
0.001134
0.001080
0.001122
0.001047
0.001097
0.001137
0.001091
0.001123
0.001120
0.001162
0.001181
0.001211
0.001247
0.001190
0.001252
0.001206
0.001296
0.001214
0.001313
0.001298
0.001259
0.001395
0.001343
0.001276
0.001326
0.001261
0.001237
0.001363
0.001366
0.001374
0.001343
0.001358
0.001452
0.001446
0.001442
0.001405
0.001419
0.001400
0.001613
0.001388
0.001412
0.001465
Classification Time - I
0.005301
0.005632
0.006017
0.006426
0.006797
0.007376
0.007971
0.008642
0.009094
0.009708
0.011086
0.011638
0.012660
0.013639
0.014630
0.015600
0.016912
0.017218
0.018048
0.018989
0.020378
0.020918
0.021964
0.023017
0.025322
0.025092
0.025589
0.029478
0.029096
0.028347
0.029589
0.031601
0.031217
0.032140
0.034111
0.036476
0.037939
0.039591
0.040268
0.040905
0.038922
0.039669
0.042132
0.041636
0.042704
0.043590
0.044411
0.046866
0.050082
0.047426
0.049987
0.054150
0.050315
0.051063
0.052066
0.052977
0.050395
0.048723
0.049528
0.049877
0.061230
0.061404
0.060003
0.062306
0.063414
0.063546
0.067970
0.069473
0.067757
0.061309
0.067040
0.070264
0.080536
0.070455
0.071374
0.076686
0.073671
0.073646
0.074420
0.075951
0.077343
0.066327
0.078743
0.084315
0.080520
0.081683
0.081855
0.086023
0.090071
0.083688
0.079038
0.087131
0.087829
0.088677
0.089256
0.091123
0.091231
0.102600
0.100843
0.093761
0.094942
0.091675
0.096818
0.092881
0.097647
0.106276
0.092432
0.101445
0.102324
0.109853
0.103714
0.111017
0.105608
0.107440
0.107568
0.116599
0.109785
0.109967
0.110912
0.111848
0.115801
0.117936
0.112779
0.106777
0.117007
0.120816
0.120903
0.125149
0.125321
0.130101
0.122368
0.125541
0.124292
0.125435
0.126439
0.127280
0.128994
0.124780
0.129665
0.135996
