Full Time (seconds)
0.140858
Incremental Time - I
0.004406
0.000089
0.000103
0.000101
0.000111
0.000119
0.000123
0.000131
0.000153
0.000149
0.000169
0.000173
0.000177
0.000193
0.000194
0.000210
0.000217
0.000220
0.000222
0.000240
0.000248
0.000548
0.000425
0.000436
0.000483
0.000455
0.000466
0.000467
0.000474
0.000353
0.000591
0.000541
0.000515
0.000510
0.000502
0.000509
0.000522
0.000564
0.000575
0.000594
0.000552
0.000688
0.000338
0.000307
0.000311
0.000669
0.000637
0.000638
0.000635
0.000650
0.000574
0.000504
0.000477
0.000477
0.000482
0.000488
0.000531
0.000802
0.000763
0.000792
0.000756
0.000431
0.000435
0.000443
0.000437
0.000506
0.000624
0.000594
0.000650
0.000400
0.000628
0.000851
0.000849
0.000831
0.000837
0.000535
0.000535
0.000505
0.000874
0.000855
0.000958
0.000982
0.000963
0.000930
0.000932
0.000932
0.000935
0.000933
0.001036
0.001038
0.000951
0.001132
0.001068
0.001045
0.001032
0.001047
0.001007
0.001035
0.000765
0.000676
0.001060
0.001083
0.001150
0.001150
0.001111
0.001098
0.001114
0.001094
0.001118
0.001166
0.001157
0.000731
0.000658
0.000651
0.000648
0.000720
0.000819
0.000844
0.001261
0.000826
0.001378
0.001436
0.001381
0.001281
0.001308
0.001427
0.001365
0.001370
0.001382
0.001340
0.001376
0.001566
0.001435
0.001397
0.001509
0.001597
0.001498
0.001498
0.001489
0.001567
0.001501
Classification Time - I
0.005838
0.006707
0.007643
0.008551
0.009529
0.010686
0.011984
0.012439
0.013653
0.014708
0.016740
0.016431
0.017305
0.018169
0.018957
0.019794
0.020652
0.021623
0.023127
0.023512
0.025112
0.025513
0.026090
0.027029
0.027979
0.028966
0.029957
0.032429
0.031864
0.033157
0.036524
0.036474
0.035571
0.036522
0.037458
0.038358
0.039401
0.040325
0.041247
0.042176
0.020799
0.021208
0.021859
0.046244
0.047397
0.050947
0.052164
0.054714
0.054730
0.051903
0.035147
0.035557
0.036231
0.036930
0.037541
0.067141
0.063970
0.061148
0.064055
0.065937
0.064947
0.066521
0.066748
0.068033
0.066931
0.063270
0.063905
0.068609
0.068484
0.070605
0.066779
0.072333
0.073472
0.038050
0.039642
0.038802
0.072539
0.073210
0.074097
0.075121
0.076165
0.077429
0.077786
0.079068
0.079744
0.083546
0.081449
0.082811
0.083672
0.084667
0.061332
0.086260
0.086936
0.088557
0.088960
0.089797
0.060589
0.057410
0.055556
0.093439
0.095253
0.099256
0.097189
0.105481
0.106841
0.108457
0.099978
0.100679
0.101474
0.102395
0.054901
0.055070
0.055346
0.055766
0.058172
0.068674
0.108872
0.109468
0.110588
0.113665
0.113950
0.114171
0.115440
0.115738
0.117289
0.118648
0.119284
0.120780
0.121445
0.121196
0.124652
0.124690
0.125319
0.127349
0.126847
0.127810
0.133664
0.131092
0.131884
0.131966
