Full Time (seconds)
0.002873
Time - I
0.000440
0.000526
0.000563
0.000614
0.000669
0.000739
0.001091
0.000958
0.000961
0.001058
0.001912
0.001111
0.001134
0.001883
0.001203
0.001195
0.001265
0.001301
0.001314
0.001385
0.001394
0.001563
0.001669
0.001869
0.001954
0.002064
0.002208
0.002355
0.002490
0.002643
0.002766
