Full Time (seconds)
0.002757
Time - I
0.000417
0.000451
0.000812
0.000497
0.000528
0.000964
0.000574
0.000602
0.000639
0.000695
0.000728
0.000793
0.000870
0.000949
0.001030
0.001094
0.001164
0.001255
0.001303
0.001400
0.002609
0.001602
0.001721
0.001877
0.001964
0.002123
0.002227
0.002368
0.002551
0.002680
0.002828
