Full Time (seconds)
0.002764
Time - I
0.000815
0.002142
0.000941
0.000999
0.001060
0.001117
0.001192
0.001311
0.001308
0.001375
0.001438
0.001492
0.001559
0.001661
0.001701
0.001768
0.001821
0.001937
0.001950
0.002033
0.002122
0.002181
0.002314
0.002293
0.002346
0.002426
0.002505
0.002587
0.002604
0.002683
0.002806
