Full Time (seconds)
0.105033
Time - I
0.003937
0.007968
0.012050
0.016136
0.020278
0.024245
0.028370
0.032351
0.036418
0.045582
0.048420
0.050585
0.062482
0.062576
0.068845
0.074440
0.080766
0.086846
0.093358
0.099239
0.106028
