Full Time (seconds)
0.111885
Time - I
0.003912
0.007964
0.012081
0.016315
0.020476
0.024685
0.028730
0.033401
0.036962
0.041494
0.045756
0.051262
0.056422
0.063507
0.068448
0.075341
0.084846
0.093926
0.101525
0.099092
0.112321
