Full Time (seconds)
0.106593
Time - I
0.003993
0.009108
0.013272
0.016155
0.020476
0.024795
0.029905
0.032502
0.036546
0.042129
0.044534
0.050473
0.057980
0.064513
0.070395
0.076473
0.083185
0.089896
0.095729
0.100961
0.105652
