Full Time (seconds)
0.001358
Incremental Time - I
0.000164
0.000141
0.000160
0.000164
0.000176
0.000194
0.000204
0.000203
0.000232
0.000236
0.000248
0.000240
0.000193
0.000194
0.000233
0.000196
0.000228
0.000237
0.000242
0.000214
0.000211
0.000685
0.001628
0.002460
0.006936
0.007742
0.006865
0.006200
0.007191
0.010990
0.013262
Classification Time - C
0.001103
0.000579
0.000590
0.000589
0.000610
0.000655
0.000584
0.000574
0.000578
0.000575
0.000710
0.000585
0.000676
0.000553
0.000551
0.000553
0.000552
0.000551
0.000555
0.000575
0.000591
0.000783
0.000768
0.000820
0.001055
0.001111
0.001104
0.001190
0.001231
0.001305
0.001385
