Full Accuracy
76.577774
Accuracy - I
50.000000
63.244446
65.599998
69.600006
72.999992
78.266670
79.466667
76.444443
76.711113
78.177780
77.244446
76.555557
77.777779
76.755554
77.444443
78.044441
77.733330
77.044449
76.555557
76.333328
76.577774
