Full Accuracy
94.923080
Accuracy - I
50.000000
53.692307
53.538460
53.461540
53.307690
53.307693
53.307693
53.307693
53.307693
53.307693
53.307693
55.076920
55.538464
57.000000
57.076923
57.076923
57.076923
57.076923
57.076923
57.076923
57.076923
58.615387
59.153843
59.769230
59.923077
60.076923
60.153847
60.307693
60.307693
60.538464
60.538464
62.769230
63.461536
63.461536
63.461536
63.461536
63.461540
63.461536
63.461540
63.461536
63.461536
66.153847
66.000000
66.307693
66.384613
66.461540
66.461540
66.538467
66.384613
66.384613
66.384613
69.461533
69.923080
70.076927
70.230774
70.230774
70.230774
70.230774
70.230774
70.230774
70.230774
73.000000
73.615387
73.538467
73.769226
73.769226
73.769226
73.769226
73.769226
73.769226
73.769226
75.384613
75.615387
76.461533
76.461533
76.538460
77.230766
77.307693
77.307693
77.307693
77.307693
77.307693
77.461540
77.692307
78.076920
78.307693
78.461540
78.461540
78.538460
78.538460
78.538460
80.461540
80.769226
81.384621
81.461540
81.692307
81.769234
81.769234
82.000000
82.000000
82.076927
84.692307
85.076920
85.076920
85.384613
85.615387
85.615387
85.692307
85.692307
85.692307
85.846153
87.000000
88.000000
88.230774
88.384613
88.384613
88.230774
88.307693
88.307693
88.307693
88.538460
91.692307
91.769234
92.000000
91.769234
91.846153
91.769234
91.692307
91.692307
91.692307
91.692314
94.538460
95.000000
95.000000
95.076927
95.000000
95.000000
95.000000
95.000000
95.000000
94.923080
