Full Time (seconds)
0.104896
Time - I
0.003964
0.004697
0.005452
0.006648
0.006953
0.007720
0.008467
0.009226
0.010026
0.010774
0.011548
0.012304
0.013118
0.013951
0.014762
0.015928
0.016390
0.017202
0.017983
0.018751
0.018941
0.019723
0.021105
0.021860
0.022618
0.022730
0.023937
0.024970
0.025820
0.025720
0.027332
0.026765
0.027110
0.027538
0.028050
0.028154
0.028474
0.029793
0.030232
0.030701
0.031287
0.031025
0.032763
0.032559
0.033342
0.034343
0.034813
0.035817
0.036404
0.037073
0.037803
0.039742
0.040483
0.040820
0.040808
0.041540
0.043720
0.043340
0.044031
0.044555
0.045327
0.046790
0.046786
0.047782
0.049822
0.049802
0.050084
0.050484
0.052058
0.052036
0.053416
0.053571
0.054298
0.055865
0.057519
0.058263
0.059080
0.057926
0.059752
0.059714
0.060767
0.061120
0.061830
0.063083
0.065312
0.064985
0.064732
0.066762
0.066272
0.067122
0.067946
0.069066
0.069290
0.070103
0.070706
0.074832
0.072298
0.073035
0.074064
0.076879
0.075567
0.079344
0.077487
0.078692
0.078607
0.079392
0.079839
0.080695
0.081588
0.082673
0.082951
0.086272
0.084235
0.085473
0.086140
0.086876
0.087288
0.088006
0.088877
0.090520
0.090231
0.091093
0.092118
0.092590
0.093737
0.094185
0.095380
0.095557
0.088262
0.097389
0.098512
0.098812
0.102496
0.106049
0.101834
0.101449
0.102542
0.103699
0.103918
0.105005
0.106222
