Full Time (seconds)
0.108044
Time - I
0.003924
0.004222
0.004521
0.004822
0.005164
0.005429
0.005869
0.006347
0.006909
0.007233
0.007694
0.008439
0.009169
0.010080
0.010757
0.011513
0.012194
0.012954
0.013813
0.014643
0.015177
0.016277
0.016702
0.017564
0.018627
0.019483
0.020288
0.020551
0.021841
0.022606
0.022788
0.024076
0.024472
0.024910
0.026309
0.026467
0.027167
0.028453
0.029416
0.030382
0.030421
0.031803
0.031751
0.032536
0.033246
0.034309
0.034836
0.035557
0.036996
0.038115
0.038242
0.039678
0.040484
0.041186
0.040897
0.041840
0.042425
0.043043
0.046407
0.044457
0.045439
0.045959
0.046681
0.047805
0.048771
0.049038
0.051271
0.051351
0.051214
0.052509
0.054551
0.055194
0.054875
0.055187
0.056477
0.058287
0.057154
0.058365
0.060619
0.059772
0.060244
0.061059
0.062138
0.062428
0.063574
0.064303
0.064818
0.067592
0.068487
0.069137
0.069912
0.071136
0.069393
0.070735
0.071730
0.071566
0.072277
0.073538
0.073780
0.074503
0.075201
0.076288
0.076732
0.079988
0.078615
0.078949
0.079955
0.083122
0.081744
0.082287
0.082846
0.083452
0.084240
0.085125
0.088828
0.086559
0.088709
0.088153
0.090583
0.092250
0.090227
0.094388
0.091730
0.092540
0.093218
0.097273
0.095514
0.095590
0.096405
0.097993
0.097890
0.099005
0.099315
0.103518
0.104638
0.101729
0.102329
0.103280
0.104672
0.106408
0.106643
