Full Time (seconds)
0.015930
Time - I
0.003939
0.006071
0.005975
0.005810
0.006277
0.006866
0.006317
0.007962
0.008645
0.009222
0.009751
0.010581
0.011019
0.010259
0.012110
0.012917
0.013816
0.013890
0.014597
0.015556
0.021683
