Full Time (seconds)
0.016023
Time - I
0.002071
0.002705
0.003358
0.005634
0.004643
0.005307
0.006055
0.006760
0.007293
0.008075
0.006595
0.009547
0.010583
0.010878
0.013633
0.014694
0.014968
0.013954
0.015033
0.015579
0.016153
