Full Time (seconds)
0.032430
Incremental Time - I
0.006418
0.000312
0.000367
0.000448
0.000781
0.000788
0.000862
0.000911
0.000977
0.001074
0.001488
0.001355
0.001391
0.001505
0.001642
0.001678
0.001761
0.001878
0.002041
0.002248
0.002319
Classification Time - I
0.004815
0.005990
0.007548
0.008710
0.009850
0.012319
0.013653
0.014996
0.014978
0.016363
0.018101
0.018730
0.020410
0.024954
0.022640
0.024432
0.026306
0.026974
0.028304
0.029972
