Full Time (seconds)
0.078996
Incremental Time - I
0.000184
0.000389
0.000325
0.000455
0.000528
0.000489
0.000432
0.000298
0.000706
0.000403
0.000403
0.000678
0.000734
0.002085
0.002269
0.002676
0.003183
0.004625
0.003436
0.005617
0.003929
0.005932
0.005973
0.010702
0.006792
0.007260
0.007705
0.008170
0.008710
0.006948
0.009901
0.011248
0.012008
0.011740
0.015964
0.012161
0.015969
0.012478
0.012761
0.014203
0.012927
0.014897
0.015603
0.016852
0.017132
0.012477
0.012879
0.017238
0.017961
0.022215
0.022197
0.019313
0.012638
0.025652
0.020452
0.025812
0.032858
0.022084
0.028056
0.021595
0.012935
0.017022
0.015488
0.015738
0.016022
0.016263
0.009992
0.015486
0.015828
0.016011
0.024627
0.031957
0.019132
0.020452
0.025771
0.031083
0.020373
0.020634
0.038061
0.038793
0.039679
0.050973
0.044703
0.045516
0.026976
0.048243
0.049160
0.050658
0.051065
0.051416
0.051850
0.055433
0.057053
0.057744
0.058444
0.059209
0.060232
0.060742
0.061049
0.061339
0.062240
0.066756
0.067544
0.068391
0.069443
0.052031
0.071496
0.071904
0.072232
0.073586
0.073911
0.079230
0.081346
0.104083
0.053033
0.159820
0.048265
0.064777
0.059543
0.077966
0.051498
0.049854
0.102354
0.052726
0.062263
0.070384
0.065342
0.053587
0.054095
0.054493
0.054910
0.057305
0.058563
0.060812
0.058757
0.060250
0.061215
0.061648
0.061138
0.063169
0.064426
Classification Time - C
0.014898
0.017172
0.017491
0.017071
0.027250
0.016843
0.012177
0.008532
0.009703
0.009892
0.009907
0.010773
0.010967
0.035346
0.033527
0.033655
0.032715
0.032072
0.033079
0.034686
0.034596
0.043509
0.045163
0.022010
0.039286
0.040048
0.040368
0.041137
0.041523
0.041958
0.030066
0.045613
0.046670
0.043827
0.052948
0.052384
0.047546
0.052705
0.047457
0.047901
0.047470
0.056547
0.040240
0.046820
0.052827
0.058952
0.048738
0.044426
0.054790
0.038303
0.059772
0.047973
0.063526
0.059732
0.056262
0.064604
0.044989
0.028597
0.083382
0.048071
0.037878
0.046417
0.038436
0.042688
0.036312
0.027385
0.023163
0.038242
0.036348
0.054819
0.064223
0.057507
0.046097
0.051010
0.078418
0.075369
0.069640
0.088679
0.074558
0.065680
0.048282
0.062543
0.079737
0.053156
0.050743
0.083532
0.083586
0.085308
0.085983
0.087446
0.087524
0.090692
0.092977
0.094028
0.094809
0.095945
0.095224
0.096066
0.096028
0.096804
0.097639
0.100550
0.101238
0.102000
0.102493
0.077450
0.103113
0.103147
0.103917
0.103773
0.103735
0.106353
0.109514
0.149566
0.073974
0.134160
0.082688
0.092908
0.109808
0.074962
0.073306
0.070060
0.071615
0.071614
0.088879
0.115204
0.092370
0.077329
0.076018
0.057619
0.075539
0.076980
0.077904
0.079748
0.077882
0.080784
0.078691
0.078279
0.078974
0.078871
0.082780
