Full Time (seconds)
0.058852
Incremental Time - I
0.000111
0.000154
0.000418
0.000236
0.000335
0.000795
0.000585
0.000594
0.000558
0.000670
0.000688
0.000921
0.000810
0.001661
0.002715
0.001993
0.002667
0.002167
0.001333
0.001319
0.002557
0.003959
0.004381
0.002677
0.002933
0.003025
0.009429
0.003387
0.010954
0.002408
0.002515
0.004262
0.008355
0.004241
0.009723
0.005223
0.007156
0.008235
0.007970
0.010623
0.008203
0.011822
0.012860
0.011315
0.006638
0.003895
0.020718
0.007428
0.012479
0.009767
0.009049
0.009218
0.024369
0.010083
0.017808
0.028167
0.020103
0.030074
0.012716
0.015214
0.037384
0.023611
0.022584
0.020382
0.009203
0.038016
0.020858
0.020095
0.030357
0.010880
0.020873
0.027895
0.018946
0.026695
0.048380
0.046507
0.022886
0.021351
0.021431
0.018957
0.032238
0.021661
0.026721
0.016118
0.028843
0.017125
0.028355
0.017907
0.020938
0.036986
0.017584
0.019799
0.020318
0.023237
0.045103
0.051519
0.025302
0.027251
0.030305
0.020625
0.040827
0.053697
0.043280
0.055591
0.053167
0.050857
0.025335
0.064035
0.057352
0.044529
0.032050
0.057188
0.061207
0.060919
0.094141
0.084894
0.120375
0.086236
0.090666
0.093483
0.107526
0.037289
0.100291
0.054485
0.055094
0.100212
0.061589
0.051199
0.068029
0.064888
0.065849
0.090652
0.041483
0.129253
0.070473
0.061885
0.091484
0.074587
0.074347
0.063523
0.070387
Classification Time - C
0.039074
0.014113
0.014916
0.014787
0.014553
0.017706
0.022786
0.023641
0.031234
0.023443
0.030276
0.022633
0.023490
0.028961
0.025176
0.022509
0.029605
0.020104
0.022123
0.025935
0.020106
0.035428
0.036907
0.023959
0.028610
0.024306
0.054813
0.032975
0.013659
0.035272
0.038512
0.030517
0.030970
0.042010
0.031954
0.040054
0.053144
0.041079
0.046441
0.053781
0.043130
0.034702
0.058034
0.046412
0.050509
0.092449
0.072714
0.060319
0.049029
0.049997
0.050823
0.040872
0.054395
0.029282
0.043848
0.066073
0.032600
0.058648
0.079993
0.027224
0.102879
0.030073
0.054778
0.039253
0.063308
0.121623
0.075863
0.051879
0.061114
0.044185
0.044686
0.051673
0.123180
0.079026
0.050675
0.081312
0.090177
0.046319
0.050471
0.042452
0.047137
0.081041
0.033534
0.065942
0.055271
0.039458
0.053193
0.036737
0.035914
0.029931
0.050023
0.040517
0.037855
0.037826
0.076378
0.070135
0.040085
0.041816
0.065847
0.033680
0.091510
0.068675
0.072840
0.062037
0.041119
0.050484
0.048555
0.124828
0.053988
0.045118
0.069732
0.075107
0.064554
0.117059
0.118234
0.136260
0.075268
0.096331
0.104077
0.124171
0.127755
0.101872
0.094497
0.127184
0.076491
0.056066
0.074387
0.097532
0.085245
0.068916
0.087701
0.119497
0.126750
0.081645
0.094178
0.088789
0.082964
0.085906
0.114495
0.063205
0.091846
