Full Time (seconds)
0.126855
Incremental Time - I
0.000180
0.000227
0.000222
0.000272
0.000286
0.000337
0.000364
0.000426
0.000433
0.000322
0.000329
0.001172
0.001042
0.001171
0.001314
0.001670
0.001634
0.001766
0.001809
0.002694
0.002159
0.002946
0.003219
0.003476
0.003815
0.004621
0.004138
0.004361
0.005002
0.005085
0.005369
0.006379
0.008616
0.006305
0.006485
0.006618
0.007369
0.007260
0.009267
0.006994
0.007031
0.008398
0.005183
0.034056
0.018291
0.010385
0.016023
0.011255
0.011655
0.010603
0.006468
0.024897
0.030383
0.027083
0.014889
0.018907
0.018496
0.021403
0.015818
0.017498
0.017727
0.026419
0.022267
0.022698
0.019343
0.031083
0.020025
0.020346
0.020738
0.020796
0.033337
0.013613
0.013942
0.014668
0.033116
0.060861
0.044925
0.068533
0.031170
0.058564
0.027081
0.031698
0.046164
0.045784
0.055890
0.057213
0.041646
0.065977
0.022266
0.048867
0.053120
0.057586
0.076444
0.073586
0.061664
0.039539
0.063500
0.092457
0.069560
0.104073
0.047283
0.069660
0.070348
0.062577
0.100632
0.058882
0.033623
0.046815
0.091254
0.075697
0.053099
0.080069
0.075823
0.089393
0.089174
0.103594
0.090045
0.088030
0.104708
0.050213
0.094839
0.105294
0.052970
0.121473
0.111030
0.055502
0.055289
0.055018
0.060002
0.074983
0.100764
0.040058
0.126063
0.059836
0.069860
0.063673
0.067094
0.046072
0.039885
0.143456
0.212308
Classification Time - C
0.027687
0.015542
0.017403
0.017359
0.015904
0.017926
0.016286
0.023760
0.015742
0.008412
0.008432
0.024117
0.029674
0.024393
0.020914
0.025041
0.025587
0.031237
0.021170
0.033670
0.025487
0.023013
0.032976
0.034386
0.025126
0.028022
0.033240
0.035346
0.030678
0.034890
0.032768
0.037985
0.049675
0.029800
0.030211
0.030182
0.045578
0.043908
0.035727
0.036603
0.042583
0.021818
0.017418
0.090324
0.066854
0.058235
0.042896
0.030971
0.041823
0.037800
0.020401
0.043155
0.066694
0.055785
0.058999
0.064817
0.053573
0.042749
0.040836
0.051403
0.062938
0.055502
0.071727
0.044219
0.044711
0.049446
0.045367
0.046366
0.046666
0.042322
0.029188
0.036507
0.030197
0.078587
0.086728
0.106515
0.116719
0.121286
0.105448
0.066036
0.093607
0.080746
0.029620
0.072520
0.111504
0.092145
0.095858
0.107583
0.033261
0.066749
0.081300
0.105719
0.062095
0.106548
0.087015
0.105489
0.077156
0.079070
0.089561
0.115197
0.075998
0.076501
0.085255
0.092461
0.067431
0.077684
0.079116
0.069581
0.101708
0.087445
0.114022
0.122367
0.107797
0.056513
0.137194
0.136823
0.113258
0.113276
0.123952
0.130592
0.135112
0.123132
0.083215
0.137673
0.077483
0.097644
0.077116
0.056809
0.058494
0.061956
0.058828
0.074484
0.127613
0.087174
0.138359
0.140785
0.137402
0.136743
0.123757
0.111768
0.208486
