Full Time (seconds)
0.132030
Incremental Time - I
0.000185
0.000227
0.000292
0.000266
0.000285
0.000332
0.000421
0.000405
0.000427
0.000513
0.000585
0.000950
0.001051
0.001242
0.001328
0.001498
0.001132
0.001936
0.001891
0.001992
0.002141
0.002200
0.002252
0.002372
0.002670
0.002452
0.002598
0.002743
0.002789
0.003098
0.003136
0.003769
0.003972
0.003985
0.004147
0.006371
0.008665
0.004293
0.004671
0.004511
0.002734
0.005765
0.003498
0.007791
0.008070
0.004048
0.006908
0.007182
0.004361
0.004469
0.008083
0.008893
0.008061
0.015524
0.012551
0.012249
0.019309
0.010027
0.012079
0.016238
0.008424
0.009328
0.009650
0.024203
0.021019
0.015716
0.028067
0.028844
0.021986
0.030407
0.033116
0.032616
0.033537
0.012367
0.021404
0.025167
0.026043
0.026686
0.022776
0.021915
0.048235
0.041087
0.081979
0.062256
0.039810
0.024339
0.038548
0.046843
0.026016
0.035098
0.032177
0.029197
0.032164
0.032605
0.022990
0.021656
0.022147
0.036004
0.037631
0.058149
0.069326
0.068423
0.117062
0.038529
0.040017
0.053254
0.058372
0.047152
0.025796
0.030718
0.030937
0.045885
0.047531
0.037524
0.054450
0.032426
0.146092
0.048166
0.080585
0.075101
0.057571
0.063943
0.094436
0.088311
0.037369
0.079767
0.072812
0.053613
0.055588
0.059170
0.059276
0.058629
0.059325
0.058945
0.053227
0.046549
0.037009
0.061048
0.093268
0.112858
0.068084
Classification Time - C
0.014991
0.015113
0.015438
0.015395
0.019487
0.015737
0.015347
0.015288
0.015599
0.015992
0.016394
0.018556
0.024016
0.019316
0.019814
0.016990
0.018671
0.018427
0.024957
0.021659
0.023907
0.021727
0.023490
0.024290
0.023664
0.043464
0.031376
0.025175
0.025137
0.026926
0.030904
0.028636
0.026325
0.026711
0.026719
0.044214
0.028292
0.026603
0.024376
0.032219
0.027009
0.017788
0.018570
0.033844
0.029849
0.039518
0.032274
0.032219
0.017476
0.017663
0.039925
0.060292
0.026355
0.048069
0.072647
0.037821
0.062483
0.036021
0.055471
0.057388
0.021011
0.021791
0.022287
0.043351
0.044543
0.071351
0.061450
0.071011
0.071964
0.066116
0.070641
0.069289
0.070050
0.034184
0.072206
0.045213
0.033253
0.055454
0.047302
0.051587
0.106617
0.114185
0.064100
0.123664
0.077324
0.042372
0.090595
0.080486
0.054565
0.040513
0.040144
0.050265
0.058629
0.059153
0.034746
0.035456
0.035312
0.047178
0.066494
0.097930
0.099040
0.116708
0.141974
0.064303
0.077904
0.074989
0.064456
0.066698
0.037442
0.043947
0.043809
0.061992
0.063278
0.052033
0.052041
0.072644
0.072188
0.081190
0.104357
0.097829
0.055545
0.072965
0.086450
0.064775
0.047555
0.070584
0.083572
0.084368
0.082022
0.082033
0.079994
0.079355
0.086484
0.080354
0.073842
0.045620
0.044266
0.045965
0.079812
0.132005
0.122189
