Full Time (seconds)
0.047792
Incremental Time - I
0.000186
0.000231
0.000282
0.000367
0.000321
0.000346
0.000386
0.000402
0.000481
0.000507
0.000555
0.000548
0.000541
0.000592
0.000661
0.000606
0.000632
0.000651
0.000713
0.000754
0.000766
0.001466
0.002630
0.001842
0.001974
0.002153
0.002317
0.002475
0.001668
0.003006
0.003182
0.003777
0.003967
0.003994
0.004121
0.004245
0.004421
0.004584
0.004423
0.004523
0.004362
0.005768
0.005834
0.006265
0.006544
0.006410
0.006521
0.006584
0.006881
0.007087
0.007281
0.005368
0.009158
0.010209
0.010252
0.010641
0.011096
0.011584
0.012039
0.012491
0.012897
0.014242
0.008609
0.010039
0.017878
0.018612
0.011101
0.016878
0.022745
0.022683
0.017774
0.019244
0.019658
0.021058
0.023651
0.030649
0.025532
0.021871
0.022317
0.022557
0.023165
0.025577
0.026074
0.026405
0.027237
0.028058
0.028621
0.029443
0.029683
0.029852
0.030144
0.032381
0.027612
0.033444
0.033143
0.035318
0.035644
0.036467
0.038706
0.038266
0.038284
0.022761
0.027072
0.026849
0.039062
0.050437
0.041519
0.044958
0.043747
0.046250
0.026032
0.048341
0.051020
0.033761
0.060093
0.068794
0.051223
0.031860
0.050090
0.050179
0.049039
0.052489
0.037252
0.077615
0.075735
0.101323
0.079846
0.058671
0.069579
0.065738
0.035644
0.063790
0.036682
0.074422
0.064149
0.068090
0.066015
0.067644
0.063324
0.076862
0.040539
Classification Time - C
0.017783
0.015003
0.014635
0.015967
0.015838
0.016082
0.011714
0.016706
0.020510
0.016468
0.016996
0.016956
0.016543
0.016288
0.020236
0.016482
0.016528
0.016424
0.016542
0.016653
0.017420
0.019763
0.020929
0.021687
0.021926
0.023239
0.023543
0.022971
0.012240
0.027876
0.027952
0.025475
0.026417
0.026296
0.026444
0.026366
0.044781
0.026333
0.029733
0.026951
0.026979
0.041114
0.028437
0.029364
0.023163
0.030664
0.036441
0.030645
0.031010
0.035186
0.031379
0.017790
0.033667
0.035630
0.035950
0.039015
0.040023
0.025587
0.036572
0.029642
0.039461
0.040515
0.021253
0.023817
0.048496
0.053381
0.045869
0.053615
0.060747
0.045314
0.043928
0.043656
0.044051
0.042200
0.058450
0.052937
0.047612
0.043027
0.043941
0.044155
0.044747
0.047046
0.047289
0.048339
0.048242
0.049380
0.049587
0.050442
0.050819
0.051738
0.052019
0.053586
0.048057
0.056186
0.056490
0.048078
0.081004
0.040310
0.061886
0.046854
0.068777
0.047204
0.064179
0.040119
0.063239
0.060797
0.069839
0.062409
0.069951
0.073078
0.055694
0.073095
0.072884
0.075709
0.093462
0.073845
0.075088
0.085941
0.070748
0.071248
0.055427
0.040131
0.102659
0.057937
0.077359
0.085050
0.096739
0.083129
0.069124
0.064174
0.044936
0.053589
0.053393
0.062902
0.067606
0.058983
0.118121
0.116647
0.104379
0.067892
0.054235
