Full Time (seconds)
0.318682
Incremental Time - I
0.082817
0.015605
0.061262
0.082053
0.095148
0.114179
0.149684
0.153108
0.181901
0.167324
0.182201
0.188624
0.255070
0.265274
0.125509
0.123791
0.322180
0.310614
0.160029
0.155163
0.170470
Classification Time - C
0.090952
0.046883
0.147250
0.174912
0.189404
0.205825
0.220034
0.148071
0.435564
0.201322
0.223630
0.224884
0.286835
0.283546
0.128839
0.123040
0.306055
0.137134
0.129002
0.129312
0.135697
