Full Time (seconds)
0.213972
Incremental Time - I
0.000148
0.000047
0.000061
0.000083
0.000070
0.000078
0.000108
0.000047
0.000068
0.000075
0.000094
0.000102
0.000128
0.000114
0.000126
0.000166
0.000133
0.000142
0.000167
0.000151
0.000155
0.000203
0.000173
0.000182
0.000233
0.000194
0.000195
0.000257
0.000222
0.000215
0.000296
0.000235
0.000246
0.000308
0.000255
0.000252
0.000331
0.000270
0.000275
0.002669
0.001359
0.001216
0.001324
0.001337
0.001272
0.001530
0.001371
0.001427
0.001525
0.001412
0.001334
0.001605
0.001414
0.001413
0.001465
0.001926
0.001527
0.001507
0.001347
0.001576
0.001544
0.001500
0.001446
0.001699
0.001542
0.001453
0.001619
0.001543
0.001486
0.001646
0.001752
0.001638
0.001773
0.001644
0.001532
0.001644
0.001923
0.001547
0.001582
0.001541
0.001599
0.001723
0.001537
0.001488
0.001679
0.001576
0.001502
0.001867
0.001642
0.001699
0.001837
0.001837
0.001723
0.001866
0.001769
0.001751
0.001997
0.001820
0.001858
0.001956
0.001887
0.001855
0.002001
0.002022
0.001811
0.001968
0.001868
0.001904
0.002202
0.002110
0.001954
0.002287
0.001951
0.001799
0.002247
0.001873
0.002062
0.002189
0.002088
0.002139
0.002169
0.002250
0.001992
0.002235
0.002109
0.001719
0.002066
0.001799
0.001982
0.002307
0.001976
0.001776
0.002227
0.001849
0.002004
0.002277
0.001920
0.001876
0.002109
0.001920
0.002159
0.002398
0.002287
0.002094
0.002303
0.002045
0.002138
0.002263
0.002190
0.002045
0.002329
0.002018
0.001560
0.001875
0.001595
0.001538
0.001881
0.001528
0.001519
0.001769
0.001574
0.001633
0.001778
0.001554
0.001548
0.001828
0.001576
0.001624
0.001844
0.001579
0.001626
0.001821
0.001530
0.001529
0.001720
0.001910
0.001784
0.002226
0.002188
0.002025
0.001943
0.001597
0.001571
0.002513
0.001644
0.001501
0.001804
0.001528
0.001501
0.001763
0.001510
0.001521
0.001810
0.001564
0.001451
0.001736
0.001514
0.001468
0.001722
0.001521
0.001789
0.002222
0.001793
0.002582
0.003336
0.002749
0.002529
0.002856
0.002629
0.002447
0.002848
Classification Time - I
0.003231
0.004451
0.006032
0.007218
0.008377
0.009944
0.010340
0.011152
0.012011
0.013129
0.014478
0.015934
0.017344
0.018279
0.019861
0.021000
0.022187
0.023754
0.024836
0.026031
0.027604
0.028782
0.029978
0.031658
0.032771
0.033949
0.035932
0.038515
0.040809
0.039066
0.040259
0.041309
0.042900
0.044264
0.045374
0.047167
0.048659
0.049199
0.050598
0.051807
0.052972
0.054591
0.055798
0.056714
0.058263
0.059606
0.060645
0.066139
0.063616
0.064696
0.066686
0.067554
0.068601
0.070176
0.071330
0.072687
0.074111
0.075174
0.076427
0.078040
0.079594
0.080233
0.081740
0.083520
0.084210
0.086016
0.086880
0.088542
0.089563
0.090727
0.092066
0.093413
0.094919
0.096338
0.097468
0.098582
0.099618
0.101818
0.102427
0.104011
0.105885
0.106230
0.107396
0.109303
0.109962
0.111659
0.112368
0.114297
0.115191
0.118026
0.118450
0.120753
0.120360
0.123463
0.122524
0.124289
0.125126
0.126718
0.127792
0.129224
0.130363
0.131930
0.133633
0.134252
0.136158
0.136831
0.138572
0.139326
0.140578
0.141731
0.143123
0.144558
0.145447
0.143238
0.136878
0.149648
0.150846
0.152069
0.153081
0.154591
0.155735
0.159850
0.149130
0.149665
0.148674
0.149579
0.151275
0.151867
0.153202
0.143598
0.165242
0.170106
0.171695
0.172282
0.163872
0.164247
0.162946
0.166484
0.179377
0.180093
0.182145
0.183075
0.186776
0.187302
0.175541
0.173156
0.174543
0.175688
0.176648
0.178300
0.166462
0.167725
0.168466
0.170230
0.170768
0.171992
0.161646
0.162525
0.163667
0.164772
0.165020
0.166486
0.167484
0.168435
0.169480
0.170464
0.171440
0.172694
0.173788
0.174620
0.164825
0.165547
0.166369
0.167595
0.168657
0.169231
0.170179
0.171116
0.171714
0.172922
0.174117
0.174981
0.165842
0.166983
0.167321
0.168535
0.169402
0.170155
0.171238
0.172449
0.173075
0.174055
0.165332
0.166595
0.167034
0.167785
0.168685
0.169577
0.170484
0.171501
0.163376
0.263697
0.260395
0.262411
0.257247
0.244397
0.245908
0.240644
0.229944
0.231552
