Full Time (seconds)
0.250900
Incremental Time - I
0.000147
0.000048
0.000061
0.000081
0.000040
0.000059
0.000053
0.000076
0.000086
0.000108
0.000096
0.000101
0.000129
0.000115
0.000125
0.000169
0.000133
0.000142
0.000168
0.000149
0.000160
0.000203
0.000183
0.000180
0.000233
0.000206
0.000203
0.000256
0.000221
0.000219
0.000301
0.000228
0.000231
0.000331
0.000255
0.000250
0.000331
0.000267
0.000270
0.002491
0.001534
0.001241
0.001469
0.001322
0.001282
0.001421
0.001436
0.001338
0.001308
0.001419
0.001460
0.001380
0.001355
0.001284
0.001379
0.001469
0.001295
0.001451
0.001416
0.001394
0.002416
0.001255
0.001372
0.001373
0.001450
0.001221
0.001331
0.001223
0.001211
0.001357
0.001322
0.002378
0.001750
0.001944
0.001883
0.001735
0.001296
0.001239
0.001709
0.001759
0.001335
0.001475
0.001332
0.001329
0.001501
0.001376
0.001352
0.001546
0.001410
0.001379
0.001540
0.001425
0.001398
0.001598
0.001419
0.001411
0.001613
0.001424
0.001396
0.001627
0.001463
0.001460
0.001666
0.001359
0.001382
0.001575
0.001491
0.001484
0.001699
0.001470
0.001467
0.001687
0.001532
0.001527
0.001774
0.001552
0.001558
0.001977
0.001679
0.001695
0.002028
0.001945
0.001895
0.002177
0.001987
0.002064
0.002508
0.002149
0.002015
0.002124
0.002118
0.002014
0.002313
0.002073
0.002095
0.002333
0.002030
0.002266
0.002383
0.002067
0.001884
0.002286
0.001959
0.001894
0.002161
0.002198
0.001897
0.002092
0.001945
0.001830
0.002050
0.001848
0.001933
0.002069
0.001977
0.001991
0.002355
0.001899
0.001894
0.002081
0.001889
0.001832
0.002108
0.001869
0.001930
0.002084
0.001508
0.001516
0.001764
0.001446
0.001467
0.001698
0.001424
0.001380
0.001642
0.001438
0.001524
0.001647
0.001461
0.001478
0.001697
0.001470
0.001474
0.001751
0.001452
0.001462
0.002384
0.002002
0.001881
0.002217
0.002043
0.002078
0.002210
0.001998
0.001880
0.002203
0.002276
0.002215
0.002311
0.002129
0.002158
0.002521
0.002147
0.002403
0.002697
0.002243
0.002287
0.002824
0.002514
0.002705
0.003573
Classification Time - I
0.003250
0.004454
0.006004
0.006410
0.007183
0.007980
0.009171
0.010373
0.012407
0.013697
0.015030
0.015942
0.017385
0.018550
0.019866
0.021120
0.022219
0.023797
0.024951
0.026094
0.027671
0.028845
0.030025
0.031686
0.032783
0.033999
0.035532
0.036894
0.037993
0.039166
0.040344
0.041492
0.043054
0.044207
0.045375
0.046838
0.048709
0.049292
0.050818
0.051945
0.053370
0.054779
0.056332
0.056917
0.058580
0.059702
0.060897
0.062634
0.064018
0.069302
0.069989
0.067308
0.068979
0.069955
0.071240
0.072594
0.074487
0.075195
0.077861
0.078529
0.080914
0.080437
0.081812
0.082879
0.084377
0.085868
0.086992
0.089715
0.089950
0.091377
0.091758
0.093500
0.094861
0.095923
0.097322
0.098963
0.099833
0.101291
0.102874
0.103439
0.104935
0.108112
0.107339
0.108916
0.109925
0.111984
0.113031
0.113809
0.114900
0.116727
0.119369
0.120576
0.122296
0.121923
0.122930
0.126835
0.125163
0.128725
0.128916
0.129570
0.133042
0.134440
0.124827
0.124397
0.138378
0.137459
0.138849
0.140991
0.142506
0.144127
0.143249
0.144391
0.145978
0.147240
0.150355
0.149974
0.153265
0.140563
0.141619
0.154806
0.156923
0.157421
0.158649
0.160226
0.162926
0.156224
0.153061
0.154098
0.156358
0.157431
0.155773
0.157441
0.158714
0.159056
0.163612
0.167507
0.179823
0.177788
0.165143
0.166106
0.167503
0.168559
0.171004
0.171833
0.175823
0.173382
0.165726
0.163399
0.166839
0.165417
0.166438
0.167564
0.168508
0.169714
0.174050
0.172185
0.164874
0.162583
0.166548
0.164858
0.165675
0.166750
0.167984
0.168696
0.161665
0.162079
0.161248
0.164783
0.164839
0.163640
0.161662
0.159087
0.159576
0.157985
0.158986
0.159686
0.160488
0.161920
0.161806
0.166223
0.164069
0.165545
0.166129
0.236555
0.167451
0.238927
0.229857
0.222840
0.210002
0.206553
0.183963
0.183006
0.175515
0.176356
0.177123
0.184084
0.192769
0.191923
0.192229
0.192877
0.194367
0.194747
0.205908
0.209852
0.210712
0.220126
0.228164
0.229094
0.268945
0.269764
