Full Time (seconds)
0.371191
Incremental Time - I
0.033426
0.004168
0.017857
0.016302
0.039181
0.042377
0.057491
0.072793
0.070991
0.062031
0.076262
0.003111
0.002651
0.002481
0.002231
0.003161
0.002672
0.005744
0.005724
0.003934
0.003081
Classification Time - I
0.059437
0.174871
0.253148
0.323266
0.418304
0.488136
0.491636
0.443680
0.660099
0.694334
0.469801
0.409626
0.352762
0.637905
0.359117
0.601092
0.606693
0.526230
0.450157
0.387554
