Full Accuracy
87.036766
Accuracy - I
50.000000
50.000000
50.000000
50.000000
50.000000
50.000000
50.000000
50.000000
50.000000
50.000000
50.000000
75.217819
80.581314
84.548729
86.932487
87.903534
88.129669
88.093719
87.566628
87.630051
87.036766
