Full Time (seconds)
0.250503
Time - I
0.002276
0.005103
0.004674
0.006172
0.008034
0.009585
0.010693
0.010942
0.012420
0.013433
0.015099
0.015724
0.018979
0.018278
0.019429
0.020989
0.021439
0.023302
0.022601
0.023689
0.026154
0.026232
0.027298
0.028392
0.029917
0.030968
0.032940
0.033524
0.034603
0.037619
0.037318
0.041238
0.039960
0.042725
0.041726
0.042828
0.044262
0.047365
0.048470
0.051063
0.049347
0.051950
0.053504
0.052347
0.053396
0.054860
0.056712
0.060542
0.061222
0.061819
0.060838
0.061967
0.063004
0.066321
0.068642
0.069199
0.068209
0.074958
0.072560
0.071439
0.073282
0.074451
0.074792
0.076646
0.078055
0.080832
0.082853
0.083062
0.081888
0.085731
0.086412
0.087961
0.094382
0.087897
0.090346
0.096661
0.091695
0.092908
0.094767
0.095190
0.099278
0.103111
0.098668
0.099785
0.101201
0.102477
0.104842
0.106771
0.107558
0.115391
0.111305
0.111474
0.111504
0.114690
0.115242
0.116831
0.118620
0.124820
0.121636
0.123367
0.124355
0.122700
0.125287
0.123944
0.124606
0.140252
0.130486
0.129988
0.130181
0.133061
0.134892
0.135887
0.138178
0.138604
0.136736
0.141877
0.140923
0.142892
0.142321
0.145781
0.146489
0.146077
0.150009
0.149055
0.150937
0.161219
0.155127
0.156474
0.156974
0.160632
0.188458
0.159452
0.161621
0.162002
0.163361
0.165026
0.165544
0.168339
0.169441
0.170923
0.175497
0.169380
0.160114
0.160909
0.162960
0.163243
0.163017
0.177570
0.177508
0.180763
0.181877
0.180719
0.182463
0.183273
0.188326
0.182818
0.175890
0.196937
0.176959
0.190577
0.193277
0.194375
0.196669
0.183952
0.212198
0.197242
0.177405
0.186680
0.182411
0.175058
0.175091
0.175769
0.178830
0.181600
0.178077
0.173545
0.172500
0.173060
0.167311
0.163640
0.157686
0.149492
0.233914
0.218139
0.219722
0.223874
0.227391
0.223449
0.224020
0.230727
0.227074
0.216240
0.216412
0.229940
0.239382
0.229724
0.233936
0.222989
0.220764
0.222701
0.224114
0.216066
0.241262
0.243844
0.248311
0.247490
0.256255
0.232026
0.268144
0.244783
0.251250
