Full Time (seconds)
0.309019
Incremental Time - I
0.000119
0.000037
0.000037
0.000039
0.000250
0.000318
0.000421
0.000713
0.000848
0.001060
0.001495
0.001578
0.001892
0.002327
0.002732
0.003139
0.003864
0.004124
0.004521
0.005087
0.005415
0.006160
0.006702
0.007023
0.007469
0.008500
0.009057
0.009742
0.011417
0.011532
0.013171
0.013669
0.014313
0.014693
0.016558
0.017143
0.017786
0.020570
0.021693
0.021613
0.024357
0.023582
0.024553
0.026557
0.027399
0.030529
0.032660
0.031190
0.031841
0.036226
0.037306
0.038617
0.041003
0.042244
0.041127
0.043317
0.044328
0.045462
0.049343
0.052396
0.050877
0.053973
0.057851
0.056266
0.063087
0.064635
0.062364
0.069619
0.070266
0.068161
0.075564
0.077275
0.074584
0.077119
0.082786
0.080586
0.085619
0.090690
0.086937
0.094591
0.091494
0.099774
0.096882
0.100130
0.100205
0.110263
0.105201
0.107908
0.119083
0.120637
0.121806
0.123386
0.120234
0.131848
0.126256
0.115678
0.131099
0.133291
0.137156
0.139900
0.144720
0.146325
0.149576
0.154073
0.155060
0.156622
0.161455
0.163745
0.166804
0.171594
0.170922
0.174434
0.179208
0.181874
0.198103
0.192153
0.194465
0.200636
0.212932
0.210980
0.207649
0.217601
0.213567
0.216996
0.232347
0.224585
0.228041
0.248517
0.235177
0.238235
0.243473
0.246919
0.250553
0.256246
0.258541
0.260361
0.266547
0.268195
0.271620
0.277870
0.296452
0.281295
0.286795
0.290317
0.289128
0.303086
0.305251
0.308020
0.313988
0.315688
0.319640
0.327493
0.321697
0.336030
0.339679
0.329513
0.345317
0.349047
0.345292
0.361567
0.360774
0.370679
0.375680
0.363138
0.388859
0.380369
0.398621
0.402245
0.407552
0.414286
0.416890
0.323478
0.423562
0.429639
0.415993
0.450069
0.428680
0.445887
0.349845
0.336991
0.462693
0.466296
0.474972
0.479054
0.476870
0.471101
0.497191
0.489817
0.505426
0.503214
0.492661
0.521923
0.492540
0.538224
0.522461
0.545041
0.522758
0.538720
0.555785
0.513264
0.389968
0.547666
0.595866
0.580338
0.547399
0.417678
0.381233
0.596948
0.576927
0.592329
0.348466
Classification Time - C
cat: testS_0.svm.time: No such file or directory
cat: test1II_0000.svm.time: No such file or directory
cat: test1II_0001.svm.time: No such file or directory
cat: test1II_0002.svm.time: No such file or directory
cat: test2II_0000.svm.time: No such file or directory
cat: test2II_0001.svm.time: No such file or directory
cat: test2II_0002.svm.time: No such file or directory
cat: test3II_0000.svm.time: No such file or directory
cat: test3II_0001.svm.time: No such file or directory
cat: test3II_0002.svm.time: No such file or directory
cat: test4II_0000.svm.time: No such file or directory
cat: test4II_0001.svm.time: No such file or directory
cat: test4II_0002.svm.time: No such file or directory
cat: test5II_0000.svm.time: No such file or directory
cat: test5II_0001.svm.time: No such file or directory
cat: test5II_0002.svm.time: No such file or directory
cat: test6II_0000.svm.time: No such file or directory
cat: test6II_0001.svm.time: No such file or directory
cat: test6II_0002.svm.time: No such file or directory
cat: test7II_0000.svm.time: No such file or directory
0.087777
0.089086
0.089841
0.090967
0.093956
0.093036
0.094100
cat: test9II_0002.svm.time: No such file or directory
cat: test10II_0000.svm.time: No such file or directory
cat: test10II_0001.svm.time: No such file or directory
cat: test10II_0002.svm.time: No such file or directory
0.102624
0.104137
0.106485
0.107015
0.109287
0.110740
0.111299
0.112820
0.116107
0.118250
0.118673
0.120810
0.122090
0.124800
0.127022
cat: test16II_0000.svm.time: No such file or directory
cat: test16II_0001.svm.time: No such file or directory
cat: test16II_0002.svm.time: No such file or directory
cat: test17II_0000.svm.time: No such file or directory
cat: test17II_0001.svm.time: No such file or directory
cat: test17II_0002.svm.time: No such file or directory
cat: test18II_0000.svm.time: No such file or directory
cat: test18II_0001.svm.time: No such file or directory
cat: test18II_0002.svm.time: No such file or directory
cat: test19II_0000.svm.time: No such file or directory
cat: test19II_0001.svm.time: No such file or directory
cat: test19II_0002.svm.time: No such file or directory
cat: test20II_0000.svm.time: No such file or directory
cat: test20II_0001.svm.time: No such file or directory
cat: test20II_0002.svm.time: No such file or directory
cat: test21II_0000.svm.time: No such file or directory
cat: test21II_0001.svm.time: No such file or directory
cat: test21II_0002.svm.time: No such file or directory
cat: test22II_0000.svm.time: No such file or directory
cat: test22II_0001.svm.time: No such file or directory
cat: test22II_0002.svm.time: No such file or directory
cat: test23II_0000.svm.time: No such file or directory
cat: test23II_0001.svm.time: No such file or directory
cat: test23II_0002.svm.time: No such file or directory
cat: test24II_0000.svm.time: No such file or directory
cat: test24II_0001.svm.time: No such file or directory
cat: test24II_0002.svm.time: No such file or directory
cat: test25II_0000.svm.time: No such file or directory
cat: test25II_0001.svm.time: No such file or directory
cat: test25II_0002.svm.time: No such file or directory
cat: test26II_0000.svm.time: No such file or directory
cat: test26II_0001.svm.time: No such file or directory
cat: test26II_0002.svm.time: No such file or directory
cat: test27II_0000.svm.time: No such file or directory
cat: test27II_0001.svm.time: No such file or directory
cat: test27II_0002.svm.time: No such file or directory
cat: test28II_0000.svm.time: No such file or directory
cat: test28II_0001.svm.time: No such file or directory
cat: test28II_0002.svm.time: No such file or directory
cat: test29II_0000.svm.time: No such file or directory
cat: test29II_0001.svm.time: No such file or directory
cat: test29II_0002.svm.time: No such file or directory
cat: test30II_0000.svm.time: No such file or directory
cat: test30II_0001.svm.time: No such file or directory
cat: test30II_0002.svm.time: No such file or directory
cat: test31II_0000.svm.time: No such file or directory
cat: test31II_0001.svm.time: No such file or directory
cat: test31II_0002.svm.time: No such file or directory
cat: test32II_0000.svm.time: No such file or directory
cat: test32II_0001.svm.time: No such file or directory
cat: test32II_0002.svm.time: No such file or directory
cat: test33II_0000.svm.time: No such file or directory
cat: test33II_0001.svm.time: No such file or directory
cat: test33II_0002.svm.time: No such file or directory
cat: test34II_0000.svm.time: No such file or directory
cat: test34II_0001.svm.time: No such file or directory
cat: test34II_0002.svm.time: No such file or directory
0.218365
0.223365
0.225547
0.226681
0.239351
0.226974
0.224596
0.231849
0.227815
0.224426
0.236343
0.221795
cat: test39II_0000.svm.time: No such file or directory
cat: test39II_0001.svm.time: No such file or directory
cat: test39II_0002.svm.time: No such file or directory
cat: test40II_0000.svm.time: No such file or directory
cat: test40II_0001.svm.time: No such file or directory
cat: test40II_0002.svm.time: No such file or directory
cat: test41II_0000.svm.time: No such file or directory
cat: test41II_0001.svm.time: No such file or directory
cat: test41II_0002.svm.time: No such file or directory
cat: test42II_0000.svm.time: No such file or directory
cat: test42II_0001.svm.time: No such file or directory
cat: test42II_0002.svm.time: No such file or directory
cat: test43II_0000.svm.time: No such file or directory
cat: test43II_0001.svm.time: No such file or directory
cat: test43II_0002.svm.time: No such file or directory
cat: test44II_0000.svm.time: No such file or directory
cat: test44II_0001.svm.time: No such file or directory
cat: test44II_0002.svm.time: No such file or directory
cat: test45II_0000.svm.time: No such file or directory
cat: test45II_0001.svm.time: No such file or directory
cat: test45II_0002.svm.time: No such file or directory
cat: test46II_0000.svm.time: No such file or directory
cat: test46II_0001.svm.time: No such file or directory
cat: test46II_0002.svm.time: No such file or directory
0.290462
0.293691
0.295836
0.274439
0.295734
0.269170
0.256955
0.305552
0.301810
0.261112
0.262479
0.311163
0.282713
0.277724
0.269722
0.320889
0.277059
0.282223
0.277980
0.282404
0.285296
0.283223
0.332887
0.337172
0.276810
0.272328
0.341623
0.343931
0.296366
0.346876
0.350320
0.201903
0.356736
0.362454
0.334558
0.296637
0.317896
0.362841
0.208285
0.256777
0.372016
0.316678
0.213507
0.375585
0.387509
0.302610
0.304242
0.220183
0.388031
0.387219
0.389394
0.303080
0.395792
0.300188
0.239351
0.405315
0.403036
0.307314
0.394558
0.498532
0.309737
0.417258
0.400823
0.421489
0.426219
0.298572
0.258283
0.429808
0.413351
0.327392
0.249405
0.436350
