Full Time (seconds)
0.016916
Time - I
0.002037
0.002697
0.003483
0.006406
0.004687
0.005657
0.005987
0.006843
0.008200
0.007940
0.009088
0.009452
0.010196
0.020105
0.017651
0.012704
0.012898
0.015151
0.014327
0.016154
0.015862
