Full Time (seconds)
0.107273
Time - I
0.004688
0.008818
0.013023
0.018738
0.021843
0.026137
0.029875
0.035860
0.038301
0.041779
0.046230
0.051841
0.057861
0.070268
0.072462
0.079346
0.082050
0.089044
0.094719
0.100991
0.107188
