Full Time (seconds)
0.111426
Time - I
0.004563
0.009041
0.013343
0.017684
0.021768
0.025709
0.030222
0.036443
0.038250
0.045673
0.046260
0.052338
0.061416
0.083744
0.070248
0.076316
0.081389
0.081859
0.082616
0.102896
0.107237
