Full Time (seconds)
0.340264
Incremental Time - I
0.033968
0.003637
0.006599
0.009476
0.011929
0.014537
0.017776
0.017094
0.016534
0.019215
0.019044
0.021016
0.019668
0.018910
0.020537
0.018801
0.017179
0.018483
0.018813
0.020884
0.022637
Classification Time - I
0.064409
0.104337
0.145429
0.180052
0.217141
0.228789
0.248463
0.234710
0.251105
0.257453
0.264450
0.268229
0.255584
0.251902
0.258616
0.242341
0.248793
0.257814
0.272918
0.286109
