Full Time (seconds)
0.287985
Time - I
0.161197
0.115753
0.194905
0.262643
0.291760
0.335065
0.339026
0.322302
0.302721
0.296192
0.299486
0.283146
0.285970
0.282965
0.270545
0.565044
0.356852
0.347689
0.331078
0.316406
0.289253
