Full Time (seconds)
0.134804
Incremental Time - I
0.000299
0.000289
0.000330
0.000373
0.000402
0.000451
0.000458
0.000575
0.000586
0.000582
0.000209
0.001287
0.001560
0.001774
0.002073
0.002420
0.002623
0.003389
0.002524
0.002700
0.002895
0.004227
0.004939
0.005369
0.005743
0.006223
0.006600
0.006754
0.007650
0.007850
0.008352
0.009502
0.010086
0.010153
0.010134
0.010312
0.010576
0.010805
0.010691
0.010886
0.011340
0.013326
0.013491
0.014775
0.015251
0.015427
0.015124
0.015190
0.015749
0.016246
0.016632
0.019729
0.021094
0.022186
0.023424
0.024302
0.025286
0.025217
0.026113
0.027676
0.028393
0.031822
0.032765
0.033263
0.033792
0.034146
0.034197
0.035478
0.035812
0.035101
0.035477
0.040157
0.039828
0.043321
0.043771
0.044279
0.044675
0.045553
0.044535
0.045270
0.046485
0.051125
0.053920
0.054480
0.054009
0.057374
0.058562
0.060116
0.060369
0.058823
0.061283
0.063971
0.067524
0.065833
0.068576
0.070012
0.068665
0.068982
0.069037
0.072183
0.071862
0.070666
0.073312
0.071166
0.071903
0.071785
0.074628
0.072239
0.072861
0.076188
0.073167
0.081589
0.080410
0.082200
0.085818
0.084225
0.086008
0.085829
0.086476
0.086763
0.088390
0.092410
0.097107
0.094841
0.096060
0.099261
0.096128
0.098319
0.099740
0.098717
0.103244
0.105180
0.107181
0.105979
0.107712
0.108062
0.109309
0.110435
0.111084
0.116445
0.112878
Classification Time - C
cat: testS_0.svm.time: No such file or directory
cat: test1II_0000.svm.time: No such file or directory
cat: test1II_0001.svm.time: No such file or directory
cat: test1II_0002.svm.time: No such file or directory
cat: test1II_0003.svm.time: No such file or directory
cat: test1II_0004.svm.time: No such file or directory
cat: test1II_0005.svm.time: No such file or directory
cat: test1II_0006.svm.time: No such file or directory
cat: test1II_0007.svm.time: No such file or directory
cat: test1II_0008.svm.time: No such file or directory
cat: test1II_0009.svm.time: No such file or directory
cat: test2II_0000.svm.time: No such file or directory
cat: test2II_0001.svm.time: No such file or directory
cat: test2II_0002.svm.time: No such file or directory
cat: test2II_0003.svm.time: No such file or directory
cat: test2II_0004.svm.time: No such file or directory
cat: test2II_0005.svm.time: No such file or directory
cat: test2II_0006.svm.time: No such file or directory
cat: test2II_0007.svm.time: No such file or directory
cat: test2II_0008.svm.time: No such file or directory
cat: test2II_0009.svm.time: No such file or directory
cat: test3II_0000.svm.time: No such file or directory
cat: test3II_0001.svm.time: No such file or directory
cat: test3II_0002.svm.time: No such file or directory
cat: test3II_0003.svm.time: No such file or directory
cat: test3II_0004.svm.time: No such file or directory
cat: test3II_0005.svm.time: No such file or directory
cat: test3II_0006.svm.time: No such file or directory
cat: test3II_0007.svm.time: No such file or directory
cat: test3II_0008.svm.time: No such file or directory
cat: test3II_0009.svm.time: No such file or directory
cat: test4II_0000.svm.time: No such file or directory
cat: test4II_0001.svm.time: No such file or directory
cat: test4II_0002.svm.time: No such file or directory
cat: test4II_0003.svm.time: No such file or directory
cat: test4II_0004.svm.time: No such file or directory
cat: test4II_0005.svm.time: No such file or directory
cat: test4II_0006.svm.time: No such file or directory
cat: test4II_0007.svm.time: No such file or directory
cat: test4II_0008.svm.time: No such file or directory
cat: test4II_0009.svm.time: No such file or directory
cat: test5II_0000.svm.time: No such file or directory
cat: test5II_0001.svm.time: No such file or directory
cat: test5II_0002.svm.time: No such file or directory
cat: test5II_0003.svm.time: No such file or directory
cat: test5II_0004.svm.time: No such file or directory
cat: test5II_0005.svm.time: No such file or directory
cat: test5II_0006.svm.time: No such file or directory
cat: test5II_0007.svm.time: No such file or directory
cat: test5II_0008.svm.time: No such file or directory
cat: test5II_0009.svm.time: No such file or directory
cat: test6II_0000.svm.time: No such file or directory
cat: test6II_0001.svm.time: No such file or directory
cat: test6II_0002.svm.time: No such file or directory
cat: test6II_0003.svm.time: No such file or directory
cat: test6II_0004.svm.time: No such file or directory
cat: test6II_0005.svm.time: No such file or directory
cat: test6II_0006.svm.time: No such file or directory
cat: test6II_0007.svm.time: No such file or directory
cat: test6II_0008.svm.time: No such file or directory
cat: test6II_0009.svm.time: No such file or directory
cat: test7II_0000.svm.time: No such file or directory
cat: test7II_0001.svm.time: No such file or directory
cat: test7II_0002.svm.time: No such file or directory
cat: test7II_0003.svm.time: No such file or directory
cat: test7II_0004.svm.time: No such file or directory
cat: test7II_0005.svm.time: No such file or directory
cat: test7II_0006.svm.time: No such file or directory
cat: test7II_0007.svm.time: No such file or directory
cat: test7II_0008.svm.time: No such file or directory
cat: test7II_0009.svm.time: No such file or directory
cat: test8II_0000.svm.time: No such file or directory
cat: test8II_0001.svm.time: No such file or directory
cat: test8II_0002.svm.time: No such file or directory
cat: test8II_0003.svm.time: No such file or directory
cat: test8II_0004.svm.time: No such file or directory
cat: test8II_0005.svm.time: No such file or directory
cat: test8II_0006.svm.time: No such file or directory
cat: test8II_0007.svm.time: No such file or directory
cat: test8II_0008.svm.time: No such file or directory
cat: test8II_0009.svm.time: No such file or directory
cat: test9II_0000.svm.time: No such file or directory
cat: test9II_0001.svm.time: No such file or directory
cat: test9II_0002.svm.time: No such file or directory
cat: test9II_0003.svm.time: No such file or directory
cat: test9II_0004.svm.time: No such file or directory
cat: test9II_0005.svm.time: No such file or directory
cat: test9II_0006.svm.time: No such file or directory
cat: test9II_0007.svm.time: No such file or directory
cat: test9II_0008.svm.time: No such file or directory
cat: test9II_0009.svm.time: No such file or directory
0.095890
0.097637
0.100005
0.100016
0.100674
0.100416
0.102521
0.102588
0.102848
0.102537
0.102158
0.104367
0.104055
0.102630
0.102878
0.104945
0.104360
0.102975
0.103388
0.103243
0.107581
0.106590
0.119228
0.109975
0.109218
0.110610
0.111608
0.112617
0.114251
0.114727
0.117441
0.118228
0.119070
0.120342
0.122077
0.122349
0.122985
0.123449
0.123249
0.124202
0.126937
0.127477
0.128320
0.130946
0.131406
0.131890
0.132259
0.131716
0.131022
0.130965
