Full Time (seconds)
0.131165
Incremental Time - I
0.000315
0.000387
0.000374
0.000446
0.000484
0.000572
0.000644
0.000778
0.000775
0.000873
0.000916
0.001699
0.001906
0.002156
0.002373
0.002706
0.003017
0.003256
0.003331
0.003575
0.003873
0.005450
0.005946
0.006162
0.006746
0.006983
0.007517
0.007777
0.008692
0.009285
0.009570
0.011181
0.011546
0.011624
0.011480
0.012160
0.012101
0.012346
0.012642
0.012408
0.012877
0.015368
0.015109
0.016610
0.017004
0.016227
0.017301
0.017023
0.017949
0.018483
0.018893
0.022307
0.022732
0.024297
0.024174
0.024982
0.025924
0.027862
0.028749
0.030031
0.030777
0.033622
0.034582
0.034999
0.035571
0.035664
0.037042
0.037147
0.037706
0.038233
0.038750
0.041002
0.042851
0.045253
0.043959
0.046305
0.046636
0.045527
0.047368
0.048626
0.050123
0.053367
0.054132
0.056643
0.058023
0.059469
0.059462
0.060146
0.070041
0.060941
0.062095
0.067920
0.067334
0.068124
0.068831
0.070506
0.070878
0.073732
0.078865
0.072632
0.072824
0.080831
0.078611
0.079333
0.083296
0.081391
0.082431
0.082712
0.083460
0.087978
0.085309
0.089713
0.087173
0.087218
0.087024
0.088295
0.087859
0.100895
0.089070
0.088101
0.088929
0.096475
0.097921
0.098941
0.096538
0.098319
0.097122
0.101464
0.112364
0.103856
0.099923
0.108141
0.105950
0.107995
0.121477
0.113014
0.124918
0.111009
0.112241
0.116990
0.114219
Classification Time - C
cat: testS_0.svm.time: No such file or directory
cat: test1II_0000.svm.time: No such file or directory
cat: test1II_0001.svm.time: No such file or directory
cat: test1II_0002.svm.time: No such file or directory
cat: test1II_0003.svm.time: No such file or directory
cat: test1II_0004.svm.time: No such file or directory
cat: test1II_0005.svm.time: No such file or directory
cat: test1II_0006.svm.time: No such file or directory
cat: test1II_0007.svm.time: No such file or directory
cat: test1II_0008.svm.time: No such file or directory
cat: test1II_0009.svm.time: No such file or directory
cat: test2II_0000.svm.time: No such file or directory
cat: test2II_0001.svm.time: No such file or directory
cat: test2II_0002.svm.time: No such file or directory
cat: test2II_0003.svm.time: No such file or directory
cat: test2II_0004.svm.time: No such file or directory
cat: test2II_0005.svm.time: No such file or directory
cat: test2II_0006.svm.time: No such file or directory
cat: test2II_0007.svm.time: No such file or directory
cat: test2II_0008.svm.time: No such file or directory
cat: test2II_0009.svm.time: No such file or directory
cat: test3II_0000.svm.time: No such file or directory
cat: test3II_0001.svm.time: No such file or directory
cat: test3II_0002.svm.time: No such file or directory
cat: test3II_0003.svm.time: No such file or directory
cat: test3II_0004.svm.time: No such file or directory
cat: test3II_0005.svm.time: No such file or directory
cat: test3II_0006.svm.time: No such file or directory
cat: test3II_0007.svm.time: No such file or directory
cat: test3II_0008.svm.time: No such file or directory
cat: test3II_0009.svm.time: No such file or directory
cat: test4II_0000.svm.time: No such file or directory
cat: test4II_0001.svm.time: No such file or directory
cat: test4II_0002.svm.time: No such file or directory
cat: test4II_0003.svm.time: No such file or directory
cat: test4II_0004.svm.time: No such file or directory
cat: test4II_0005.svm.time: No such file or directory
cat: test4II_0006.svm.time: No such file or directory
cat: test4II_0007.svm.time: No such file or directory
cat: test4II_0008.svm.time: No such file or directory
cat: test4II_0009.svm.time: No such file or directory
cat: test5II_0000.svm.time: No such file or directory
cat: test5II_0001.svm.time: No such file or directory
cat: test5II_0002.svm.time: No such file or directory
cat: test5II_0003.svm.time: No such file or directory
cat: test5II_0004.svm.time: No such file or directory
cat: test5II_0005.svm.time: No such file or directory
cat: test5II_0006.svm.time: No such file or directory
cat: test5II_0007.svm.time: No such file or directory
cat: test5II_0008.svm.time: No such file or directory
cat: test5II_0009.svm.time: No such file or directory
cat: test6II_0000.svm.time: No such file or directory
cat: test6II_0001.svm.time: No such file or directory
cat: test6II_0002.svm.time: No such file or directory
cat: test6II_0003.svm.time: No such file or directory
cat: test6II_0004.svm.time: No such file or directory
cat: test6II_0005.svm.time: No such file or directory
cat: test6II_0006.svm.time: No such file or directory
cat: test6II_0007.svm.time: No such file or directory
cat: test6II_0008.svm.time: No such file or directory
cat: test6II_0009.svm.time: No such file or directory
cat: test7II_0000.svm.time: No such file or directory
cat: test7II_0001.svm.time: No such file or directory
cat: test7II_0002.svm.time: No such file or directory
cat: test7II_0003.svm.time: No such file or directory
cat: test7II_0004.svm.time: No such file or directory
cat: test7II_0005.svm.time: No such file or directory
cat: test7II_0006.svm.time: No such file or directory
cat: test7II_0007.svm.time: No such file or directory
cat: test7II_0008.svm.time: No such file or directory
cat: test7II_0009.svm.time: No such file or directory
cat: test8II_0000.svm.time: No such file or directory
cat: test8II_0001.svm.time: No such file or directory
cat: test8II_0002.svm.time: No such file or directory
cat: test8II_0003.svm.time: No such file or directory
cat: test8II_0004.svm.time: No such file or directory
cat: test8II_0005.svm.time: No such file or directory
cat: test8II_0006.svm.time: No such file or directory
cat: test8II_0007.svm.time: No such file or directory
cat: test8II_0008.svm.time: No such file or directory
cat: test8II_0009.svm.time: No such file or directory
cat: test9II_0000.svm.time: No such file or directory
cat: test9II_0001.svm.time: No such file or directory
cat: test9II_0002.svm.time: No such file or directory
cat: test9II_0003.svm.time: No such file or directory
cat: test9II_0004.svm.time: No such file or directory
cat: test9II_0005.svm.time: No such file or directory
cat: test9II_0006.svm.time: No such file or directory
cat: test9II_0007.svm.time: No such file or directory
cat: test9II_0008.svm.time: No such file or directory
cat: test9II_0009.svm.time: No such file or directory
0.097117
0.112395
0.101020
0.102556
0.102186
0.103342
0.104128
0.103460
0.105024
0.117010
0.106128
0.106335
0.108337
0.107574
0.108521
0.110495
0.109510
0.109744
0.110239
0.110268
0.110939
0.111787
0.111610
0.112082
0.113039
0.112823
0.113072
0.114818
0.113251
0.114298
0.116932
0.118185
0.121165
0.121185
0.125739
0.124264
0.122897
0.123154
0.125226
0.123876
0.126421
0.127243
0.128698
0.145933
0.131318
0.129835
0.132415
0.147494
0.133189
0.130988
