Full Accuracy
84.561043
Accuracy - I
50.000000
50.000000
50.579708
50.000000
50.724636
50.000000
50.724636
50.000000
50.000000
50.000000
50.000000
50.000000
50.000000
50.000000
50.000000
51.159416
66.046928
51.376812
68.219391
51.376812
70.858856
71.299721
71.299721
71.299721
71.299721
71.299721
71.299721
71.299721
51.449276
84.783409
51.521736
87.766289
51.594204
88.063812
83.359550
84.166870
84.974190
84.022835
84.561043
84.291367
84.291367
