Full Time (seconds)
0.005676
Incremental Time - I
0.002451
0.000093
0.000097
0.000097
0.000097
0.000107
0.000128
0.000120
0.000122
0.000119
0.000128
0.000127
0.000159
0.000151
0.000146
0.000145
0.000165
0.002115
0.002030
0.002110
0.001839
0.000918
0.000793
0.000853
0.000835
0.000779
0.000795
0.000817
0.001809
0.001793
0.001796
Classification Time - I
0.001349
0.001408
0.001511
0.001566
0.001686
0.001785
0.001911
0.001990
0.002101
0.002221
0.002314
0.002441
0.002537
0.003114
0.002796
0.002941
0.003548
0.003198
0.003286
0.003736
0.003573
0.003701
0.004187
0.003889
0.004018
0.004181
0.004347
0.004415
0.004661
0.004825
