Full Time (seconds)
0.005796
Incremental Time - I
0.000440
0.000058
0.000067
0.000069
0.000070
0.000086
0.000089
0.000088
0.000100
0.000097
0.000100
0.000067
0.000065
0.000119
0.000067
0.000068
0.000083
0.000084
0.000088
0.000093
0.000093
0.000219
0.000248
0.000263
0.001699
0.001370
0.001289
0.001261
0.001423
0.001509
0.001384
Classification Time - I
0.000736
0.000852
0.000973
0.000998
0.001248
0.001194
0.001304
0.001433
0.001518
0.001629
0.001682
0.001728
0.002218
0.001827
0.001854
0.001931
0.002002
0.002095
0.002146
0.002231
0.002483
0.002670
0.002904
0.003162
0.003405
0.003761
0.003945
0.004177
0.004485
0.004804
