Full Accuracy
79.9932
Accuracy - I
47.5106
79.8451
77.1093
76.9239
76.9666
77.2229
77.3084
77.871
77.7355
77.8637
77.1229
77.2725
77.885
78.7539
78.818
79.6655
79.2952
79.2738
79.6228
79.2738
79.9932
