Full Time (seconds)
0.213043
Incremental Time - I
0.088580
0.064680
0.013869
0.023225
0.083764
0.122190
0.124101
0.169820
0.163804
0.166760
0.146770
0.161792
0.162736
0.214857
0.164080
0.273813
0.290691
0.310554
0.242365
0.348557
0.355265
Classification Time - C
0.106194
0.032990
0.039567
0.117479
0.141262
0.136721
0.126266
0.162719
0.138790
0.135668
0.176720
0.198444
0.112784
0.144233
0.197173
0.202618
0.189710
0.201186
0.209458
0.210275
