Full Accuracy
81.503311
Accuracy - I
50.000000
52.158146
56.951607
58.653946
59.750973
64.152702
68.597153
71.887764
74.067268
74.743942
76.574432
77.664185
77.293816
77.991837
78.711220
79.779610
79.758255
79.822334
79.865051
79.473320
80.976158
