Full Accuracy
94.923080
Accuracy - I
50.000000
73.461540
79.230766
83.153847
85.307693
88.846153
89.692307
90.230766
90.384613
91.153847
91.538460
92.692307
93.076920
93.076920
93.230774
93.846153
94.076920
94.000000
94.384613
94.923080
94.923080
