Full Time (seconds)
0.105723
Time - I
0.003927
0.008011
0.012075
0.016181
0.020340
0.024370
0.029055
0.033324
0.038948
0.041113
0.046270
0.051411
0.058501
0.062510
0.071722
0.075412
0.080690
0.090751
0.093373
0.102563
0.105881
