Full Time (seconds)
0.109432
Time - I
0.003969
0.008829
0.012458
0.016200
0.020185
0.024293
0.028292
0.033294
0.036979
0.041793
0.044500
0.050489
0.056681
0.062526
0.068905
0.074560
0.085016
0.090970
0.093390
0.104486
0.109058
