Full Time (seconds)
0.107044
Time - I
0.003946
0.008063
0.012195
0.016083
0.020175
0.024355
0.028339
0.032319
0.038800
0.041229
0.045686
0.053289
0.058217
0.062534
0.070440
0.074763
0.081852
0.080152
0.094773
0.099388
0.108914
