Full Time (seconds)
0.099538
Time - I
0.003908
0.007963
0.012169
0.013296
0.016393
0.023043
0.026109
0.032459
0.036410
0.040486
0.044573
0.048525
0.057459
0.063847
0.068476
0.080179
0.081016
0.090287
0.085255
0.086921
0.094899
