Full Time (seconds)
0.032359
Incremental Time - I
0.006448
0.000373
0.000467
0.001579
0.001506
0.001723
0.001828
0.001926
0.002113
0.002262
0.002307
0.001730
0.001730
0.001747
0.001793
0.001834
0.001929
0.001951
0.001994
0.002026
0.002039
0.001534
0.001540
0.001555
0.001545
0.001560
0.001512
0.001566
0.001593
0.001672
0.001667
Classification Time - I
0.005011
0.006366
0.007563
0.009067
0.010687
0.012256
0.013771
0.015553
0.016623
0.018654
0.019084
0.019889
0.020983
0.021743
0.022603
0.023381
0.023925
0.025086
0.025624
0.025884
0.026557
0.026422
0.028004
0.028379
0.028743
0.027918
0.028762
0.029180
0.029267
0.030713
