Full Accuracy
76.822220
Accuracy - I
50.000000
63.955551
65.200005
65.355560
64.755554
63.711113
63.666664
62.377781
62.355560
62.355560
62.599998
62.977772
67.311111
69.244446
71.155556
70.777779
72.044441
72.755554
72.799995
73.711105
74.333336
75.088890
75.444443
75.622223
76.000000
76.000000
75.977776
75.977776
75.755554
76.222221
76.822220
