Full Time (seconds)
0.017240
Time - I
0.002328
0.003177
0.003996
0.004789
0.005596
0.006410
0.007265
0.008071
0.008820
0.009821
0.010404
0.010784
0.011552
0.012275
0.011942
0.012400
0.012718
0.013188
0.014279
0.014866
0.015355
0.014480
0.014884
0.015395
0.015560
0.016186
0.016386
0.017017
0.018832
0.017540
0.016407
