Full Accuracy
71.066666
Accuracy - I
50.000000
60.666664
63.022224
64.422218
66.111115
67.000000
68.555557
71.377777
71.644440
73.266670
72.911110
72.577774
72.111115
72.066666
72.266670
70.977776
70.777779
70.733330
70.822220
70.600006
71.066666
