Full Time (seconds)
0.015895
Time - I
0.004036
0.004549
0.005435
0.005712
0.006286
0.006944
0.007525
0.007953
0.009970
0.009212
0.010149
0.010480
0.011226
0.012378
0.012533
0.013678
0.013957
0.014674
0.015228
0.015237
0.017166
