Full Time (seconds)
0.189716
Incremental Time - I
0.000148
0.000051
0.000078
0.000081
0.000042
0.000062
0.000054
0.000121
0.000086
0.000106
0.000097
0.000101
0.000135
0.000114
0.000152
0.000186
0.000137
0.000144
0.000170
0.000154
0.000161
0.000208
0.000193
0.000245
0.000236
0.000207
0.000206
0.000259
0.000287
0.000218
0.000296
0.000256
0.000234
0.000306
0.000301
0.000254
0.000330
0.000280
0.000296
0.000638
0.000545
0.000632
0.000617
0.000550
0.000539
0.000586
0.000493
0.000508
0.000612
0.000581
0.000579
0.000700
0.000609
0.000608
0.000717
0.000654
0.000622
0.000741
0.000689
0.000655
0.000764
0.000661
0.000668
0.000778
0.000685
0.000721
0.000885
0.000725
0.000754
0.000874
0.000740
0.000742
0.000893
0.000763
0.000700
0.000901
0.000728
0.000716
0.000898
0.000789
0.000838
0.000976
0.000841
0.000816
0.000997
0.000815
0.000819
0.001001
0.000867
0.001050
0.001021
0.000910
0.000941
0.001163
0.000920
0.000935
0.001120
0.000930
0.000972
0.001288
0.000966
0.000959
0.001196
0.000971
0.001003
0.001200
0.000935
0.001184
0.001196
0.000980
0.001072
0.001211
0.001052
0.001095
0.001306
0.000980
0.000989
0.001278
0.001061
0.001114
0.001345
0.001123
0.001176
0.001455
0.001119
0.001151
0.001356
0.001108
0.001095
0.001380
0.001161
0.001173
0.001456
0.001166
0.001156
0.001485
0.001182
0.001214
0.001454
0.001161
0.001213
0.001494
0.001289
0.001312
0.001561
0.001226
0.001232
0.001410
0.001203
0.001111
0.001318
0.001162
0.001249
0.001641
0.001331
0.001327
0.001550
0.001096
0.001237
0.001550
0.001236
0.001280
0.001524
0.001284
0.001291
0.001626
0.001265
0.001216
0.001574
0.001318
0.001353
0.001599
0.001316
0.001225
0.001231
0.001020
0.001030
0.001396
0.001171
0.001287
0.001831
0.001544
0.001516
0.001827
0.001411
0.001417
0.001671
0.001287
0.001285
0.001601
0.001225
0.001216
0.001538
0.001211
0.001173
0.001409
0.001177
0.001599
0.001832
0.001491
0.001617
0.002010
0.001706
0.001658
0.001831
0.001452
0.001464
0.001622
0.001256
0.001279
0.001568
Classification Time - I
0.003262
0.004499
0.006068
0.006467
0.007357
0.008117
0.009171
0.011133
0.011969
0.014084
0.014387
0.016167
0.017149
0.018377
0.020173
0.021294
0.023015
0.024150
0.025280
0.026409
0.027969
0.029151
0.030384
0.031647
0.033362
0.034663
0.036481
0.037103
0.038252
0.039586
0.040828
0.041653
0.043325
0.044224
0.045527
0.047900
0.048586
0.049846
0.051283
0.052060
0.053169
0.055598
0.056889
0.057943
0.059915
0.060011
0.061645
0.062876
0.063637
0.065719
0.067044
0.069092
0.069963
0.071322
0.072181
0.073551
0.075226
0.075800
0.078249
0.077965
0.081912
0.081750
0.083016
0.084260
0.085115
0.087053
0.087845
0.089562
0.089684
0.091015
0.092403
0.094250
0.095293
0.096396
0.097872
0.099275
0.099950
0.101577
0.103497
0.104632
0.105623
0.107022
0.109892
0.111108
0.110402
0.112041
0.113455
0.114368
0.115659
0.118869
0.118759
0.119907
0.121340
0.122971
0.131792
0.132115
0.126686
0.128473
0.129373
0.130617
0.131973
0.133810
0.135809
0.136062
0.137322
0.137882
0.139700
0.140922
0.142190
0.143303
0.147290
0.146288
0.147555
0.142468
0.138658
0.140241
0.151059
0.141557
0.157331
0.156323
0.157861
0.158722
0.160394
0.163277
0.162943
0.163005
0.163453
0.176039
0.167899
0.169926
0.170072
0.171572
0.172796
0.174312
0.175494
0.176604
0.178004
0.165390
0.174962
0.185886
0.184138
0.184810
0.188884
0.187453
0.184080
0.184499
0.173669
0.174203
0.174858
0.177183
0.176428
0.210492
0.212651
0.198153
0.202495
0.203655
0.188818
0.190260
0.189534
0.204047
0.211363
0.195007
0.196058
0.196432
0.198534
0.200590
0.201325
0.204257
0.202912
0.205214
0.206552
0.192928
0.193473
0.170589
0.171235
0.171457
0.172771
0.228191
0.206101
0.230601
0.235815
0.229710
0.220746
0.219729
0.218944
0.193638
0.195067
0.195674
0.188047
0.184739
0.186418
0.187687
0.177144
0.177948
0.250841
0.214441
0.256892
0.238317
0.240788
0.261752
0.261318
0.263756
0.252728
0.227903
0.229650
0.225882
0.202198
0.203489
0.203923
0.205239
