Full Time (seconds)
0.249135
Incremental Time - I
0.000177
0.000046
0.000077
0.000068
0.000065
0.000078
0.000107
0.000084
0.000096
0.000120
0.000104
0.000117
0.000149
0.000122
0.000136
0.000181
0.000071
0.000107
0.000107
0.000151
0.000163
0.000211
0.000170
0.000181
0.000236
0.000202
0.000240
0.000258
0.000221
0.000280
0.000305
0.000227
0.000234
0.000308
0.000253
0.000252
0.000333
0.000271
0.000271
0.000628
0.000479
0.000472
0.000734
0.000553
0.000505
0.000597
0.000538
0.000535
0.000634
0.000549
0.000536
0.000649
0.000580
0.000567
0.000674
0.000630
0.000574
0.000696
0.000662
0.000588
0.000813
0.000632
0.000625
0.000745
0.000646
0.000607
0.000822
0.000680
0.000669
0.000734
0.000689
0.000636
0.000774
0.000702
0.000784
0.000838
0.000595
0.000710
0.000878
0.000510
0.000517
0.000636
0.000724
0.000586
0.000738
0.000784
0.000765
0.000925
0.000812
0.000772
0.000946
0.000800
0.000741
0.000926
0.000772
0.000865
0.001049
0.000841
0.000838
0.001041
0.000858
0.000868
0.000885
0.000886
0.000839
0.000675
0.000927
0.000885
0.000567
0.000506
0.000492
0.000602
0.000513
0.000511
0.001199
0.000995
0.001006
0.001239
0.000994
0.000942
0.001209
0.000606
0.001028
0.001246
0.001187
0.000986
0.001193
0.001043
0.000520
0.000584
0.000476
0.000747
0.001427
0.001163
0.000733
0.000991
0.000829
0.001158
0.001360
0.000971
0.000956
0.001220
0.001022
0.001161
0.001472
0.001183
0.001072
0.001451
0.001178
0.000765
0.000985
0.000813
0.000837
0.000950
0.000778
0.001088
0.001380
0.001034
0.001014
0.001717
0.001047
0.001320
0.001627
0.001275
0.001206
0.000940
0.000761
0.000809
0.001038
0.001309
0.001292
0.001634
0.001273
0.001213
0.001481
0.000704
0.000722
0.000865
0.000754
0.000794
0.000972
0.000813
0.000875
0.001079
0.001450
0.000887
0.001648
0.001313
0.000819
0.001007
0.000966
0.000935
0.001863
0.001484
0.001413
0.001784
0.001582
0.001216
0.001550
0.001270
0.001208
0.001494
0.001182
0.001118
0.001576
0.001246
0.001268
0.002083
0.001441
0.001651
0.002054
Classification Time - I
0.003899
0.004834
0.006036
0.007256
0.008427
0.009948
0.011122
0.012434
0.014057
0.015127
0.016426
0.017886
0.019426
0.020321
0.021834
0.022195
0.022979
0.023783
0.024882
0.026090
0.028141
0.028919
0.030169
0.031617
0.032794
0.033976
0.038648
0.036727
0.040084
0.041826
0.042310
0.041258
0.042906
0.044066
0.047149
0.049218
0.047879
0.049078
0.050830
0.051768
0.053008
0.054564
0.055823
0.060791
0.062679
0.063400
0.061336
0.066923
0.058513
0.059584
0.062195
0.068540
0.068544
0.072545
0.072701
0.072373
0.074866
0.084253
0.077679
0.079244
0.079532
0.080315
0.075496
0.083009
0.084399
0.086099
0.087161
0.083353
0.090064
0.096296
0.093245
0.093453
0.095607
0.096733
0.097823
0.098654
0.100096
0.071583
0.072401
0.073166
0.086705
0.106284
0.085929
0.106700
0.109988
0.112334
0.113897
0.122127
0.120961
0.118362
0.117932
0.112779
0.112869
0.116746
0.122498
0.124167
0.125329
0.126550
0.128384
0.129383
0.130898
0.131933
0.133169
0.134260
0.135878
0.137352
0.069205
0.070833
0.070319
0.068137
0.143058
0.069400
0.147717
0.146912
0.148740
0.154190
0.152024
0.152132
0.146012
0.154485
0.168378
0.168510
0.165596
0.157470
0.158554
0.162878
0.058363
0.057023
0.055897
0.055521
0.069814
0.102895
0.102791
0.114573
0.122839
0.125172
0.175958
0.148842
0.153098
0.158510
0.158525
0.182925
0.183624
0.186272
0.186735
0.187564
0.189511
0.125038
0.123373
0.122428
0.122577
0.124549
0.118232
0.118698
0.173861
0.172000
0.161626
0.165872
0.163627
0.186408
0.206432
0.208730
0.213298
0.118149
0.115956
0.122666
0.217451
0.218717
0.217890
0.218965
0.216317
0.204415
0.205833
0.107407
0.108384
0.108458
0.109194
0.113388
0.122484
0.123174
0.131446
0.136449
0.136822
0.177438
0.135808
0.220318
0.130976
0.126114
0.126929
0.149676
0.244875
0.247594
0.236217
0.229763
0.214550
0.209753
0.202268
0.203821
0.204863
0.192671
0.196484
0.183335
0.191940
0.200826
0.206085
0.256902
0.258362
0.267122
0.268304
0.270186
