Full Time (seconds)
0.202157
Incremental Time - I
0.000149
0.000034
0.000042
0.000042
0.000056
0.000072
0.000093
0.000075
0.000083
0.000106
0.000092
0.000106
0.000136
0.000117
0.000126
0.000169
0.000133
0.000145
0.000177
0.000168
0.000162
0.000215
0.000178
0.000185
0.000245
0.000203
0.000207
0.000296
0.000225
0.000215
0.000307
0.000247
0.000233
0.000309
0.000252
0.000254
0.000347
0.000292
0.000281
0.000546
0.000485
0.000430
0.000619
0.000488
0.000533
0.000697
0.000548
0.000497
0.000588
0.000573
0.000563
0.000698
0.000612
0.000749
0.000713
0.000621
0.000611
0.000678
0.000619
0.000630
0.000787
0.000618
0.000649
0.000800
0.000688
0.000688
0.000827
0.000701
0.000736
0.000917
0.000730
0.000736
0.000900
0.000827
0.000830
0.000921
0.000764
0.000672
0.000949
0.000856
0.000805
0.000964
0.000800
0.000746
0.000965
0.000866
0.000831
0.001016
0.000866
0.000849
0.001047
0.000881
0.000890
0.001110
0.000911
0.000956
0.001162
0.000918
0.000928
0.001125
0.000966
0.000965
0.001175
0.000982
0.001011
0.001190
0.001001
0.000972
0.001626
0.001034
0.001000
0.001225
0.001092
0.001055
0.001297
0.001094
0.001086
0.001364
0.001135
0.001083
0.001349
0.001043
0.000989
0.001372
0.001061
0.001092
0.001443
0.001080
0.001063
0.001249
0.001065
0.001316
0.001418
0.001172
0.001183
0.001482
0.001170
0.001155
0.001401
0.001169
0.001136
0.001463
0.001175
0.001161
0.001561
0.001158
0.001077
0.001488
0.001169
0.001255
0.001564
0.001331
0.001244
0.001526
0.001150
0.001140
0.001425
0.001190
0.001154
0.001508
0.001218
0.001212
0.001560
0.001250
0.001192
0.001470
0.001142
0.001142
0.001446
0.001299
0.001148
0.001749
0.001464
0.001455
0.001723
0.001417
0.001248
0.001597
0.001521
0.001499
0.001876
0.001500
0.001399
0.001936
0.001369
0.001426
0.001760
0.001328
0.001306
0.001990
0.001246
0.001450
0.001702
0.001416
0.001380
0.001671
0.001187
0.001181
0.001626
0.001290
0.001212
0.001500
0.001614
0.001667
0.002086
0.001525
0.001429
0.001822
0.001672
0.001358
0.001762
Classification Time - I
0.002476
0.003224
0.004069
0.005801
0.006383
0.007983
0.009171
0.010357
0.012019
0.013362
0.014669
0.016172
0.017479
0.018691
0.020618
0.021389
0.022687
0.024100
0.025485
0.027567
0.028248
0.028929
0.030531
0.032219
0.033170
0.034425
0.036072
0.037706
0.038807
0.039888
0.041850
0.042102
0.043969
0.044989
0.046621
0.047987
0.049762
0.050985
0.051602
0.052783
0.055964
0.055270
0.056857
0.057730
0.059471
0.061319
0.061310
0.062869
0.063627
0.065740
0.067443
0.068566
0.069721
0.071409
0.072919
0.072787
0.075160
0.076654
0.077796
0.078755
0.080973
0.081677
0.083149
0.084634
0.085824
0.087571
0.088686
0.089861
0.089713
0.092636
0.094080
0.095452
0.096964
0.098451
0.099084
0.100478
0.101775
0.105180
0.104723
0.105813
0.106532
0.109653
0.109377
0.111132
0.112556
0.113601
0.114472
0.121956
0.117276
0.120123
0.120009
0.121161
0.123265
0.123740
0.125521
0.126338
0.127917
0.128707
0.131048
0.132144
0.133189
0.134779
0.135957
0.136775
0.139198
0.139025
0.150735
0.151500
0.148559
0.144262
0.146393
0.147138
0.148352
0.149479
0.151414
0.152793
0.158251
0.155453
0.156473
0.150944
0.146439
0.143887
0.159377
0.141094
0.163846
0.165421
0.153907
0.154356
0.154594
0.157420
0.172246
0.171494
0.174198
0.175532
0.163184
0.164189
0.165269
0.166949
0.168971
0.168496
0.170174
0.171358
0.173857
0.173520
0.174294
0.175498
0.175886
0.185122
0.194303
0.193977
0.195092
0.183384
0.181146
0.172338
0.173852
0.175339
0.175791
0.175883
0.178324
0.178973
0.181515
0.181660
0.182320
0.182316
0.173748
0.173095
0.174387
0.175055
0.175946
0.219198
0.222619
0.224711
0.225489
0.211016
0.206501
0.196872
0.226618
0.235589
0.232284
0.230902
0.217968
0.238223
0.232008
0.221478
0.221845
0.219543
0.240670
0.235218
0.244871
0.214070
0.213593
0.214694
0.216811
0.214440
0.204571
0.205549
0.205518
0.193169
0.194837
0.184001
0.259334
0.264024
0.265664
0.252837
0.245132
0.230422
0.231998
0.232549
0.218207
0.219965
