Full Time (seconds)
0.250788
Incremental Time - I
0.000178
0.000047
0.000082
0.000075
0.000064
0.000080
0.000105
0.000084
0.000115
0.000118
0.000100
0.000115
0.000143
0.000062
0.000094
0.000068
0.000090
0.000144
0.000171
0.000150
0.000159
0.000208
0.000138
0.000180
0.000235
0.000204
0.000204
0.000185
0.000153
0.000153
0.000218
0.000231
0.000233
0.000305
0.000255
0.000250
0.000329
0.000270
0.000270
0.000632
0.000574
0.000471
0.000523
0.000452
0.000470
0.000560
0.000481
0.000462
0.000560
0.000260
0.000452
0.000648
0.000508
0.000513
0.000619
0.000528
0.000549
0.000644
0.000548
0.000545
0.000670
0.000572
0.000571
0.000718
0.000276
0.000295
0.000740
0.000348
0.000467
0.000612
0.000717
0.000646
0.000831
0.000694
0.000631
0.000714
0.000748
0.000732
0.000835
0.000760
0.000720
0.000925
0.000762
0.000505
0.000600
0.000838
0.000772
0.001038
0.000854
0.000770
0.000999
0.000808
0.000620
0.000835
0.000660
0.000630
0.000894
0.001004
0.001079
0.000949
0.000942
0.000940
0.001108
0.000923
0.000936
0.001061
0.000930
0.000995
0.001147
0.000930
0.000993
0.001138
0.001012
0.000476
0.000582
0.000546
0.000492
0.000794
0.000653
0.000645
0.001191
0.000957
0.001033
0.001166
0.000828
0.001001
0.001268
0.001092
0.000993
0.000698
0.001103
0.000720
0.000900
0.000731
0.000670
0.001392
0.000777
0.000775
0.001072
0.000900
0.001184
0.001083
0.001252
0.001274
0.001559
0.001254
0.001170
0.001360
0.001133
0.001320
0.001573
0.001308
0.001257
0.001545
0.001324
0.001289
0.001665
0.001319
0.001160
0.001419
0.001184
0.001316
0.001556
0.001198
0.001380
0.001717
0.001375
0.001284
0.001767
0.001279
0.001376
0.001749
0.001341
0.001304
0.001591
0.001366
0.001746
0.001669
0.001395
0.001316
0.001736
0.001311
0.001190
0.001918
0.001468
0.001476
0.001807
0.001452
0.001323
0.001895
0.001437
0.001443
0.001943
0.001373
0.001398
0.001838
0.001479
0.001550
0.001936
0.001632
0.001484
0.001913
0.001512
0.001624
0.002038
0.001335
0.001549
0.002074
0.001525
0.001511
0.002073
Classification Time - I
0.003256
0.004453
0.006046
0.007238
0.006334
0.006974
0.011179
0.012385
0.013983
0.015189
0.016431
0.018018
0.018384
0.012781
0.013509
0.014646
0.022259
0.023841
0.024986
0.026198
0.027743
0.028896
0.030148
0.031677
0.032843
0.034094
0.025198
0.026027
0.026837
0.039306
0.040420
0.041473
0.043000
0.044213
0.045386
0.046869
0.048044
0.049240
0.050762
0.052119
0.053122
0.054707
0.055936
0.056899
0.058927
0.059774
0.060875
0.062408
0.063574
0.064834
0.066355
0.067751
0.068872
0.070154
0.071457
0.072615
0.074190
0.075326
0.077054
0.078321
0.079315
0.080369
0.034332
0.034805
0.035093
0.086277
0.059487
0.066304
0.069994
0.093132
0.092408
0.093737
0.078010
0.082400
0.083870
0.099117
0.100150
0.101597
0.103096
0.103898
0.105382
0.106954
0.069254
0.111625
0.110401
0.111424
0.113183
0.113814
0.115094
0.117090
0.118146
0.092401
0.090286
0.091153
0.102335
0.124420
0.135187
0.135986
0.116536
0.129524
0.130509
0.132185
0.137506
0.134794
0.136209
0.141283
0.148823
0.079889
0.149292
0.153051
0.153076
0.154352
0.065015
0.065652
0.066263
0.094704
0.095682
0.096502
0.141953
0.088765
0.146278
0.160271
0.133650
0.127950
0.167540
0.164501
0.164442
0.165406
0.167029
0.167860
0.097778
0.094868
0.096069
0.099014
0.174471
0.107636
0.121232
0.130280
0.131899
0.190404
0.155038
0.189686
0.191444
0.194016
0.179496
0.180710
0.190786
0.182148
0.199249
0.195597
0.195026
0.195490
0.206978
0.198407
0.199938
0.201269
0.202567
0.175992
0.175570
0.206644
0.198369
0.181022
0.209916
0.217882
0.215390
0.214689
0.202935
0.205109
0.203493
0.221702
0.223681
0.204051
0.207198
0.208573
0.215739
0.209192
0.210984
0.199098
0.225088
0.213141
0.186543
0.227696
0.241431
0.238556
0.239059
0.238979
0.240393
0.230403
0.247004
0.231304
0.245177
0.239564
0.214351
0.232686
0.251026
0.245922
0.254062
0.263796
0.251855
0.245579
0.239819
0.248307
0.260867
0.279583
0.234001
0.252787
0.278068
0.247901
0.242530
0.260378
