mean_accFULL,stdev_accFULL, mean_timeFULL, stdev_timeFULL
71.066666,0,0.010315,0
mean_accI,stdev_accI
50.0,0.0
50.0,0.0
50.0,0.0
50.0,0.0
50.0,0.0
50.0,0.0
59.977776,0.0
62.888889,0.0
62.933331,0.0
63.888889,0.0
64.555557,0.0
67.111115,0.0
69.511108,0.0
71.333328,0.0
70.82222,0.0
71.066666,0.0
mean_timeI,stdev_timeI
0.002784,0.0
0.006276,0.0
0.003759,0.0
0.004416,0.0
0.007288,0.0
0.005544,0.0
0.007787,0.0
0.006942,0.0
0.007091,0.0
0.007995,0.0
0.008176,0.0
0.011465,0.0
0.010746,0.0
0.009929,0.0
0.010806,0.0
0.01112,0.0
