Full Time (seconds)
0.147381
Incremental Time - I
0.001945
0.000325
0.000571
0.001050
0.001404
0.001546
0.001850
0.002018
0.002284
0.002514
0.002728
0.004305
0.004788
0.005309
0.005846
0.006383
0.007052
0.007594
0.008155
0.008739
0.009373
Classification Time - I
0.010120
0.015554
0.020612
0.025614
0.030728
0.035362
0.040611
0.045338
0.050173
0.055287
0.062833
0.070876
0.077151
0.085959
0.093507
0.100995
0.109742
0.118479
0.128510
0.138490
