Full Time (seconds)
0.111998
Incremental Time - I
0.005913
0.000300
0.000569
0.000799
0.001301
0.001935
0.001772
0.001958
0.002166
0.002470
0.002603
0.004124
0.004689
0.004002
0.004323
0.004781
0.007084
0.007499
0.008071
0.006669
0.007113
Classification Time - I
0.010154
0.016647
0.022197
0.025577
0.030515
0.035424
0.040170
0.046324
0.050019
0.055486
0.063089
0.069666
0.060659
0.063725
0.069364
0.099891
0.107533
0.115303
0.094024
0.098687
