Full Time (seconds)
0.130680
Incremental Time - I
0.005116
0.000320
0.000570
0.000751
0.001335
0.001431
0.001557
0.001919
0.002125
0.002360
0.002560
0.003764
0.004292
0.005230
0.005652
0.006342
0.007002
0.007025
0.008232
0.008628
0.009203
Classification Time - I
0.010060
0.014330
0.020621
0.025327
0.030206
0.035187
0.040050
0.045210
0.049849
0.054638
0.057776
0.068295
0.077259
0.088558
0.092225
0.107724
0.114303
0.117601
0.125730
0.132005
