Full Time (seconds)
0.105967
Time - I
0.004296
0.005085
0.005839
0.006633
0.007412
0.008169
0.008933
0.009701
0.010489
0.011231
0.012032
0.012719
0.013583
0.014410
0.014941
0.016070
0.016464
0.017672
0.018254
0.019009
0.019448
0.020239
0.020962
0.021723
0.022474
0.023914
0.024701
0.025543
0.026268
0.026254
0.026991
0.028631
0.029004
0.029320
0.031041
0.031489
0.031635
0.032402
0.034186
0.033863
0.034731
0.034939
0.036341
0.036678
0.035848
0.036151
0.037810
0.038227
0.037501
0.039970
0.039655
0.040842
0.040252
0.042362
0.041511
0.042250
0.042998
0.043685
0.044422
0.045458
0.046923
0.047726
0.047881
0.048205
0.050621
0.049557
0.052071
0.051255
0.052879
0.054575
0.053918
0.055999
0.054960
0.057505
0.058314
0.057203
0.058027
0.058704
0.061425
0.060238
0.061894
0.061745
0.062475
0.021082
0.021547
0.021636
0.021850
0.051397
0.069153
0.067719
0.068551
0.069641
0.070005
0.073125
0.071516
0.072348
0.073080
0.076724
0.077032
0.076123
0.075996
0.076813
0.080192
0.078279
0.081713
0.082481
0.080915
0.081421
0.082016
0.085736
0.085029
0.084999
0.085004
0.085860
0.088927
0.087505
0.088608
0.088834
0.090522
0.093513
0.091380
0.092964
0.093697
0.096535
0.097771
0.096116
0.095777
0.096473
0.099921
0.098127
0.098738
0.102890
0.100394
0.101407
0.101374
0.103176
0.107181
0.103894
0.104733
0.105690
0.106265
