Full Time (seconds)
0.106490
Time - I
0.004296
0.004615
0.004904
0.005231
0.005594
0.005907
0.006335
0.006823
0.007288
0.008055
0.008173
0.008950
0.009676
0.010455
0.011291
0.012048
0.013259
0.013591
0.014315
0.015210
0.015930
0.016901
0.017222
0.018313
0.018819
0.020020
0.020230
0.021021
0.022058
0.022660
0.023398
0.024205
0.025049
0.025808
0.026559
0.027305
0.027928
0.029556
0.029849
0.030243
0.030991
0.031717
0.032477
0.033253
0.033962
0.034835
0.035498
0.036241
0.037010
0.037904
0.039141
0.040553
0.040010
0.041569
0.041561
0.043887
0.043414
0.044104
0.044711
0.046016
0.046239
0.047782
0.049032
0.049188
0.050594
0.049855
0.051367
0.052652
0.053747
0.054609
0.053585
0.056102
0.055523
0.056326
0.056725
0.059142
0.059922
0.061227
0.062404
0.060590
0.061643
0.063843
0.064646
0.065051
0.066144
0.065241
0.065969
0.066438
0.067597
0.067877
0.069075
0.069754
0.070457
0.070955
0.072190
0.072387
0.073102
0.076556
0.074729
0.075809
0.076270
0.077851
0.077729
0.079077
0.089170
0.082905
0.083371
0.083679
0.082574
0.083755
0.083993
0.086073
0.088090
0.088991
0.087439
0.089274
0.096426
0.090124
0.090082
0.093686
0.091344
0.092150
0.093442
0.103623
0.095201
0.098135
0.096287
0.096667
0.097792
0.098297
0.098706
0.099553
0.101590
0.104433
0.103952
0.105606
0.105140
0.107535
0.107067
0.109149
0.110289
