Full Time (seconds)
0.105961
Time - I
0.004276
0.005150
0.008645
0.006642
0.007411
0.009736
0.008933
0.009929
0.010466
0.011220
0.011964
0.015479
0.013479
0.014928
0.015224
0.018939
0.017106
0.023671
0.022021
0.019464
0.020051
0.020856
0.021828
0.021739
0.023754
0.023758
0.024655
0.024740
0.026940
0.026924
0.027787
0.028663
0.031298
0.029359
0.030169
0.031838
0.032623
0.033454
0.034217
0.033944
0.034873
0.035477
0.037320
0.036994
0.038537
0.039657
0.039323
0.040024
0.042038
0.042829
0.043584
0.043094
0.046331
0.045984
0.046675
0.047459
0.048574
0.048862
0.048911
0.050607
0.051687
0.052191
0.053054
0.052261
0.054472
0.055390
0.057183
0.057426
0.056564
0.058375
0.059731
0.069882
0.059216
0.059541
0.062378
0.064632
0.063889
0.062976
0.065359
0.066085
0.068385
0.067561
0.069933
0.069607
0.070021
0.070433
0.069702
0.073201
0.073332
0.073958
0.072751
0.072501
0.072903
0.073255
0.074591
0.073810
0.074249
0.074762
0.075516
0.075635
0.076079
0.077552
0.078258
0.078389
0.079083
0.079920
0.081148
0.081357
0.083659
0.082818
0.043200
0.086509
0.086624
0.086004
0.088112
0.087474
0.050773
0.052561
0.052414
0.051637
0.052037
0.054062
0.054826
0.053380
0.067359
0.067843
0.069962
0.068795
0.075672
0.078776
0.081199
0.079583
0.100584
0.101802
0.103393
0.103272
0.106237
0.104544
0.105779
0.106148
0.106494
