Full Time (seconds)
0.106035
Time - I
0.004290
0.005063
0.005857
0.006641
0.007505
0.008152
0.008961
0.009697
0.010634
0.011240
0.012036
0.012735
0.013458
0.014428
0.014980
0.015701
0.016508
0.017696
0.018305
0.019098
0.019538
0.020272
0.021642
0.022409
0.023702
0.023299
0.024001
0.025020
0.025564
0.027427
0.027040
0.027806
0.014416
0.014386
0.012896
0.013228
0.013570
0.013904
0.014213
0.014524
0.015318
0.015652
0.015779
0.030478
0.030328
0.030812
0.032326
0.032957
0.032569
0.034285
0.039177
0.043799
0.045041
0.045873
0.046700
0.047530
0.048202
0.048084
0.049753
0.050605
0.051914
0.025712
0.051388
0.052170
0.054539
0.053599
0.054632
0.056361
0.057293
0.058437
0.059266
0.060047
0.060864
0.061515
0.060453
0.024847
0.024699
0.025899
0.025278
0.026417
0.025904
0.027164
0.027394
0.026803
0.027988
0.049990
0.049360
0.051039
0.050011
0.052212
0.058968
0.062910
0.065475
0.065952
0.064568
0.072575
0.071197
0.074011
0.072282
0.073482
0.073834
0.074537
0.077869
0.082291
0.083886
0.086957
0.087191
0.088054
0.085981
0.086954
0.089031
0.089576
0.091915
0.092729
0.091078
0.091174
0.095259
0.095845
0.094852
0.094436
0.094854
0.096434
0.097078
0.097756
0.100838
0.100493
0.100837
0.101044
0.104602
0.101654
0.105800
0.104839
0.103067
0.103359
0.105372
0.104476
0.109443
0.108567
0.106876
0.105890
0.109627
