Full Time (seconds)
0.105961
Time - I
0.004331
0.005109
0.005865
0.006639
0.007392
0.008171
0.008919
0.009785
0.010472
0.011257
0.012051
0.012808
0.013602
0.014443
0.014960
0.015884
0.016439
0.017679
0.018486
0.019255
0.019977
0.020182
0.021983
0.021709
0.022440
0.024456
0.023979
0.024746
0.026255
0.026757
0.027840
0.028592
0.029394
0.030191
0.030967
0.030830
0.031614
0.033400
0.034116
0.034889
0.035913
0.036070
0.036586
0.038003
0.038798
0.039568
0.040370
0.039873
0.040635
0.042825
0.043445
0.044318
0.045015
0.045766
0.068022
0.069536
0.070247
0.071726
0.072522
0.073889
0.052028
0.043388
0.044009
0.044776
0.045497
0.032043
0.032544
0.033033
0.033537
0.033978
0.034400
0.030864
0.031209
0.031479
0.031993
0.021519
0.021809
0.022023
0.022507
0.023170
0.023313
0.023143
0.056760
0.057349
0.060090
0.060647
0.060436
0.070002
0.073402
0.072084
0.074713
0.073443
0.076460
0.077885
0.077648
0.077197
0.076714
0.078909
0.078208
0.080960
0.082572
0.083164
0.082280
0.083578
0.083587
0.083637
0.084849
0.085781
0.086525
0.089370
0.088814
0.088432
0.090556
0.092823
0.092636
0.091269
0.092463
0.093005
0.093335
0.094538
0.095251
0.095148
0.095732
0.097829
0.097212
0.098440
0.099007
0.097658
0.098682
0.098033
0.100591
0.099351
0.100070
0.101450
0.101826
0.102420
0.103109
0.104661
0.104543
0.105590
0.106398
