Full Time (seconds)
0.418066
Time - I
0.173990
0.278755
0.264438
0.280630
0.267522
0.255598
0.264786
0.246240
0.258706
0.259798
0.248447
0.594286
0.522675
0.325978
0.618252
0.418505
0.371688
0.345706
0.326371
0.312544
0.835993
