Full Time (seconds)
0.014837
Incremental Time - I
0.001321
0.000041
0.000042
0.000048
0.000044
0.000043
0.000041
0.000044
0.000048
0.000048
0.000059
0.001023
0.002116
0.003140
0.003730
0.004700
0.005145
0.005931
0.006725
0.007590
0.007710
0.009349
0.010506
0.011977
0.013015
0.013966
0.015285
0.016281
0.017211
0.018185
0.019213
Classification Time - C
0.003254
0.001165
0.001152
0.001149
0.001147
0.001160
0.001151
0.001149
0.001148
0.001148
0.001150
0.002140
0.003427
0.004297
0.005076
0.005820
0.006275
0.006827
0.007221
0.007771
0.007907
0.008884
0.009560
0.010443
0.010907
0.011869
0.012630
0.012796
0.013829
0.014286
0.014789
