Full Time (seconds)
0.394355
Time - I
0.012879
0.060201
0.098687
0.153712
0.194926
0.227874
0.274515
0.292600
0.357626
0.397548
0.411538
0.479803
0.492864
0.445318
0.550163
0.447237
0.475189
0.439171
0.473974
0.453734
0.464953
