Full Time (seconds)
0.002613
Time - I
0.000447
0.000380
0.000387
0.000446
0.000475
0.000457
0.000488
0.000513
0.000546
0.000586
0.000703
0.000686
0.000744
0.000796
0.000859
0.000929
0.000988
0.001047
0.001121
0.001206
0.001295
0.001361
0.001500
0.001657
0.001740
0.001860
0.001999
0.002153
0.002266
0.002863
0.002565
