Full Time (seconds)
0.001908
Time - I
0.000788
0.000760
0.000811
0.000858
0.000904
0.000965
0.001022
0.001945
0.001157
0.001220
0.001274
0.001345
0.001397
0.001458
0.001324
0.001403
0.001640
0.001725
0.001774
0.001835
0.002078
0.003537
0.002063
0.002079
0.002234
0.002273
0.002281
0.002405
0.002395
0.001863
0.001921
