Full Time (seconds)
0.002574
Time - I
0.000339
0.000364
0.000482
0.000417
0.000435
0.000463
0.000486
0.000527
0.000555
0.000584
0.000655
0.000689
0.000763
0.000810
0.000885
0.000973
0.001004
0.001058
0.001123
0.001185
0.001235
0.001402
0.001499
0.001635
0.001750
0.001899
0.002010
0.002127
0.002336
0.002433
0.002548
