Full Time (seconds)
0.002583
Time - I
0.000375
0.000404
0.000457
0.000505
0.000559
0.000617
0.000688
0.000739
0.000803
0.000870
0.000945
0.000974
0.000979
0.001041
0.001029
0.001048
0.001103
0.001137
0.001185
0.001204
0.001249
0.001402
0.001491
0.001640
0.001736
0.001867
0.002010
0.002132
0.002306
0.002434
0.002579
