Full Time (seconds)
0.106472
Time - I
0.004213
0.005133
0.005934
0.006781
0.007561
0.008368
0.009144
0.010056
0.010783
0.011461
0.012253
0.012568
0.013303
0.013540
0.013498
0.013746
0.014236
0.014575
0.015094
0.015660
0.016295
0.017194
0.017455
0.018620
0.019577
0.019697
0.021059
0.021831
0.022621
0.023066
0.024196
0.024855
0.025086
0.026045
0.026710
0.027891
0.029023
0.029311
0.030026
0.030988
0.031656
0.032014
0.033201
0.033705
0.034641
0.035053
0.035768
0.037201
0.037343
0.038403
0.038824
0.039717
0.040353
0.041019
0.041889
0.043096
0.043334
0.044519
0.044823
0.045837
0.046348
0.047335
0.048065
0.048655
0.051160
0.050192
0.051318
0.051791
0.052425
0.053360
0.054671
0.055333
0.056920
0.057883
0.057051
0.057659
0.059234
0.059378
0.059890
0.061002
0.061443
0.062031
0.062986
0.065668
0.064355
0.067031
0.066254
0.067049
0.067507
0.068118
0.071251
0.071897
0.072978
0.072366
0.072897
0.072993
0.073390
0.074149
0.075612
0.075769
0.076320
0.078555
0.078678
0.079362
0.079781
0.080080
0.081724
0.082462
0.082300
0.085855
0.083825
0.084725
0.085590
0.086791
0.087178
0.090764
0.091462
0.089782
0.090373
0.091381
0.091519
0.092981
0.095100
0.097436
0.098459
0.096305
0.099372
0.096747
0.099980
0.099290
0.102498
0.100258
0.101021
0.101450
0.102177
0.107169
0.104181
0.104370
0.105400
0.106078
0.106605
