Full Time (seconds)
0.249932
Time - I
0.014690
0.063479
0.103033
0.145680
0.189412
0.241951
0.277797
0.304905
0.315912
0.324946
0.448620
0.419609
0.480033
0.409641
0.484579
0.460735
0.415790
0.361624
0.324049
0.278073
0.269190
