Full Time (seconds)
0.002816
Time - I
0.000441
0.000566
0.000672
0.000800
0.000903
0.001008
0.001106
0.001209
0.001312
0.001426
0.001523
0.001626
0.001761
0.001846
0.001939
0.002075
0.002237
0.002339
0.002475
0.002663
0.002780
