Full Time (seconds)
0.002760
Time - I
0.000418
0.000540
0.000659
0.000785
0.000885
0.000989
0.001095
0.001197
0.001302
0.001419
0.001511
0.001628
0.001730
0.001863
0.001979
0.002094
0.002212
0.002342
0.002495
0.002634
0.002766
