Full Accuracy
94.000000
Accuracy - I
50.000000
52.923077
53.076923
53.461540
53.538460
53.615387
53.615387
53.615387
53.615387
53.538460
53.615387
55.384617
55.923073
57.307690
57.384617
57.461540
57.461540
57.461540
57.461536
57.461536
57.461536
59.307690
59.846157
60.538464
60.846149
61.000000
61.076920
61.153847
61.230766
61.307693
61.307693
65.000000
65.153847
65.153847
65.153847
65.153847
65.153847
65.153847
65.153847
65.153847
65.153847
67.923073
68.153847
68.461540
68.461540
68.538460
68.538460
68.615379
68.538460
68.538460
68.538460
71.615387
72.076920
72.230766
72.384613
72.384613
72.384613
72.384613
72.384613
72.384613
72.384613
72.384613
72.384613
72.384613
72.307693
72.307693
72.307693
72.307693
72.307693
72.307693
72.307693
74.000000
74.384613
75.230774
75.230774
75.307693
76.000000
76.076927
76.076927
76.076927
76.076927
76.692307
77.461540
78.000000
78.153839
78.076920
78.230766
78.230766
78.230766
78.461540
78.538460
80.461540
80.769226
81.384621
81.461540
81.692307
81.384621
81.538460
81.769234
81.923073
82.000000
84.615387
85.000000
84.923080
85.307693
85.538467
85.538467
85.615387
85.615387
85.615387
85.769234
86.923073
87.923080
88.153847
88.230774
88.230774
88.076927
88.153847
88.153847
88.153847
88.384613
91.538460
91.615387
91.846153
91.615387
91.615387
91.538460
91.461540
91.461540
91.461540
91.461540
94.307693
94.769234
94.769234
94.846153
94.769234
94.769234
94.769234
94.769234
94.769234
94.692307
