Full Time (seconds)
0.141107
Incremental Time - I
0.002366
0.000087
0.000099
0.000101
0.000108
0.000115
0.000126
0.000134
0.000142
0.000151
0.000159
0.000089
0.000091
0.000097
0.000096
0.000095
0.000126
0.000135
0.000134
0.000136
0.000140
0.000212
0.000229
0.000234
0.000241
0.000247
0.000574
0.000442
0.000443
0.000443
0.000445
0.000457
0.000465
0.000496
0.000485
0.000491
0.000500
0.000506
0.000511
0.000528
0.000528
0.000543
0.000560
0.000558
0.000590
0.000585
0.000586
0.000604
0.000603
0.000614
0.000619
0.000636
0.000653
0.000668
0.000663
0.000662
0.000670
0.000686
0.000680
0.000719
0.000718
0.000726
0.000729
0.000740
0.000754
0.000750
0.000747
0.000776
0.000784
0.000791
0.000794
0.000798
0.000809
0.000812
0.000821
0.000840
0.000837
0.000855
0.000853
0.000874
0.000909
0.000895
0.000913
0.000916
0.000928
0.000912
0.000934
0.000930
0.000956
0.000948
0.000962
0.000988
0.000978
0.000999
0.000987
0.001002
0.001019
0.001012
0.001040
0.001034
0.001041
0.001061
0.001055
0.001084
0.001062
0.001080
0.001121
0.001105
0.001090
0.001137
0.001116
0.001142
0.001142
0.001189
0.001167
0.001179
0.001171
0.001192
0.001212
0.001198
0.001226
0.001215
0.001231
0.001225
0.001253
0.001247
0.001237
0.001259
0.001270
0.001263
0.001274
0.001333
0.001371
0.001313
0.001363
0.001371
0.001348
0.001376
0.001399
0.001380
0.001405
Classification Time - I
0.005804
0.006740
0.007733
0.008706
0.009663
0.010649
0.011656
0.012705
0.013602
0.014877
0.014975
0.015363
0.016168
0.016187
0.017614
0.017496
0.017714
0.018983
0.019459
0.020040
0.021029
0.021603
0.022278
0.023414
0.024061
0.025092
0.026453
0.026954
0.028839
0.029830
0.030668
0.031741
0.031605
0.032799
0.033740
0.034681
0.035454
0.036609
0.037496
0.038871
0.039267
0.041683
0.041096
0.042752
0.043193
0.047399
0.047813
0.047331
0.050148
0.051197
0.050900
0.051613
0.050751
0.053617
0.052746
0.053610
0.054796
0.055538
0.058547
0.059470
0.058150
0.059330
0.060873
0.061049
0.061993
0.063115
0.064163
0.064830
0.065786
0.069485
0.067739
0.068574
0.069667
0.070563
0.071436
0.075027
0.076288
0.074236
0.080908
0.077070
0.077262
0.078254
0.079368
0.083518
0.081002
0.082267
0.082845
0.083661
0.085193
0.085626
0.090145
0.089542
0.088210
0.089337
0.090911
0.090994
0.092303
0.092806
0.093688
0.095098
0.095708
0.100256
0.097936
0.098482
0.099627
0.100064
0.101089
0.102380
0.102858
0.108058
0.104508
0.106045
0.106961
0.107810
0.108377
0.109496
0.110147
0.115411
0.111732
0.117490
0.117137
0.118911
0.115924
0.116342
0.117441
0.118332
0.124294
0.120487
0.121105
0.122084
0.123491
0.123548
0.124933
0.125950
0.127109
0.127465
0.133427
0.129387
0.135637
0.131000
