Full Time (seconds)
0.140985
Incremental Time - I
0.005846
0.000087
0.000103
0.000107
0.000114
0.000112
0.000127
0.000132
0.000137
0.000154
0.000153
0.000173
0.000177
0.000193
0.000195
0.000208
0.000217
0.000223
0.000225
0.000256
0.000253
0.000560
0.000436
0.000430
0.000444
0.000446
0.000452
0.000462
0.000471
0.000476
0.000483
0.000480
0.000489
0.000507
0.000511
0.000521
0.000533
0.000526
0.000539
0.000547
0.000548
0.000582
0.000586
0.000594
0.000604
0.000617
0.000634
0.000663
0.000631
0.000626
0.000636
0.000665
0.000667
0.000697
0.000689
0.000708
0.000710
0.000719
0.000715
0.000737
0.000755
0.000752
0.000777
0.000783
0.000800
0.000790
0.000790
0.000822
0.000809
0.000801
0.000821
0.000865
0.000855
0.000874
0.000849
0.000867
0.000913
0.000894
0.000902
0.000922
0.000924
0.000947
0.000954
0.000964
0.000967
0.000973
0.000975
0.000992
0.000978
0.000994
0.000992
0.001014
0.001037
0.001035
0.001033
0.001048
0.001097
0.001059
0.001070
0.001071
0.001114
0.001124
0.001123
0.001124
0.001128
0.001126
0.001154
0.001154
0.001164
0.001181
0.001185
0.001180
0.001196
0.001232
0.001228
0.001229
0.001258
0.001246
0.001263
0.001229
0.001242
0.000648
0.000656
0.000657
0.000643
0.000674
0.000865
0.000848
0.000865
0.000860
0.000874
0.001346
0.001353
0.001340
0.001346
0.001382
0.001340
0.001361
0.001377
0.001383
0.001395
Classification Time - I
0.005800
0.006590
0.007490
0.008352
0.009316
0.010317
0.011279
0.012252
0.013214
0.014184
0.015662
0.016255
0.017155
0.018003
0.018749
0.019606
0.020489
0.021788
0.022748
0.023527
0.024209
0.025152
0.026084
0.027091
0.028059
0.029076
0.030332
0.031208
0.031841
0.032753
0.033737
0.034683
0.035556
0.036597
0.037544
0.038479
0.039418
0.040346
0.041284
0.042273
0.043441
0.044149
0.044974
0.045984
0.046974
0.047998
0.048807
0.050178
0.050751
0.051670
0.052650
0.053642
0.054601
0.056206
0.058456
0.057405
0.058823
0.059307
0.060354
0.061555
0.062095
0.063181
0.066438
0.067035
0.066871
0.066684
0.067476
0.068520
0.072063
0.071365
0.073837
0.075251
0.073258
0.074428
0.075014
0.076374
0.077630
0.080927
0.080004
0.082931
0.081466
0.081758
0.082865
0.084057
0.088218
0.091551
0.086223
0.090838
0.088222
0.092614
0.090405
0.094655
0.092364
0.093045
0.093983
0.094832
0.095950
0.096626
0.097591
0.102865
0.100067
0.104224
0.104788
0.103193
0.107751
0.108684
0.106319
0.106273
0.111023
0.109325
0.108700
0.113259
0.110378
0.115505
0.115790
0.112946
0.113983
0.115046
0.115828
0.116461
0.117451
0.117469
0.117636
0.118804
0.118716
0.118946
0.120114
0.120012
0.121118
0.121606
0.122098
0.123078
0.123845
0.125498
0.125949
0.127050
0.128001
0.128389
0.129589
0.130298
