Full Time (seconds)
0.140833
Incremental Time - I
0.001745
0.000089
0.000100
0.000104
0.000115
0.000118
0.000133
0.000130
0.000143
0.000153
0.000159
0.000176
0.000178
0.000257
0.000264
0.000273
0.000219
0.000224
0.000227
0.000245
0.000255
0.000555
0.000431
0.000438
0.000443
0.000460
0.000443
0.000461
0.000463
0.000471
0.000487
0.000490
0.000497
0.000505
0.000515
0.000520
0.000527
0.000531
0.000546
0.000569
0.000547
0.000580
0.000578
0.000604
0.000623
0.000617
0.000638
0.000647
0.000632
0.000631
0.001088
0.000660
0.000672
0.000690
0.000702
0.000712
0.000716
0.000735
0.000726
0.000728
0.000748
0.000742
0.000742
0.000773
0.000769
0.000793
0.000783
0.000808
0.000791
0.000804
0.000803
0.000837
0.000854
0.000875
0.000860
0.000895
0.000900
0.000875
0.000881
0.000919
0.000923
0.000933
0.000963
0.000951
0.001096
0.000980
0.000965
0.000988
0.000991
0.001002
0.001025
0.000559
0.000567
0.000543
0.000547
0.000546
0.000723
0.000706
0.000717
0.000714
0.000732
0.001086
0.001067
0.001069
0.001072
0.001074
0.001103
0.001083
0.001107
0.001120
0.001128
0.001163
0.001160
0.001179
0.001175
0.001145
0.001181
0.001174
0.001234
0.001213
0.001224
0.001235
0.001237
0.001227
0.001230
0.001249
0.001257
0.001268
0.001270
0.001275
0.001290
0.001339
0.001358
0.001333
0.001334
0.001388
0.001371
0.001373
0.001398
0.001389
0.001391
Classification Time - I
0.005776
0.006684
0.007624
0.008589
0.009934
0.010494
0.011423
0.012388
0.014206
0.014452
0.016388
0.016865
0.017330
0.019255
0.020170
0.020079
0.020814
0.022135
0.022622
0.023592
0.024564
0.025282
0.026314
0.027253
0.028145
0.029169
0.030076
0.031117
0.031911
0.032901
0.034092
0.034818
0.035590
0.036836
0.037548
0.038525
0.039460
0.040463
0.041305
0.042285
0.043237
0.044781
0.045225
0.046066
0.047097
0.048008
0.048910
0.049806
0.050844
0.051798
0.052663
0.053575
0.054560
0.056122
0.056450
0.057432
0.058674
0.059424
0.060642
0.061291
0.062038
0.062923
0.064293
0.067145
0.066164
0.067017
0.067629
0.068509
0.069433
0.070336
0.071830
0.072117
0.073310
0.074416
0.075849
0.076273
0.077153
0.078026
0.079153
0.083035
0.083126
0.084892
0.082581
0.083509
0.084451
0.085755
0.086344
0.090356
0.088875
0.089572
0.092357
0.089661
0.090420
0.093684
0.093841
0.091171
0.095283
0.095787
0.096083
0.093533
0.097631
0.096191
0.096136
0.100635
0.105662
0.098842
0.103775
0.100883
0.101960
0.102753
0.103249
0.108645
0.109250
0.106459
0.111214
0.112087
0.111127
0.112244
0.110354
0.113867
0.112672
0.112932
0.114094
0.116048
0.120609
0.117926
0.117913
0.123651
0.119990
0.120524
0.123999
0.124211
0.123170
0.124212
0.125079
0.126361
0.127657
0.127911
0.128591
0.130662
