Full Accuracy
67.243813
Accuracy - I
50.000000
71.876060
69.865997
65.606018
64.109985
63.561474
62.663948
62.400364
61.004318
61.047035
61.047035
61.745060
62.094070
63.119743
63.817776
64.387642
64.387642
65.477402
66.154060
66.503075
67.243813
