Full Time (seconds)
0.171364
Time - I
0.209383
0.146298
0.164694
0.223800
0.231010
0.237663
0.248012
0.248211
0.250669
0.251084
0.269363
0.239364
0.230273
0.218208
0.247978
0.191039
0.189801
0.185175
0.185183
0.178395
0.175938
