Full Time (seconds)
0.299557
Time - I
0.016172
0.063740
0.108230
0.155265
0.196261
0.242896
0.248808
0.318437
0.328287
0.363141
0.446563
0.452014
0.450021
0.455667
0.466221
0.413412
0.379035
0.336568
0.305287
0.461123
0.312192
