Full Time (seconds)
0.249416
Time - I
0.002235
0.002620
0.003494
0.004168
0.005265
0.007257
0.011485
0.008831
0.012065
0.011322
0.012448
0.013547
0.015099
0.016152
0.018537
0.018545
0.020951
0.020701
0.022155
0.024941
0.024331
0.025734
0.026901
0.030157
0.032905
0.030386
0.034782
0.033383
0.033922
0.034968
0.037025
0.046169
0.038561
0.039966
0.041571
0.042613
0.043535
0.044578
0.046453
0.047906
0.071458
0.049267
0.050862
0.057641
0.053259
0.054955
0.056000
0.057534
0.059635
0.059688
0.061072
0.062155
0.063904
0.064201
0.065471
0.067232
0.068261
0.068979
0.069580
0.070701
0.072092
0.073092
0.074754
0.077342
0.082001
0.080198
0.079443
0.080162
0.083885
0.085332
0.086391
0.084831
0.087061
0.088443
0.090954
0.092159
0.093626
0.094417
0.096284
0.094827
0.095474
0.096869
0.099243
0.101622
0.116223
0.101492
0.112053
0.106459
0.107050
0.107991
0.107723
0.110734
0.112313
0.114154
0.112139
0.115073
0.118139
0.119420
0.119719
0.118679
0.120804
0.120864
0.124491
0.123653
0.124050
0.127995
0.126783
0.127379
0.133328
0.132068
0.123041
0.127193
0.133379
0.136470
0.138635
0.136956
0.138993
0.141641
0.143303
0.144591
0.145191
0.154840
0.147224
0.147692
0.159400
0.159746
0.152334
0.153452
0.152162
0.156269
0.157752
0.159653
0.164057
0.158536
0.162428
0.163080
0.164364
0.152205
0.157740
0.155896
0.155845
0.181432
0.171760
0.173388
0.173452
0.174470
0.163067
0.168101
0.178599
0.180362
0.180947
0.182798
0.182519
0.178138
0.170414
0.173448
0.163207
0.162224
0.153951
0.154781
0.145251
0.145548
0.166226
0.170185
0.194451
0.222185
0.202604
0.194525
0.187405
0.207983
0.204402
0.203135
0.200663
0.207590
0.209112
0.208623
0.215319
0.214407
0.219479
0.212406
0.220285
0.218797
0.221278
0.221378
0.218322
0.210470
0.220896
0.226952
0.226482
0.225037
0.207947
0.238429
0.231356
0.230217
0.217832
0.208531
0.201661
0.240576
0.218048
0.221515
0.239669
0.226367
0.207446
0.259433
0.211318
0.210657
0.227789
0.232455
0.246708
0.200643
0.203356
