Full Time (seconds)
0.169628
Time - I
0.002249
0.003382
0.004466
0.005923
0.007001
0.009659
0.009513
0.010734
0.011922
0.013324
0.013776
0.014288
0.014908
0.016153
0.017521
0.018955
0.019811
0.020954
0.022346
0.023472
0.024769
0.025998
0.027202
0.027754
0.029169
0.030256
0.031862
0.033016
0.034446
0.035179
0.036303
0.037394
0.038442
0.039904
0.041051
0.042587
0.043622
0.044526
0.046953
0.048514
0.049708
0.050638
0.051857
0.051577
0.053813
0.054148
0.066257
0.057242
0.058623
0.058818
0.061061
0.074580
0.064564
0.064311
0.066109
0.065907
0.067784
0.068934
0.070915
0.070405
0.073573
0.074551
0.076260
0.077814
0.078117
0.079642
0.080886
0.080813
0.081252
0.084484
0.085939
0.087084
0.087803
0.088625
0.088774
0.091557
0.092706
0.094796
0.101856
0.094183
0.098222
0.096722
0.100479
0.101480
0.103533
0.101828
0.105460
0.112621
0.106901
0.106920
0.109689
0.108500
0.112192
0.111552
0.112865
0.115264
0.116796
0.116803
0.118152
0.119041
0.117258
0.121064
0.131452
0.125495
0.125833
0.127165
0.127040
0.120103
0.129193
0.113559
0.112610
0.132360
0.124540
0.123306
0.118691
0.136773
0.140514
0.139397
0.134021
0.141434
0.128509
0.143791
0.126121
0.126156
0.119894
0.121110
0.152657
0.153322
0.123966
0.122834
0.154841
0.155574
0.119781
0.142374
0.161430
0.161472
0.152504
0.154221
0.153255
0.156025
0.173684
0.172426
0.160149
0.160784
0.154827
0.151162
0.148573
0.142149
0.143967
0.144100
0.147163
0.146033
0.146941
0.145478
0.139267
0.184501
0.185322
0.182185
0.191434
0.193053
0.193835
0.196168
0.197602
0.197623
0.194473
0.199671
0.201309
0.187641
0.185369
0.183119
0.180153
0.180323
0.204827
0.209320
0.201306
0.194864
0.197782
0.196634
0.183642
0.184559
0.176058
0.175515
0.154600
0.218392
0.218660
0.222871
0.191903
0.214347
0.227481
0.211243
0.211030
0.196380
0.228419
0.198548
0.230140
0.231396
0.235885
0.237834
0.238623
0.219829
0.218035
0.209840
0.213079
0.212461
0.198379
0.198994
0.187068
0.187487
0.178367
0.178491
0.168742
