Full Accuracy
93.000000
Accuracy - I
50.000000
63.076920
69.846153
76.230774
80.923073
83.461540
84.692307
86.307693
87.076920
87.538460
87.307693
88.384613
89.230766
90.461540
90.692307
91.230766
91.615387
91.846153
92.384613
93.000000
93.000000
