Full Time (seconds)
0.034806
Time - I
0.004258
0.008530
0.012715
0.016692
0.021148
0.024901
0.029398
0.033024
0.037170
0.041172
0.045863
0.052247
0.057375
0.063390
0.069775
0.075713
0.081463
0.090804
0.094354
0.034567
0.035782
