Full Time (seconds)
0.107347
Time - I
0.004186
0.007002
0.009113
0.012333
0.015231
0.018302
0.029862
0.033351
0.038105
0.042707
0.047261
0.051670
0.032857
0.063590
0.039983
0.075611
0.084284
0.088413
0.094155
0.102800
0.106577
