Full Time (seconds)
0.665848
Time - I
0.250421
0.282684
0.299029
0.360316
0.391881
0.360828
0.453675
0.406892
0.456141
0.536371
0.588477
0.584945
0.589099
0.370685
0.672133
0.571002
0.539866
0.614936
0.574905
0.702722
0.853702
