Full Time (seconds)
0.287819
Time - I
0.249885
0.092999
0.312338
0.387159
0.386659
0.409885
0.441789
0.477475
0.505522
0.482862
0.429641
0.606431
0.353467
0.387372
0.365535
0.336641
0.315903
0.287122
0.287700
0.289121
0.293388
