Full Time (seconds)
0.758285
Time - I
0.174044
0.177013
0.193247
0.222054
0.225209
0.242201
0.118112
0.137656
0.142304
0.164068
0.169504
0.224018
0.471298
0.464494
0.401138
0.381330
0.619628
0.605695
0.402334
0.382887
0.361907
