Full Time (seconds)
0.346108
Time - I
0.258152
0.318644
0.241585
0.244771
0.369339
0.397739
0.393478
0.351841
0.417578
0.377572
0.388972
0.570824
0.528718
0.623721
0.640622
0.678934
0.640696
0.542522
0.497891
0.459261
0.394565
