Full Time (seconds)
0.119335
Incremental Time - I
0.012221
0.003270
0.007874
0.013951
0.027818
0.051627
0.048171
0.065410
0.086711
0.069630
0.085520
0.125901
0.099465
0.125392
0.124484
0.136575
0.176429
0.128643
0.208437
0.212785
0.212784
Classification Time - C
0.034257
0.039775
0.045844
0.053479
0.064515
0.063502
0.079465
0.108130
0.091273
0.084911
0.086469
0.088174
0.096057
0.140822
0.098411
0.165123
0.082690
0.086315
0.121144
0.110886
