Full Time (seconds)
0.214229
Time - I
0.002275
0.003453
0.004645
0.006211
0.007333
0.008446
0.009869
0.010997
0.012025
0.013479
0.014625
0.015973
0.017223
0.017626
0.018544
0.019035
0.020268
0.021470
0.022813
0.023719
0.025023
0.026610
0.027381
0.028419
0.029884
0.030949
0.032040
0.033442
0.034535
0.036093
0.037308
0.038400
0.039142
0.040639
0.041649
0.042726
0.044722
0.045898
0.046285
0.048151
0.049376
0.049892
0.051284
0.052343
0.054242
0.054798
0.055961
0.056950
0.058796
0.059844
0.060579
0.062063
0.063390
0.064139
0.065522
0.067168
0.067646
0.069237
0.070240
0.071248
0.072769
0.074627
0.074962
0.076261
0.077254
0.078348
0.079762
0.081669
0.082407
0.084014
0.084498
0.086060
0.086879
0.089529
0.090094
0.091389
0.092593
0.093117
0.094131
0.095406
0.096603
0.097676
0.100389
0.099714
0.101107
0.104036
0.103526
0.105416
0.106741
0.107461
0.108384
0.109708
0.110403
0.112929
0.115002
0.113922
0.116137
0.116439
0.119888
0.120257
0.119953
0.121593
0.124421
0.123513
0.126077
0.128144
0.127040
0.128544
0.131706
0.130957
0.131658
0.133174
0.135927
0.135957
0.137352
0.137789
0.139483
0.140180
0.143952
0.145050
0.143741
0.146012
0.145718
0.149244
0.150116
0.149332
0.150830
0.152419
0.153181
0.155944
0.155510
0.157028
0.158002
0.159404
0.162046
0.161453
0.162475
0.163742
0.165102
0.166025
0.167243
0.168619
0.170076
0.170725
0.161645
0.159747
0.161247
0.162503
0.163689
0.164235
0.164347
0.156206
0.155280
0.159515
0.157582
0.170598
0.171909
0.187039
0.189657
0.176481
0.176202
0.164466
0.165935
0.167465
0.167945
0.161647
0.158405
0.159691
0.160319
0.161981
0.161997
0.165282
0.155071
0.154661
0.166054
0.166870
0.167694
0.168883
0.170171
0.170817
0.172968
0.172693
0.217411
0.220888
0.219178
0.220866
0.222337
0.223311
0.223739
0.193181
0.194335
0.194951
0.196509
0.196948
0.198348
0.241406
0.235560
0.231057
0.219047
0.219603
0.219840
0.208363
0.206546
0.208675
0.244875
0.247470
0.247064
0.236531
0.228962
0.230035
0.226999
