Full Time (seconds)
0.176205
Time - I
0.002311
0.003444
0.004634
0.006203
0.007356
0.008510
0.009912
0.010283
0.010974
0.011690
0.012866
0.014828
0.015510
0.016559
0.017856
0.019257
0.020338
0.021543
0.022670
0.023861
0.024894
0.026351
0.027504
0.028465
0.029911
0.032978
0.032046
0.033473
0.034569
0.035645
0.037092
0.038234
0.039387
0.041302
0.041726
0.044892
0.044696
0.048240
0.049453
0.048212
0.048892
0.050345
0.051532
0.052491
0.053548
0.058792
0.056558
0.062069
0.058529
0.059572
0.061064
0.061994
0.063023
0.064367
0.066000
0.067282
0.067865
0.069153
0.071004
0.071340
0.073838
0.073727
0.075413
0.076388
0.077355
0.078527
0.079933
0.081735
0.082183
0.083934
0.084719
0.085492
0.087083
0.088007
0.089111
0.091783
0.092148
0.092809
0.095142
0.095593
0.096258
0.097687
0.100361
0.099991
0.101180
0.102656
0.103261
0.104876
0.115123
0.115951
0.117390
0.118128
0.118873
0.121470
0.121715
0.122934
0.125105
0.126699
0.117511
0.128045
0.129549
0.134073
0.132942
0.133499
0.134731
0.136507
0.137976
0.138645
0.139651
0.141879
0.142643
0.139688
0.133428
0.134739
0.135926
0.136567
0.138237
0.139148
0.140912
0.140900
0.142239
0.154906
0.157815
0.153091
0.147250
0.150064
0.162359
0.163728
0.153916
0.154534
0.156388
0.157200
0.151492
0.146754
0.156555
0.161547
0.164048
0.163516
0.162414
0.153396
0.154869
0.156221
0.158792
0.170891
0.172113
0.159910
0.160920
0.162360
0.163234
0.164150
0.166047
0.167027
0.167564
0.161649
0.157602
0.160301
0.161156
0.163451
0.161570
0.162755
0.164351
0.164531
0.165973
0.166851
0.167640
0.171725
0.170093
0.170650
0.172265
0.172836
0.174125
0.203981
0.204381
0.206528
0.191716
0.193488
0.193686
0.192573
0.182050
0.183852
0.183960
0.185226
0.185779
0.183659
0.177528
0.178168
0.177644
0.179662
0.179271
0.174895
0.169717
0.170938
0.171711
0.176678
0.173204
0.171365
0.164834
0.165918
0.166980
0.169503
0.168803
0.169057
0.170917
0.170650
0.172830
0.172715
0.173172
0.174073
0.174925
0.175522
0.176603
