Full Time (seconds)
0.143315
Incremental Time - I
0.001410
0.000093
0.000097
0.000106
0.000113
0.000113
0.000124
0.000134
0.000154
0.000155
0.000160
0.000175
0.000177
0.000192
0.000197
0.000212
0.000222
0.000225
0.000228
0.000243
0.000252
0.001095
0.000675
0.000629
0.000630
0.000627
0.000644
0.000686
0.000685
0.000689
0.000709
0.000524
0.000519
0.000523
0.000504
0.000497
0.000557
0.000561
0.000548
0.000550
0.000572
0.000756
0.000749
0.001019
0.000788
0.000770
0.000800
0.000775
0.000820
0.000814
0.001285
0.001326
0.001185
0.001168
0.001237
0.001334
0.001118
0.001063
0.000995
0.000947
0.000931
0.001311
0.001014
0.000870
0.000839
0.001339
0.000889
0.000885
0.000879
0.000890
0.000896
0.000925
0.000941
0.000956
0.000948
0.000967
0.000971
0.000975
0.000976
0.001010
0.001017
0.001028
0.001035
0.001038
0.001047
0.001055
0.001069
0.001083
0.001067
0.001110
0.001121
0.001580
0.001449
0.001351
0.001380
0.001447
0.001450
0.001523
0.001757
0.001761
0.001738
0.001736
0.001542
0.001675
0.001718
0.001745
0.001661
0.001744
0.001668
0.001760
0.001765
0.001821
0.001859
0.001739
0.001840
0.001859
0.001773
0.001846
0.001781
0.001914
0.001852
0.001840
0.001904
0.001926
0.001918
0.001831
0.001960
0.001944
0.001953
0.001760
0.001447
0.001356
0.001413
0.001406
0.002009
0.001500
0.001514
0.001537
0.001556
0.001538
0.001549
Classification Time - I
0.005787
0.004121
0.007642
0.008573
0.009534
0.010470
0.011501
0.012583
0.013646
0.014436
0.015761
0.016812
0.017759
0.018649
0.019184
0.020079
0.021043
0.021613
0.022437
0.024119
0.024783
0.026004
0.026892
0.027884
0.028909
0.028990
0.030897
0.030913
0.031784
0.033772
0.033096
0.033846
0.034985
0.035448
0.035338
0.036443
0.036719
0.037593
0.038160
0.038750
0.039065
0.040665
0.040261
0.041346
0.042388
0.044750
0.044549
0.047190
0.047579
0.047502
0.048151
0.049310
0.049898
0.050704
0.051745
0.052617
0.053591
0.054535
0.057561
0.056309
0.059542
0.058092
0.059027
0.060336
0.060918
0.063310
0.065079
0.063721
0.065083
0.065610
0.066847
0.067442
0.068861
0.069542
0.070455
0.071265
0.074046
0.075853
0.075538
0.075416
0.076881
0.076890
0.078689
0.079005
0.079804
0.083546
0.082031
0.085909
0.086593
0.088140
0.087884
0.089579
0.087085
0.090269
0.088898
0.090335
0.094215
0.093067
0.095979
0.093782
0.094285
0.099115
0.097922
0.100605
0.102133
0.099290
0.099904
0.103189
0.101905
0.106599
0.103465
0.108359
0.109706
0.106294
0.107129
0.107892
0.108705
0.113812
0.110904
0.111696
0.116864
0.117761
0.114708
0.119865
0.120909
0.116869
0.122480
0.119873
0.119818
0.120492
0.112302
0.116466
0.121712
0.124327
0.125105
0.127358
0.128115
0.128160
0.128912
0.130318
