Full Time (seconds)
0.141932
Incremental Time - I
0.001931
0.000089
0.000104
0.000104
0.000115
0.000113
0.000126
0.000128
0.000139
0.000156
0.000158
0.000177
0.000192
0.000196
0.000203
0.000210
0.000214
0.000221
0.000224
0.000247
0.000249
0.000123
0.000961
0.000490
0.000441
0.000449
0.000488
0.000488
0.000482
0.000500
0.000555
0.000665
0.000625
0.000705
0.000650
0.000679
0.000827
0.000850
0.000825
0.000860
0.000968
0.000718
0.000684
0.000696
0.001091
0.000713
0.000711
0.000721
0.000730
0.000737
0.001332
0.001270
0.001323
0.000809
0.000811
0.000803
0.000810
0.000820
0.000851
0.001409
0.001410
0.001408
0.001312
0.001023
0.000945
0.001439
0.001085
0.001022
0.000999
0.001030
0.001361
0.001475
0.001187
0.001539
0.001245
0.001093
0.001134
0.001171
0.001128
0.001563
0.001586
0.001328
0.001549
0.001283
0.001213
0.001275
0.001595
0.001629
0.001646
0.001360
0.001303
0.001276
0.001266
0.001273
0.001664
0.001626
0.001488
0.001406
0.001330
0.001311
0.001770
0.001450
0.001707
0.001449
0.001793
0.001542
0.001453
0.001435
0.001384
0.001751
0.001448
0.001868
0.001593
0.001466
0.001507
0.001454
0.001814
0.001486
0.001801
0.001529
0.001483
0.001842
0.001610
0.001605
0.001819
0.001617
0.001478
0.001660
0.001613
0.001924
0.001959
0.001784
0.001635
0.002044
0.001543
0.001831
0.001912
0.001709
0.001654
0.001662
0.002046
Classification Time - I
0.005794
0.006672
0.007623
0.008538
0.009526
0.010509
0.011546
0.012479
0.013477
0.014869
0.015481
0.016856
0.017693
0.018661
0.019013
0.019886
0.020764
0.022152
0.022563
0.023658
0.024136
0.024279
0.025426
0.025099
0.026233
0.026818
0.026617
0.027276
0.027795
0.028398
0.029146
0.031181
0.030966
0.031963
0.032951
0.034956
0.035972
0.035733
0.037433
0.038900
0.038554
0.040918
0.041862
0.041638
0.042346
0.043326
0.044126
0.045167
0.046149
0.047715
0.048530
0.049273
0.049991
0.050947
0.052559
0.052845
0.053669
0.054717
0.055797
0.056966
0.057589
0.058441
0.059291
0.060228
0.061616
0.062151
0.063084
0.064168
0.066861
0.065831
0.067022
0.067643
0.069360
0.069702
0.071531
0.071561
0.075173
0.073329
0.074952
0.075337
0.076735
0.078309
0.077984
0.078965
0.080457
0.081233
0.081645
0.082502
0.084835
0.084594
0.085380
0.088398
0.087498
0.088483
0.089429
0.091798
0.091385
0.091803
0.096245
0.097435
0.094350
0.095674
0.096846
0.101059
0.102158
0.101335
0.102811
0.101148
0.102924
0.106964
0.103712
0.109028
0.109661
0.106259
0.109097
0.112511
0.108932
0.114112
0.115137
0.112214
0.113028
0.117925
0.114371
0.115999
0.120313
0.117334
0.120268
0.122398
0.119857
0.121991
0.121815
0.122954
0.123792
0.124892
0.126052
0.126947
0.129251
0.129164
0.133488
0.130048
