Full Accuracy
91.153847
Accuracy - I
50.000000
51.615387
52.384613
53.615387
53.615387
53.538460
53.461540
53.461540
53.461540
53.461540
53.461540
53.538460
54.461540
54.846157
55.384617
56.307690
56.538456
57.076923
57.153851
57.153851
57.307690
57.538460
58.384617
58.769234
59.230770
59.538460
59.692307
60.230766
60.615383
60.769230
60.846149
63.461536
64.538460
64.692307
64.692307
64.615379
64.615387
64.615387
64.615379
64.615387
64.538460
64.615387
65.692314
66.769234
67.076920
67.230766
67.230766
67.384621
67.692307
67.692307
67.692307
68.307693
69.538460
70.076927
70.384613
70.384613
70.384613
70.384613
70.615379
70.769234
70.846161
71.000000
72.384613
72.538460
73.384613
73.384613
73.461540
73.923080
73.923073
73.923080
73.923073
74.230774
75.384613
75.769234
75.846153
76.153847
76.076927
76.307693
76.692307
76.692307
76.923080
77.000000
77.230766
77.923080
78.000000
78.076920
78.153839
78.692307
78.769234
78.846153
79.000000
79.076920
79.461540
80.846153
81.307693
81.846153
81.846153
82.000000
82.076927
82.153847
82.000000
83.384613
83.923080
85.153847
85.384613
85.384613
85.384613
85.384613
85.384613
85.461540
85.538460
85.384613
85.923073
86.384621
86.923073
87.076927
87.307693
87.230774
87.461540
87.692307
87.769226
90.923080
90.923080
90.923080
90.923080
91.000000
90.923080
90.692314
90.692307
90.615387
90.615387
90.615387
90.615387
90.846153
90.846153
90.923080
91.000000
91.076920
91.076920
91.153847
91.153847
