Full Time (seconds)
0.037801
Time - I
0.004418
0.005319
0.006272
0.007224
0.008189
0.008910
0.009714
0.010553
0.011347
0.012066
0.012903
0.013640
0.014353
0.015100
0.016145
0.016622
0.017336
0.018674
0.018987
0.019932
0.020442
0.021167
0.022325
0.022726
0.023478
0.024230
0.024901
0.025950
0.026396
0.027225
0.028005
0.028908
0.029553
0.030426
0.031491
0.032619
0.033698
0.034181
0.035299
0.035123
0.036316
0.037489
0.037380
0.038237
0.038968
0.039671
0.040860
0.041437
0.041881
0.042627
0.043430
0.043868
0.044110
0.046257
0.044746
0.044953
0.045838
0.046148
0.046294
0.046829
0.048773
0.049546
0.050250
0.049502
0.050464
0.050997
0.051965
0.052728
0.053449
0.054426
0.055006
0.057244
0.056236
0.058773
0.058156
0.058706
0.059291
0.060028
0.060819
0.061880
0.062357
0.065188
0.065903
0.066565
0.065290
0.069786
0.066926
0.067564
0.068651
0.069168
0.070043
0.072802
0.073048
0.074415
0.072818
0.073595
0.074683
0.075139
0.076099
0.078967
0.077777
0.078057
0.081543
0.079674
0.080803
0.081187
0.082076
0.085605
0.085683
0.084908
0.087764
0.087776
0.086982
0.087992
0.087938
0.088693
0.090671
0.090162
0.094043
0.092917
0.093305
0.093321
0.094066
0.095920
0.098654
0.099820
0.097333
0.097762
0.098625
0.100122
0.100897
0.104281
0.105055
0.102251
0.103175
0.104107
0.104777
0.108901
0.109723
0.107101
0.107619
