Full Time (seconds)
0.110440
Time - I
0.004647
0.005514
0.006291
0.007173
0.007937
0.008742
0.009961
0.010346
0.011103
0.011921
0.012681
0.013839
0.014270
0.014861
0.015843
0.016461
0.017345
0.017869
0.019150
0.020002
0.020688
0.021522
0.021670
0.022335
0.023835
0.024403
0.024672
0.026127
0.026911
0.027251
0.027910
0.029322
0.030236
0.030980
0.031548
0.032688
0.033435
0.033402
0.034044
0.035834
0.036608
0.036885
0.037558
0.038125
0.039051
0.041100
0.040413
0.042505
0.041855
0.042700
0.043145
0.043889
0.044680
0.046319
0.046356
0.046891
0.048183
0.049949
0.049700
0.050034
0.051633
0.051377
0.052225
0.053257
0.053773
0.055240
0.055179
0.056125
0.058476
0.059294
0.060045
0.059001
0.059943
0.060778
0.062494
0.063958
0.064698
0.063458
0.066494
0.065744
0.067890
0.067888
0.069397
0.069308
0.070927
0.071785
0.070690
0.071963
0.074048
0.074149
0.074866
0.073562
0.073953
0.076591
0.077093
0.075367
0.075334
0.075760
0.076836
0.079210
0.079608
0.080332
0.081239
0.079998
0.080268
0.080604
0.082519
0.082760
0.085816
0.087169
0.085066
0.085415
0.086651
0.087200
0.088372
0.091688
0.092094
0.090618
0.090781
0.091845
0.092078
0.092850
0.094400
0.094405
0.096584
0.101698
0.101202
0.098336
0.098933
0.099379
0.100962
0.100499
0.103440
0.105528
0.103237
0.103547
0.108410
0.107778
0.105823
0.107276
0.107683
