Full Time (seconds)
0.107475
Time - I
0.004569
0.005440
0.006223
0.007159
0.007967
0.008762
0.009560
0.010353
0.011198
0.011944
0.012736
0.013500
0.014287
0.014969
0.015722
0.016817
0.017250
0.018413
0.018697
0.019449
0.020766
0.020925
0.021698
0.022491
0.023851
0.024013
0.024763
0.025681
0.026557
0.027737
0.027965
0.028532
0.029984
0.030572
0.031513
0.031736
0.033506
0.033294
0.034100
0.034900
0.036535
0.036685
0.037778
0.037953
0.038784
0.041848
0.040662
0.041502
0.042412
0.042533
0.043883
0.044055
0.045327
0.045785
0.046248
0.047242
0.048005
0.048533
0.049284
0.050076
0.050731
0.052056
0.052229
0.053406
0.054433
0.054674
0.055275
0.056392
0.056871
0.057701
0.060201
0.058765
0.059261
0.059176
0.059724
0.060143
0.060330
0.060704
0.061909
0.061613
0.062161
0.063740
0.064272
0.064705
0.065474
0.066110
0.066568
0.068765
0.068038
0.070290
0.069961
0.070466
0.071347
0.071923
0.073052
0.073740
0.074223
0.075248
0.076843
0.076833
0.077208
0.079051
0.079653
0.079453
0.080407
0.081430
0.082753
0.083001
0.083786
0.084146
0.085283
0.085642
0.087534
0.087006
0.087702
0.090315
0.090066
0.089928
0.092619
0.091589
0.093118
0.093691
0.093792
0.095016
0.095642
0.096434
0.096939
0.098179
0.098618
0.101062
0.100219
0.100817
0.101596
0.102741
0.103291
0.103641
0.104604
0.105480
0.106887
0.107185
0.107443
