Full Time (seconds)
0.106782
Time - I
0.004977
0.005429
0.006287
0.007194
0.008000
0.008811
0.009700
0.010425
0.011247
0.012049
0.012787
0.013583
0.014422
0.015074
0.016024
0.016885
0.017647
0.018294
0.018780
0.019873
0.020840
0.021580
0.022322
0.022633
0.023312
0.024051
0.025001
0.025995
0.026328
0.027100
0.027800
0.028601
0.029420
0.030251
0.031672
0.031938
0.032644
0.033563
0.034616
0.035404
0.036100
0.036481
0.037231
0.038264
0.038903
0.039912
0.041287
0.041997
0.042241
0.042926
0.043354
0.044135
0.044974
0.046612
0.046408
0.047359
0.048254
0.052580
0.049974
0.051231
0.050942
0.051603
0.052425
0.053150
0.053969
0.054678
0.055614
0.056603
0.057169
0.057648
0.058500
0.059826
0.060561
0.062521
0.061437
0.064288
0.063170
0.064104
0.064680
0.065189
0.066460
0.066754
0.068003
0.069233
0.071144
0.069878
0.072669
0.071193
0.072216
0.075020
0.076856
0.074489
0.077357
0.076656
0.077064
0.077634
0.079110
0.078735
0.079553
0.080605
0.083678
0.083971
0.084224
0.082288
0.082434
0.084146
0.083593
0.085178
0.084464
0.088161
0.086971
0.085638
0.086352
0.087098
0.087873
0.091629
0.089607
0.090173
0.090849
0.091481
0.095511
0.094086
0.096977
0.094600
0.099250
0.096508
0.096897
0.097644
0.101880
0.099666
0.100215
0.100875
0.101400
0.104053
0.103231
0.104991
0.104836
0.107646
0.110194
0.107024
0.111086
