Full Time (seconds)
0.107587
Time - I
0.004512
0.005359
0.006443
0.007085
0.007894
0.008739
0.009531
0.010389
0.011118
0.011878
0.012652
0.013366
0.014269
0.014875
0.015628
0.016367
0.017119
0.017911
0.018681
0.019389
0.020448
0.020903
0.021634
0.022467
0.023192
0.023905
0.025161
0.026069
0.026545
0.027120
0.027696
0.028694
0.029618
0.030517
0.030939
0.032358
0.032489
0.033440
0.034041
0.035395
0.035901
0.036573
0.037453
0.037948
0.038701
0.039398
0.040297
0.040963
0.041950
0.043564
0.043759
0.043944
0.044744
0.045503
0.046366
0.046970
0.048170
0.048415
0.050389
0.050386
0.050870
0.051447
0.052546
0.053197
0.054142
0.054567
0.055351
0.056562
0.056863
0.058139
0.058322
0.064666
0.059795
0.060826
0.062101
0.062031
0.062990
0.063744
0.064367
0.065146
0.066788
0.069643
0.068545
0.067440
0.068351
0.068010
0.067770
0.068282
0.068731
0.069346
0.071998
0.072528
0.071460
0.072423
0.072808
0.075737
0.074724
0.075132
0.078111
0.079046
0.079619
0.077878
0.081200
0.081486
0.080231
0.081025
0.084388
0.085264
0.085864
0.086915
0.085298
0.085471
0.086953
0.089804
0.087920
0.090081
0.089394
0.090128
0.091207
0.091448
0.095590
0.095012
0.093577
0.097705
0.096819
0.099350
0.096778
0.097535
0.101780
0.099749
0.103335
0.100815
0.101452
0.102069
0.104137
0.103564
0.107010
0.107640
0.105868
0.106823
0.109168
