Full Time (seconds)
0.002757
Time - I
0.000824
0.000903
0.001520
0.001081
0.001152
0.001229
0.001317
0.001387
0.001464
0.001556
0.001653
0.001751
0.001863
0.001959
0.002051
0.002234
0.002299
0.002401
0.002538
0.002655
0.002763
