Full Time (seconds)
0.213408
Time - I
0.002231
0.003380
0.004476
0.008235
0.007050
0.008201
0.009537
0.010622
0.012149
0.014230
0.014199
0.015297
0.018545
0.018182
0.018908
0.020524
0.021364
0.022672
0.029451
0.024180
0.025094
0.025724
0.026690
0.027982
0.029208
0.030302
0.031354
0.032705
0.033826
0.034983
0.036274
0.037533
0.038518
0.040062
0.041444
0.042084
0.047985
0.048335
0.045597
0.047412
0.048043
0.049078
0.050493
0.051587
0.053056
0.054239
0.055094
0.056154
0.057615
0.058630
0.059691
0.061134
0.062266
0.063781
0.064700
0.065746
0.066926
0.068745
0.069319
0.070569
0.071848
0.073536
0.073949
0.075370
0.077017
0.077573
0.078981
0.080038
0.081934
0.082444
0.083524
0.084724
0.086602
0.087097
0.088088
0.090105
0.090615
0.091721
0.093280
0.094256
0.095307
0.099222
0.099906
0.099997
0.100267
0.102533
0.102282
0.103868
0.106093
0.106273
0.107344
0.108986
0.109422
0.110988
0.113333
0.114170
0.115761
0.115757
0.118748
0.118958
0.120371
0.122174
0.121915
0.125203
0.123737
0.126747
0.126023
0.127659
0.130939
0.131891
0.131225
0.133757
0.134925
0.134155
0.134677
0.127235
0.129244
0.139135
0.140303
0.142986
0.142729
0.144410
0.147812
0.145744
0.136526
0.136998
0.149868
0.151067
0.152477
0.153471
0.156720
0.155502
0.157522
0.158774
0.159017
0.162421
0.162172
0.162677
0.165098
0.153475
0.153363
0.167674
0.168715
0.171853
0.171072
0.172633
0.173910
0.175137
0.175698
0.177229
0.178232
0.179386
0.180420
0.167798
0.185994
0.183855
0.185587
0.186398
0.188375
0.190127
0.190341
0.190905
0.177720
0.180551
0.181177
0.183736
0.181697
0.184346
0.185462
0.185614
0.185963
0.183556
0.175368
0.208825
0.206335
0.207597
0.189677
0.210518
0.212446
0.214253
0.197053
0.198805
0.186839
0.185944
0.176744
0.175745
0.177701
0.178967
0.178248
0.176940
0.168930
0.170189
0.170755
0.199274
0.230357
0.231471
0.233404
0.226402
0.217341
0.235847
0.231354
0.221617
0.222255
0.221935
0.193475
0.196598
0.199354
0.197709
0.248893
0.247348
0.237758
