Full Time (seconds)
0.016550
Time - I
0.004423
0.004822
0.005201
0.005664
0.006019
0.006385
0.006780
0.007197
0.007623
0.008076
0.008452
0.008802
0.009236
0.009683
0.010011
0.010483
0.010771
0.011256
0.012027
0.012359
0.013059
0.012953
0.013249
0.013940
0.014539
0.014433
0.015113
0.015888
0.016140
0.016275
0.016660
