Full Time (seconds)
0.005763
Incremental Time - I
0.001326
0.000062
0.000067
0.000073
0.000071
0.000087
0.000094
0.000090
0.000108
0.000099
0.000111
0.000078
0.000068
0.000072
0.000079
0.000075
0.000099
0.000088
0.000103
0.000093
0.000100
0.000224
0.000260
0.000263
0.002284
0.001807
0.001826
0.002080
0.001623
0.002120
0.002402
Classification Time - I
0.000721
0.000826
0.000886
0.000992
0.001090
0.001206
0.001292
0.001404
0.001583
0.001711
0.001685
0.001737
0.001794
0.001829
0.001987
0.001936
0.002000
0.002086
0.002150
0.002258
0.002500
0.002688
0.002923
0.003131
0.003387
0.003633
0.003993
0.004354
0.004463
0.004967
