Full Time (seconds)
0.196405
Time - I
0.210541
0.240946
0.267510
0.271863
0.265249
0.274959
0.288769
0.251347
0.250822
0.279682
0.242299
0.246777
0.249111
0.218066
0.201555
0.195137
0.180635
0.191038
0.204556
0.196244
0.186415
