Full Time (seconds)
0.016713
Time - I
0.002032
0.002856
0.003648
0.004396
0.005166
0.005998
0.006748
0.007576
0.008315
0.009245
0.010169
0.010128
0.010729
0.010877
0.013329
0.014143
0.012967
0.013492
0.012046
0.012167
0.015111
0.013042
0.016278
0.013708
0.014123
0.014509
0.015131
0.015397
0.015112
0.015431
0.016692
