Full Accuracy
93.000000
Accuracy - I
50.000000
65.230766
72.692314
77.230766
80.307693
83.000000
84.153847
84.615387
86.153847
87.307693
88.000000
88.769234
90.000000
90.769234
91.307693
91.769234
92.153847
92.307693
92.769226
93.000000
93.000000
