Full Time (seconds)
0.100402
Time - I
0.004359
0.008470
0.012709
0.017503
0.021361
0.026961
0.031331
0.035943
0.039242
0.041205
0.042332
0.047325
0.053042
0.061755
0.063978
0.078450
0.089551
0.096123
0.106481
0.100136
0.106361
