Full Accuracy
96.6154
Accuracy - I
cat: testS_0.svm.acc: No such file or directory
72
79.6154
84.7692
88.7692
91.3846
91.8462
93.1538
93.2308
93.6923
93.3077
94.1538
95.0769
95.6923
96
96
95.4615
95.7692
96.3077
96.5385
96.7692
