Full Time (seconds)
0.131748
Incremental Time - I
cat: testS_0.svm.time: No such file or directory
0.003488
0.005594
0.009050
0.016431
0.016688
0.020719
0.025338
0.027839
0.034035
0.038579
0.044440
0.053029
0.058279
0.067274
0.074258
0.079082
0.089836
0.102803
0.106022
0.091245
Classification Time - C
0.033343
0.037623
0.042978
0.050864
0.053259
0.058178
0.062492
0.061956
0.072283
0.076413
0.084629
0.076598
0.094231
0.101829
0.104680
0.096625
0.118131
0.125786
0.125802
0.131138
