Full Time (seconds)
0.132527
Incremental Time - I
cat: testS_0.svm.time: No such file or directory
0.003568
0.005987
0.009972
0.012694
0.016825
0.021086
0.028505
0.030041
0.038044
0.039429
0.043334
0.051417
0.059540
0.071235
0.074414
0.080175
0.086559
0.095521
0.108529
0.114194
Classification Time - C
0.034502
0.037322
0.042629
0.048435
0.054940
0.058187
0.063776
0.067593
0.073097
0.076384
0.082119
0.093469
0.093757
0.100854
0.090542
0.111659
0.107811
0.122794
0.127430
0.131599
