Full Time (seconds)
0.130214
Incremental Time - I
cat: testS_0.svm.time: No such file or directory
0.003035
0.006324
0.009314
0.012709
0.016681
0.021099
0.024893
0.028899
0.025605
0.026829
0.031032
0.036573
0.047049
0.062186
0.074271
0.089419
0.090017
0.101421
0.117546
0.104920
Classification Time - C
0.027342
0.040735
0.041536
0.048106
0.053115
0.058063
0.063171
0.068152
0.051480
0.054393
0.062355
0.067706
0.077144
0.100018
0.111186
0.112342
0.118861
0.132299
0.131054
0.122081
