Full Accuracy
73.846413
Accuracy - I
50.000000
50.000000
50.000000
50.000000
50.000000
50.000000
50.000000
50.000000
50.000000
50.000000
50.000000
51.068394
55.840492
57.300613
61.353333
64.273575
66.389008
69.287895
72.122704
73.867760
73.846413
