Full Time (seconds)
0.000802
Incremental Time - I
0.000381
0.000127
0.000212
0.000227
0.000224
0.000322
0.000323
0.000717
0.000932
0.001421
0.001409
0.001601
0.001357
0.004053
0.003463
0.007619
0.003618
0.003586
0.003925
0.004775
0.004351
Classification Time - C
0.000404
0.000461
0.000490
0.000435
0.000447
0.000460
0.000522
0.000520
0.000579
0.000579
0.000612
0.000679
0.000650
0.000673
0.000732
0.000703
0.000725
0.000758
0.000767
0.000795
