Full Time (seconds)
0.143723
Incremental Time - I
0.005911
0.000055
0.000055
0.000056
0.000056
0.000063
0.000072
0.000078
0.000087
0.000083
0.000088
0.000135
0.000141
0.000145
0.000163
0.000168
0.000177
0.000179
0.000185
0.000206
0.000208
0.000213
0.000228
0.000235
0.000241
0.000248
0.002656
0.002227
0.002766
0.002812
0.001714
0.001276
0.001145
0.001109
0.001103
0.001138
0.001202
0.001378
0.002638
0.001354
0.001253
0.001330
0.001294
0.001214
0.002870
0.002996
0.001408
0.002872
0.001326
0.001391
0.001332
0.001352
0.001414
0.001509
0.001366
0.002959
0.003054
0.001674
0.001488
0.002906
0.001534
0.001514
0.001468
0.001458
0.003099
0.003191
0.001837
0.001628
0.001674
0.001487
0.001457
0.002958
0.003155
0.002014
0.001496
0.002999
0.001749
0.001613
0.001589
0.003203
0.001795
0.003209
0.003308
0.003359
0.002438
0.001699
0.001725
0.001719
0.001776
0.001710
0.003062
0.003372
0.002342
0.001790
0.001699
0.001823
0.003233
0.003508
0.003497
0.002287
0.001798
0.001823
0.001905
0.003274
0.003407
0.003469
0.002447
0.002151
0.001858
0.002060
0.003219
0.003639
0.002413
0.002263
0.001965
0.001955
0.003342
0.003662
0.002367
0.002137
0.002251
0.002062
0.003418
0.003698
0.002610
0.002273
0.002143
0.003468
0.003725
0.003779
0.002716
0.002301
0.002269
0.002194
0.003726
0.002465
0.002199
0.002127
0.003670
0.003789
0.003728
Classification Time - I
0.005308
0.005652
0.006019
0.006439
0.006812
0.007394
0.007983
0.008547
0.009111
0.010134
0.010727
0.011733
0.012619
0.013519
0.014869
0.015294
0.016158
0.017139
0.018499
0.018974
0.020517
0.021385
0.021683
0.022691
0.023624
0.024577
0.025601
0.026493
0.027416
0.028352
0.029309
0.030246
0.032037
0.032100
0.032982
0.035129
0.035042
0.035945
0.036916
0.037923
0.038814
0.039794
0.042013
0.041634
0.042546
0.043716
0.044471
0.045452
0.046377
0.047267
0.048194
0.049937
0.050415
0.051439
0.052462
0.053552
0.055826
0.054893
0.055802
0.057184
0.057741
0.058860
0.059785
0.061110
0.063429
0.062372
0.063484
0.064234
0.065212
0.068393
0.066914
0.068282
0.071566
0.069809
0.071749
0.071738
0.072683
0.073875
0.074925
0.075523
0.076531
0.077564
0.078310
0.082168
0.082202
0.084504
0.085112
0.085984
0.084067
0.085308
0.086333
0.086858
0.087904
0.088564
0.089416
0.090295
0.091481
0.092156
0.093040
0.094026
0.098867
0.096017
0.096627
0.098246
0.098588
0.101389
0.100459
0.101371
0.102409
0.103370
0.108120
0.105418
0.105894
0.106424
0.107790
0.108051
0.109124
0.112155
0.111041
0.111904
0.112801
0.113562
0.114615
0.115574
0.120506
0.117900
0.119073
0.119752
0.120923
0.121527
0.122139
0.123030
0.124043
0.125194
0.125821
0.127126
0.127916
0.139446
0.130007
0.130152
