Full Time (seconds)
0.130845
Incremental Time - I
0.005893
0.000090
0.000103
0.000109
0.000120
0.000128
0.000133
0.000139
0.000140
0.000154
0.000161
0.000177
0.000188
0.000197
0.000202
0.000214
0.000217
0.000220
0.000229
0.000251
0.000252
0.002872
0.002808
0.002641
0.002673
0.002884
0.002691
0.002670
0.002748
0.002753
0.002820
0.002857
0.002864
0.002930
0.002779
0.002956
0.002851
0.002965
0.002896
0.002898
0.002874
0.002778
0.002646
0.002653
0.002655
0.002686
0.002756
0.002786
0.002731
0.002671
0.002876
0.002959
0.002975
0.002949
0.002967
0.002955
0.003081
0.003013
0.003104
0.003023
0.003055
0.003121
0.003166
0.003032
0.003109
0.003177
0.003114
0.003143
0.003140
0.003058
0.003114
0.003072
0.003156
0.003235
0.003174
0.003178
0.003129
0.003260
0.003247
0.003128
0.003240
0.003288
0.003136
0.003295
0.003220
0.003188
0.003178
0.003351
0.003374
0.003339
0.003390
0.003322
0.003416
0.003293
0.003180
0.003341
0.003396
0.003385
0.003487
0.003359
0.003422
0.003513
0.003427
0.003507
0.003507
0.003475
0.003530
0.003516
0.003526
0.003577
0.003545
0.003606
0.003540
0.003467
0.003541
0.003536
0.003527
0.003506
0.003576
0.003430
0.003551
0.003552
0.003524
0.003656
0.003675
0.003445
0.003679
0.003507
0.003695
0.003727
0.003699
0.003715
0.003773
0.003657
0.003586
0.003684
0.003587
0.003522
0.003670
0.003553
0.003695
Classification Time - I
0.005756
0.006573
0.007508
0.008416
0.009388
0.010390
0.011359
0.012356
0.013343
0.014415
0.015330
0.016315
0.017203
0.018091
0.018832
0.019704
0.020547
0.021456
0.022428
0.023270
0.024149
0.025027
0.025981
0.026897
0.027883
0.028914
0.030015
0.030789
0.031914
0.032564
0.033896
0.034585
0.035853
0.036411
0.037360
0.038944
0.039290
0.040206
0.041205
0.042372
0.042500
0.042895
0.043224
0.044057
0.044003
0.044524
0.045106
0.045659
0.046310
0.046849
0.047687
0.048698
0.049907
0.050605
0.052170
0.052619
0.053574
0.054866
0.055353
0.056687
0.057353
0.058117
0.059413
0.059977
0.061381
0.061819
0.062703
0.063543
0.065297
0.066018
0.066928
0.067629
0.069114
0.069530
0.070311
0.071435
0.072235
0.073111
0.074960
0.075192
0.076988
0.077002
0.077898
0.078969
0.080212
0.080802
0.081448
0.082544
0.084219
0.084579
0.085089
0.086294
0.087197
0.088675
0.089496
0.090263
0.090889
0.092189
0.092545
0.093766
0.094912
0.095364
0.097393
0.097377
0.098322
0.099434
0.100193
0.100948
0.101899
0.103287
0.103574
0.104702
0.105356
0.106275
0.106992
0.108374
0.109212
0.109939
0.110966
0.111529
0.112836
0.114010
0.114382
0.115061
0.116461
0.117041
0.117910
0.119425
0.120038
0.121024
0.122003
0.122772
0.122956
0.115672
0.115995
0.117001
0.117431
0.118514
0.119647
0.119981
