log2c=5 log2g=-7 rate=51.4
log2c=-1 log2g=-7 rate=50.0
log2c=5 log2g=-1 rate=76.0
log2c=-1 log2g=-1 rate=75.4
log2c=11 log2g=-7 rate=76.0
log2c=11 log2g=-1 rate=73.8
log2c=5 log2g=-13 rate=50.0
log2c=-1 log2g=-13 rate=50.0
log2c=11 log2g=-13 rate=50.0
log2c=-3 log2g=-7 rate=50.0
log2c=-3 log2g=-1 rate=75.8
log2c=-3 log2g=-13 rate=50.0
log2c=5 log2g=1 rate=74.4
log2c=-1 log2g=1 rate=76.4
log2c=11 log2g=1 rate=69.8
log2c=-3 log2g=1 rate=77.4
log2c=9 log2g=-7 rate=76.6
log2c=9 log2g=-1 rate=74.6
log2c=9 log2g=-13 rate=50.0
log2c=9 log2g=1 rate=72.6
log2c=5 log2g=-11 rate=50.0
log2c=-1 log2g=-11 rate=50.0
log2c=11 log2g=-11 rate=50.0
log2c=-3 log2g=-11 rate=50.0
log2c=9 log2g=-11 rate=50.0
log2c=3 log2g=-7 rate=50.0
log2c=3 log2g=-1 rate=76.0
log2c=3 log2g=-13 rate=50.0
log2c=3 log2g=1 rate=74.6
log2c=3 log2g=-11 rate=50.0
log2c=5 log2g=-5 rate=76.2
log2c=-1 log2g=-5 rate=50.0
log2c=11 log2g=-5 rate=75.8
log2c=-3 log2g=-5 rate=50.0
log2c=9 log2g=-5 rate=76.0
log2c=3 log2g=-5 rate=73.2
log2c=15 log2g=-7 rate=75.8
log2c=15 log2g=-1 rate=73.6
log2c=15 log2g=-13 rate=50.0
log2c=15 log2g=1 rate=67.4
log2c=15 log2g=-11 rate=73.2
log2c=15 log2g=-5 rate=75.4
log2c=5 log2g=-15 rate=50.0
log2c=-1 log2g=-15 rate=50.0
log2c=11 log2g=-15 rate=50.0
log2c=-3 log2g=-15 rate=50.0
log2c=9 log2g=-15 rate=50.0
log2c=3 log2g=-15 rate=50.0
log2c=15 log2g=-15 rate=50.0
log2c=-5 log2g=-7 rate=50.0
log2c=-5 log2g=-1 rate=50.0
log2c=-5 log2g=-13 rate=50.0
log2c=-5 log2g=1 rate=50.6
log2c=-5 log2g=-11 rate=50.0
log2c=-5 log2g=-5 rate=50.0
log2c=-5 log2g=-15 rate=50.0
log2c=5 log2g=3 rate=70.0
log2c=-1 log2g=3 rate=76.6
log2c=11 log2g=3 rate=66.0
log2c=-3 log2g=3 rate=72.2
log2c=9 log2g=3 rate=68.4
log2c=3 log2g=3 rate=72.6
log2c=15 log2g=3 rate=66.2
log2c=-5 log2g=3 rate=50.0
log2c=7 log2g=-7 rate=73.2
log2c=7 log2g=-1 rate=75.8
log2c=7 log2g=-13 rate=50.0
log2c=7 log2g=1 rate=72.2
log2c=7 log2g=-11 rate=50.0
log2c=7 log2g=-5 rate=76.2
log2c=7 log2g=-15 rate=50.0
log2c=7 log2g=3 rate=65.6
log2c=5 log2g=-9 rate=50.0
log2c=-1 log2g=-9 rate=50.0
log2c=11 log2g=-9 rate=73.4
log2c=-3 log2g=-9 rate=50.0
log2c=9 log2g=-9 rate=51.4
log2c=3 log2g=-9 rate=50.0
log2c=15 log2g=-9 rate=76.0
log2c=-5 log2g=-9 rate=50.0
log2c=7 log2g=-9 rate=50.0
log2c=1 log2g=-7 rate=50.0
log2c=1 log2g=-1 rate=76.8
log2c=1 log2g=-13 rate=50.0
log2c=1 log2g=1 rate=76.6
log2c=1 log2g=-11 rate=50.0
log2c=1 log2g=-5 rate=50.8
log2c=1 log2g=-15 rate=50.0
log2c=1 log2g=3 rate=74.8
log2c=1 log2g=-9 rate=50.0
log2c=5 log2g=-3 rate=75.6
log2c=-1 log2g=-3 rate=72.6
log2c=11 log2g=-3 rate=76.6
log2c=-3 log2g=-3 rate=50.0
log2c=9 log2g=-3 rate=75.8
log2c=3 log2g=-3 rate=76.4
log2c=15 log2g=-3 rate=76.0
log2c=-5 log2g=-3 rate=50.0
log2c=7 log2g=-3 rate=76.0
log2c=1 log2g=-3 rate=76.2
log2c=13 log2g=-7 rate=76.0
log2c=13 log2g=-1 rate=73.8
log2c=13 log2g=-13 rate=50.0
log2c=13 log2g=1 rate=68.6
log2c=13 log2g=-11 rate=51.4
log2c=13 log2g=-5 rate=76.0
log2c=13 log2g=-15 rate=50.0
log2c=13 log2g=3 rate=66.8
log2c=13 log2g=-9 rate=76.8
log2c=13 log2g=-3 rate=76.4
