log2c=0.0 log2g=-7 rate=50.0
log2c=-3.0 log2g=-7 rate=50.0
log2c=0.0 log2g=-1 rate=76.8
log2c=-3.0 log2g=-1 rate=76.1
log2c=3.0 log2g=-7 rate=50.0
log2c=3.0 log2g=-1 rate=76.8
log2c=0.0 log2g=-13 rate=50.0
log2c=-3.0 log2g=-13 rate=50.0
log2c=3.0 log2g=-13 rate=50.0
log2c=-4.0 log2g=-7 rate=50.0
log2c=-4.0 log2g=-1 rate=75.3
log2c=-4.0 log2g=-13 rate=50.0
log2c=0.0 log2g=1 rate=77.7
log2c=-3.0 log2g=1 rate=78.0
log2c=3.0 log2g=1 rate=77.1
log2c=-4.0 log2g=1 rate=77.8
log2c=2.0 log2g=-7 rate=50.0
log2c=2.0 log2g=-1 rate=76.7
log2c=2.0 log2g=-13 rate=50.0
log2c=2.0 log2g=1 rate=77.6
log2c=0.0 log2g=-11 rate=50.0
log2c=-3.0 log2g=-11 rate=50.0
log2c=3.0 log2g=-11 rate=50.0
log2c=-4.0 log2g=-11 rate=50.0
log2c=2.0 log2g=-11 rate=50.0
log2c=-1.0 log2g=-7 rate=50.0
log2c=-1.0 log2g=-1 rate=76.6
log2c=-1.0 log2g=-13 rate=50.0
log2c=-1.0 log2g=1 rate=77.8
log2c=-1.0 log2g=-11 rate=50.0
log2c=0.0 log2g=-5 rate=50.0
log2c=-3.0 log2g=-5 rate=50.0
log2c=3.0 log2g=-5 rate=74.2
log2c=-4.0 log2g=-5 rate=50.0
log2c=2.0 log2g=-5 rate=73.3
log2c=-1.0 log2g=-5 rate=50.0
log2c=5.0 log2g=-7 rate=74.1
log2c=5.0 log2g=-1 rate=76.8
log2c=5.0 log2g=-13 rate=50.0
log2c=5.0 log2g=1 rate=77.1
log2c=5.0 log2g=-11 rate=50.0
log2c=5.0 log2g=-5 rate=75.4
log2c=0.0 log2g=-15 rate=50.0
log2c=-3.0 log2g=-15 rate=50.0
log2c=3.0 log2g=-15 rate=50.0
log2c=-4.0 log2g=-15 rate=50.0
log2c=2.0 log2g=-15 rate=50.0
log2c=-1.0 log2g=-15 rate=50.0
log2c=5.0 log2g=-15 rate=50.0
log2c=-5.0 log2g=-7 rate=50.0
log2c=-5.0 log2g=-1 rate=71.8
log2c=-5.0 log2g=-13 rate=50.0
log2c=-5.0 log2g=1 rate=74.3
log2c=-5.0 log2g=-11 rate=50.0
log2c=-5.0 log2g=-5 rate=50.0
log2c=-5.0 log2g=-15 rate=50.0
log2c=0.0 log2g=3 rate=77.0
log2c=-3.0 log2g=3 rate=77.2
log2c=3.0 log2g=3 rate=75.3
log2c=-4.0 log2g=3 rate=72.5
log2c=2.0 log2g=3 rate=76.0
log2c=-1.0 log2g=3 rate=77.2
log2c=5.0 log2g=3 rate=74.0
log2c=-5.0 log2g=3 rate=51.0
log2c=1.0 log2g=-7 rate=50.0
log2c=1.0 log2g=-1 rate=76.6
log2c=1.0 log2g=-13 rate=50.0
log2c=1.0 log2g=1 rate=78.1
log2c=1.0 log2g=-11 rate=50.0
log2c=1.0 log2g=-5 rate=74.3
log2c=1.0 log2g=-15 rate=50.0
log2c=1.0 log2g=3 rate=76.2
log2c=0.0 log2g=-9 rate=50.0
log2c=-3.0 log2g=-9 rate=50.0
log2c=3.0 log2g=-9 rate=50.0
log2c=-4.0 log2g=-9 rate=50.0
log2c=2.0 log2g=-9 rate=50.0
log2c=-1.0 log2g=-9 rate=50.0
log2c=5.0 log2g=-9 rate=50.0
log2c=-5.0 log2g=-9 rate=50.0
log2c=1.0 log2g=-9 rate=50.0
log2c=-2.0 log2g=-7 rate=50.0
log2c=-2.0 log2g=-1 rate=76.6
log2c=-2.0 log2g=-13 rate=50.0
log2c=-2.0 log2g=1 rate=78.2
log2c=-2.0 log2g=-11 rate=50.0
log2c=-2.0 log2g=-5 rate=50.0
log2c=-2.0 log2g=-15 rate=50.0
log2c=-2.0 log2g=3 rate=77.0
log2c=-2.0 log2g=-9 rate=50.0
log2c=0.0 log2g=-3 rate=75.4
log2c=-3.0 log2g=-3 rate=62.4
log2c=3.0 log2g=-3 rate=75.7
log2c=-4.0 log2g=-3 rate=50.0
log2c=2.0 log2g=-3 rate=75.3
log2c=-1.0 log2g=-3 rate=74.0
log2c=5.0 log2g=-3 rate=75.6
log2c=-5.0 log2g=-3 rate=50.0
log2c=1.0 log2g=-3 rate=75.1
log2c=-2.0 log2g=-3 rate=73.9
log2c=4.0 log2g=-7 rate=50.0
log2c=4.0 log2g=-1 rate=77.3
log2c=4.0 log2g=-13 rate=50.0
log2c=4.0 log2g=1 rate=76.8
log2c=4.0 log2g=-11 rate=50.0
log2c=4.0 log2g=-5 rate=75.0
log2c=4.0 log2g=-15 rate=50.0
log2c=4.0 log2g=3 rate=75.1
log2c=4.0 log2g=-9 rate=50.0
log2c=4.0 log2g=-3 rate=76.3
