log2c=5 log2g=-7 rate=92.4783
log2c=-1 log2g=-7 rate=91.4348
log2c=5 log2g=-1 rate=83.8261
log2c=-1 log2g=-1 rate=80.4348
log2c=11 log2g=-7 rate=91.7174
log2c=11 log2g=-1 rate=83.0652
log2c=5 log2g=-13 rate=90.8261
log2c=-1 log2g=-13 rate=76.7609
log2c=11 log2g=-13 rate=92.413
log2c=-3 log2g=-7 rate=89.9565
log2c=-3 log2g=-1 rate=63.9565
log2c=-3 log2g=-13 rate=60.7174
log2c=5 log2g=1 rate=77.3261
log2c=-1 log2g=1 rate=70.1739
log2c=11 log2g=1 rate=77.3261
log2c=-3 log2g=1 rate=61.5
log2c=9 log2g=-7 rate=92.087
log2c=9 log2g=-1 rate=83.1522
log2c=9 log2g=-13 rate=92.2391
log2c=9 log2g=1 rate=77.3261
log2c=5 log2g=-11 rate=92.1739
log2c=-1 log2g=-11 rate=85.087
log2c=11 log2g=-11 rate=92.913
log2c=-3 log2g=-11 rate=76.6739
log2c=9 log2g=-11 rate=92.8261
log2c=3 log2g=-7 rate=92.587
log2c=3 log2g=-1 rate=84.0217
log2c=3 log2g=-13 rate=89.1304
log2c=3 log2g=1 rate=77.413
log2c=3 log2g=-11 rate=91.2174
log2c=5 log2g=-5 rate=92.3478
log2c=-1 log2g=-5 rate=92.1304
log2c=11 log2g=-5 rate=90.1957
log2c=-3 log2g=-5 rate=90.9565
log2c=9 log2g=-5 rate=91.2826
log2c=3 log2g=-5 rate=92.5652
log2c=15 log2g=-7 rate=90.6739
