Full Time (seconds)
0.014795
Incremental Time - I
0.000379
0.000677
0.001249
0.001867
0.002200
0.002568
0.003100
0.003519
0.004206
0.004623
0.005287
0.006516
0.007749
0.009039
0.009882
0.010928
0.011551
0.012628
0.013644
0.014544
0.014778
0.015124
0.015936
0.016403
0.016866
0.016859
0.017266
0.017359
0.018243
0.018630
0.019284
Classification Time - C
0.002087
0.002977
0.004561
0.005279
0.005525
0.005570
0.005942
0.005672
0.005927
0.006307
0.006004
0.006780
0.007707
0.008361
0.008980
0.009534
0.009967
0.010905
0.011545
0.011853
0.012160
0.012089
0.012764
0.013078
0.012967
0.013158
0.013348
0.013628
0.013850
0.014205
0.014304
