Full Time (seconds)
0.002798
Time - I
0.000442
0.000502
0.000559
0.000615
0.000670
0.000736
0.000680
0.000873
0.000932
0.000994
0.001119
0.001081
0.001166
0.001152
0.001165
0.001194
0.001243
0.001271
0.001314
0.001354
0.001455
0.001600
0.001664
0.001996
0.001951
0.002056
0.002241
0.002439
0.002527
0.002636
0.002791
