Full Time (seconds)
0.242057
Time - I
0.002285
0.003432
0.005033
0.006085
0.007838
0.008333
0.010154
0.010753
0.012688
0.013226
0.013870
0.014826
0.016279
0.016431
0.018730
0.018866
0.019797
0.022290
0.022416
0.023418
0.025978
0.025964
0.027475
0.029597
0.029534
0.030671
0.032089
0.033278
0.034269
0.035415
0.036856
0.038573
0.040827
0.040416
0.041364
0.043372
0.046268
0.046457
0.046005
0.047453
0.051018
0.050930
0.051127
0.052085
0.053127
0.056866
0.057657
0.058195
0.059415
0.059608
0.060206
0.062383
0.065394
0.066708
0.066044
0.067084
0.068493
0.068787
0.070482
0.071536
0.073196
0.074647
0.076541
0.080477
0.090854
0.078089
0.080228
0.083979
0.082297
0.083059
0.086632
0.085189
0.088006
0.087950
0.088678
0.091433
0.091998
0.092982
0.094203
0.094997
0.098659
0.100538
0.092957
0.099378
0.093345
0.102013
0.103017
0.106097
0.107573
0.108341
0.109622
0.110471
0.111449
0.113369
0.113682
0.114756
0.120032
0.116281
0.120845
0.122580
0.124008
0.124722
0.116149
0.123223
0.120466
0.128595
0.130351
0.131109
0.129603
0.133533
0.137029
0.134739
0.126773
0.125765
0.138247
0.139007
0.141899
0.141982
0.140991
0.145940
0.145949
0.148635
0.147479
0.148821
0.149945
0.149592
0.154441
0.156482
0.152703
0.154941
0.158009
0.160484
0.161225
0.162607
0.163722
0.165051
0.166213
0.163411
0.165096
0.169962
0.170489
0.168620
0.172369
0.173418
0.175263
0.172819
0.176878
0.180269
0.167109
0.181671
0.182280
0.182288
0.183640
0.172379
0.173677
0.174501
0.175523
0.176590
0.177310
0.189897
0.192277
0.195026
0.197524
0.194173
0.195671
0.183773
0.182270
0.171205
0.171449
0.163036
0.205227
0.205971
0.190753
0.192589
0.193025
0.201038
0.197878
0.211269
0.200783
0.218094
0.216779
0.203543
0.197906
0.190085
0.182117
0.179882
0.172819
0.169914
0.224097
0.171621
0.227054
0.219359
0.228417
0.225241
0.235535
0.232187
0.227225
0.239786
0.239975
0.241763
0.241537
0.239790
0.243470
0.236353
0.212316
0.211690
0.212374
0.246586
0.247846
0.250019
0.254187
