Full Accuracy
93.000000
Accuracy - I
50.000000
52.230770
53.384621
53.230770
53.230770
53.153843
53.153843
53.153843
53.153843
53.076923
53.076923
53.769226
54.615383
55.615383
55.923073
56.538456
56.846153
56.846153
56.923073
56.923073
56.923073
57.769234
58.615387
59.000004
59.153851
59.461540
59.538460
59.923077
59.923077
60.000004
60.076923
62.384617
63.000000
63.076927
63.076920
63.076920
63.076920
63.076920
63.076920
63.000000
63.000000
63.615383
65.153847
65.538460
65.769234
65.923080
65.923080
66.153847
66.153847
66.307693
66.307693
68.307693
69.307693
69.846153
70.000000
70.000000
70.000000
70.000000
70.000000
70.076927
70.153847
71.846161
72.615387
72.692307
73.384613
73.615387
73.615387
73.692307
73.692307
73.769226
73.769226
74.769226
75.538460
76.076927
76.000000
76.307693
76.461533
76.846153
76.846153
76.769234
76.769234
76.692307
76.692307
76.846153
76.923080
77.076927
77.153847
77.230766
77.384613
77.538460
77.538460
78.230766
78.692307
79.692307
79.846153
80.000000
80.076920
80.307693
80.230766
80.692307
80.769226
82.615379
83.307686
83.538460
83.846153
83.846153
84.076920
84.076920
84.153847
84.153847
84.307686
84.384613
85.000000
85.923073
86.076920
86.307693
86.615387
86.384613
86.384613
86.538467
86.615387
89.692307
89.923080
89.846153
90.307693
90.307693
90.076920
89.923080
89.846153
89.846153
89.846153
91.615387
92.846153
93.076920
92.923073
92.923073
92.923073
93.000000
93.076920
93.076927
93.000000
