Full Accuracy
93.000000
Accuracy - I
50.000000
52.461540
53.615387
53.461540
53.461540
53.384613
53.384621
53.384621
53.230770
53.230770
53.153847
53.846157
54.461540
55.384617
55.769234
56.153847
56.538464
56.692307
56.769226
56.692307
56.769234
57.538460
58.384617
58.846153
59.153843
59.461540
59.615387
60.000004
60.000004
60.153847
60.307693
63.846153
63.923080
63.923080
63.923080
63.923080
63.923080
63.846153
63.846153
63.846153
63.846153
64.461533
66.076920
66.461540
66.692314
66.923073
66.923073
67.153847
67.153847
67.307693
67.230766
69.230766
70.153847
70.769234
70.923080
70.923080
70.923080
70.923080
70.923080
71.000000
71.076927
72.692307
73.307693
73.384613
74.076920
74.307693
74.384613
74.461540
74.461540
74.538460
74.461540
74.461540
74.692307
74.692307
74.692307
74.846153
75.230774
75.307693
75.307693
75.307693
75.307693
75.384613
76.000000
76.692307
76.846153
77.000000
77.153847
77.384613
77.538460
77.538460
77.538460
78.230766
78.692307
79.692307
79.846153
80.000000
80.076920
80.307693
80.230766
80.692307
80.769226
82.615379
83.307686
83.538460
83.846153
83.846153
84.076920
84.076920
84.153847
84.153847
84.307686
84.384613
85.000000
85.923073
86.076920
86.307693
86.615387
86.384613
86.384613
86.538467
86.615387
89.692307
89.923080
89.846153
90.307693
90.307693
90.076920
89.923080
89.846153
89.846153
89.846153
91.615387
92.846153
93.076920
92.923073
92.923073
92.923073
93.000000
93.076920
93.076927
93.000000
