Full Time (seconds)
0.106025
Time - I
0.004307
0.005079
0.005831
0.006642
0.007409
0.010481
0.010604
0.009754
0.010467
0.011268
0.012255
0.012773
0.013486
0.014248
0.012846
0.013491
0.014145
0.017191
0.018161
0.021507
0.019575
0.022255
0.021384
0.024015
0.023080
0.023261
0.024050
0.024757
0.026463
0.026692
0.027058
0.028853
0.028927
0.029422
0.030581
0.032343
0.034514
0.032479
0.033262
0.033004
0.034803
0.035523
0.036441
0.037213
0.038658
0.040964
0.040390
0.043759
0.032035
0.041927
0.043636
0.031794
0.030895
0.031445
0.032002
0.036071
0.047070
0.047873
0.050178
0.049387
0.050151
0.039247
0.038459
0.039353
0.039954
0.041562
0.045136
0.055028
0.062023
0.056619
0.059138
0.058112
0.059263
0.060032
0.060398
0.062138
0.061883
0.063244
0.063803
0.064221
0.071036
0.072070
0.074182
0.067247
0.063780
0.074997
0.078316
0.078562
0.077875
0.071600
0.063453
0.064488
0.080638
0.073833
0.077358
0.075126
0.075421
0.076238
0.081199
0.077040
0.077393
0.077028
0.079385
0.079646
0.080317
0.081036
0.082395
0.083012
0.082270
0.085784
0.084265
0.089163
0.089652
0.093292
0.091314
0.092943
0.093113
0.093604
0.094597
0.095363
0.093902
0.087492
0.088740
0.093657
0.098012
0.098064
0.097959
0.097252
0.100618
0.098475
0.099592
0.102754
0.110365
0.137236
0.102285
0.106579
0.103389
0.107225
0.106057
0.105666
0.109804
