Full Time (seconds)
0.119657
Time - I
0.004286
0.005146
0.007703
0.006645
0.007497
0.008385
0.010150
0.011164
0.011849
0.011805
0.012176
0.012840
0.013468
0.014450
0.015152
0.015766
0.016916
0.017660
0.018068
0.019218
0.019555
0.020244
0.021063
0.021862
0.022641
0.025646
0.024099
0.025037
0.025834
0.029261
0.027151
0.028166
0.030163
0.030955
0.032035
0.034712
0.031713
0.032429
0.033647
0.036082
0.034811
0.035644
0.036226
0.037181
0.037872
0.047240
0.043212
0.045158
0.040762
0.042040
0.042301
0.047444
0.049022
0.049578
0.043033
0.046051
0.046850
0.040560
0.039263
0.054661
0.050883
0.050888
0.055318
0.052349
0.053124
0.056153
0.054362
0.055599
0.055898
0.056553
0.057379
0.059569
0.055982
0.059392
0.060320
0.061389
0.062376
0.064393
0.063603
0.066441
0.064832
0.070603
0.067608
0.067435
0.067860
0.068780
0.074580
0.070089
0.070817
0.071921
0.072558
0.074301
0.082563
0.084590
0.075883
0.076822
0.076873
0.080236
0.086875
0.079818
0.088459
0.080696
0.082230
0.082066
0.082967
0.087981
0.084951
0.091146
0.085819
0.086693
0.087454
0.088400
0.089434
0.089674
0.090415
0.092165
0.092334
0.092871
0.093437
0.094696
0.095027
0.107945
0.087045
0.072842
0.075446
0.100715
0.100082
0.100271
0.105864
0.102127
0.107141
0.104712
0.103044
0.083348
0.077675
0.079482
0.104466
0.108065
0.105288
0.077391
0.106229
