Full Time (seconds)
0.380570
Time - I
0.012912
0.016727
0.027281
0.037718
0.050182
0.122948
0.145844
0.171119
0.190326
0.110061
0.124313
0.255103
0.270846
0.256931
0.164050
0.231890
0.235103
0.232377
0.232921
0.244220
0.455868
