Full Time (seconds)
0.105918
Time - I
0.004194
0.005063
0.005955
0.006842
0.007564
0.008357
0.009129
0.009901
0.010711
0.011492
0.012188
0.012663
0.012819
0.013190
0.013692
0.013671
0.014149
0.014638
0.015074
0.015608
0.015963
0.017420
0.017819
0.018684
0.019502
0.019694
0.020959
0.021172
0.022027
0.022764
0.024187
0.024991
0.025789
0.026422
0.026812
0.028220
0.029031
0.029836
0.030595
0.030589
0.032196
0.032753
0.032876
0.033528
0.034395
0.035355
0.038249
0.036532
0.037328
0.039267
0.040051
0.040479
0.041528
0.042261
0.041828
0.042603
0.043357
0.044387
0.044783
0.047008
0.046399
0.047017
0.049257
0.049096
0.050142
0.050742
0.050869
0.051655
0.053404
0.053876
0.053881
0.054923
0.057105
0.057518
0.056787
0.057731
0.061092
0.060997
0.060283
0.061152
0.061369
0.064151
0.063699
0.063795
0.065889
0.067208
0.067982
0.066993
0.067357
0.068414
0.071470
0.070537
0.074103
0.071132
0.078878
0.072691
0.073325
0.074910
0.074920
0.078084
0.078976
0.077973
0.080437
0.078712
0.079479
0.080339
0.081011
0.081753
0.083077
0.083986
0.085202
0.086273
0.088372
0.086139
0.087002
0.088517
0.088530
0.092130
0.093029
0.093934
0.094528
0.092526
0.093944
0.095652
0.097656
0.099284
0.099239
0.096766
0.097593
0.099334
0.099881
0.103469
0.106792
0.104350
0.102176
0.104132
0.107040
0.104267
0.108546
0.109558
0.107249
