Full Time (seconds)
0.109862
Time - I
0.004274
0.005084
0.005838
0.006643
0.007404
0.008191
0.008951
0.009756
0.010466
0.011247
0.012075
0.012715
0.013890
0.014236
0.015257
0.016074
0.016517
0.017223
0.017968
0.018761
0.019891
0.020761
0.020983
0.022214
0.022654
0.023261
0.024047
0.024773
0.025691
0.027056
0.027106
0.027840
0.028937
0.029422
0.030788
0.030897
0.032012
0.032418
0.033310
0.035003
0.035927
0.035977
0.036241
0.037330
0.037825
0.038961
0.039918
0.040549
0.040806
0.042573
0.042257
0.043033
0.043764
0.045027
0.045488
0.046061
0.047350
0.048293
0.048411
0.049110
0.051042
0.051120
0.052371
0.052058
0.052951
0.055083
0.054382
0.055108
0.055970
0.058178
0.057294
0.059445
0.060706
0.060580
0.061486
0.062543
0.061863
0.062890
0.065386
0.064449
0.065901
0.067698
0.068451
0.067134
0.068157
0.068674
0.069408
0.070742
0.071139
0.071624
0.074644
0.072677
0.073027
0.075616
0.073607
0.073890
0.074332
0.077187
0.075218
0.078093
0.076148
0.076857
0.077574
0.078492
0.079216
0.079940
0.082047
0.084004
0.082120
0.085567
0.084597
0.084455
0.085439
0.085831
0.087250
0.087481
0.088587
0.091854
0.089840
0.091128
0.091319
0.091876
0.092854
0.094433
0.097454
0.096786
0.096741
0.096513
0.097632
0.098564
0.099776
0.103081
0.102126
0.103016
0.101819
0.102592
0.104754
0.107562
0.104672
0.105914
0.110006
