Full Time (seconds)
0.105969
Time - I
0.004289
0.005132
0.005932
0.006747
0.007522
0.008345
0.009087
0.010180
0.010708
0.011444
0.012148
0.012946
0.013648
0.014494
0.015142
0.016152
0.016684
0.017427
0.018173
0.018904
0.020397
0.020416
0.021203
0.021917
0.022719
0.023484
0.024386
0.024907
0.025648
0.027211
0.027631
0.027970
0.029633
0.030480
0.030299
0.031479
0.032208
0.032624
0.033449
0.034536
0.035282
0.035719
0.036448
0.039186
0.037939
0.038672
0.039390
0.041668
0.041546
0.041926
0.043773
0.043387
0.044054
0.047074
0.045518
0.046234
0.047527
0.049233
0.049973
0.049551
0.050218
0.052289
0.052788
0.052364
0.053354
0.054148
0.054503
0.055441
0.055968
0.058139
0.057794
0.060164
0.059052
0.060340
0.060526
0.061934
0.062010
0.063093
0.065524
0.064267
0.065010
0.068007
0.070994
0.067333
0.068300
0.069194
0.070154
0.072438
0.073330
0.071729
0.074966
0.073317
0.074628
0.074937
0.075606
0.076577
0.077615
0.077813
0.081128
0.083898
0.080461
0.080405
0.082293
0.080993
0.081698
0.084305
0.084746
0.084501
0.083107
0.083435
0.084647
0.084591
0.085144
0.086092
0.086898
0.088279
0.089089
0.089155
0.090393
0.094649
0.091274
0.095391
0.092949
0.093688
0.094632
0.095088
0.096661
0.100022
0.100827
0.098445
0.098937
0.099660
0.102081
0.104756
0.105407
0.104002
0.109477
0.108074
0.104996
0.106121
0.106715
