Full Accuracy
82.391312
Accuracy - I
50.000000
50.289852
50.434780
50.434780
50.724636
50.942028
50.942028
50.942028
51.086964
51.231884
51.594204
51.521736
51.376812
51.521736
51.811592
51.956524
52.608700
52.681160
52.681160
53.405792
53.405792
53.405792
54.130436
54.057972
54.057972
54.565216
54.565216
54.637684
54.710144
54.782612
54.927540
55.652172
55.652172
55.579712
56.231888
56.376808
56.304348
56.304348
56.304348
56.666668
56.666668
56.884056
57.028984
57.028984
57.101448
57.101448
57.898552
57.898552
57.898552
58.260872
58.623188
58.623188
58.695648
58.695648
59.057968
59.202896
59.710144
59.782608
59.855072
60.217392
60.289852
60.797100
60.869568
60.942032
60.942032
60.942032
61.086960
61.521740
61.811596
61.884056
62.681164
62.681164
62.681164
62.971012
63.260872
63.333332
63.550728
63.768112
63.768112
64.130432
64.130432
64.057968
64.565216
64.565216
64.565216
64.637680
64.637680
64.710144
65.362320
65.434784
65.362320
65.434784
65.652176
65.797104
65.797104
65.797104
65.869560
65.869560
66.086960
66.159424
66.159424
66.159424
66.159424
66.811592
66.739128
66.739128
66.811592
67.173920
67.318840
67.391304
68.115944
68.115944
68.115944
68.260872
68.260864
68.260864
68.405792
68.623192
69.420288
69.420288
69.420288
69.420288
69.492752
69.637680
70.217392
70.217392
70.217392
70.434784
70.434784
70.724640
70.724640
70.724640
70.942024
71.159424
71.449272
71.521744
72.318840
72.536240
72.391304
73.115944
73.115944
72.971016
72.971016
73.405800
73.405800
73.405800
74.057976
74.057976
74.057976
74.057976
74.202904
74.565216
74.855072
74.855072
74.855072
74.927536
74.927536
74.927536
74.927536
75.289856
75.434784
75.797104
75.797104
75.797104
75.869568
75.942032
75.942024
75.942024
76.159424
76.304344
76.449272
76.521744
76.956528
77.028992
77.101448
77.826088
77.826088
77.826088
77.826088
77.826088
78.043480
78.115944
78.405800
78.405800
78.840576
78.985512
79.057976
78.985504
79.057976
79.202904
79.565224
79.637680
79.782608
80.362320
80.507248
80.507248
81.014496
81.014496
81.014496
81.014496
81.231888
81.449280
81.521744
82.101456
82.101456
82.101456
82.028992
82.028992
82.101456
82.391312
82.391312
