Full Time (seconds)
0.211449
Time - I
0.002278
0.003425
0.004571
0.006100
0.007182
0.008287
0.009717
0.010793
0.011871
0.013303
0.014439
0.015538
0.017003
0.018075
0.019233
0.020664
0.021682
0.022749
0.024290
0.024610
0.025287
0.025980
0.027062
0.028127
0.029674
0.030765
0.031720
0.033070
0.034210
0.035249
0.036638
0.037789
0.038915
0.040308
0.041495
0.042537
0.043885
0.044900
0.046121
0.047361
0.048473
0.049527
0.050949
0.053105
0.053595
0.055585
0.055739
0.056631
0.058157
0.059118
0.060348
0.061586
0.062766
0.064389
0.065938
0.066904
0.067296
0.068846
0.069895
0.070857
0.072307
0.073895
0.074523
0.076257
0.077109
0.078476
0.080214
0.080473
0.081497
0.083073
0.084410
0.085059
0.087077
0.087698
0.088636
0.090568
0.091194
0.092286
0.093844
0.095376
0.095829
0.098966
0.098395
0.099447
0.100789
0.101888
0.102986
0.105622
0.106717
0.106399
0.109149
0.108987
0.110054
0.111379
0.112625
0.113549
0.117074
0.118142
0.117210
0.119453
0.121285
0.122927
0.122335
0.124560
0.124812
0.125696
0.126733
0.128644
0.129174
0.132981
0.133604
0.134537
0.134541
0.137390
0.136954
0.128509
0.129807
0.138144
0.143428
0.143634
0.146734
0.144497
0.145462
0.148685
0.148447
0.148917
0.147631
0.139937
0.143050
0.142190
0.145813
0.156546
0.160373
0.161249
0.162669
0.155583
0.149935
0.151147
0.152017
0.153091
0.157605
0.155193
0.169272
0.170910
0.160250
0.159389
0.160924
0.161864
0.163202
0.163848
0.162274
0.154167
0.155134
0.157479
0.157648
0.170264
0.171618
0.172735
0.173512
0.175655
0.178353
0.176796
0.184822
0.179204
0.183046
0.181418
0.187627
0.198827
0.200585
0.202687
0.202973
0.204739
0.189373
0.204675
0.209745
0.208181
0.211045
0.214373
0.211635
0.214571
0.214320
0.215690
0.219718
0.186664
0.189789
0.191828
0.191748
0.192741
0.191998
0.195860
0.208532
0.208633
0.200158
0.198944
0.200731
0.200185
0.201773
0.200683
0.203992
0.179719
0.240304
0.242047
0.240786
0.233952
0.208024
0.245264
0.248253
0.246162
0.247552
0.253251
0.216166
