Full Time (seconds)
0.216841
Time - I
0.002283
0.003434
0.004573
0.006057
0.007165
0.008230
0.009668
0.010751
0.011835
0.013257
0.013621
0.014380
0.015115
0.016224
0.017267
0.018857
0.019950
0.021133
0.022795
0.023586
0.024709
0.026944
0.027399
0.028077
0.029522
0.030665
0.031651
0.033094
0.034139
0.035211
0.036623
0.037791
0.038839
0.040287
0.041785
0.042397
0.043873
0.044941
0.045947
0.047782
0.048862
0.049504
0.050891
0.052389
0.053184
0.054473
0.055675
0.056611
0.058060
0.059099
0.060224
0.061554
0.062649
0.064730
0.065141
0.066737
0.067572
0.068829
0.070065
0.071624
0.072272
0.075187
0.074424
0.076306
0.077769
0.077989
0.079687
0.081340
0.081471
0.082993
0.084552
0.086127
0.087152
0.089156
0.090265
0.090087
0.091316
0.093402
0.093964
0.094756
0.096468
0.101739
0.100041
0.100666
0.100795
0.103634
0.104809
0.104257
0.105473
0.106626
0.108412
0.109546
0.111324
0.112994
0.112557
0.114013
0.117311
0.116013
0.117183
0.118571
0.120089
0.122863
0.122834
0.123235
0.124138
0.127999
0.119167
0.118925
0.124582
0.130212
0.133316
0.132972
0.133967
0.135543
0.136442
0.139043
0.142433
0.140619
0.143207
0.144472
0.143911
0.146893
0.145745
0.147326
0.148384
0.150519
0.152351
0.152097
0.153373
0.156255
0.155543
0.158992
0.159904
0.161478
0.162317
0.163138
0.162675
0.163149
0.165278
0.165815
0.166828
0.171162
0.169616
0.170239
0.171920
0.172772
0.174439
0.175442
0.177362
0.177602
0.179356
0.179879
0.183253
0.182520
0.183802
0.186820
0.188214
0.190065
0.189762
0.189846
0.190871
0.193369
0.192922
0.194884
0.182353
0.182060
0.183302
0.184049
0.187954
0.187659
0.189967
0.188396
0.191073
0.191387
0.193340
0.192794
0.194501
0.180755
0.183019
0.183036
0.186200
0.185933
0.214748
0.218843
0.189973
0.220672
0.224061
0.225055
0.224350
0.226584
0.208371
0.206172
0.195691
0.198820
0.197536
0.199885
0.235980
0.238166
0.236105
0.236710
0.219307
0.216285
0.206145
0.207897
0.208036
0.212516
0.208937
0.185189
0.250126
0.250337
0.251385
