Full Time (seconds)
0.187401
Time - I
0.002306
0.002677
0.003462
0.004265
0.005374
0.007576
0.009024
0.009655
0.010078
0.011531
0.012651
0.013794
0.015287
0.016397
0.017683
0.019319
0.022313
0.022125
0.022650
0.023789
0.025521
0.027946
0.029168
0.028300
0.029724
0.031245
0.032050
0.033256
0.034662
0.035510
0.037273
0.037940
0.039028
0.040762
0.042161
0.042633
0.043995
0.045084
0.046860
0.048021
0.048674
0.049714
0.051116
0.052225
0.053304
0.054713
0.055773
0.056834
0.058739
0.059323
0.060390
0.061817
0.063804
0.063956
0.065377
0.066437
0.068356
0.069121
0.070198
0.071212
0.072506
0.073613
0.074701
0.076632
0.077130
0.079477
0.079671
0.080741
0.081776
0.083196
0.084693
0.085378
0.086690
0.087893
0.088973
0.091171
0.091354
0.093956
0.095287
0.094949
0.104117
0.099107
0.099155
0.099537
0.100964
0.102471
0.103865
0.105010
0.105662
0.106751
0.108585
0.109262
0.110236
0.112150
0.112679
0.113875
0.115206
0.118968
0.117378
0.118868
0.120319
0.121005
0.122343
0.123550
0.125871
0.127032
0.129081
0.128931
0.131588
0.130522
0.131626
0.132948
0.134577
0.138599
0.137134
0.138014
0.138608
0.137170
0.130281
0.132836
0.145997
0.147178
0.146699
0.147205
0.148735
0.149231
0.151159
0.151789
0.153246
0.154861
0.156352
0.156610
0.158371
0.159271
0.160293
0.162644
0.164166
0.166044
0.165057
0.167969
0.167188
0.168919
0.169654
0.171186
0.172718
0.173560
0.174300
0.177920
0.176628
0.179643
0.179095
0.181247
0.181203
0.183083
0.183603
0.185218
0.189423
0.187243
0.187594
0.175174
0.176754
0.177150
0.178973
0.179499
0.180825
0.182023
0.185780
0.184215
0.185336
0.187566
0.188681
0.188272
0.189573
0.190267
0.192112
0.192675
0.194444
0.198337
0.181739
0.185176
0.183886
0.188036
0.186699
0.187321
0.190406
0.198685
0.204561
0.205882
0.208970
0.193049
0.194321
0.194838
0.196420
0.196808
0.198044
0.198889
0.200641
0.202005
0.188596
0.191654
0.190992
0.191741
0.241088
0.239915
0.236158
0.208922
0.210354
0.211249
0.212051
0.213024
0.187289
