Full Time (seconds)
0.214260
Time - I
0.002289
0.003462
0.004630
0.007347
0.007369
0.008458
0.009909
0.010287
0.011001
0.011941
0.012860
0.014010
0.015498
0.016577
0.017642
0.019085
0.020177
0.021696
0.022640
0.023770
0.024872
0.026320
0.027403
0.028506
0.029923
0.031006
0.032733
0.033514
0.034972
0.035582
0.037052
0.038121
0.039249
0.040856
0.041823
0.045102
0.047585
0.048685
0.046380
0.047757
0.048800
0.050095
0.051887
0.052946
0.053452
0.054915
0.056499
0.057030
0.058538
0.059498
0.060649
0.062962
0.063659
0.065412
0.065502
0.066677
0.072527
0.075085
0.071442
0.071385
0.072795
0.073868
0.076064
0.076376
0.077495
0.078431
0.080193
0.080893
0.081987
0.083352
0.084775
0.085465
0.087102
0.088448
0.089022
0.090579
0.092135
0.094268
0.095233
0.096373
0.096570
0.099959
0.100415
0.100122
0.102839
0.102383
0.103329
0.105194
0.105891
0.106865
0.109118
0.109454
0.111780
0.111846
0.112948
0.115397
0.117462
0.116529
0.119573
0.120364
0.120274
0.121441
0.123463
0.123678
0.124689
0.126701
0.127166
0.128173
0.130582
0.132865
0.134487
0.134752
0.135098
0.135915
0.136695
0.139618
0.140529
0.141244
0.144462
0.144207
0.144060
0.147099
0.146000
0.148488
0.149080
0.149668
0.151105
0.152205
0.153615
0.154567
0.155913
0.158897
0.158138
0.159049
0.163099
0.161539
0.162529
0.163839
0.165090
0.167247
0.167231
0.169746
0.169739
0.171391
0.172210
0.173640
0.174812
0.177673
0.177187
0.177825
0.180633
0.180614
0.181642
0.185909
0.191631
0.185400
0.189293
0.191016
0.188709
0.191047
0.192010
0.193322
0.194129
0.194985
0.195585
0.197045
0.182687
0.184193
0.188195
0.188861
0.187012
0.185007
0.175860
0.177156
0.179368
0.208673
0.209237
0.198625
0.198659
0.196898
0.212225
0.216100
0.200153
0.199716
0.222346
0.220717
0.224184
0.224289
0.224264
0.222912
0.193939
0.227505
0.221680
0.214144
0.214159
0.215011
0.200088
0.234551
0.229678
0.220306
0.220408
0.221579
0.206038
0.207465
0.243126
0.241753
0.239282
0.211441
0.249492
0.250281
0.251057
