Full Time (seconds)
0.337357
Time - I
0.247885
0.275385
0.300629
0.289834
0.282836
0.288381
0.263599
0.149738
0.173313
0.206498
0.203842
0.545238
0.222359
0.327533
0.643553
0.685621
0.300398
0.278860
0.277454
0.279291
0.378274
