Full Time (seconds)
0.443238
Incremental Time - I
0.033740
0.002528
0.016291
0.026621
0.020774
0.026661
0.058698
0.042564
0.078279
0.046552
0.050501
0.001607
0.001411
0.001399
0.002111
0.001795
0.001532
0.001381
0.001342
0.001377
0.002252
Classification Time - I
0.104680
0.174989
0.234452
0.182436
0.217357
0.476348
0.496772
0.526001
0.695270
0.396393
0.356623
0.331017
0.400345
0.403302
0.359876
0.332167
0.282611
0.286389
0.794005
0.454038
