Full Time (seconds)
0.211708
Incremental Time - I
0.110965
0.000074
0.000080
0.000076
0.000083
0.000088
0.000089
0.000096
0.000092
0.000099
0.000100
0.019101
0.042686
0.060652
0.080309
0.095710
0.107593
0.124403
0.153318
0.337712
0.346527
Classification Time - C
0.147679
0.012844
0.012470
0.012366
0.012240
0.012274
0.012279
0.012405
0.012324
0.012304
0.012303
0.022284
0.034361
0.048125
0.057746
0.067572
0.074545
0.083935
0.098122
0.226095
0.209784
