Full Time (seconds)
0.528812
Incremental Time - I
0.738348
0.016903
0.017873
0.016860
0.022860
0.024289
0.025869
0.017249
0.018244
0.017056
0.015458
0.034320
0.032949
0.015637
0.023137
0.041710
0.047908
0.028012
0.050336
0.020617
0.030303
Classification Time - I
0.380475
0.406435
0.373451
0.500456
0.531447
0.559304
0.414235
0.384575
0.367062
0.326874
0.732622
0.302258
0.755407
0.851070
0.870094
0.547763
0.869078
0.599096
0.799219
0.572990
