Full Accuracy
91.153847
Accuracy - I
50.000000
59.307693
66.999992
74.461540
77.461533
80.230766
81.538460
82.692307
84.000000
85.230766
85.461540
86.000000
87.000000
87.846153
88.307693
88.846153
89.461540
90.230766
90.538460
91.230766
91.153847
