Full Time (seconds)
0.109920
Time - I
0.004602
0.008771
0.012939
0.017086
0.021446
0.025290
0.029764
0.033515
0.037753
0.041810
0.045827
0.051973
0.058087
0.064063
0.070003
0.076175
0.082791
0.088525
0.094553
0.100543
0.107549
