Full Time (seconds)
0.104677
Time - I
0.004781
0.008954
0.013244
0.017283
0.022025
0.019787
0.022940
0.033754
0.039256
0.043363
0.047468
0.053838
0.060071
0.064413
0.060093
0.065352
0.071823
0.075875
0.094822
0.100940
0.107148
