Full Time (seconds)
0.106920
Time - I
0.004471
0.009289
0.013866
0.018258
0.021873
0.026022
0.030261
0.034281
0.039385
0.042436
0.046962
0.053452
0.058644
0.064701
0.070666
0.076709
0.083131
0.089172
0.095625
0.103123
0.107978
