Full Time (seconds)
0.002720
Time - I
0.000337
0.000362
0.000387
0.000414
0.000436
0.000467
0.000483
0.000512
0.000546
0.000597
0.000621
0.000677
0.000741
0.000806
0.000890
0.000954
0.000985
0.001047
0.001121
0.001220
0.001257
0.001422
0.002737
0.001613
0.001736
0.001909
0.002029
0.002141
0.002330
0.002442
0.002573
