Full Time (seconds)
0.107892
Time - I
0.004589
0.005428
0.006315
0.007220
0.008070
0.008867
0.009676
0.010454
0.011295
0.012285
0.013168
0.013608
0.014439
0.015244
0.016057
0.016920
0.017733
0.018527
0.019331
0.019537
0.020882
0.021722
0.022487
0.023213
0.024020
0.024432
0.025568
0.026331
0.026839
0.027876
0.028658
0.029509
0.030370
0.031211
0.032111
0.032522
0.033609
0.034439
0.035228
0.035733
0.035828
0.036558
0.038366
0.039157
0.039494
0.041977
0.041225
0.041316
0.041841
0.043844
0.044648
0.045477
0.046478
0.046093
0.048040
0.049870
0.048149
0.048689
0.050081
0.050750
0.052390
0.051655
0.054098
0.054264
0.053872
0.056349
0.055460
0.056215
0.057936
0.057711
0.058815
0.061285
0.060226
0.061339
0.061493
0.064136
0.063035
0.063768
0.064486
0.065336
0.066187
0.068919
0.068283
0.068341
0.071166
0.069926
0.071085
0.071338
0.072669
0.074138
0.075860
0.074790
0.077374
0.075883
0.077045
0.077339
0.080404
0.079904
0.082086
0.082926
0.081501
0.081862
0.082721
0.083482
0.084065
0.084847
0.085541
0.089086
0.087193
0.088547
0.093455
0.088829
0.092685
0.092496
0.092895
0.093267
0.090604
0.094198
0.091949
0.092165
0.092420
0.093473
0.093843
0.095999
0.095563
0.096763
0.098023
0.097731
0.100387
0.102980
0.101873
0.101215
0.101520
0.102335
0.103373
0.104008
0.108143
0.105398
0.106842
0.107160
0.107602
