Full Time (seconds)
0.110490
Time - I
0.004451
0.005293
0.006257
0.007210
0.008054
0.008905
0.009706
0.010551
0.011350
0.012288
0.012826
0.013689
0.014417
0.015155
0.015876
0.017003
0.017792
0.018618
0.019395
0.020146
0.020930
0.021556
0.022366
0.022733
0.023909
0.024909
0.024879
0.025651
0.026517
0.027608
0.028702
0.028743
0.030042
0.030477
0.031774
0.032230
0.032790
0.033612
0.034296
0.035092
0.036118
0.038491
0.038046
0.038273
0.039785
0.039945
0.040441
0.042428
0.041987
0.042662
0.044053
0.044652
0.044506
0.044318
0.045076
0.045281
0.045825
0.046759
0.046689
0.046825
0.047298
0.048047
0.048860
0.050320
0.050226
0.051265
0.052405
0.052759
0.054113
0.054107
0.054786
0.055871
0.056328
0.057002
0.057862
0.058646
0.059733
0.060204
0.061057
0.061614
0.062362
0.063122
0.065010
0.064569
0.065295
0.066119
0.067487
0.069811
0.068491
0.069430
0.070554
0.070717
0.072058
0.072845
0.075279
0.076068
0.074363
0.075754
0.075860
0.076841
0.077540
0.080578
0.081880
0.082387
0.081329
0.081895
0.082399
0.082848
0.083792
0.086886
0.086367
0.087678
0.089557
0.087970
0.088541
0.091606
0.093449
0.090354
0.091276
0.094602
0.095650
0.094042
0.094323
0.094770
0.095728
0.099037
0.100338
0.100567
0.099049
0.103216
0.100484
0.103417
0.105082
0.105751
0.104086
0.103957
0.104514
0.107741
0.109355
0.106570
0.109232
