Full Time (seconds)
0.110603
Time - I
0.004523
0.005403
0.006280
0.007132
0.007949
0.008782
0.009579
0.010426
0.011155
0.011917
0.012681
0.013522
0.014499
0.015082
0.015683
0.016712
0.017665
0.018456
0.019196
0.020002
0.021152
0.021178
0.022126
0.023066
0.023469
0.024004
0.025267
0.025558
0.026968
0.027813
0.028650
0.029092
0.030226
0.031091
0.032473
0.032787
0.033567
0.034006
0.035110
0.035897
0.035612
0.036475
0.039017
0.038908
0.039142
0.040635
0.040340
0.041524
0.042763
0.042559
0.043305
0.044034
0.044794
0.046929
0.047013
0.047192
0.048093
0.050143
0.050796
0.050360
0.050768
0.051527
0.052385
0.054522
0.053890
0.056436
0.055541
0.056982
0.058687
0.059834
0.059165
0.060948
0.059254
0.060766
0.060060
0.059925
0.060305
0.062905
0.062029
0.063975
0.064107
0.065035
0.065677
0.064395
0.065822
0.069413
0.066722
0.068512
0.068796
0.068866
0.071972
0.072016
0.071086
0.071989
0.073129
0.074420
0.074787
0.077265
0.078083
0.078988
0.077889
0.078072
0.079183
0.080462
0.080310
0.083907
0.084593
0.082754
0.083197
0.084351
0.085209
0.086876
0.089160
0.090153
0.090639
0.089031
0.092438
0.090082
0.092602
0.091893
0.096408
0.096250
0.094340
0.098069
0.095721
0.096144
0.096962
0.100969
0.101721
0.100051
0.099829
0.101086
0.101782
0.103133
0.106347
0.106556
0.105022
0.105978
0.106069
0.106771
0.107626
