Full Time (seconds)
0.108177
Time - I
0.004769
0.005551
0.006385
0.007168
0.007963
0.008772
0.009802
0.010364
0.011095
0.011907
0.013028
0.013447
0.014115
0.014869
0.015632
0.016773
0.017561
0.018243
0.019123
0.019365
0.020887
0.021484
0.021642
0.022464
0.023729
0.023943
0.024877
0.026070
0.026194
0.027701
0.028185
0.028416
0.030142
0.031067
0.031865
0.032551
0.033458
0.033220
0.034588
0.034750
0.035591
0.036171
0.037221
0.037498
0.037815
0.040250
0.037497
0.037876
0.038593
0.038913
0.039404
0.040162
0.040814
0.041606
0.042775
0.043710
0.045238
0.046346
0.046675
0.047481
0.048674
0.048418
0.048940
0.049135
0.050230
0.050569
0.053226
0.053819
0.054512
0.054217
0.054867
0.055274
0.056218
0.056641
0.057736
0.059955
0.060829
0.059631
0.062300
0.063068
0.062403
0.062804
0.063534
0.064649
0.065289
0.067790
0.068536
0.067145
0.071927
0.068726
0.070859
0.072407
0.071123
0.074024
0.072507
0.073054
0.074799
0.074906
0.076033
0.076624
0.079759
0.079153
0.081154
0.079279
0.080537
0.081426
0.084212
0.082339
0.084797
0.086499
0.084970
0.089408
0.090139
0.089914
0.088152
0.090512
0.088958
0.090320
0.090700
0.094332
0.093663
0.093220
0.096824
0.097570
0.095786
0.099021
0.096624
0.097968
0.101596
0.102411
0.100201
0.100604
0.104841
0.103606
0.103418
0.105146
0.105488
0.108510
0.105822
0.108867
0.107174
