Full Time (seconds)
0.219641
Incremental Time - I
0.000112
0.000156
0.000214
0.000289
0.000517
0.000634
0.000815
0.001184
0.001278
0.001626
0.002139
0.002355
0.002633
0.003090
0.003583
0.004083
0.004595
0.004888
0.005301
0.005725
0.005936
0.006197
0.007167
0.007016
0.007993
0.009087
0.009671
0.009846
0.010990
0.012370
0.013200
0.013761
0.015288
0.015743
0.016277
0.016829
0.017783
0.019367
0.020733
0.021206
0.024399
0.025206
0.024578
0.048582
0.027936
0.030538
0.032686
0.033329
0.034078
0.036298
0.037326
0.038635
0.040959
0.042086
0.043832
0.046212
0.045095
0.045383
0.048257
0.049466
0.050668
0.053591
0.054220
0.056825
0.059044
0.064514
0.062278
0.070041
0.031024
0.071313
0.072394
0.077430
0.074111
0.078073
0.083632
0.080639
0.084101
0.090659
0.092964
0.096403
0.091521
0.098748
0.097644
0.099440
0.100885
0.110652
0.109789
0.109362
0.118150
0.117352
0.114617
0.117814
0.119672
0.122314
0.126915
0.127996
0.131177
0.139031
0.142552
0.149767
0.148828
0.151484
0.159910
0.153651
0.148063
0.157238
0.161870
0.163797
0.166346
0.171889
0.173342
0.175490
0.187258
0.182005
0.185553
0.190138
0.192399
0.195864
0.215038
0.213633
0.205960
0.211290
0.214135
0.217185
0.222289
0.233951
0.228262
0.236032
0.239804
0.254833
0.243867
0.256211
0.251114
0.252026
0.275922
0.261950
0.266649
0.267713
0.273426
0.277004
0.278614
0.281855
0.286955
0.290587
0.295220
0.301311
0.301783
0.297451
0.303387
0.303224
0.311549
0.327729
0.328782
0.333136
0.338054
0.341965
0.331059
0.352820
0.352556
0.360515
0.351053
0.357339
0.360127
0.382774
0.368782
0.393622
0.404491
0.400369
0.367596
0.413623
0.416132
0.419861
0.426791
0.429114
0.426320
0.438158
0.421215
0.438651
0.452794
0.342399
0.455545
0.452134
0.478699
0.450827
0.476978
0.470770
0.462003
0.496337
0.478012
0.408806
0.516762
0.402935
0.502066
0.451955
0.529621
0.448340
0.539848
0.446020
0.504834
0.473260
0.572021
0.573114
0.449692
0.338814
0.311838
0.522697
0.329557
0.295632
0.299823
0.588940
0.517137
Classification Time - C
cat: testS_0.svm.time: No such file or directory
cat: test1II_0000.svm.time: No such file or directory
cat: test1II_0001.svm.time: No such file or directory
cat: test1II_0002.svm.time: No such file or directory
cat: test2II_0000.svm.time: No such file or directory
cat: test2II_0001.svm.time: No such file or directory
cat: test2II_0002.svm.time: No such file or directory
cat: test3II_0000.svm.time: No such file or directory
cat: test3II_0001.svm.time: No such file or directory
cat: test3II_0002.svm.time: No such file or directory
cat: test4II_0000.svm.time: No such file or directory
cat: test4II_0001.svm.time: No such file or directory
cat: test4II_0002.svm.time: No such file or directory
cat: test5II_0000.svm.time: No such file or directory
cat: test5II_0001.svm.time: No such file or directory
cat: test5II_0002.svm.time: No such file or directory
cat: test6II_0000.svm.time: No such file or directory
cat: test6II_0001.svm.time: No such file or directory
0.086575
0.086765
0.087562
0.088516
0.094926
0.091001
0.093473
0.092833
0.094287
cat: test9II_0002.svm.time: No such file or directory
cat: test10II_0000.svm.time: No such file or directory
cat: test10II_0001.svm.time: No such file or directory
cat: test10II_0002.svm.time: No such file or directory
0.103218
0.105241
0.106109
0.106570
0.109069
0.109742
0.111262
0.112709
0.115059
0.116641
0.119798
0.120856
0.123366
0.125060
0.129302
cat: test16II_0000.svm.time: No such file or directory
cat: test16II_0001.svm.time: No such file or directory
cat: test16II_0002.svm.time: No such file or directory
cat: test17II_0000.svm.time: No such file or directory
cat: test17II_0001.svm.time: No such file or directory
cat: test17II_0002.svm.time: No such file or directory
cat: test18II_0000.svm.time: No such file or directory
cat: test18II_0001.svm.time: No such file or directory
cat: test18II_0002.svm.time: No such file or directory
cat: test19II_0000.svm.time: No such file or directory
cat: test19II_0001.svm.time: No such file or directory
cat: test19II_0002.svm.time: No such file or directory
cat: test20II_0000.svm.time: No such file or directory
cat: test20II_0001.svm.time: No such file or directory
cat: test20II_0002.svm.time: No such file or directory
cat: test21II_0000.svm.time: No such file or directory
cat: test21II_0001.svm.time: No such file or directory
cat: test21II_0002.svm.time: No such file or directory
cat: test22II_0000.svm.time: No such file or directory
cat: test22II_0001.svm.time: No such file or directory
cat: test22II_0002.svm.time: No such file or directory
cat: test23II_0000.svm.time: No such file or directory
cat: test23II_0001.svm.time: No such file or directory
cat: test23II_0002.svm.time: No such file or directory
cat: test24II_0000.svm.time: No such file or directory
cat: test24II_0001.svm.time: No such file or directory
cat: test24II_0002.svm.time: No such file or directory
cat: test25II_0000.svm.time: No such file or directory
cat: test25II_0001.svm.time: No such file or directory
cat: test25II_0002.svm.time: No such file or directory
cat: test26II_0000.svm.time: No such file or directory
cat: test26II_0001.svm.time: No such file or directory
cat: test26II_0002.svm.time: No such file or directory
cat: test27II_0000.svm.time: No such file or directory
cat: test27II_0001.svm.time: No such file or directory
cat: test27II_0002.svm.time: No such file or directory
cat: test28II_0000.svm.time: No such file or directory
cat: test28II_0001.svm.time: No such file or directory
cat: test28II_0002.svm.time: No such file or directory
cat: test29II_0000.svm.time: No such file or directory
cat: test29II_0001.svm.time: No such file or directory
cat: test29II_0002.svm.time: No such file or directory
cat: test30II_0000.svm.time: No such file or directory
cat: test30II_0001.svm.time: No such file or directory
cat: test30II_0002.svm.time: No such file or directory
cat: test31II_0000.svm.time: No such file or directory
cat: test31II_0001.svm.time: No such file or directory
cat: test31II_0002.svm.time: No such file or directory
cat: test32II_0000.svm.time: No such file or directory
cat: test32II_0001.svm.time: No such file or directory
cat: test32II_0002.svm.time: No such file or directory
cat: test33II_0000.svm.time: No such file or directory
cat: test33II_0001.svm.time: No such file or directory
cat: test33II_0002.svm.time: No such file or directory
cat: test34II_0000.svm.time: No such file or directory
cat: test34II_0001.svm.time: No such file or directory
cat: test34II_0002.svm.time: No such file or directory
0.220641
0.225875
0.221312
0.223291
0.224899
0.227238
0.228967
0.230759
0.232406
0.237606
0.238624
0.240409
cat: test39II_0000.svm.time: No such file or directory
cat: test39II_0001.svm.time: No such file or directory
cat: test39II_0002.svm.time: No such file or directory
cat: test40II_0000.svm.time: No such file or directory
cat: test40II_0001.svm.time: No such file or directory
cat: test40II_0002.svm.time: No such file or directory
cat: test41II_0000.svm.time: No such file or directory
cat: test41II_0001.svm.time: No such file or directory
cat: test41II_0002.svm.time: No such file or directory
cat: test42II_0000.svm.time: No such file or directory
cat: test42II_0001.svm.time: No such file or directory
cat: test42II_0002.svm.time: No such file or directory
cat: test43II_0000.svm.time: No such file or directory
cat: test43II_0001.svm.time: No such file or directory
cat: test43II_0002.svm.time: No such file or directory
cat: test44II_0000.svm.time: No such file or directory
cat: test44II_0001.svm.time: No such file or directory
cat: test44II_0002.svm.time: No such file or directory
cat: test45II_0000.svm.time: No such file or directory
cat: test45II_0001.svm.time: No such file or directory
cat: test45II_0002.svm.time: No such file or directory
cat: test46II_0000.svm.time: No such file or directory
cat: test46II_0001.svm.time: No such file or directory
cat: test46II_0002.svm.time: No such file or directory
0.271729
0.267838
0.299666
0.252239
0.279206
0.300679
0.264857
0.263407
0.267674
0.261152
0.310018
0.277510
0.266654
0.281341
0.274349
0.324040
0.284378
0.271632
0.277784
0.282911
0.329867
0.305186
0.405472
0.289005
0.291346
0.286081
0.341810
0.343176
0.197980
0.351301
0.299852
0.350850
0.209033
0.356532
0.357030
0.304557
0.336599
0.295222
0.306338
0.209751
0.259233
0.302093
0.302668
0.311339
0.299212
0.306388
0.304990
0.306589
0.230887
0.232321
0.292624
0.235036
0.280880
0.228025
0.299419
0.231450
0.302611
0.232488
0.287304
0.224066
0.345290
0.426064
0.326124
0.262828
0.241363
0.213460
0.233173
0.206680
0.185851
0.194124
0.434189
0.291496
