Full Time (seconds)
0.435293
Incremental Time - I
0.761208
0.011763
0.012095
0.013212
0.013165
0.014083
0.015092
0.012015
0.012584
0.013809
0.014182
0.011973
0.029300
0.017807
0.018872
0.017526
0.015221
0.027131
0.022809
0.021230
0.018865
Classification Time - I
0.217284
0.227797
0.239558
0.256285
0.263475
0.354708
0.231194
0.236529
0.254613
0.273058
0.768608
0.630200
0.425065
0.446484
0.419626
0.828738
0.605008
0.526991
0.461555
0.402385
