Full Time (seconds)
0.540344
Incremental Time - I
0.451874
0.006208
0.007651
0.008432
0.007720
0.007148
0.007701
0.006965
0.007349
0.007034
0.007775
0.020258
0.020564
0.022640
0.023301
0.024481
0.024134
0.066647
0.031000
0.051161
0.081502
Classification Time - I
0.207026
0.276020
0.288491
0.272462
0.254483
0.265549
0.249693
0.240559
0.242844
0.245122
0.261079
0.273314
0.284698
0.298474
0.307294
0.657392
0.730787
0.515591
0.755327
0.574903
