Full Time (seconds)
0.133220
Incremental Time - I
0.000274
0.000320
0.000368
0.000406
0.000453
0.000574
0.000624
0.000692
0.000756
0.000777
0.000771
0.001412
0.001687
0.002017
0.002094
0.002240
0.002466
0.002616
0.002704
0.002814
0.002966
0.004443
0.005026
0.005413
0.005778
0.005885
0.006143
0.006724
0.007043
0.007757
0.008067
0.009335
0.009659
0.010099
0.010218
0.010618
0.010938
0.010635
0.011096
0.011418
0.011000
0.013787
0.013914
0.014379
0.015089
0.015246
0.015025
0.015218
0.015782
0.016148
0.016956
0.019585
0.020899
0.021650
0.023297
0.024071
0.025042
0.025419
0.025635
0.026534
0.028400
0.031071
0.031156
0.031218
0.031771
0.032285
0.034279
0.033148
0.034116
0.034711
0.034745
0.038548
0.039318
0.041149
0.041174
0.041698
0.042776
0.043032
0.045441
0.044404
0.045433
0.050159
0.052993
0.051499
0.053883
0.054997
0.055945
0.057012
0.057361
0.060763
0.059263
0.064811
0.066787
0.073825
0.065550
0.066585
0.067466
0.067772
0.068785
0.068664
0.069667
0.074573
0.077946
0.079048
0.078224
0.092236
0.082278
0.079719
0.080278
0.095956
0.093736
0.087303
0.089502
0.091356
0.092466
0.093994
0.094733
0.095537
0.097731
0.096470
0.099503
0.104229
0.103156
0.104219
0.105805
0.106080
0.106253
0.111051
0.108590
0.109199
0.125291
0.113590
0.109488
0.110374
0.110668
0.102547
0.110752
0.112009
0.113066
0.116276
0.114583
Classification Time - C
cat: testS_0.svm.time: No such file or directory
cat: test1II_0000.svm.time: No such file or directory
cat: test1II_0001.svm.time: No such file or directory
cat: test1II_0002.svm.time: No such file or directory
cat: test1II_0003.svm.time: No such file or directory
cat: test1II_0004.svm.time: No such file or directory
cat: test1II_0005.svm.time: No such file or directory
cat: test1II_0006.svm.time: No such file or directory
cat: test1II_0007.svm.time: No such file or directory
cat: test1II_0008.svm.time: No such file or directory
cat: test1II_0009.svm.time: No such file or directory
cat: test2II_0000.svm.time: No such file or directory
cat: test2II_0001.svm.time: No such file or directory
cat: test2II_0002.svm.time: No such file or directory
cat: test2II_0003.svm.time: No such file or directory
cat: test2II_0004.svm.time: No such file or directory
cat: test2II_0005.svm.time: No such file or directory
cat: test2II_0006.svm.time: No such file or directory
cat: test2II_0007.svm.time: No such file or directory
cat: test2II_0008.svm.time: No such file or directory
cat: test2II_0009.svm.time: No such file or directory
cat: test3II_0000.svm.time: No such file or directory
cat: test3II_0001.svm.time: No such file or directory
cat: test3II_0002.svm.time: No such file or directory
cat: test3II_0003.svm.time: No such file or directory
cat: test3II_0004.svm.time: No such file or directory
cat: test3II_0005.svm.time: No such file or directory
cat: test3II_0006.svm.time: No such file or directory
cat: test3II_0007.svm.time: No such file or directory
cat: test3II_0008.svm.time: No such file or directory
cat: test3II_0009.svm.time: No such file or directory
cat: test4II_0000.svm.time: No such file or directory
cat: test4II_0001.svm.time: No such file or directory
cat: test4II_0002.svm.time: No such file or directory
cat: test4II_0003.svm.time: No such file or directory
cat: test4II_0004.svm.time: No such file or directory
cat: test4II_0005.svm.time: No such file or directory
cat: test4II_0006.svm.time: No such file or directory
cat: test4II_0007.svm.time: No such file or directory
cat: test4II_0008.svm.time: No such file or directory
cat: test4II_0009.svm.time: No such file or directory
cat: test5II_0000.svm.time: No such file or directory
cat: test5II_0001.svm.time: No such file or directory
cat: test5II_0002.svm.time: No such file or directory
cat: test5II_0003.svm.time: No such file or directory
cat: test5II_0004.svm.time: No such file or directory
cat: test5II_0005.svm.time: No such file or directory
cat: test5II_0006.svm.time: No such file or directory
cat: test5II_0007.svm.time: No such file or directory
cat: test5II_0008.svm.time: No such file or directory
cat: test5II_0009.svm.time: No such file or directory
cat: test6II_0000.svm.time: No such file or directory
cat: test6II_0001.svm.time: No such file or directory
cat: test6II_0002.svm.time: No such file or directory
cat: test6II_0003.svm.time: No such file or directory
cat: test6II_0004.svm.time: No such file or directory
cat: test6II_0005.svm.time: No such file or directory
cat: test6II_0006.svm.time: No such file or directory
cat: test6II_0007.svm.time: No such file or directory
cat: test6II_0008.svm.time: No such file or directory
cat: test6II_0009.svm.time: No such file or directory
cat: test7II_0000.svm.time: No such file or directory
cat: test7II_0001.svm.time: No such file or directory
cat: test7II_0002.svm.time: No such file or directory
cat: test7II_0003.svm.time: No such file or directory
cat: test7II_0004.svm.time: No such file or directory
cat: test7II_0005.svm.time: No such file or directory
cat: test7II_0006.svm.time: No such file or directory
cat: test7II_0007.svm.time: No such file or directory
cat: test7II_0008.svm.time: No such file or directory
cat: test7II_0009.svm.time: No such file or directory
cat: test8II_0000.svm.time: No such file or directory
cat: test8II_0001.svm.time: No such file or directory
cat: test8II_0002.svm.time: No such file or directory
cat: test8II_0003.svm.time: No such file or directory
cat: test8II_0004.svm.time: No such file or directory
cat: test8II_0005.svm.time: No such file or directory
cat: test8II_0006.svm.time: No such file or directory
cat: test8II_0007.svm.time: No such file or directory
cat: test8II_0008.svm.time: No such file or directory
cat: test8II_0009.svm.time: No such file or directory
cat: test9II_0000.svm.time: No such file or directory
cat: test9II_0001.svm.time: No such file or directory
cat: test9II_0002.svm.time: No such file or directory
cat: test9II_0003.svm.time: No such file or directory
cat: test9II_0004.svm.time: No such file or directory
cat: test9II_0005.svm.time: No such file or directory
cat: test9II_0006.svm.time: No such file or directory
cat: test9II_0007.svm.time: No such file or directory
cat: test9II_0008.svm.time: No such file or directory
cat: test9II_0009.svm.time: No such file or directory
0.095487
0.097964
0.099431
0.100164
0.112400
0.101205
0.101113
0.104260
0.104636
0.116468
0.105793
0.106018
0.107563
0.106544
0.107967
0.109684
0.121636
0.110813
0.125084
0.111153
0.129188
0.112964
0.116557
0.115144
0.116184
0.118775
0.118707
0.119033
0.120519
0.121027
0.125714
0.125433
0.126212
0.128121
0.127341
0.130492
0.128928
0.131123
0.131047
0.129220
0.129587
0.129394
0.132309
0.132219
0.125055
0.132410
0.132328
0.130996
0.132851
0.131450
