Full Time (seconds)
0.443023
Incremental Time - I
0.000119
0.000160
0.000212
0.000275
0.000479
0.000620
0.000793
0.001102
0.001328
0.001649
0.002146
0.002335
0.002466
0.003249
0.003579
0.004043
0.004102
0.004020
0.004459
0.005055
0.005363
0.006145
0.007114
0.007427
0.007431
0.008594
0.009896
0.010418
0.011650
0.012024
0.013170
0.014548
0.015243
0.015704
0.016231
0.016862
0.017643
0.019325
0.020037
0.021047
0.022748
0.025156
0.024646
0.026372
0.029119
0.030548
0.032593
0.033491
0.034039
0.036273
0.037315
0.038744
0.041291
0.039335
0.040957
0.043391
0.044139
0.048254
0.049355
0.048940
0.050972
0.056939
0.055617
0.075782
0.059087
0.064563
0.066605
0.069530
0.068246
0.068329
0.076210
0.077377
0.075168
0.082311
0.083700
0.085678
0.089111
0.090648
0.087241
0.096304
0.091407
0.093856
0.096845
0.098287
0.099862
0.103484
0.105644
0.115409
0.107822
0.120501
0.109891
0.125867
0.112714
0.122125
0.126756
0.136878
0.140270
0.135169
0.146838
0.137268
0.154390
0.156317
0.150023
0.164229
0.165860
0.157779
0.158534
0.161434
0.165458
0.171388
0.184792
0.175538
0.191726
0.189658
0.190597
0.203351
0.206031
0.205670
0.201790
0.203113
0.205604
0.211125
0.213621
0.217504
0.223176
0.224102
0.237410
0.233978
0.236310
0.239003
0.250499
0.263312
0.260325
0.255667
0.267885
0.260451
0.276624
0.268267
0.270727
0.284502
0.278519
0.282409
0.288323
0.290734
0.294247
0.300370
0.311773
0.296225
0.313104
0.316025
0.330178
0.334497
0.325323
0.332788
0.341585
0.335659
0.341858
0.343024
0.356005
0.385587
0.366948
0.368147
0.379600
0.383859
0.386596
0.391235
0.401904
0.402700
0.413762
0.414505
0.377483
0.420925
0.426912
0.421087
0.418384
0.438262
0.405564
0.445851
0.448823
0.437402
0.464531
0.470607
0.464440
0.461510
0.455037
0.474578
0.467149
0.474959
0.504946
0.429776
0.499368
0.505010
0.491269
0.469900
0.540605
0.518326
0.570857
0.542994
0.529866
0.541607
0.335988
0.582235
0.493161
0.362817
0.563469
0.484152
0.489548
0.337930
0.340625
0.398649
0.558597
Classification Time - C
cat: testS_0.svm.time: No such file or directory
cat: test1II_0000.svm.time: No such file or directory
cat: test1II_0001.svm.time: No such file or directory
cat: test1II_0002.svm.time: No such file or directory
cat: test2II_0000.svm.time: No such file or directory
cat: test2II_0001.svm.time: No such file or directory
cat: test2II_0002.svm.time: No such file or directory
cat: test3II_0000.svm.time: No such file or directory
cat: test3II_0001.svm.time: No such file or directory
cat: test3II_0002.svm.time: No such file or directory
cat: test4II_0000.svm.time: No such file or directory
cat: test4II_0001.svm.time: No such file or directory
cat: test4II_0002.svm.time: No such file or directory
cat: test5II_0000.svm.time: No such file or directory
cat: test5II_0001.svm.time: No such file or directory
cat: test5II_0002.svm.time: No such file or directory
cat: test6II_0000.svm.time: No such file or directory
cat: test6II_0001.svm.time: No such file or directory
cat: test6II_0002.svm.time: No such file or directory
cat: test7II_0000.svm.time: No such file or directory
0.087407
0.088298
0.089782
0.090921
0.091608
0.092552
0.099986
cat: test9II_0002.svm.time: No such file or directory
cat: test10II_0000.svm.time: No such file or directory
cat: test10II_0001.svm.time: No such file or directory
cat: test10II_0002.svm.time: No such file or directory
0.103135
0.107904
0.108725
0.106578
0.107787
0.110062
0.111598
0.112811
0.114570
0.116552
0.119981
0.120622
0.123524
0.123360
0.126806
cat: test16II_0000.svm.time: No such file or directory
cat: test16II_0001.svm.time: No such file or directory
cat: test16II_0002.svm.time: No such file or directory
cat: test17II_0000.svm.time: No such file or directory
cat: test17II_0001.svm.time: No such file or directory
cat: test17II_0002.svm.time: No such file or directory
cat: test18II_0000.svm.time: No such file or directory
cat: test18II_0001.svm.time: No such file or directory
cat: test18II_0002.svm.time: No such file or directory
cat: test19II_0000.svm.time: No such file or directory
cat: test19II_0001.svm.time: No such file or directory
cat: test19II_0002.svm.time: No such file or directory
cat: test20II_0000.svm.time: No such file or directory
cat: test20II_0001.svm.time: No such file or directory
cat: test20II_0002.svm.time: No such file or directory
cat: test21II_0000.svm.time: No such file or directory
cat: test21II_0001.svm.time: No such file or directory
cat: test21II_0002.svm.time: No such file or directory
cat: test22II_0000.svm.time: No such file or directory
cat: test22II_0001.svm.time: No such file or directory
cat: test22II_0002.svm.time: No such file or directory
cat: test23II_0000.svm.time: No such file or directory
cat: test23II_0001.svm.time: No such file or directory
cat: test23II_0002.svm.time: No such file or directory
cat: test24II_0000.svm.time: No such file or directory
cat: test24II_0001.svm.time: No such file or directory
cat: test24II_0002.svm.time: No such file or directory
cat: test25II_0000.svm.time: No such file or directory
cat: test25II_0001.svm.time: No such file or directory
cat: test25II_0002.svm.time: No such file or directory
cat: test26II_0000.svm.time: No such file or directory
cat: test26II_0001.svm.time: No such file or directory
cat: test26II_0002.svm.time: No such file or directory
cat: test27II_0000.svm.time: No such file or directory
cat: test27II_0001.svm.time: No such file or directory
cat: test27II_0002.svm.time: No such file or directory
cat: test28II_0000.svm.time: No such file or directory
cat: test28II_0001.svm.time: No such file or directory
cat: test28II_0002.svm.time: No such file or directory
cat: test29II_0000.svm.time: No such file or directory
cat: test29II_0001.svm.time: No such file or directory
cat: test29II_0002.svm.time: No such file or directory
cat: test30II_0000.svm.time: No such file or directory
cat: test30II_0001.svm.time: No such file or directory
cat: test30II_0002.svm.time: No such file or directory
cat: test31II_0000.svm.time: No such file or directory
cat: test31II_0001.svm.time: No such file or directory
cat: test31II_0002.svm.time: No such file or directory
cat: test32II_0000.svm.time: No such file or directory
cat: test32II_0001.svm.time: No such file or directory
cat: test32II_0002.svm.time: No such file or directory
cat: test33II_0000.svm.time: No such file or directory
cat: test33II_0001.svm.time: No such file or directory
cat: test33II_0002.svm.time: No such file or directory
cat: test34II_0000.svm.time: No such file or directory
cat: test34II_0001.svm.time: No such file or directory
cat: test34II_0002.svm.time: No such file or directory
0.218327
0.219897
0.223451
0.228168
0.229806
0.233443
0.234587
0.231669
0.235704
0.216514
0.241114
0.240698
cat: test39II_0000.svm.time: No such file or directory
cat: test39II_0001.svm.time: No such file or directory
cat: test39II_0002.svm.time: No such file or directory
cat: test40II_0000.svm.time: No such file or directory
cat: test40II_0001.svm.time: No such file or directory
cat: test40II_0002.svm.time: No such file or directory
cat: test41II_0000.svm.time: No such file or directory
cat: test41II_0001.svm.time: No such file or directory
cat: test41II_0002.svm.time: No such file or directory
cat: test42II_0000.svm.time: No such file or directory
cat: test42II_0001.svm.time: No such file or directory
cat: test42II_0002.svm.time: No such file or directory
cat: test43II_0000.svm.time: No such file or directory
cat: test43II_0001.svm.time: No such file or directory
cat: test43II_0002.svm.time: No such file or directory
cat: test44II_0000.svm.time: No such file or directory
cat: test44II_0001.svm.time: No such file or directory
cat: test44II_0002.svm.time: No such file or directory
cat: test45II_0000.svm.time: No such file or directory
cat: test45II_0001.svm.time: No such file or directory
cat: test45II_0002.svm.time: No such file or directory
cat: test46II_0000.svm.time: No such file or directory
cat: test46II_0001.svm.time: No such file or directory
cat: test46II_0002.svm.time: No such file or directory
0.275651
0.267815
0.277646
0.293433
0.271986
0.255121
0.271848
0.258279
0.304864
0.266742
0.262224
0.294181
0.271249
0.274702
0.301969
0.276754
0.274783
0.325997
0.274986
0.330139
0.327679
0.283436
0.307402
0.288789
0.339400
0.291559
0.341791
0.294718
0.296047
0.346956
0.200681
0.351778
0.303477
0.311919
0.304190
0.292099
0.364638
0.360707
0.208216
0.365904
0.294477
0.212405
0.372521
0.227523
0.371654
0.300355
0.375387
0.302274
0.308548
0.222099
0.389155
0.321287
0.394062
0.228163
0.398766
0.396202
0.401704
0.404954
0.407888
0.235308
0.237006
0.233882
0.392224
0.292546
0.417185
0.271951
0.214615
0.227086
0.201607
0.217090
0.434247
0.253319
