Full Time (seconds)
0.294062
Incremental Time - I
0.000063
0.000087
0.000118
0.000165
0.000296
0.000354
0.000475
0.000320
0.000517
0.000578
0.000826
0.000913
0.001029
0.001381
0.001506
0.001733
0.001226
0.002298
0.004804
0.003005
0.003178
0.004922
0.004783
0.005939
0.004476
0.005051
0.007633
0.005836
0.008472
0.006806
0.007302
0.008685
0.008569
0.013771
0.010840
0.015231
0.010970
0.013081
0.013434
0.015007
0.014081
0.013987
0.015485
0.015654
0.018175
0.023003
0.011412
0.024719
0.025772
0.025275
0.025669
0.039322
0.026886
0.023395
0.024958
0.033320
0.028149
0.027128
0.028398
0.054259
0.030101
0.052576
0.058893
0.049603
0.041156
0.045766
0.038449
0.050661
0.043075
0.086735
0.056687
0.043433
0.048889
0.051146
0.057622
0.054679
0.058049
0.072026
0.080562
0.057144
0.070272
0.085653
0.078180
0.072067
0.059402
0.035545
0.099145
0.075268
0.082636
0.068179
0.068274
0.086540
0.121254
0.118928
0.108670
0.089854
0.098019
0.083191
0.094008
0.120364
0.097052
0.095055
0.088611
0.123942
0.092186
0.097158
0.101500
0.097240
0.115579
0.111138
0.120201
0.103885
0.157345
0.184979
0.150078
0.134112
0.138816
0.117792
0.129330
0.143267
0.157639
0.122064
0.151874
0.140836
0.152356
0.167395
0.141551
0.116792
0.148228
0.169989
0.155085
0.107248
0.122694
0.211545
0.188630
0.095843
0.158369
0.160651
0.190851
0.211678
0.180963
0.215031
0.206852
0.180131
0.214734
0.207140
0.163862
0.188512
0.187214
0.192426
0.108291
0.206707
0.197191
0.240786
0.219442
0.221726
0.188159
0.255886
0.243351
0.237130
0.255946
0.221931
0.225120
0.235087
0.230051
0.257842
0.252132
0.327282
0.280206
0.291451
0.249218
0.252366
0.269090
0.282850
0.281318
0.325182
0.258092
0.261114
0.258711
0.273319
0.163556
0.284227
0.284574
0.287189
0.309535
0.280252
0.258319
0.282379
0.304110
0.321368
0.344383
0.311640
0.315677
0.340834
0.356427
0.420525
0.236553
0.345553
0.283177
0.357674
0.338847
0.348062
0.348692
0.383717
0.355689
0.373411
0.373121
0.368276
0.336841
0.418946
0.398713
Classification Time - C
0.053206
0.045294
0.043388
0.050812
0.075894
0.054982
0.057693
0.034497
0.073568
0.065165
0.059157
0.068427
0.065774
0.068713
0.099227
0.058805
0.028767
0.064984
0.075265
0.076034
0.070028
0.058997
0.077457
0.063841
0.075319
0.062809
0.061120
0.075563
0.092693
0.071300
0.080433
0.076288
0.076105
0.079433
0.077362
0.106583
0.074374
0.077594
0.121859
0.105492
0.086756
0.107572
0.113784
0.096286
0.091587
0.117571
0.043953
0.108428
0.087088
0.093046
0.109441
0.088510
0.097120
0.105018
0.091854
0.124031
0.096456
0.094093
0.123277
0.107485
0.125377
0.121390
0.142488
0.112891
0.129413
0.108936
0.121855
0.100733
0.130594
0.122929
0.123031
0.121583
0.117415
0.122461
0.110523
0.093183
0.123806
0.152235
0.140635
0.099354
0.193348
0.140568
0.079677
0.143457
0.129800
0.148677
0.152835
0.161422
0.135269
0.127908
0.127131
0.134198
0.140463
0.136746
0.119315
0.168572
0.171506
0.157277
0.076279
0.144537
0.142927
0.179411
0.140919
0.169417
0.160549
0.149926
0.149527
0.185866
0.195197
0.149862
0.080787
0.175750
0.204359
0.162260
0.127995
0.171924
0.170700
0.179758
0.171740
0.195720
0.163160
0.193292
0.230288
0.220487
0.167195
0.178941
0.192190
0.157746
0.201935
0.187560
0.177047
0.184001
0.190110
0.185433
0.191536
0.180336
0.205597
0.199202
0.143367
0.199946
0.205921
0.192439
0.226760
0.230649
0.222822
0.227992
0.202896
0.217092
0.223822
0.197109
0.200325
0.212452
0.231534
0.215230
0.205433
0.186911
0.232243
0.120001
0.141335
0.303580
0.193371
0.254717
0.265810
0.223070
0.164154
0.386464
0.264542
0.254275
0.223368
0.227062
0.237239
0.226640
0.201330
0.309173
0.121257
0.248713
0.251117
0.259036
0.243663
0.241915
0.267603
0.299580
0.219703
0.245779
0.247604
0.224832
0.239047
0.185778
0.279247
0.152778
0.281456
0.247667
0.246569
0.227716
0.272507
0.252373
0.244932
0.241050
0.266139
0.264447
0.265261
0.265121
0.270093
0.293934
0.278661
0.242208
0.239792
0.290305
0.300332
0.474400
0.286665
