Full Accuracy
84.202896
Accuracy - I
50.000000
50.507248
50.652168
50.652168
50.942028
51.159416
51.086964
51.159416
51.376812
51.449276
52.028984
51.956524
51.884056
52.173912
52.173912
52.246380
52.971016
52.971016
52.971016
53.550728
53.550728
53.478264
54.130436
54.130436
54.130436
54.710144
54.782612
54.782612
54.927540
55.000000
55.362320
56.086956
56.086956
56.086956
56.811596
56.811596
56.811596
57.028984
56.956516
57.101448
57.318844
57.391304
57.318844
57.318844
57.463772
57.391304
58.115940
58.115940
58.115940
58.695648
58.840580
58.840580
58.913040
59.202896
59.420292
60.072464
60.072464
60.072464
60.362320
60.579712
60.652172
61.159420
61.159420
61.231888
61.231888
61.231888
61.449272
62.173916
62.173916
62.173916
62.898552
62.898552
62.898552
63.550728
63.478260
63.550728
63.623192
63.913048
64.057968
64.492760
64.420288
64.565216
65.072464
65.072464
65.072464
65.217392
65.217392
65.507248
66.159424
66.231888
66.231888
66.231888
66.594208
66.739128
66.739128
66.884056
66.956520
67.246376
67.173920
67.318840
67.318840
67.391296
67.391296
68.115944
68.115944
68.115944
68.260864
68.768112
68.695656
69.202896
69.420288
69.420288
69.420288
69.420288
69.420288
69.637680
69.710144
69.782608
70.507248
70.507248
70.507248
70.579712
70.652176
70.724640
71.449280
71.449280
71.449272
71.666672
71.956520
71.956520
72.028992
72.028992
72.246376
72.681160
72.826088
72.826088
73.550728
73.550728
73.333336
74.057976
73.985512
73.913040
73.913040
74.130432
74.202896
74.855072
74.855072
74.855072
74.855072
75.000000
75.000000
75.507248
75.652168
75.579712
75.579712
75.652176
75.724640
75.724640
76.014488
76.231888
76.449272
76.811592
76.956520
76.956520
77.028984
77.101448
77.101448
77.463768
77.681160
77.971016
78.115936
78.260872
78.768120
78.840584
78.840584
79.565224
79.565224
79.565224
79.565224
79.855072
79.927536
79.927536
80.217392
80.217392
80.724640
80.869568
80.797104
80.942032
80.869568
80.869568
81.231888
81.231888
81.376816
82.101456
82.101456
82.101456
82.608704
82.608704
82.608704
82.681160
82.971016
83.115944
83.478264
83.695656
83.768120
83.768120
83.695656
83.695656
83.768120
84.130440
84.202896
