Full Time (seconds)
0.233849
Time - I
0.002233
0.003582
0.004535
0.006707
0.006449
0.007156
0.007860
0.008980
0.011274
0.011442
0.012613
0.013644
0.015844
0.016497
0.017675
0.019204
0.020142
0.021541
0.022756
0.023374
0.024640
0.028377
0.028105
0.028333
0.029647
0.031637
0.032607
0.034455
0.035325
0.035860
0.036525
0.037957
0.038629
0.040320
0.041258
0.042444
0.044156
0.049305
0.045856
0.049042
0.050103
0.051340
0.052422
0.051793
0.052799
0.055165
0.055798
0.057055
0.057929
0.060161
0.061974
0.063721
0.064542
0.065735
0.067529
0.068280
0.068986
0.068557
0.070757
0.072277
0.076541
0.076062
0.078038
0.078631
0.077531
0.078714
0.080617
0.080254
0.083670
0.084992
0.085344
0.090924
0.086452
0.094475
0.116361
0.090267
0.090863
0.094850
0.094822
0.096832
0.097981
0.099028
0.100113
0.101495
0.102589
0.102232
0.102799
0.105515
0.105946
0.110231
0.108983
0.111240
0.112334
0.112875
0.112699
0.114093
0.115579
0.116141
0.116849
0.119999
0.120946
0.122437
0.124167
0.123734
0.126277
0.126528
0.129163
0.129087
0.130136
0.135572
0.134944
0.137980
0.134338
0.136382
0.135915
0.139893
0.142835
0.139585
0.144169
0.141700
0.145094
0.146390
0.148296
0.150330
0.151304
0.152490
0.153268
0.151714
0.153542
0.165166
0.157628
0.159750
0.159643
0.171340
0.162462
0.163674
0.164076
0.166308
0.169042
0.168555
0.166457
0.171144
0.168852
0.173026
0.171342
0.172774
0.173912
0.179722
0.176178
0.177555
0.178546
0.180046
0.180649
0.184031
0.189429
0.174074
0.186176
0.186792
0.187614
0.174613
0.193335
0.191221
0.193301
0.196303
0.192891
0.183423
0.183782
0.185984
0.173893
0.200663
0.204317
0.206080
0.204326
0.209081
0.207147
0.208379
0.210818
0.210685
0.214579
0.216157
0.223051
0.216157
0.216496
0.220705
0.220956
0.229110
0.209032
0.206692
0.199660
0.190856
0.184253
0.177784
0.175120
0.196391
0.202108
0.203314
0.233036
0.204777
0.220878
0.221966
0.223492
0.213270
0.209806
0.196771
0.198070
0.243195
0.222397
0.250048
0.229790
0.246849
0.249835
