Full Time (seconds)
0.215534
Time - I
0.002535
0.003362
0.004478
0.005923
0.007051
0.008824
0.009913
0.011370
0.011713
0.013748
0.014043
0.014772
0.014908
0.016025
0.017051
0.018527
0.020690
0.021781
0.023449
0.024089
0.024978
0.026372
0.028230
0.029266
0.030598
0.031068
0.031767
0.033608
0.033805
0.035240
0.037461
0.037559
0.038445
0.040328
0.041111
0.045171
0.043506
0.044500
0.045960
0.048779
0.049734
0.050721
0.051321
0.052523
0.054603
0.056008
0.071287
0.056663
0.058535
0.059440
0.060335
0.061713
0.063593
0.065164
0.068110
0.067927
0.068192
0.068474
0.069466
0.070868
0.072060
0.073662
0.074222
0.075848
0.078926
0.077853
0.080876
0.080288
0.081190
0.082578
0.084053
0.086051
0.086910
0.090406
0.092370
0.092688
0.090988
0.092175
0.093167
0.094353
0.096080
0.097469
0.100957
0.099826
0.094617
0.093652
0.095194
0.105950
0.107133
0.099809
0.107658
0.110676
0.112082
0.113156
0.112518
0.115727
0.117856
0.117811
0.118060
0.120759
0.129053
0.130654
0.123801
0.124062
0.129847
0.125242
0.128236
0.129478
0.129942
0.139092
0.133236
0.133776
0.136124
0.135060
0.136183
0.137401
0.140057
0.142504
0.140942
0.143563
0.145362
0.147668
0.146447
0.149618
0.148857
0.148802
0.158048
0.156121
0.155499
0.151529
0.145519
0.146479
0.128494
0.129172
0.129926
0.131076
0.133152
0.124201
0.124547
0.125851
0.166301
0.128304
0.136686
0.137982
0.146939
0.150553
0.145825
0.189398
0.177197
0.180624
0.181607
0.183428
0.184175
0.188340
0.203454
0.178895
0.188590
0.186823
0.192718
0.193358
0.189852
0.191337
0.194455
0.193567
0.200256
0.201849
0.198167
0.199527
0.204929
0.204872
0.206636
0.207258
0.192610
0.193144
0.182591
0.209163
0.209461
0.184616
0.212009
0.178184
0.213821
0.217313
0.237645
0.218137
0.221201
0.220414
0.206730
0.207545
0.193606
0.224612
0.227378
0.229086
0.233079
0.204457
0.202634
0.203529
0.203609
0.206399
0.192758
0.192433
0.170567
0.170806
0.242138
0.169256
0.246510
0.263072
0.230162
0.264013
0.251548
0.243734
0.216489
