Full Time (seconds)
0.100368
Incremental Time - I
0.023508
0.002004
0.003178
0.005202
0.006975
0.009182
0.014342
0.019058
0.019918
0.022187
0.013174
0.031098
0.035501
0.034000
0.045841
0.049709
0.060020
0.059434
0.062134
0.061671
0.081351
Classification Time - C
0.019660
0.038622
0.025975
0.034872
0.035271
0.049459
0.054156
0.041854
0.053878
0.026178
0.055533
0.077142
0.071163
0.086499
0.087348
0.097742
0.076991
0.083273
0.079009
0.111620
