Full Time (seconds)
0.100067
Incremental Time - I
0.018084
0.002244
0.003540
0.005476
0.007553
0.006135
0.007526
0.015625
0.021394
0.020239
0.025215
0.025980
0.032466
0.039532
0.039238
0.044849
0.044222
0.048843
0.062617
0.067467
0.064060
Classification Time - C
0.020070
0.023674
0.030843
0.030766
0.018022
0.052097
0.064567
0.067860
0.056246
0.055702
0.053560
0.051772
0.065675
0.078553
0.067184
0.077219
0.074077
0.117372
0.088083
0.082869
