Full Time (seconds)
0.086968
Incremental Time - I
0.015347
0.001363
0.003485
0.007673
0.016715
0.010278
0.015130
0.014485
0.018125
0.018907
0.025220
0.014719
0.017647
0.040627
0.050145
0.050157
0.068369
0.051143
0.053918
0.061508
0.080133
Classification Time - C
0.010812
0.028880
0.049065
0.041918
0.042353
0.044132
0.042072
0.046622
0.045868
0.061413
0.028594
0.055896
0.090306
0.076454
0.064775
0.079574
0.074705
0.093399
0.081219
0.072130
