Full Time (seconds)
0.142158
Incremental Time - I
0.002376
0.000088
0.000098
0.000102
0.000109
0.000118
0.000126
0.000133
0.000147
0.000153
0.000156
0.000095
0.000098
0.000097
0.000095
0.000093
0.000127
0.000134
0.000136
0.000138
0.000141
0.000214
0.000227
0.000233
0.000246
0.000258
0.002853
0.002761
0.002652
0.001139
0.001222
0.001337
0.001231
0.002213
0.002933
0.002946
0.002904
0.002928
0.002835
0.002860
0.002891
0.002343
0.001404
0.002414
0.003013
0.002897
0.002857
0.002917
0.002968
0.002848
0.003045
0.003073
0.002200
0.001667
0.001615
0.001455
0.002684
0.002963
0.003099
0.003180
0.003119
0.003096
0.002289
0.001755
0.001558
0.002782
0.003134
0.003198
0.003225
0.003131
0.003075
0.002604
0.001694
0.001725
0.002902
0.003293
0.003135
0.003155
0.003209
0.002442
0.001807
0.001851
0.001797
0.002037
0.002926
0.003265
0.003346
0.002451
0.002269
0.002010
0.001930
0.002052
0.003045
0.003458
0.002281
0.001993
0.002067
0.002153
0.002078
0.003301
0.003425
0.002493
0.002031
0.001972
0.002047
0.002107
0.003310
0.003456
0.002396
0.002124
0.002184
0.002331
0.002233
0.003314
0.003526
0.002466
0.002272
0.002429
0.002199
0.003469
0.003543
0.002896
0.002240
0.002379
0.002198
0.002261
0.002262
0.002416
0.002367
0.002318
0.002404
0.002393
0.003441
0.003646
0.002741
0.002451
0.002384
0.002432
0.003567
0.003698
0.002835
Classification Time - I
0.005771
0.006745
0.007770
0.008691
0.009718
0.010678
0.011726
0.012675
0.013713
0.014902
0.014971
0.015368
0.016313
0.016147
0.016532
0.017592
0.017697
0.018319
0.018901
0.020041
0.020421
0.021937
0.022165
0.023102
0.024069
0.025395
0.026014
0.027944
0.028808
0.028804
0.030250
0.031789
0.032813
0.032781
0.033954
0.034483
0.035730
0.036683
0.037729
0.038277
0.039278
0.040206
0.041184
0.042138
0.043079
0.044045
0.044970
0.046011
0.047403
0.048403
0.048863
0.049840
0.050721
0.051713
0.053181
0.053703
0.054542
0.055534
0.057030
0.057355
0.058249
0.059282
0.060103
0.063275
0.062135
0.063062
0.064658
0.064749
0.065804
0.066949
0.067684
0.069654
0.072713
0.070668
0.071783
0.072585
0.074079
0.074313
0.075469
0.076852
0.080244
0.081080
0.079237
0.080034
0.081213
0.081757
0.086584
0.086539
0.088467
0.088910
0.087270
0.087370
0.089179
0.089268
0.092842
0.094279
0.091838
0.093384
0.093926
0.095113
0.095653
0.096889
0.097493
0.102555
0.102762
0.100678
0.101213
0.101904
0.103078
0.103823
0.105811
0.105599
0.106474
0.108253
0.108342
0.113605
0.111223
0.110726
0.111873
0.112556
0.113576
0.114487
0.115831
0.121332
0.118205
0.119842
0.119719
0.120953
0.126187
0.123045
0.123257
0.123838
0.125004
0.125801
0.131593
0.127291
0.128749
0.129125
0.130403
0.136632
