Full Time (seconds)
0.002774
Time - I
0.000507
0.000559
0.000673
0.000796
0.000892
0.001002
0.001113
0.001227
0.001466
0.001419
0.001524
0.001648
0.001793
0.001914
0.002058
0.002065
0.002231
0.002467
0.002617
0.002756
0.002758
