Full Time (seconds)
0.002863
Time - I
0.000415
0.000543
0.000659
0.000775
0.000884
0.001393
0.001107
0.001195
0.001355
0.001409
0.001533
0.002046
0.002152
0.001853
0.002408
0.002225
0.002210
0.002381
0.002817
0.003102
0.002775
