Full Accuracy
96.615387
Accuracy - I
cat: testS_0.svm.acc: No such file or directory
73.615387
79.769226
84.307693
86.692307
89.076927
90.846161
91.923073
92.230766
92.769226
93.307693
93.615379
94.692307
95.000000
95.461533
95.846153
95.538460
96.076927
95.846153
96.384613
96.769234
