Full Time (seconds)
0.084019
Incremental Time - I
0.015520
0.002898
0.004140
0.005976
0.008314
0.006559
0.015955
0.017640
0.027512
0.022507
0.031598
0.033753
0.035988
0.036490
0.047994
0.041438
0.044191
0.048390
0.053813
0.061333
0.087640
Classification Time - C
0.026930
0.023290
0.032046
0.018074
0.018509
0.044433
0.044225
0.055106
0.060242
0.053943
0.058071
0.067277
0.062466
0.073158
0.063837
0.068378
0.102001
0.077149
0.088550
0.110238
