Full Time (seconds)
0.089253
Incremental Time - I
0.016984
0.002402
0.003482
0.005405
0.007653
0.011250
0.008011
0.009187
0.020495
0.020458
0.046422
0.024663
0.033531
0.038949
0.042046
0.063958
0.047107
0.050375
0.063793
0.067031
0.066453
Classification Time - C
0.021540
0.038063
0.033644
0.039401
0.033860
0.020327
0.022398
0.053863
0.053691
0.058086
0.053119
0.060999
0.077412
0.088774
0.067133
0.079640
0.094954
0.093807
0.080109
0.085428
