Full Time (seconds)
0.083865
Incremental Time - I
0.015779
0.002432
0.003758
0.005575
0.007861
0.010390
0.014334
0.013665
0.022442
0.025234
0.025787
0.025852
0.029748
0.035091
0.038682
0.041381
0.045637
0.055700
0.063295
0.065587
0.064897
Classification Time - C
0.020445
0.024797
0.032586
0.030829
0.040734
0.033714
0.040842
0.058480
0.054173
0.062079
0.068535
0.054795
0.059803
0.075595
0.056281
0.078954
0.112561
0.082628
0.088313
0.082349
