Full Time (seconds)
0.004329
Time - I
0.000926
0.001002
0.001062
0.001192
0.001202
0.001264
0.001452
0.001763
0.001489
0.001520
0.001625
0.001641
0.001730
0.001825
0.001863
0.001982
0.001988
0.002468
0.002300
0.002213
0.002517
0.002343
0.002678
0.002480
0.002516
0.002611
0.002765
0.002735
0.002787
0.002900
0.003225
