Full Time (seconds)
0.003049
Time - I
0.000512
0.000588
0.000650
0.000727
0.000924
0.000975
0.000909
0.000961
0.001083
0.001121
0.001166
0.001343
0.001658
0.001669
0.001419
0.001305
0.001347
0.001414
0.001442
0.002018
0.001716
0.001694
0.001833
0.002052
0.002136
0.002268
0.002398
0.002931
0.002769
0.003092
0.003928
