Full Time (seconds)
0.106727
Time - I
0.004562
0.005448
0.006219
0.007528
0.007902
0.008740
0.009505
0.010327
0.011137
0.012065
0.012692
0.013451
0.014147
0.015677
0.015832
0.016358
0.017592
0.017871
0.019133
0.019397
0.021153
0.021456
0.022266
0.023078
0.023857
0.023946
0.025444
0.026388
0.026930
0.027708
0.028460
0.029341
0.030063
0.031078
0.031859
0.032693
0.033508
0.034250
0.035105
0.035352
0.035584
0.037474
0.038234
0.039002
0.039774
0.040592
0.041314
0.042123
0.041767
0.043736
0.044499
0.043929
0.046478
0.046805
0.047641
0.047313
0.047697
0.049028
0.050934
0.050053
0.052257
0.051458
0.053843
0.054637
0.055540
0.055660
0.055644
0.057720
0.056785
0.057452
0.060089
0.059078
0.059878
0.062593
0.062906
0.062653
0.064704
0.064293
0.064770
0.067070
0.066375
0.066230
0.066390
0.066815
0.067357
0.068119
0.067772
0.068168
0.068661
0.069387
0.069519
0.071181
0.083401
0.072482
0.075313
0.075830
0.076594
0.076208
0.078370
0.076476
0.079529
0.078988
0.080606
0.079351
0.083057
0.081722
0.083808
0.085575
0.086119
0.085450
0.085952
0.088080
0.089226
0.089897
0.088350
0.090520
0.089670
0.092605
0.096007
0.091767
0.092438
0.093562
0.096978
0.096895
0.095230
0.095939
0.100057
0.101678
0.098427
0.102467
0.101137
0.100546
0.106088
0.104340
0.105780
0.107096
0.104683
0.106949
0.108340
0.106670
0.107379
