Full Time (seconds)
0.109827
Time - I
0.004559
0.005358
0.006170
0.007028
0.007811
0.008566
0.009359
0.010140
0.010076
0.003908
0.004171
0.004401
0.004664
0.004916
0.005209
0.005613
0.005661
0.005904
0.018501
0.019289
0.020030
0.020777
0.021510
0.022285
0.023060
0.023778
0.025002
0.014185
0.014159
0.014584
0.015044
0.015423
0.016343
0.016809
0.016727
0.018959
0.032251
0.033300
0.034850
0.035690
0.036416
0.036102
0.038000
0.037603
0.039552
0.040355
0.041104
0.041919
0.041725
0.042170
0.044253
0.045033
0.045834
0.046557
0.047293
0.047629
0.047458
0.049662
0.050456
0.051235
0.052315
0.050701
0.052889
0.051364
0.051612
0.051937
0.052468
0.052839
0.055144
0.053749
0.054214
0.055735
0.057547
0.056449
0.059042
0.059855
0.058788
0.059477
0.060183
0.062941
0.061761
0.062514
0.063391
0.063991
0.065687
0.067046
0.068446
0.066971
0.069961
0.068476
0.069839
0.072392
0.073033
0.074152
0.073456
0.073041
0.076131
0.075357
0.075966
0.076049
0.079625
0.078159
0.078377
0.080581
0.079938
0.080891
0.081406
0.082080
0.085669
0.080704
0.079356
0.078589
0.079550
0.084754
0.087441
0.091067
0.088856
0.092557
0.091796
0.092772
0.094998
0.092910
0.096566
0.095056
0.098209
0.096595
0.096393
0.099414
0.101432
0.098789
0.101908
0.102623
0.104586
0.104358
0.104443
0.103637
0.103947
0.105145
0.106176
0.110201
0.110406
