Full Time (seconds)
0.110690
Time - I
0.004470
0.005382
0.006386
0.007305
0.008192
0.009063
0.009854
0.010797
0.011511
0.012212
0.013149
0.013337
0.013640
0.013878
0.014213
0.014557
0.015040
0.015480
0.015909
0.016527
0.016742
0.017501
0.018255
0.019257
0.020069
0.021077
0.021379
0.021992
0.023404
0.023849
0.024536
0.025765
0.026098
0.027519
0.027534
0.029159
0.030057
0.030500
0.031226
0.031477
0.032291
0.033038
0.033842
0.034871
0.035739
0.036889
0.037469
0.037587
0.038514
0.039707
0.039837
0.041636
0.041707
0.042123
0.042957
0.045103
0.045706
0.045950
0.047250
0.046883
0.048570
0.048069
0.048848
0.050026
0.052015
0.052742
0.053533
0.053176
0.053738
0.056084
0.055405
0.056070
0.056823
0.057281
0.071624
0.060090
0.061568
0.060150
0.060936
0.062334
0.062484
0.063263
0.064515
0.066183
0.065738
0.068327
0.069319
0.068058
0.068638
0.070116
0.070148
0.071328
0.071413
0.075294
0.075554
0.075520
0.081964
0.075481
0.077559
0.079343
0.077506
0.080776
0.080423
0.079830
0.080656
0.085360
0.083853
0.082992
0.086241
0.085455
0.087938
0.085886
0.087030
0.087521
0.090964
0.089446
0.091940
0.090603
0.091616
0.092337
0.102256
0.095004
0.095317
0.097976
0.096113
0.097696
0.103466
0.098413
0.099557
0.100317
0.103524
0.100954
0.105049
0.112934
0.103976
0.103966
0.108451
0.105495
0.106551
0.107134
0.107832
