Full Time (seconds)
0.251349
Time - I
0.016652
0.061435
0.104741
0.148875
0.191945
0.123189
0.312796
0.319001
0.223563
0.247514
0.315703
0.447507
0.449323
0.440049
0.277235
0.247980
0.232710
0.345204
0.358644
0.327222
0.264065
