Full Time (seconds)
0.106208
Time - I
0.004270
0.005071
0.005929
0.006704
0.007469
0.008382
0.009003
0.009806
0.010551
0.011321
0.012139
0.012831
0.013569
0.014535
0.015306
0.015799
0.017058
0.017301
0.018075
0.019354
0.019863
0.020935
0.021092
0.022498
0.023325
0.024012
0.024517
0.025266
0.026213
0.026386
0.027917
0.027871
0.029551
0.030467
0.031159
0.031008
0.032759
0.032823
0.033644
0.034084
0.035911
0.035617
0.036878
0.037583
0.039018
0.039795
0.039316
0.040090
0.041802
0.041920
0.042353
0.044504
0.045689
0.044643
0.046789
0.046567
0.048407
0.049192
0.050505
0.050032
0.051521
0.052248
0.051862
0.052293
0.052941
0.053732
0.054686
0.055799
0.057682
0.057972
0.057367
0.058109
0.058576
0.058505
0.058710
0.059807
0.061839
0.061763
0.061782
0.060695
0.061426
0.062059
0.062839
0.063468
0.064746
0.064989
0.065694
0.067116
0.068054
0.067997
0.070048
0.069648
0.070211
0.071202
0.073887
0.075187
0.073174
0.074761
0.074892
0.075620
0.076359
0.077500
0.077996
0.081004
0.079682
0.080746
0.083481
0.081615
0.087127
0.083847
0.083972
0.084857
0.087942
0.087002
0.087076
0.088009
0.091203
0.089117
0.091626
0.091060
0.091300
0.093257
0.093200
0.093718
0.094908
0.096189
0.097018
0.096770
0.097764
0.098032
0.099711
0.102102
0.101415
0.102532
0.102117
0.103082
0.104114
0.103989
0.108584
0.109206
0.107131
