Full Time (seconds)
0.234120
Time - I
0.002282
0.003529
0.004577
0.006091
0.007227
0.009470
0.009899
0.010790
0.012478
0.013962
0.014433
0.015571
0.018411
0.018229
0.019511
0.020669
0.021980
0.022892
0.024324
0.025672
0.027775
0.026316
0.027118
0.028272
0.029627
0.032700
0.031900
0.034584
0.034773
0.035286
0.038767
0.037786
0.040414
0.044627
0.041436
0.042713
0.043909
0.044940
0.048140
0.047693
0.048501
0.050770
0.053452
0.052280
0.053411
0.056595
0.056283
0.060636
0.058891
0.061653
0.061727
0.061676
0.062811
0.083708
0.065628
0.066346
0.067443
0.071466
0.072735
0.071715
0.073246
0.075786
0.076205
0.075943
0.077912
0.080729
0.082730
0.082189
0.084447
0.090131
0.089614
0.086325
0.086588
0.088820
0.089645
0.091295
0.092458
0.093902
0.095112
0.096128
0.097876
0.098720
0.098984
0.100772
0.101195
0.102897
0.103933
0.105397
0.106877
0.107377
0.112998
0.112247
0.114216
0.114948
0.116047
0.116501
0.115439
0.116669
0.120242
0.121554
0.123806
0.123132
0.123562
0.126385
0.126741
0.127427
0.129213
0.127921
0.133064
0.133236
0.132352
0.133204
0.134606
0.138031
0.141090
0.140643
0.141856
0.142524
0.143070
0.142548
0.148358
0.144987
0.148453
0.159031
0.148447
0.149787
0.152877
0.155583
0.152787
0.158310
0.160347
0.168145
0.160167
0.171277
0.161959
0.161702
0.165364
0.164807
0.167166
0.178494
0.183450
0.182554
0.170474
0.171183
0.187649
0.191221
0.174944
0.182155
0.178589
0.177909
0.155682
0.180707
0.146718
0.153040
0.160258
0.160738
0.221024
0.200788
0.189737
0.202834
0.191372
0.191868
0.193877
0.196741
0.198263
0.199006
0.198658
0.199861
0.201082
0.202795
0.203108
0.204475
0.208964
0.206505
0.208487
0.217800
0.215327
0.213095
0.182890
0.213634
0.219440
0.188896
0.188431
0.178237
0.178576
0.179720
0.177597
0.169726
0.170020
0.170074
0.229661
0.227977
0.233590
0.218615
0.216470
0.232162
0.225584
0.239202
0.235637
0.235797
0.238961
0.239633
0.255702
0.245957
0.261204
0.248070
0.245412
0.270524
0.281580
0.248692
0.252966
