Full Time (seconds)
0.160023
Time - I
0.002278
0.003484
0.004630
0.006073
0.007223
0.008835
0.009753
0.010750
0.011955
0.013939
0.013886
0.014437
0.015150
0.016624
0.024222
0.027687
0.020714
0.020928
0.024032
0.024903
0.024705
0.026376
0.027460
0.028907
0.031047
0.030853
0.031707
0.034850
0.036412
0.037877
0.036792
0.041416
0.041506
0.040613
0.041355
0.045605
0.047071
0.044955
0.046031
0.050930
0.050787
0.049706
0.051005
0.052527
0.053137
0.054556
0.057377
0.056719
0.059836
0.060069
0.061078
0.062733
0.063189
0.063799
0.065386
0.066339
0.068651
0.068846
0.070760
0.072343
0.072794
0.080010
0.081781
0.082471
0.077643
0.078066
0.079695
0.088248
0.089278
0.090070
0.084626
0.114792
0.086567
0.088259
0.095082
0.098065
0.091183
0.094510
0.095145
0.094791
0.099104
0.098110
0.098368
0.099989
0.103216
0.104794
0.104899
0.105383
0.105482
0.108742
0.110652
0.111722
0.113060
0.114819
0.114102
0.113911
0.115069
0.116603
0.118061
0.118700
0.120423
0.129409
0.124819
0.125910
0.126614
0.127125
0.126963
0.129913
0.131587
0.132913
0.133127
0.124356
0.126352
0.134165
0.139541
0.139786
0.143608
0.140972
0.144849
0.146452
0.141747
0.142949
0.137790
0.130679
0.148338
0.156192
0.153752
0.155780
0.157835
0.155261
0.150547
0.147248
0.151029
0.151206
0.150964
0.151602
0.163750
0.154661
0.166637
0.166073
0.171186
0.175323
0.172038
0.172636
0.174669
0.163051
0.164931
0.175421
0.190978
0.178973
0.182084
0.183854
0.185578
0.189527
0.187773
0.188809
0.188267
0.191783
0.183765
0.181485
0.181673
0.180729
0.172662
0.198455
0.196095
0.197274
0.203224
0.198873
0.204425
0.202992
0.202388
0.208532
0.209358
0.211017
0.207653
0.211134
0.207844
0.213766
0.216211
0.215905
0.201258
0.200643
0.187142
0.191975
0.179228
0.180416
0.171356
0.170313
0.225909
0.225302
0.231232
0.232252
0.246306
0.234643
0.235774
0.232823
0.237521
0.228421
0.221973
0.210274
0.208473
0.182508
0.185390
0.191304
0.178751
0.163898
0.170176
0.166693
0.166906
0.167777
0.168750
