Full Time (seconds)
0.177659
Time - I
0.002574
0.002676
0.003485
0.004302
0.005397
0.006542
0.007984
0.010568
0.010121
0.011562
0.012683
0.015233
0.015334
0.016408
0.017537
0.018897
0.022446
0.021463
0.022547
0.023703
0.025152
0.026195
0.027282
0.028298
0.029842
0.034229
0.032402
0.033815
0.034922
0.035969
0.037401
0.038590
0.039742
0.041110
0.042544
0.043049
0.044261
0.046235
0.046682
0.048463
0.049219
0.049782
0.051241
0.056207
0.053280
0.054904
0.058127
0.058377
0.059706
0.061513
0.062102
0.063882
0.062962
0.065235
0.068055
0.068459
0.069667
0.071014
0.072040
0.073971
0.073142
0.073773
0.076319
0.077931
0.079401
0.080796
0.080970
0.083570
0.081984
0.085584
0.085701
0.087033
0.088858
0.096758
0.090527
0.090333
0.092235
0.094247
0.095633
0.097751
0.097605
0.098176
0.100740
0.100875
0.103731
0.104007
0.111969
0.104637
0.108333
0.114888
0.108188
0.109473
0.114172
0.120051
0.116995
0.116372
0.117907
0.119032
0.117727
0.120248
0.121175
0.123384
0.125596
0.125702
0.124618
0.136340
0.129605
0.130619
0.131831
0.132768
0.133008
0.133089
0.136993
0.137513
0.139358
0.137603
0.138846
0.140455
0.141242
0.142281
0.146568
0.156329
0.149467
0.146191
0.139249
0.140139
0.141453
0.143213
0.144407
0.144401
0.168725
0.150355
0.148342
0.137985
0.138023
0.161724
0.163121
0.163719
0.164955
0.166071
0.170184
0.169738
0.169705
0.172716
0.175597
0.176107
0.176845
0.163796
0.180703
0.183443
0.167930
0.176072
0.171911
0.173358
0.175324
0.172024
0.174835
0.176809
0.169245
0.166203
0.166661
0.168705
0.157704
0.157630
0.168832
0.197428
0.202131
0.200118
0.204407
0.202180
0.207381
0.209456
0.208325
0.193882
0.191556
0.182414
0.209880
0.197534
0.199822
0.200458
0.186345
0.216533
0.203854
0.197325
0.219151
0.186464
0.194027
0.194465
0.194603
0.182950
0.185245
0.186876
0.187626
0.165664
0.231921
0.234629
0.235138
0.239241
0.252441
0.228963
0.220295
0.247676
0.236091
0.211681
0.205056
0.198042
0.197169
0.199775
0.200791
0.201963
0.183331
