Full Time (seconds)
0.002955
Time - I
0.000482
0.000521
0.000564
0.000579
0.000606
0.000636
0.000661
0.000693
0.000743
0.000939
0.000834
0.000896
0.000979
0.001070
0.001172
0.001233
0.001376
0.001519
0.001451
0.001530
0.001591
0.001743
0.001885
0.002018
0.002166
0.002292
0.002975
0.002886
0.002995
0.002878
0.003110
