Full Accuracy
94.000000
Accuracy - I
50.000000
53.538460
53.769230
53.692307
53.692307
53.692310
53.692307
53.692307
53.692307
53.692307
53.692307
55.461536
56.000000
57.461540
57.461540
57.538460
57.538460
57.538460
57.461536
57.461536
57.461536
59.384613
59.923077
60.538464
60.846157
61.076920
61.153847
61.153847
61.230766
61.307693
61.307693
64.769234
65.000000
64.923080
64.923080
64.923080
64.923080
64.923080
64.923080
64.923080
64.923080
67.692307
67.923073
68.230766
68.230766
68.230766
68.153847
68.230766
68.153847
68.153847
68.153847
71.153847
71.692307
71.846153
72.000000
72.000000
72.000000
72.000000
72.000000
72.000000
72.000000
73.769226
74.384621
75.000000
75.076927
75.076927
74.846153
75.076920
75.076920
75.076920
75.076920
76.769234
77.153847
78.000000
78.000000
78.076920
78.769234
78.846153
78.846153
78.846153
78.846153
79.384621
80.153847
80.692307
80.846153
80.769226
80.923073
80.923073
80.923073
81.153847
81.230774
83.153847
83.461540
84.076920
84.153847
84.384613
84.076920
84.230766
84.461540
84.615387
84.692307
87.307693
87.692307
87.615379
87.923080
88.076927
88.076927
88.076927
88.076927
88.076927
88.230774
88.153847
88.076927
88.076927
88.153847
88.153847
88.153847
88.230774
88.461533
88.461533
88.461533
91.615387
91.692314
91.923073
91.692314
91.692314
91.615387
91.538460
91.538460
91.538460
91.538460
94.384613
94.846153
94.846153
94.923080
94.846153
94.846153
94.846153
94.846153
94.846153
94.769226
