Full Accuracy
94.000000
Accuracy - I
50.000000
53.846157
53.846149
53.846157
53.846157
53.846149
53.846157
53.846157
53.846157
53.846149
53.846149
55.615383
56.153847
57.538460
57.615387
57.615387
57.692307
57.692307
57.692307
57.692307
57.692307
59.615387
60.076923
60.769230
61.076920
61.307693
61.384613
61.384613
61.461536
61.538460
61.538460
65.153847
65.230766
65.307693
65.307693
65.307693
65.307693
65.307693
65.307686
65.307693
65.307693
68.076927
68.307693
68.615379
68.615379
68.692307
68.692307
68.769226
68.692307
68.692307
68.692307
71.230774
71.923080
72.153847
72.307693
72.384613
72.384613
72.384613
72.384613
72.384613
72.384613
75.153847
75.769226
75.692307
75.923080
75.923080
75.923080
75.923080
75.923080
75.923080
75.923080
77.615387
78.000000
78.846153
78.846153
78.923073
79.615387
79.692307
79.692307
79.692307
79.692307
80.307693
81.076927
81.615379
81.769234
81.692307
81.846153
81.846153
81.846153
82.076927
82.153847
83.384613
83.615387
84.230766
84.384613
84.538460
84.615387
84.769234
85.000000
85.230766
85.307693
87.923080
88.307693
88.230774
88.615379
88.846153
88.846153
88.923080
88.923080
88.923080
89.076927
90.230766
91.230766
91.461540
91.538460
91.538460
91.384613
91.461540
91.461540
91.461540
91.692314
91.615387
91.615387
91.615387
91.538460
91.538460
91.538460
91.615387
91.615387
91.538460
91.538460
94.384613
94.846153
94.846153
94.923080
94.846153
94.846153
94.846153
94.846153
94.846153
94.769234
