Full Time (seconds)
0.141947
Incremental Time - I
0.005896
0.000088
0.000103
0.000105
0.000115
0.000115
0.000124
0.000131
0.000140
0.000154
0.000161
0.000179
0.000185
0.000204
0.000202
0.000213
0.000216
0.000221
0.000227
0.000245
0.000253
0.002501
0.001434
0.001156
0.001128
0.001139
0.001139
0.001997
0.002695
0.001292
0.001150
0.001289
0.001127
0.001132
0.002696
0.002836
0.002743
0.002832
0.002876
0.001718
0.001250
0.001300
0.001364
0.002618
0.001490
0.001474
0.001433
0.002766
0.001449
0.001411
0.001425
0.001501
0.001425
0.001456
0.001391
0.002837
0.003033
0.002986
0.001967
0.001735
0.001514
0.001605
0.002773
0.003054
0.002997
0.003098
0.002396
0.001850
0.001478
0.001547
0.001825
0.002936
0.003176
0.003084
0.002277
0.001728
0.001682
0.001880
0.002934
0.001945
0.003054
0.002085
0.001909
0.001745
0.001914
0.002976
0.003288
0.003173
0.003322
0.002105
0.002045
0.001909
0.001762
0.003166
0.001979
0.003142
0.002091
0.002160
0.002093
0.001848
0.003196
0.003421
0.003433
0.002344
0.001987
0.002025
0.002171
0.003144
0.003362
0.002133
0.002079
0.002190
0.002182
0.002250
0.003279
0.002435
0.002084
0.002274
0.003420
0.003563
0.003582
0.002316
0.001821
0.001982
0.002179
0.002588
0.003080
0.003165
0.002874
0.002318
0.002791
0.003619
0.003640
0.003262
0.002781
0.002577
0.003273
0.003672
0.002883
0.002785
0.002782
Classification Time - I
0.006103
0.006591
0.007494
0.008359
0.009340
0.010307
0.011273
0.012375
0.013204
0.014309
0.015589
0.016640
0.017156
0.018432
0.019228
0.019625
0.021020
0.021825
0.022943
0.023261
0.024955
0.025172
0.026908
0.027158
0.028875
0.029935
0.030576
0.031180
0.031881
0.032826
0.033796
0.035807
0.035680
0.037174
0.037874
0.038464
0.039463
0.040870
0.042728
0.043702
0.043964
0.044098
0.045071
0.047824
0.047236
0.048121
0.049149
0.051489
0.050696
0.051692
0.052763
0.055686
0.054638
0.055707
0.056569
0.057842
0.060423
0.060354
0.060883
0.063552
0.062410
0.063154
0.064354
0.064730
0.066432
0.066794
0.067867
0.071414
0.070353
0.070570
0.071347
0.072216
0.073828
0.074140
0.075263
0.079136
0.077840
0.078905
0.079098
0.080412
0.080909
0.084990
0.083797
0.084377
0.085070
0.086072
0.086872
0.087281
0.090411
0.092407
0.089994
0.095160
0.092477
0.093573
0.094261
0.094811
0.096524
0.096911
0.100666
0.100048
0.099948
0.100481
0.101718
0.102458
0.107089
0.104208
0.105006
0.106215
0.107803
0.107825
0.108611
0.109733
0.111517
0.112168
0.113112
0.112960
0.114716
0.114734
0.115596
0.117083
0.117200
0.119039
0.119490
0.118019
0.119153
0.118950
0.120495
0.120670
0.120588
0.122849
0.122136
0.128225
0.124321
0.126963
0.131696
0.126529
0.128013
0.128739
0.131086
0.135923
