Full Time (seconds)
0.142407
Incremental Time - I
0.001730
0.000090
0.000098
0.000107
0.000114
0.000126
0.000135
0.000134
0.000151
0.000159
0.000166
0.000196
0.000184
0.000201
0.000205
0.000217
0.000224
0.000223
0.000232
0.000241
0.000255
0.002491
0.001749
0.001578
0.001481
0.001554
0.001646
0.001616
0.001759
0.002310
0.002782
0.001949
0.001705
0.001796
0.001679
0.001706
0.001688
0.001770
0.002627
0.002871
0.002858
0.002871
0.002243
0.002016
0.001970
0.001826
0.001775
0.001802
0.002738
0.002930
0.002874
0.002960
0.002978
0.002416
0.002221
0.002034
0.001954
0.001969
0.002720
0.003047
0.003032
0.003078
0.002374
0.002080
0.002046
0.002076
0.002029
0.002119
0.002876
0.003128
0.003049
0.002618
0.002144
0.002038
0.002054
0.002048
0.002054
0.002766
0.003124
0.002511
0.002499
0.002420
0.002294
0.002282
0.002335
0.002287
0.003032
0.002570
0.002556
0.002377
0.002393
0.002139
0.002579
0.002792
0.002222
0.002225
0.002294
0.002113
0.002155
0.002087
0.002748
0.002695
0.003210
0.002675
0.002487
0.002439
0.002480
0.003186
0.002555
0.002586
0.002624
0.002652
0.002563
0.003300
0.003318
0.002952
0.003276
0.002833
0.002657
0.002599
0.003183
0.002788
0.003321
0.002812
0.002682
0.002599
0.002531
0.003325
0.002693
0.002672
0.002579
0.002803
0.002643
0.003352
0.002832
0.002717
0.002724
0.002777
0.002834
0.003536
0.002839
Classification Time - I
0.005766
0.006691
0.007607
0.008602
0.009515
0.010489
0.011435
0.012429
0.013455
0.014392
0.015560
0.016433
0.017339
0.018250
0.019632
0.020210
0.020948
0.021775
0.022598
0.024274
0.025295
0.025335
0.027037
0.027695
0.028318
0.030024
0.030871
0.031403
0.031927
0.032868
0.034750
0.034686
0.035664
0.036569
0.037706
0.039072
0.039620
0.041131
0.041642
0.042587
0.044001
0.045510
0.045238
0.047108
0.047171
0.049616
0.049425
0.050446
0.052503
0.051724
0.052702
0.054038
0.054698
0.055511
0.056759
0.058006
0.058781
0.059506
0.061248
0.061334
0.062266
0.064073
0.065564
0.064756
0.065902
0.067583
0.067608
0.069251
0.069735
0.070966
0.071552
0.072559
0.073399
0.075693
0.075779
0.075971
0.078485
0.078582
0.078796
0.080434
0.080762
0.081691
0.082635
0.084849
0.084752
0.085523
0.086438
0.088908
0.088664
0.092340
0.089127
0.089785
0.090205
0.090418
0.090522
0.093522
0.092051
0.093184
0.096427
0.093620
0.094774
0.095339
0.096581
0.096960
0.098396
0.099222
0.100186
0.103103
0.102929
0.106718
0.103636
0.104814
0.105187
0.112530
0.107456
0.108241
0.108999
0.113492
0.112209
0.111315
0.112674
0.113606
0.118302
0.116228
0.115781
0.116700
0.118390
0.123554
0.119765
0.121347
0.121396
0.122341
0.123195
0.124015
0.125491
0.126958
0.131727
0.128329
0.129172
0.129756
