Full Time (seconds)
0.143228
Incremental Time - I
0.005908
0.000094
0.000105
0.000112
0.000116
0.000111
0.000124
0.000134
0.000144
0.000158
0.000157
0.000181
0.000182
0.000203
0.000204
0.000211
0.000218
0.000221
0.000231
0.000246
0.000252
0.002481
0.001441
0.001713
0.001388
0.001366
0.001337
0.001321
0.001446
0.001490
0.001521
0.001539
0.001423
0.001557
0.001555
0.001577
0.001609
0.001567
0.002232
0.001801
0.001686
0.001675
0.001628
0.001783
0.002681
0.002805
0.002747
0.002848
0.002829
0.002166
0.001805
0.001896
0.001915
0.002569
0.002901
0.002839
0.002903
0.002926
0.002380
0.001792
0.001817
0.001950
0.002717
0.003273
0.002971
0.003081
0.002318
0.001884
0.001801
0.001862
0.002931
0.003052
0.003027
0.003186
0.002616
0.002373
0.001994
0.001999
0.002809
0.003127
0.003155
0.003229
0.002467
0.002420
0.002271
0.003071
0.003230
0.003276
0.003275
0.002667
0.002178
0.002549
0.003041
0.003381
0.002631
0.002237
0.002162
0.002297
0.002349
0.003106
0.003374
0.002668
0.002871
0.002361
0.002468
0.003138
0.003381
0.002687
0.002337
0.002283
0.003301
0.003497
0.002961
0.002527
0.002528
0.002439
0.003117
0.003523
0.002866
0.002760
0.002440
0.003248
0.003576
0.003574
0.002925
0.002615
0.002462
0.003312
0.003510
0.003488
0.002939
0.002196
0.001853
0.002771
0.002995
0.002450
0.002207
0.002348
0.002282
0.002985
0.002590
Classification Time - I
0.005814
0.006642
0.007575
0.008473
0.009413
0.010407
0.011396
0.012423
0.013346
0.014536
0.015342
0.016306
0.017636
0.018093
0.018921
0.020273
0.021127
0.021628
0.022809
0.023405
0.025042
0.025973
0.027127
0.027119
0.028090
0.029063
0.030945
0.031928
0.032778
0.033245
0.034647
0.034468
0.035422
0.036440
0.037409
0.038570
0.040486
0.041470
0.041198
0.042127
0.043270
0.043946
0.046420
0.046329
0.046753
0.048029
0.048629
0.049563
0.052236
0.051546
0.054254
0.053762
0.055003
0.055609
0.056109
0.057718
0.058374
0.059539
0.060250
0.060826
0.061717
0.062572
0.064273
0.065190
0.066105
0.066385
0.067601
0.068969
0.069186
0.070520
0.071191
0.072165
0.073042
0.076264
0.077289
0.078564
0.076941
0.078350
0.078795
0.079578
0.080769
0.081677
0.082350
0.083933
0.084081
0.084953
0.086248
0.088780
0.091613
0.088575
0.089723
0.091539
0.091869
0.092706
0.096781
0.097024
0.097794
0.096347
0.097742
0.098154
0.103022
0.100123
0.100689
0.101774
0.103070
0.103661
0.104983
0.106137
0.106777
0.107532
0.107955
0.113259
0.111539
0.110538
0.111686
0.112579
0.113085
0.118078
0.114957
0.115941
0.118598
0.117608
0.118698
0.120199
0.120638
0.126435
0.123692
0.123546
0.124207
0.125626
0.125306
0.125597
0.126577
0.126656
0.129209
0.128362
0.128981
0.128872
0.129707
0.130260
