Full Time (seconds)
0.143089
Incremental Time - I
0.004753
0.000088
0.000103
0.000106
0.000113
0.000117
0.000134
0.000131
0.000136
0.000151
0.000165
0.000176
0.000184
0.000196
0.000202
0.000212
0.000219
0.000221
0.000230
0.000245
0.000252
0.002461
0.001481
0.001450
0.001483
0.001610
0.001581
0.001791
0.001643
0.001768
0.001649
0.001656
0.001490
0.001524
0.001560
0.002299
0.002841
0.002738
0.002752
0.002187
0.001740
0.001887
0.001971
0.002661
0.002820
0.002835
0.002878
0.002914
0.002397
0.002153
0.001976
0.002654
0.002916
0.002970
0.002860
0.002872
0.003026
0.002417
0.002023
0.002075
0.002905
0.003071
0.003029
0.002948
0.003030
0.002680
0.002409
0.002218
0.002176
0.002839
0.003028
0.003079
0.003095
0.003133
0.002641
0.002318
0.002210
0.002897
0.002925
0.003057
0.003121
0.002302
0.001932
0.001804
0.001797
0.001865
0.002609
0.002895
0.002727
0.002314
0.002037
0.002369
0.003101
0.003101
0.003269
0.003225
0.002742
0.002444
0.002301
0.002253
0.003139
0.003187
0.003266
0.002763
0.002694
0.002594
0.002468
0.003159
0.003181
0.003435
0.002803
0.002642
0.002498
0.002668
0.003272
0.003404
0.002941
0.002688
0.002612
0.002568
0.002559
0.003315
0.002759
0.002665
0.002639
0.002544
0.002651
0.002650
0.002588
0.002594
0.002635
0.002768
0.002817
0.003504
0.002940
0.002970
0.002841
0.002743
0.003509
0.003545
0.003056
Classification Time - I
0.005785
0.006666
0.007614
0.008563
0.009564
0.010517
0.011521
0.012478
0.013664
0.014533
0.015462
0.016478
0.017393
0.018610
0.019342
0.020408
0.020697
0.021963
0.022553
0.023768
0.024428
0.025481
0.026437
0.027385
0.028523
0.029702
0.030713
0.032238
0.032083
0.033679
0.034101
0.035071
0.036250
0.037082
0.038132
0.038826
0.039954
0.040643
0.042017
0.043379
0.044274
0.044495
0.045551
0.046456
0.047334
0.048385
0.049453
0.050340
0.051723
0.053841
0.053900
0.054819
0.055081
0.056030
0.056871
0.058320
0.058643
0.060018
0.060698
0.061846
0.062529
0.063414
0.064536
0.065498
0.068680
0.067089
0.070248
0.069117
0.070515
0.071173
0.072349
0.073156
0.073729
0.074662
0.075631
0.077972
0.077533
0.078367
0.079274
0.081192
0.080999
0.081298
0.081535
0.082074
0.082270
0.083971
0.083387
0.083929
0.084535
0.085368
0.086490
0.087080
0.087908
0.089193
0.090604
0.091503
0.091801
0.093072
0.093420
0.094426
0.095197
0.096123
0.097087
0.098074
0.099438
0.099573
0.100754
0.102162
0.102819
0.103187
0.105650
0.105055
0.106737
0.107768
0.107805
0.108687
0.110147
0.110462
0.111356
0.112298
0.113398
0.114722
0.115361
0.116110
0.117246
0.118256
0.119535
0.119899
0.121157
0.121378
0.122751
0.124051
0.123997
0.125725
0.126015
0.127730
0.128055
0.128733
0.130324
0.131479
