Full Time (seconds)
0.142783
Incremental Time - I
0.004062
0.000090
0.000102
0.000103
0.000111
0.000119
0.000128
0.000126
0.000142
0.000156
0.000158
0.000190
0.000178
0.000195
0.000207
0.000213
0.000241
0.000226
0.000233
0.000250
0.000254
0.002475
0.002009
0.002744
0.002513
0.002569
0.002533
0.002665
0.002714
0.002735
0.002111
0.001541
0.001375
0.001375
0.002372
0.002725
0.002693
0.002706
0.002715
0.002805
0.002812
0.002770
0.002025
0.001628
0.001506
0.001401
0.001462
0.001450
0.002567
0.002820
0.002781
0.002848
0.002223
0.001784
0.001681
0.001692
0.002569
0.002906
0.002926
0.002810
0.002871
0.002265
0.001867
0.001689
0.001878
0.002790
0.002994
0.002995
0.003092
0.002338
0.002078
0.002868
0.003155
0.002968
0.003010
0.003063
0.003013
0.002663
0.001987
0.001814
0.001833
0.002770
0.003050
0.002251
0.002055
0.001916
0.001827
0.003057
0.003184
0.003119
0.003206
0.002676
0.002186
0.002079
0.002990
0.003295
0.003340
0.002618
0.002220
0.002131
0.002218
0.003167
0.003361
0.002621
0.002520
0.002103
0.002110
0.002980
0.003358
0.003394
0.002634
0.001709
0.001646
0.001648
0.002772
0.002046
0.002068
0.001997
0.001896
0.001963
0.001973
0.002398
0.003216
0.002572
0.002462
0.002465
0.002491
0.002412
0.003369
0.002618
0.002515
0.002720
0.003421
0.003023
0.002698
0.002573
0.002621
0.002793
0.002616
0.003331
0.002681
Classification Time - I
0.005806
0.006625
0.007589
0.008524
0.009476
0.010505
0.011444
0.012403
0.013433
0.014648
0.015728
0.016901
0.017270
0.018119
0.019410
0.019987
0.021195
0.022207
0.022362
0.023980
0.024963
0.025103
0.026138
0.026887
0.027869
0.029046
0.029828
0.030886
0.031662
0.033687
0.034540
0.034947
0.036418
0.036219
0.037964
0.038238
0.039133
0.040070
0.041043
0.042096
0.043110
0.045347
0.044921
0.045871
0.046662
0.049294
0.050237
0.050982
0.050540
0.051413
0.052503
0.055115
0.054207
0.057298
0.056207
0.057166
0.058288
0.059655
0.059963
0.060962
0.062098
0.063109
0.063761
0.065385
0.065500
0.066394
0.067483
0.070775
0.070881
0.070232
0.072055
0.072104
0.072973
0.074020
0.074885
0.077249
0.077831
0.077945
0.081972
0.080620
0.080948
0.081720
0.083612
0.083631
0.085585
0.088633
0.086462
0.087057
0.087940
0.091360
0.089993
0.091114
0.093305
0.092790
0.093674
0.094790
0.096405
0.100399
0.097155
0.098741
0.098874
0.100258
0.101352
0.105982
0.102830
0.105137
0.104500
0.105579
0.108956
0.107338
0.112620
0.108015
0.113000
0.109005
0.108944
0.110157
0.111221
0.115288
0.111257
0.112182
0.112967
0.113985
0.114449
0.115396
0.120867
0.118056
0.118372
0.120836
0.120440
0.125840
0.123627
0.122841
0.124118
0.125228
0.130922
0.128563
0.127606
0.129172
0.129263
0.130357
