Full Time (seconds)
0.141502
Incremental Time - I
0.004404
0.000089
0.000103
0.000100
0.000112
0.000119
0.000159
0.000136
0.000145
0.000152
0.000158
0.000170
0.000181
0.000201
0.000202
0.000214
0.000226
0.000220
0.000228
0.000244
0.000255
0.002466
0.001121
0.001083
0.001037
0.001170
0.001047
0.002266
0.001189
0.001066
0.002650
0.001239
0.001093
0.001186
0.001117
0.001263
0.001129
0.001216
0.001175
0.002770
0.002890
0.001718
0.002663
0.001676
0.001325
0.001457
0.001405
0.001398
0.001362
0.001495
0.001321
0.002734
0.002885
0.003013
0.001892
0.001661
0.001578
0.001628
0.001538
0.001635
0.001443
0.002448
0.002667
0.002710
0.001753
0.001215
0.001294
0.001291
0.001435
0.002560
0.001463
0.002975
0.003062
0.001838
0.001637
0.001634
0.001665
0.001725
0.002849
0.001839
0.003328
0.001842
0.001829
0.001577
0.001697
0.003396
0.003141
0.003192
0.003225
0.002344
0.001970
0.001973
0.001682
0.002913
0.003216
0.003330
0.002432
0.001986
0.001896
0.001860
0.002954
0.003295
0.003375
0.002398
0.001873
0.001842
0.001986
0.001896
0.003135
0.003432
0.002114
0.002123
0.002108
0.001910
0.003309
0.003496
0.003384
0.002566
0.002044
0.002146
0.003255
0.003432
0.002853
0.002309
0.002172
0.002227
0.003089
0.003475
0.002540
0.002134
0.002341
0.002386
0.003322
0.003651
0.002633
0.002442
0.002358
0.002546
0.002486
0.002177
0.002041
Classification Time - I
0.005808
0.006678
0.007678
0.008598
0.009540
0.010510
0.011522
0.012521
0.013605
0.014692
0.015459
0.016430
0.017340
0.018205
0.019007
0.020056
0.020664
0.022281
0.022485
0.023442
0.025119
0.025829
0.026072
0.027099
0.028873
0.029002
0.029940
0.031014
0.031710
0.032720
0.033618
0.034473
0.036568
0.037581
0.038324
0.039662
0.040507
0.041515
0.041142
0.042132
0.043514
0.044005
0.044945
0.047406
0.048320
0.047843
0.048613
0.050102
0.052382
0.051620
0.052728
0.053436
0.054854
0.057191
0.058363
0.058403
0.060162
0.059091
0.062173
0.060963
0.061755
0.061903
0.062941
0.064558
0.063778
0.065582
0.063831
0.065008
0.065500
0.066095
0.066600
0.067584
0.068456
0.069316
0.072763
0.073874
0.072309
0.079150
0.080012
0.075112
0.077409
0.079874
0.078027
0.078751
0.084387
0.087359
0.081385
0.082379
0.084604
0.087617
0.085224
0.088017
0.087167
0.088526
0.089564
0.090885
0.094228
0.095204
0.092448
0.093238
0.095557
0.095317
0.100018
0.101284
0.098047
0.099209
0.099926
0.100774
0.102024
0.103098
0.103841
0.105997
0.105358
0.106062
0.107461
0.112641
0.111889
0.111201
0.114721
0.111731
0.113964
0.113258
0.118771
0.116400
0.117351
0.117304
0.118468
0.123781
0.119944
0.125866
0.122637
0.122930
0.123887
0.124479
0.125748
0.131564
0.127535
0.128562
0.128963
0.130437
