Full Accuracy
94.000000
Accuracy - I
50.000000
70.923080
76.000000
80.384621
82.923080
86.769226
88.230774
89.230766
89.461540
90.538460
91.076920
92.461540
92.923073
93.076920
93.384621
93.923080
94.076927
94.076927
94.461533
94.769234
94.769226
