Full Time (seconds)
0.142069
Incremental Time - I
0.004054
0.000322
0.000388
0.000542
0.000927
0.000999
0.001150
0.001633
0.001858
0.002459
0.002600
0.005003
0.004729
0.005220
0.005709
0.006232
0.005299
0.005648
0.006043
0.008704
0.009391
Classification Time - I
0.010115
0.010164
0.013818
0.017767
0.020572
0.030790
0.037091
0.040531
0.050535
0.055612
0.063612
0.070669
0.078093
0.085760
0.070876
0.079223
0.081771
0.117475
0.124252
0.132723
