Full Time (seconds)
0.106071
Incremental Time - I
0.004717
0.000326
0.000571
0.000818
0.001306
0.001445
0.002116
0.001928
0.002174
0.002349
0.002644
0.004100
0.004630
0.006592
0.007176
0.006305
0.005972
0.006132
0.007956
0.009096
0.009570
Classification Time - I
0.010457
0.015297
0.020880
0.025235
0.032256
0.037700
0.041603
0.048995
0.053190
0.058988
0.067088
0.074534
0.081934
0.086821
0.091766
0.081697
0.089429
0.123972
0.132378
0.098086
