Full Time (seconds)
0.141587
Incremental Time - I
0.001920
0.000321
0.000566
0.000809
0.001321
0.001472
0.001715
0.001893
0.002155
0.002387
0.002592
0.004157
0.004724
0.005119
0.005814
0.006218
0.007633
0.007449
0.007540
0.008656
0.009336
Classification Time - I
0.010050
0.015294
0.020887
0.025486
0.030977
0.035956
0.039599
0.044723
0.049762
0.058289
0.063396
0.075709
0.077001
0.086862
0.092378
0.101238
0.102265
0.117340
0.123251
0.130581
