Full Time (seconds)
0.120829
Incremental Time - I
0.005112
0.000321
0.000570
0.000850
0.001596
0.001444
0.001635
0.001878
0.002182
0.002427
0.002589
0.004142
0.004782
0.005273
0.005696
0.006309
0.007050
0.007590
0.008040
0.008644
0.009412
Classification Time - I
0.010049
0.015464
0.020428
0.028145
0.033598
0.037722
0.043290
0.044893
0.050029
0.055060
0.062455
0.073314
0.083318
0.084731
0.091814
0.099469
0.111835
0.115920
0.123510
0.131150
