Full Time (seconds)
0.141761
Incremental Time - I
0.001286
0.000325
0.000577
0.000794
0.001295
0.001443
0.001729
0.001921
0.002157
0.001788
0.002068
0.004135
0.004634
0.004278
0.005730
0.006157
0.007010
0.007607
0.007551
0.007862
0.009247
Classification Time - I
0.010108
0.015772
0.020412
0.025438
0.030331
0.035626
0.039727
0.044514
0.039519
0.056480
0.064787
0.069334
0.077284
0.084075
0.091180
0.101788
0.101619
0.105755
0.122176
0.135507
