Full Time (seconds)
0.002965
Time - I
0.001098
0.001031
0.001141
0.001204
0.001295
0.001438
0.001483
0.001607
0.001624
0.001773
0.002048
0.001917
0.002448
0.002759
0.002278
0.002615
0.002481
0.003052
0.002702
0.002943
0.002958
