Full Time (seconds)
0.109927
Time - I
0.004338
0.005102
0.005849
0.006659
0.007411
0.004650
0.008981
0.010407
0.010540
0.011297
0.011992
0.012747
0.013531
0.014344
0.015047
0.015882
0.016536
0.017272
0.018047
0.021926
0.011480
0.020410
0.021022
0.021775
0.022774
0.023386
0.024063
0.025546
0.025583
0.026322
0.027859
0.028368
0.028642
0.029678
0.030655
0.031249
0.032072
0.033494
0.034186
0.035080
0.035839
0.040613
0.036546
0.038304
0.039277
0.041935
0.039370
0.040596
0.040871
0.043095
0.042309
0.043260
0.044584
0.045061
0.046753
0.047310
0.046950
0.048181
0.048394
0.049457
0.050894
0.050675
0.051359
0.053790
0.053049
0.055441
0.054469
0.055233
0.055997
0.056785
0.057378
0.060203
0.059852
0.060313
0.061304
0.061413
0.062061
0.062894
0.063653
0.064299
0.064863
0.065197
0.065914
0.067858
0.066320
0.066981
0.067704
0.067310
0.067921
0.069062
0.068655
0.069772
0.071994
0.071410
0.072174
0.073859
0.075638
0.074355
0.075407
0.076796
0.077016
0.077763
0.077705
0.078495
0.080051
0.082021
0.080687
0.081743
0.082650
0.083472
0.083710
0.085074
0.087402
0.086020
0.086719
0.088624
0.088545
0.089046
0.090487
0.090521
0.091632
0.092699
0.092837
0.094722
0.094293
0.095115
0.096508
0.096757
0.097391
0.101441
0.099280
0.102987
0.100335
0.101726
0.101899
0.106206
0.106894
0.107669
0.104899
0.105965
0.108327
