Full Time (seconds)
0.105938
Time - I
0.004348
0.005110
0.006270
0.006660
0.007418
0.008186
0.008944
0.009796
0.010492
0.011255
0.011980
0.012716
0.014013
0.014228
0.014936
0.015715
0.016456
0.017813
0.018499
0.018719
0.019505
0.020611
0.021596
0.021732
0.022480
0.024623
0.024126
0.024898
0.025498
0.026234
0.027197
0.027780
0.028607
0.030190
0.030008
0.031033
0.032567
0.032347
0.033114
0.034104
0.035693
0.035720
0.036171
0.036879
0.038060
0.038639
0.039780
0.041094
0.041560
0.041405
0.043547
0.043097
0.043978
0.044410
0.045273
0.046826
0.046683
0.047444
0.048212
0.050503
0.051256
0.050487
0.051600
0.052195
0.054496
0.055123
0.056035
0.055084
0.055661
0.056452
0.057172
0.058024
0.058784
0.059624
0.063836
0.060981
0.061733
0.063428
0.063320
0.063969
0.068388
0.065459
0.066318
0.067244
0.067522
0.068597
0.069824
0.072292
0.073203
0.071495
0.072329
0.073818
0.074443
0.081330
0.076429
0.078501
0.076757
0.077428
0.078650
0.079276
0.081358
0.080477
0.082025
0.082564
0.085561
0.083573
0.084965
0.085047
0.085879
0.086797
0.090152
0.088788
0.088712
0.090510
0.090534
0.091689
0.091719
0.092765
0.096377
0.093987
0.095184
0.095302
0.096288
0.095729
0.096104
0.099706
0.100102
0.097903
0.101064
0.098589
0.098969
0.099348
0.103776
0.101134
0.105149
0.105886
0.105083
0.104187
0.104731
0.105368
0.109779
