Full Time (seconds)
0.002755
Time - I
0.000420
0.000441
0.000468
0.000603
0.000520
0.000560
0.000578
0.000707
0.000639
0.000700
0.000745
0.000808
0.000864
0.000945
0.001052
0.001091
0.001170
0.001254
0.001393
0.001365
0.001429
0.002502
0.001702
0.001849
0.002061
0.002120
0.002335
0.002367
0.002548
0.002674
0.002814
