Full Time (seconds)
0.327204
Incremental Time - I
0.092031
0.037355
0.061481
0.082673
0.098323
0.111295
0.136629
0.153505
0.175292
0.175140
0.209738
0.232176
0.253805
0.264270
0.276045
0.301126
0.324251
0.340679
0.361298
0.370559
0.381714
Classification Time - C
0.241727
0.109693
0.148874
0.178207
0.193581
0.202942
0.219211
0.241787
0.249148
0.220618
0.264471
0.282084
0.279027
0.286476
0.291289
0.293736
0.300817
0.307425
0.311418
0.320528
0.325583
