Full Accuracy
93.000000
Accuracy - I
50.000000
61.384617
71.846161
75.769234
78.923073
83.461540
84.923080
85.384613
86.923073
87.923080
88.769234
89.692307
90.307693
90.538460
90.923080
91.307693
91.769234
92.076920
92.846153
93.076920
93.000000
