Full Time (seconds)
0.109432
Time - I
0.004295
0.008464
0.014735
0.016705
0.023078
0.026583
0.028951
0.033136
0.037412
0.041226
0.047842
0.051267
0.057264
0.065403
0.069553
0.077724
0.082318
0.088291
0.093891
0.105899
0.111649
