Full Time (seconds)
0.033001
Incremental Time - I
0.006457
0.000364
0.000460
0.000831
0.000836
0.000955
0.001037
0.001156
0.001272
0.001435
0.001501
0.000899
0.000908
0.000912
0.000973
0.000992
0.001100
0.001099
0.001157
0.001172
0.001252
0.000692
0.000705
0.000710
0.000699
0.000730
0.000728
0.000725
0.000814
0.000844
0.000837
Classification Time - I
0.005002
0.006359
0.007557
0.009058
0.010579
0.012090
0.013780
0.015683
0.016633
0.018009
0.019641
0.020036
0.020643
0.021101
0.022516
0.023163
0.023950
0.024099
0.025224
0.025734
0.026577
0.027117
0.026817
0.027835
0.027723
0.027936
0.028397
0.028797
0.029637
0.029630
