Full Time (seconds)
0.278454
Incremental Time - I
0.000055
0.000086
0.000117
0.000149
0.000275
0.000328
0.000266
0.000724
0.000777
0.000944
0.000918
0.000998
0.001103
0.001398
0.001507
0.001728
0.002178
0.002217
0.001522
0.002988
0.003365
0.003628
0.004254
0.004778
0.004848
0.005028
0.008525
0.007318
0.006542
0.006928
0.014067
0.009433
0.008453
0.011218
0.010508
0.009931
0.012022
0.013006
0.019045
0.024940
0.014719
0.016033
0.014510
0.037837
0.017525
0.029519
0.019365
0.014120
0.022760
0.042058
0.022809
0.026763
0.023154
0.023551
0.024283
0.044122
0.044930
0.041461
0.035491
0.041630
0.030051
0.041537
0.040300
0.020971
0.058525
0.055660
0.052281
0.038702
0.022271
0.059400
0.044690
0.056359
0.062389
0.066809
0.065437
0.052662
0.049398
0.057685
0.080269
0.059446
0.069652
0.075341
0.081858
0.087276
0.034404
0.035828
0.082939
0.099744
0.081488
0.096503
0.038511
0.067631
0.076335
0.094098
0.082152
0.080811
0.104264
0.109567
0.109663
0.083649
0.109428
0.087200
0.085606
0.105612
0.107562
0.113338
0.120302
0.113222
0.120275
0.117973
0.108285
0.114406
0.132427
0.115232
0.141637
0.126235
0.128319
0.188366
0.125736
0.091064
0.170959
0.129465
0.139928
0.122674
0.133003
0.134220
0.145074
0.097900
0.153117
0.141906
0.177183
0.189348
0.150188
0.170392
0.145616
0.162916
0.184415
0.160293
0.173377
0.166409
0.169890
0.185686
0.191850
0.177375
0.175600
0.194242
0.182849
0.182809
0.106145
0.226903
0.200040
0.220962
0.218416
0.198639
0.201463
0.139127
0.286343
0.236085
0.234579
0.215430
0.226250
0.230314
0.192550
0.236820
0.247666
0.233321
0.237643
0.223296
0.242571
0.253160
0.251430
0.284769
0.271326
0.294306
0.147839
0.167878
0.233119
0.281734
0.271270
0.288862
0.281685
0.283250
0.318996
0.345402
0.294797
0.301896
0.274959
0.368146
0.299851
0.305435
0.343423
0.319005
0.329631
0.345043
0.336339
0.217261
0.461940
0.333071
0.275498
0.436008
0.372557
0.693358
0.369825
0.398684
0.359318
0.398667
0.362958
0.314282
0.363270
0.400116
0.428376
Classification Time - C
0.051657
0.055486
0.045684
0.054247
0.053260
0.078844
0.023810
0.059394
0.061473
0.104026
0.065696
0.062145
0.073785
0.069045
0.062733
0.070514
0.062320
0.028004
0.065422
0.064348
0.078470
0.064244
0.072242
0.075383
0.067510
0.079120
0.091251
0.071163
0.074361
0.064008
0.068757
0.095250
0.098520
0.096883
0.082627
0.097834
0.070976
0.076438
0.091333
0.087948
0.105626
0.111262
0.099936
0.103892
0.100139
0.088246
0.043649
0.128642
0.099412
0.134326
0.092083
0.116850
0.124811
0.088170
0.089030
0.107973
0.140214
0.144876
0.119031
0.132532
0.098221
0.128308
0.120133
0.114356
0.118217
0.125473
0.118388
0.113370
0.056511
0.171194
0.125442
0.148025
0.118303
0.151061
0.144498
0.130945
0.168095
0.152486
0.118424
0.132467
0.152734
0.137445
0.126475
0.166176
0.066089
0.165212
0.193637
0.171768
0.137907
0.116794
0.087514
0.128116
0.137726
0.134911
0.131471
0.132343
0.182656
0.136127
0.165498
0.157391
0.108145
0.161093
0.181528
0.194637
0.074941
0.148568
0.150580
0.210048
0.152853
0.176839
0.189089
0.182348
0.183910
0.167529
0.091671
0.150413
0.176562
0.162732
0.225852
0.248881
0.203668
0.180926
0.164806
0.166729
0.123372
0.167952
0.169537
0.138099
0.170986
0.118268
0.218534
0.195208
0.176694
0.180042
0.184223
0.180189
0.156524
0.186187
0.189053
0.211112
0.198318
0.194364
0.201072
0.221700
0.213286
0.201623
0.193788
0.177140
0.216939
0.272502
0.200004
0.200922
0.167966
0.177463
0.207927
0.207813
0.201455
0.111357
0.211472
0.231176
0.228827
0.244057
0.222252
0.283047
0.185115
0.220452
0.220411
0.275775
0.241149
0.208745
0.226713
0.228214
0.293924
0.238177
0.122092
0.564153
0.253300
0.234119
0.262011
0.237700
0.130233
0.238963
0.243971
0.242122
0.253385
0.246223
0.271247
0.232453
0.249162
0.250310
0.255954
0.257067
0.242646
0.179521
0.278329
0.260941
0.285487
0.263699
0.199191
0.302184
0.211173
0.334311
0.267760
0.301855
0.271045
0.406422
0.273143
0.281378
0.293088
0.282820
0.281459
