Full Time (seconds)
0.750417
Time - I
0.164250
0.186385
0.195018
0.215051
0.225586
0.243307
0.292855
0.280378
0.298695
0.296105
0.297526
0.313005
0.453148
0.498193
0.529532
0.571468
0.638238
0.532793
0.672494
0.721362
0.659132
