Full Time (seconds)
0.689769
Incremental Time - I
0.451381
0.010444
0.007950
0.008417
0.008341
0.010845
0.008719
0.009278
0.011625
0.009772
0.012796
0.026126
0.034757
0.032498
0.051200
0.049921
0.065840
0.067420
0.040951
0.036742
0.072879
Classification Time - I
0.255649
0.282452
0.318482
0.304066
0.343299
0.312256
0.407946
0.332088
0.335698
0.446588
0.365019
0.432209
0.424934
0.679326
0.588686
0.749534
0.489594
0.458545
1.016614
0.982284
