Full Time (seconds)
0.360180
Time - I
0.164800
0.155876
0.166067
0.211058
0.226551
0.245398
0.245992
0.255989
0.313124
0.308262
0.324970
0.380429
0.518798
0.419528
0.406253
0.470761
0.481686
0.588252
0.490771
0.423904
0.413170
