Full Time (seconds)
0.200010
Time - I
0.002297
0.003451
0.004570
0.006087
0.007212
0.008323
0.009741
0.010795
0.011840
0.013324
0.014421
0.015660
0.017159
0.018305
0.019392
0.020670
0.021679
0.022738
0.024156
0.024532
0.025282
0.026361
0.027115
0.028370
0.029604
0.031086
0.032154
0.033238
0.034254
0.035261
0.036671
0.037823
0.038868
0.040368
0.041433
0.042449
0.043911
0.044921
0.046697
0.047412
0.048412
0.049581
0.051014
0.052051
0.053166
0.055358
0.055755
0.056681
0.058085
0.059278
0.060549
0.061672
0.062752
0.063822
0.065172
0.066273
0.067373
0.069221
0.069865
0.071079
0.072345
0.073891
0.074716
0.075954
0.077357
0.078597
0.080269
0.081010
0.081834
0.084530
0.084045
0.085145
0.088215
0.088134
0.088758
0.090078
0.092269
0.092242
0.094834
0.095743
0.095808
0.097353
0.100026
0.099669
0.103819
0.102338
0.102985
0.105660
0.107194
0.107041
0.109148
0.109272
0.111453
0.113693
0.112734
0.114970
0.115056
0.116048
0.117671
0.119882
0.120460
0.120979
0.123737
0.124859
0.124381
0.127797
0.127047
0.127795
0.129768
0.133917
0.131641
0.132918
0.135413
0.136704
0.138079
0.139276
0.139180
0.142298
0.140920
0.142351
0.143468
0.146690
0.146839
0.147028
0.136842
0.140101
0.150542
0.151860
0.153227
0.154067
0.157052
0.157048
0.160214
0.160610
0.162641
0.161349
0.163204
0.163389
0.162004
0.153152
0.155903
0.155382
0.156327
0.170936
0.172326
0.173589
0.174363
0.175504
0.176522
0.177459
0.178909
0.180645
0.180987
0.183509
0.183503
0.185141
0.186008
0.188349
0.188061
0.174990
0.175946
0.176837
0.189366
0.194116
0.195698
0.196515
0.182725
0.186599
0.200288
0.201944
0.202735
0.188068
0.189422
0.189935
0.191756
0.192414
0.209862
0.211350
0.211957
0.213373
0.217564
0.198818
0.216442
0.216059
0.202167
0.203402
0.204407
0.205854
0.206556
0.193933
0.193748
0.182233
0.182714
0.172130
0.172925
0.174034
0.174937
0.180847
0.177090
0.177536
0.178352
0.240834
0.186457
0.241436
0.242984
0.241348
0.226136
0.227975
0.229994
0.213004
0.212575
