Full Time (seconds)
0.032710
Incremental Time - I
0.011567
0.000363
0.000467
0.000844
0.000844
0.000966
0.001037
0.001121
0.001281
0.001413
0.001489
0.000538
0.000524
0.000540
0.000560
0.000585
0.000576
0.000577
0.000645
0.000662
0.000661
0.001000
0.001042
0.001072
0.001085
0.001145
0.001233
0.001247
0.001311
0.001297
0.001341
Classification Time - I
0.004948
0.006184
0.007459
0.008943
0.010453
0.012170
0.013586
0.014974
0.016672
0.017933
0.018434
0.018652
0.019572
0.019353
0.019738
0.020705
0.021150
0.021188
0.021178
0.021892
0.022499
0.022986
0.023879
0.024594
0.025348
0.025948
0.027090
0.028683
0.028424
0.029786
