Full Time (seconds)
0.183109
Incremental Time - I
0.148658
0.084982
0.017053
0.023852
0.084762
0.120942
0.141361
0.151471
0.170784
0.173628
0.173566
0.199630
0.212120
0.212585
0.256331
0.279953
0.303744
0.317908
0.321329
0.310604
0.265125
Classification Time - C
0.135185
0.033648
0.040367
0.119415
0.141181
0.154684
0.171514
0.162366
0.163834
0.162344
0.165862
0.185879
0.184181
0.194343
0.194194
0.200688
0.201644
0.198731
0.166082
0.215024
