Full Time (seconds)
0.106935
Time - I
0.004600
0.005370
0.006134
0.007651
0.007698
0.008483
0.009476
0.010160
0.010823
0.012423
0.012815
0.015266
0.013800
0.014584
0.015334
0.017708
0.016862
0.017615
0.020349
0.019390
0.021563
0.022526
0.021420
0.024310
0.025270
0.023631
0.024366
0.025124
0.025915
0.026624
0.027498
0.028762
0.030093
0.030236
0.034895
0.033428
0.034530
0.034734
0.034017
0.034469
0.035182
0.035940
0.037016
0.037679
0.038088
0.039203
0.041770
0.045406
0.044048
0.042477
0.042702
0.043765
0.044290
0.044947
0.046435
0.046649
0.047550
0.048411
0.052801
0.054182
0.054925
0.055619
0.051992
0.052919
0.053689
0.054757
0.055751
0.061209
0.060133
0.062036
0.058148
0.058651
0.059491
0.060058
0.060883
0.061599
0.068413
0.067556
0.071495
0.071387
0.071986
0.066489
0.067270
0.068073
0.068830
0.075857
0.077583
0.076727
0.076992
0.077394
0.073352
0.073657
0.074344
0.080459
0.082918
0.084406
0.084669
0.086739
0.078965
0.079962
0.089229
0.081097
0.088949
0.090430
0.089573
0.086389
0.084854
0.085752
0.095708
0.087071
0.094588
0.099211
0.095329
0.090269
0.091492
0.099147
0.092653
0.101290
0.103649
0.103540
0.101455
0.096158
0.103545
0.096845
0.105702
0.107138
0.106845
0.097729
0.098585
0.109919
0.098862
0.106238
0.111005
0.110019
0.110126
0.112085
0.103838
0.104875
0.115825
0.117532
0.116731
