Full Accuracy
96.6154
Accuracy - I
cat: testS_0.svm.acc: No such file or directory
69.3077
79.3077
87.2308
89.5385
92.1538
92.7692
93.7692
94.0769
93.8462
94
94.5385
95.7692
96
96
96.0769
95.6923
96
96
96.4615
96.6154
