Full Time (seconds)
0.092183
Incremental Time - I
cat: testS_0.svm.time: No such file or directory
0.003580
0.005633
0.008595
0.012985
0.017131
0.021569
0.025189
0.029787
0.033600
0.030546
0.041408
0.051685
0.057676
0.065599
0.073402
0.080018
0.067119
0.095407
0.082081
0.114296
Classification Time - C
0.028521
0.034066
0.038579
0.045268
0.059180
0.058947
0.062658
0.067126
0.072632
0.061670
0.078022
0.089482
0.094187
0.101262
0.105848
0.111410
0.081601
0.081938
0.127794
0.098598
