Full Time (seconds)
0.131045
Incremental Time - I
cat: testS_0.svm.time: No such file or directory
0.003473
0.006468
0.009933
0.013929
0.018281
0.021950
0.026039
0.030163
0.034991
0.038661
0.044032
0.052984
0.059868
0.069509
0.073593
0.080359
0.087105
0.096193
0.106635
0.114374
Classification Time - C
0.032820
0.037925
0.043448
0.049396
0.054143
0.061258
0.066990
0.072540
0.074701
0.078060
0.082159
0.088451
0.096375
0.099265
0.109285
0.114567
0.122096
0.125543
0.128391
0.131281
