Full Time (seconds)
0.132086
Incremental Time - I
cat: testS_0.svm.time: No such file or directory
0.003940
0.003590
0.006578
0.009202
0.012083
0.016869
0.024318
0.028925
0.034266
0.045437
0.027773
0.051921
0.059473
0.072667
0.071370
0.078864
0.090809
0.107976
0.106331
0.113489
Classification Time - C
0.018641
0.021423
0.028649
0.032616
0.035929
0.055055
0.058599
0.063520
0.072152
0.076816
0.051450
0.066126
0.094654
0.099280
0.107290
0.113597
0.123500
0.131450
0.133201
0.131238
