Full Time (seconds)
0.106932
Time - I
0.003884
0.009122
0.013519
0.018028
0.021757
0.025833
0.030979
0.034049
0.040279
0.043477
0.046420
0.052543
0.058801
0.064833
0.072022
0.054353
0.067901
0.065798
0.097041
0.101415
0.107424
