Full Time (seconds)
0.110511
Time - I
0.004552
0.008783
0.013083
0.017624
0.022020
0.025944
0.029550
0.034653
0.037695
0.041762
0.046151
0.053592
0.057963
0.064396
0.071503
0.078365
0.084035
0.091979
0.094666
0.100733
0.107140
