Full Accuracy
85.581192
Accuracy - I
50.000000
71.433357
71.436775
73.644653
73.648071
73.648071
73.648071
73.381821
73.381821
73.381821
73.381821
73.112709
78.403030
78.309235
83.757004
83.725739
84.407990
84.314194
85.331062
85.030693
85.030693
85.299797
84.824120
85.662704
87.008232
87.577705
87.577705
86.563820
85.581192
85.581192
85.581192
