Full Time (seconds)
0.105548
Time - I
0.003988
0.004703
0.005540
0.006206
0.006964
0.007738
0.008452
0.009228
0.009994
0.010703
0.011525
0.012191
0.013166
0.013761
0.014432
0.015194
0.015957
0.016708
0.017865
0.018695
0.019506
0.020331
0.021115
0.021407
0.022167
0.022803
0.024293
0.025552
0.025825
0.026046
0.026478
0.028116
0.028019
0.029145
0.030249
0.030470
0.031192
0.031813
0.032512
0.033641
0.034857
0.034779
0.035640
0.036398
0.037544
0.038176
0.039163
0.039404
0.040789
0.041065
0.041747
0.044268
0.045379
0.045200
0.044946
0.045371
0.046756
0.047568
0.047649
0.048266
0.049010
0.050066
0.050464
0.051681
0.053062
0.054400
0.053549
0.054238
0.054976
0.056907
0.056729
0.057324
0.058018
0.060704
0.059539
0.060862
0.061589
0.064336
0.062892
0.063684
0.065413
0.065713
0.065619
0.066217
0.067027
0.067800
0.068995
0.071946
0.070456
0.070745
0.073338
0.072760
0.080366
0.080889
0.075091
0.075607
0.076179
0.076652
0.077982
0.078742
0.080269
0.079749
0.083387
0.082660
0.082638
0.085486
0.084843
0.085194
0.088034
0.085766
0.086541
0.089034
0.087932
0.088775
0.089510
0.093393
0.095369
0.092532
0.093528
0.093613
0.099521
0.095023
0.097483
0.098204
0.095223
0.097957
0.099375
0.099352
0.096770
0.098301
0.098288
0.098599
0.100564
0.100414
0.100712
0.101731
0.102226
0.107088
0.103753
0.104478
0.105289
