Full Time (seconds)
0.105153
Time - I
0.003905
0.004670
0.005438
0.006244
0.006930
0.007719
0.008749
0.009220
0.009965
0.010723
0.011465
0.012188
0.013246
0.013802
0.014503
0.015340
0.016368
0.017108
0.017607
0.018191
0.018981
0.020278
0.020425
0.022390
0.024463
0.023407
0.023978
0.024377
0.025085
0.026481
0.026720
0.028160
0.028012
0.029736
0.029451
0.030405
0.030988
0.031763
0.032517
0.033234
0.033982
0.034759
0.035471
0.036139
0.037644
0.037778
0.038492
0.040141
0.040066
0.041110
0.041648
0.041775
0.042239
0.042432
0.044459
0.043818
0.044342
0.044015
0.044329
0.044809
0.045225
0.045950
0.046761
0.047482
0.048279
0.049451
0.049780
0.050685
0.052073
0.053655
0.054391
0.054758
0.055470
0.055040
0.055713
0.056888
0.057786
0.058078
0.063658
0.059451
0.060179
0.061378
0.061924
0.062597
0.063232
0.064040
0.064976
0.065743
0.069090
0.066969
0.068740
0.068627
0.069483
0.072256
0.073238
0.075409
0.072754
0.072949
0.073755
0.074887
0.075191
0.078293
0.079208
0.080229
0.080416
0.080425
0.082315
0.083329
0.081235
0.084861
0.082894
0.083843
0.084641
0.084954
0.088733
0.089428
0.087305
0.087866
0.088705
0.089932
0.091025
0.094221
0.092039
0.095586
0.093255
0.094062
0.095131
0.096419
0.096216
0.100337
0.101162
0.100533
0.102644
0.103419
0.101256
0.101659
0.103542
0.104453
0.106261
0.108307
0.109006
