Full Time (seconds)
0.489643
Time - I
0.013268
0.036738
0.067026
0.093948
0.191650
0.231434
0.276977
0.323164
0.361754
0.398389
0.447598
0.454410
0.504330
0.443236
0.388693
0.342823
0.459984
0.467991
0.452339
0.391293
0.540133
