Full Time (seconds)
1.032993
Incremental Time - I
0.450227
0.007920
0.008041
0.007677
0.007782
0.009772
0.010746
0.010818
0.011517
0.012352
0.012887
0.038907
0.061817
0.043463
0.047141
0.039346
0.050441
0.038856
0.041820
0.039501
0.051389
Classification Time - I
0.254696
0.278936
0.264830
0.267852
0.340128
0.353877
0.387659
0.403477
0.429922
0.453278
0.502428
0.597046
0.621184
0.576250
0.707300
0.720646
0.761447
0.762466
0.608856
0.868440
