Full Time (seconds)
0.521755
Time - I
0.259732
0.265277
0.317570
0.314122
0.313929
0.386626
0.325949
0.325232
0.503505
0.456700
0.512500
0.603354
0.663766
0.673531
0.658651
0.706677
0.723810
0.613390
0.453396
0.566470
0.709156
