Full Time (seconds)
0.431776
Time - I
0.165254
0.280230
0.313550
0.294329
0.135586
0.158568
0.178896
0.188600
0.189042
0.192819
0.211780
0.211000
0.217999
0.229936
0.236800
0.671767
0.595466
0.637744
0.280006
0.350790
0.677392
