Full Time (seconds)
0.320264
Time - I
0.161073
0.180324
0.167323
0.198592
0.227808
0.245231
0.260632
0.273538
0.271176
0.262109
0.259700
0.227048
0.219278
0.289316
0.320315
0.312256
0.308348
0.312168
0.309162
0.289272
0.339724
