Full Time (seconds)
0.278397
Time - I
0.255093
0.289109
0.319381
0.351322
0.128515
0.143219
0.450906
0.415600
0.390642
0.362796
0.341172
0.600386
0.621023
0.373908
0.354112
0.260108
0.262494
0.266522
0.274026
0.283242
0.279151
