Full Accuracy
94.000000
Accuracy - I
50.000000
71.461533
78.692314
80.615387
84.076920
86.923073
89.000000
89.769234
89.538460
89.846153
90.769234
91.769234
92.615387
92.769226
93.076920
93.538460
94.153847
94.307693
94.692307
94.846153
94.846153
