Full Time (seconds)
0.101055
Incremental Time - I
0.005898
0.000318
0.000563
0.000798
0.002673
0.001865
0.002681
0.001394
0.001318
0.001433
0.001539
0.002270
0.002557
0.002778
0.003034
0.004269
0.004757
0.005192
0.005517
0.005842
0.006822
Classification Time - I
0.010093
0.015296
0.020362
0.009973
0.030492
0.018519
0.020613
0.022413
0.024011
0.027442
0.030093
0.034744
0.038360
0.040535
0.060854
0.065785
0.068053
0.075414
0.086906
0.092700
