Full Time (seconds)
0.122544
Incremental Time - I
0.004095
0.000334
0.000564
0.000794
0.002724
0.000903
0.001768
0.002333
0.002654
0.002851
0.002720
0.004821
0.005051
0.004344
0.004711
0.006284
0.006956
0.007270
0.008793
0.009305
0.009824
Classification Time - I
0.010070
0.015191
0.020785
0.025385
0.024402
0.028338
0.044587
0.046600
0.052146
0.056431
0.063693
0.055105
0.060608
0.071552
0.092472
0.093447
0.113316
0.117264
0.124134
0.139489
