Full Time (seconds)
0.122589
Incremental Time - I
0.004773
0.000330
0.000576
0.000556
0.003076
0.002990
0.002594
0.002795
0.002926
0.004012
0.004152
0.005529
0.006552
0.007076
0.006289
0.008102
0.007327
0.007227
0.007916
0.008600
0.008787
Classification Time - I
0.010033
0.015579
0.020916
0.025869
0.032406
0.035118
0.040511
0.048498
0.049591
0.055002
0.062847
0.069248
0.076960
0.083906
0.091901
0.084906
0.086045
0.098235
0.100554
0.119205
