Full Time (seconds)
0.109724
Time - I
0.004564
0.005361
0.006160
0.006980
0.007773
0.008582
0.009334
0.010167
0.010944
0.011738
0.012410
0.013210
0.014046
0.014795
0.015547
0.016189
0.016969
0.018192
0.018955
0.019720
0.020356
0.022398
0.021621
0.022870
0.022955
0.023701
0.025133
0.025211
0.026352
0.027049
0.027543
0.028656
0.029383
0.029881
0.031692
0.031998
0.033234
0.033075
0.034146
0.034576
0.035400
0.036145
0.036950
0.037670
0.038583
0.039136
0.039913
0.040781
0.041387
0.042701
0.043092
0.043740
0.044456
0.045219
0.045945
0.046724
0.047494
0.049658
0.049698
0.051219
0.050426
0.050766
0.051121
0.051511
0.051717
0.055557
0.054207
0.052950
0.053319
0.054053
0.054330
0.055258
0.056176
0.057138
0.057350
0.059877
0.058761
0.060808
0.062162
0.062092
0.061911
0.062579
0.063343
0.064446
0.066909
0.065497
0.068810
0.069164
0.067805
0.068923
0.070206
0.070246
0.070857
0.071879
0.075067
0.073068
0.074249
0.074611
0.075422
0.076266
0.077238
0.078953
0.080957
0.079256
0.080226
0.081418
0.081921
0.082385
0.083216
0.086343
0.084357
0.085226
0.086031
0.086734
0.087534
0.088948
0.090289
0.089602
0.092559
0.092721
0.095051
0.093159
0.093690
0.094330
0.100343
0.095879
0.097416
0.097505
0.098106
0.099432
0.099811
0.103699
0.101222
0.101785
0.106490
0.103438
0.104221
0.104879
0.108918
0.107369
0.111000
