Full Time (seconds)
0.110516
Time - I
0.004677
0.005510
0.006354
0.007167
0.007913
0.008802
0.009550
0.010344
0.011114
0.011872
0.012580
0.013420
0.014208
0.015039
0.015683
0.016637
0.017544
0.018343
0.019185
0.019452
0.020420
0.021148
0.022002
0.022868
0.023147
0.024058
0.024647
0.025573
0.026527
0.027417
0.027685
0.028567
0.029453
0.030098
0.030918
0.032250
0.032461
0.033371
0.033992
0.035155
0.035756
0.037184
0.037661
0.037982
0.039129
0.039984
0.040151
0.041856
0.042327
0.042462
0.043167
0.044299
0.045121
0.045845
0.046372
0.047792
0.047866
0.048414
0.049398
0.049962
0.051198
0.051532
0.052424
0.053350
0.053763
0.054494
0.055384
0.056280
0.056958
0.057715
0.058475
0.061091
0.060023
0.061885
0.061836
0.062588
0.063345
0.063598
0.064691
0.065071
0.066519
0.068724
0.069461
0.068102
0.068945
0.069533
0.070674
0.071297
0.071888
0.072561
0.073557
0.073892
0.074165
0.074524
0.075000
0.075011
0.075290
0.075887
0.076168
0.079406
0.077159
0.080497
0.079642
0.083917
0.080050
0.081173
0.082023
0.082415
0.083194
0.084543
0.085802
0.086581
0.086616
0.086999
0.087627
0.089568
0.089951
0.089839
0.090720
0.091489
0.092253
0.093567
0.097863
0.097271
0.095406
0.096087
0.096808
0.097494
0.100163
0.099617
0.100778
0.100827
0.102126
0.102272
0.106283
0.107009
0.108559
0.105014
0.106017
0.106878
0.110925
