Full Time (seconds)
0.185373
Incremental Time - I
0.097138
0.008897
0.017134
0.024775
0.039320
0.037452
0.045913
0.055588
0.068893
0.062728
0.162706
0.107675
0.096623
0.115403
0.115272
0.128063
0.150635
0.099058
0.232173
0.214091
0.132184
Classification Time - C
0.065800
0.074058
0.073531
0.083909
0.065864
0.094616
0.101819
0.107799
0.063843
0.168706
0.127589
0.175828
0.158890
0.140307
0.140570
0.197117
0.330762
0.175923
0.194795
0.098599
