Full Accuracy
96.615387
Accuracy - I
cat: testS_0.svm.acc: No such file or directory
70.692307
79.307693
84.769234
87.153847
89.384613
90.692307
91.307693
91.846153
92.384621
93.307693
94.076927
95.076927
95.230774
95.615387
96.000000
96.000000
96.538460
96.384613
96.692307
96.769234
