Full Accuracy
96.615387
Accuracy - I
cat: testS_0.svm.acc: No such file or directory
73.153847
81.846153
85.692307
87.307693
89.230766
90.615387
91.615387
92.307693
92.153847
93.153847
93.846153
94.538460
94.923080
95.076927
95.692307
95.692307
96.076927
96.230766
96.615387
96.769234
