Full Time (seconds)
0.090157
Incremental Time - I
0.014448
0.002134
0.003281
0.004933
0.008462
0.009648
0.025293
0.014124
0.025111
0.020159
0.025355
0.027805
0.028663
0.040287
0.045121
0.051448
0.051392
0.051701
0.081210
0.068780
0.063801
Classification Time - C
0.020306
0.028449
0.036410
0.031727
0.040919
0.042910
0.051078
0.046393
0.055518
0.048464
0.058233
0.063181
0.059359
0.072621
0.077448
0.091841
0.071989
0.083020
0.083664
0.081074
