Full Time (seconds)
0.096865
Incremental Time - I
0.014778
0.001719
0.003080
0.004765
0.006823
0.021044
0.012236
0.014731
0.017572
0.021394
0.028012
0.039926
0.033433
0.039377
0.049312
0.078651
0.062149
0.054019
0.048769
0.061334
0.091357
Classification Time - C
0.028949
0.025497
0.030008
0.033829
0.037103
0.037878
0.034502
0.053046
0.037287
0.072839
0.065796
0.075095
0.059531
0.076165
0.081761
0.069381
0.074069
0.042888
0.099621
0.106792
