Full Time (seconds)
0.045921
Incremental Time - I
0.014932
0.002697
0.004059
0.005984
0.008309
0.010607
0.013857
0.015960
0.019529
0.030537
0.023966
0.030031
0.032049
0.034031
0.042660
0.040559
0.058553
0.053428
0.061148
0.068946
0.079308
Classification Time - C
0.021550
0.023773
0.035621
0.035372
0.041359
0.044346
0.053579
0.052136
0.058075
0.059214
0.051617
0.070034
0.065024
0.057445
0.064461
0.077615
0.072408
0.076655
0.086637
0.089412
