Full Time (seconds)
0.089739
Incremental Time - I
0.014621
0.002002
0.003239
0.005151
0.006951
0.009208
0.011696
0.015385
0.017165
0.018321
0.021155
0.014598
0.037423
0.039956
0.044020
0.057942
0.045380
0.049971
0.060101
0.070604
0.067349
Classification Time - C
0.022256
0.012432
0.034354
0.035913
0.043229
0.036531
0.040130
0.052341
0.055856
0.054169
0.030566
0.063035
0.087876
0.062364
0.083205
0.081147
0.088747
0.060811
0.079150
0.098457
