Full Time (seconds)
0.002575
Time - I
0.000696
0.000805
0.000796
0.000844
0.000910
0.000966
0.001280
0.001081
0.001149
0.001402
0.001272
0.001330
0.001425
0.001729
0.001736
0.001590
0.001810
0.001691
0.001783
0.002294
0.001900
0.001947
0.002025
0.002103
0.002322
0.002408
0.002687
0.002631
0.002685
0.002466
0.002586
