Full Time (seconds)
0.364394
Time - I
0.161139
0.177656
0.100326
0.106176
0.225570
0.167863
0.190742
0.236719
0.240142
0.307735
0.329230
0.351309
0.422454
0.221687
0.231827
0.244480
0.259558
0.252058
0.260228
0.278303
0.296362
