Full Accuracy
91.153847
Accuracy - I
50.000000
65.769234
70.000000
75.000000
77.230766
79.692307
81.615379
83.307686
85.307693
86.230766
86.692307
87.076927
88.538460
88.692307
88.923080
89.384613
89.615387
90.461540
90.384613
91.153847
91.153847
