Full Time (seconds)
0.065474
Time - I
0.004456
0.009315
0.013692
0.017804
0.022101
0.028714
0.033068
0.034568
0.038627
0.049255
0.051080
0.059311
0.058670
0.064643
0.071052
0.076963
0.082977
0.089533
0.095516
0.060390
0.063644
