Full Time (seconds)
0.094712
Time - I
0.004559
0.008785
0.013116
0.013771
0.021329
0.025408
0.030670
0.033677
0.037788
0.041865
0.045888
0.051921
0.058636
0.038356
0.040033
0.043427
0.047030
0.088938
0.094682
0.100932
0.106973
