Full Time (seconds)
0.092511
Time - I
0.004426
0.009322
0.013655
0.018277
0.020748
0.028126
0.033409
0.041341
0.045550
0.042499
0.046562
0.052668
0.058699
0.065552
0.074824
0.085562
0.089804
0.097224
0.106368
0.101489
0.107948
