Full Accuracy
94.000000
Accuracy - I
50.000000
70.692307
76.230774
81.230774
83.846161
87.769226
89.230766
90.076920
90.076920
91.076920
91.307693
92.384613
93.230774
93.307693
93.230774
93.846153
94.153847
94.076927
94.461533
94.923080
94.846153
