Full Time (seconds)
0.132310
Incremental Time - I
0.005864
0.000319
0.000568
0.000801
0.001284
0.001443
0.001652
0.001900
0.002143
0.002350
0.002580
0.004239
0.004780
0.005092
0.005744
0.006266
0.007116
0.007458
0.008078
0.008803
0.009546
Classification Time - I
0.011632
0.018087
0.020222
0.025739
0.030268
0.035708
0.044749
0.045630
0.049935
0.055606
0.063923
0.070577
0.078446
0.088278
0.098665
0.101299
0.111003
0.118046
0.128963
0.132634
