Full Time (seconds)
0.149029
Incremental Time - I
0.001729
0.000326
0.000572
0.000808
0.001328
0.001424
0.001669
0.001997
0.002152
0.002433
0.002710
0.004218
0.004705
0.005174
0.005773
0.006300
0.007014
0.007574
0.008181
0.008587
0.009161
Classification Time - I
0.010052
0.015384
0.020502
0.025239
0.030326
0.035622
0.041258
0.045294
0.051435
0.056120
0.063616
0.073682
0.079433
0.084703
0.092366
0.101067
0.111372
0.121090
0.125722
0.137169
