Full Time (seconds)
0.143446
Incremental Time - I
0.005892
0.000321
0.000569
0.000818
0.001313
0.001446
0.001674
0.001877
0.002101
0.002386
0.002627
0.004155
0.004709
0.005212
0.005661
0.006219
0.006967
0.007571
0.007993
0.008733
0.009287
Classification Time - I
0.010091
0.015336
0.020869
0.025525
0.030723
0.035000
0.039873
0.056159
0.049755
0.054721
0.062086
0.071599
0.077281
0.090973
0.092339
0.101979
0.108608
0.115747
0.126661
0.074741
