Full Time (seconds)
0.150592
Incremental Time - I
0.004051
0.000324
0.000566
0.000796
0.001319
0.002000
0.001737
0.001909
0.002184
0.002442
0.002620
0.004172
0.004809
0.005253
0.005801
0.006247
0.007023
0.007614
0.008234
0.008722
0.009294
Classification Time - I
0.010096
0.015350
0.025642
0.025393
0.034459
0.035390
0.040515
0.051667
0.051312
0.055629
0.068244
0.070829
0.085358
0.086533
0.098077
0.102618
0.116428
0.117501
0.132462
0.132255
