Full Time (seconds)
0.285471
Time - I
0.248196
0.280002
0.311461
0.322520
0.324774
0.190797
0.186484
0.188517
0.193834
0.195411
0.204642
0.209025
0.219550
0.235529
0.462364
0.301409
0.292084
0.270711
0.272631
0.281043
0.288585
