Full Time (seconds)
0.509617
Incremental Time - I
0.903355
0.015444
0.013710
0.013585
0.017789
0.013490
0.018541
0.016646
0.015050
0.014206
0.011922
0.012782
0.012752
0.011294
0.011648
0.019574
0.012696
0.015184
0.033192
0.018154
0.027295
Classification Time - I
0.391279
0.365302
0.478241
0.441339
0.406945
0.461255
0.418882
0.378779
0.348202
0.317788
0.312755
0.299205
0.285992
0.559183
0.481273
0.360626
0.765849
0.685313
0.704586
0.571144
