Full Time (seconds)
0.029078
Incremental Time - I
0.002120
0.003075
0.004070
0.005041
0.006742
0.008162
0.002628
0.005447
0.008262
0.008553
0.010741
0.014791
0.017380
0.018526
0.020633
0.022147
Classification Time - C
0.005656
0.006477
0.007770
0.010602
0.009368
0.010130
0.005085
0.011118
0.010189
0.012743
0.015217
0.014197
0.017587
0.031360
0.020965
0.022177
