Full Time (seconds)
0.190212
Time - I
0.229152
0.163155
0.171355
0.167369
0.175941
0.175626
0.173234
0.171936
0.170873
0.178177
0.186190
0.193852
0.181321
0.158621
0.165831
0.441009
0.463767
0.444661
0.208012
0.204680
0.200227
