Full Time (seconds)
0.249071
Time - I
0.002252
0.003385
0.004526
0.006032
0.007139
0.008220
0.009654
0.010721
0.011783
0.013216
0.014346
0.015408
0.016943
0.017362
0.017983
0.018748
0.019730
0.020801
0.022328
0.023305
0.024465
0.025818
0.026885
0.027952
0.029375
0.030440
0.031917
0.032927
0.033995
0.035048
0.036498
0.038029
0.039472
0.040034
0.041163
0.042235
0.043585
0.044659
0.045722
0.047163
0.048169
0.049660
0.050675
0.051738
0.052774
0.054402
0.055243
0.056383
0.058666
0.058801
0.060001
0.061334
0.062440
0.063470
0.064885
0.065985
0.067047
0.068473
0.069947
0.070564
0.073206
0.073193
0.074127
0.075967
0.077600
0.078892
0.079099
0.080241
0.081843
0.082730
0.084134
0.084719
0.087635
0.087738
0.089913
0.089968
0.091314
0.091924
0.093470
0.094823
0.095566
0.098553
0.098502
0.099271
0.100505
0.103837
0.102638
0.104059
0.105048
0.106186
0.107483
0.109068
0.109823
0.111086
0.112599
0.113132
0.114712
0.116154
0.117524
0.118315
0.119276
0.120259
0.122016
0.122684
0.123796
0.125257
0.127962
0.127815
0.128757
0.129904
0.131372
0.132531
0.133987
0.134470
0.137480
0.137484
0.139813
0.139773
0.129710
0.143311
0.142956
0.145111
0.146756
0.146439
0.148024
0.148559
0.151885
0.151842
0.154064
0.153936
0.154573
0.157069
0.157131
0.160314
0.162188
0.162516
0.163684
0.165036
0.164184
0.167156
0.168373
0.170610
0.169125
0.170286
0.171491
0.175123
0.174650
0.175178
0.177962
0.179114
0.180569
0.179923
0.181470
0.182278
0.182920
0.184547
0.186135
0.186987
0.187515
0.189506
0.192140
0.191177
0.195063
0.193529
0.196625
0.196018
0.200567
0.198710
0.199497
0.200997
0.202004
0.203494
0.205297
0.190715
0.191418
0.191758
0.193773
0.194035
0.195415
0.197176
0.197934
0.198440
0.185060
0.186276
0.187210
0.188369
0.189313
0.190563
0.192591
0.192756
0.194216
0.194540
0.195375
0.183115
0.185528
0.174525
0.174704
0.236846
0.235430
0.236239
0.237132
0.233935
0.220968
0.223313
0.223501
0.208382
0.210349
0.210476
0.247451
0.249549
0.252317
