Full Time (seconds)
0.240952
Time - I
0.002271
0.003386
0.004527
0.006011
0.007056
0.008120
0.009559
0.010629
0.011678
0.013097
0.016396
0.015296
0.016748
0.017793
0.018860
0.020289
0.023352
0.022522
0.024170
0.024191
0.024895
0.026049
0.026743
0.027784
0.029183
0.030276
0.032622
0.032690
0.033789
0.034881
0.036236
0.037418
0.038468
0.040076
0.040992
0.042127
0.043441
0.045145
0.045967
0.046932
0.048503
0.049840
0.051002
0.051605
0.052682
0.054076
0.056069
0.056152
0.057585
0.058677
0.059699
0.061104
0.062226
0.063327
0.065421
0.066236
0.067521
0.068291
0.069261
0.070480
0.071834
0.073041
0.075036
0.075379
0.076490
0.078761
0.078961
0.080935
0.082057
0.082476
0.083559
0.085587
0.086025
0.087127
0.088109
0.089510
0.090662
0.091913
0.094274
0.094279
0.097361
0.097123
0.097820
0.100138
0.100755
0.101254
0.102382
0.104825
0.104988
0.105974
0.107339
0.108522
0.109517
0.110800
0.114167
0.115374
0.116061
0.115794
0.116952
0.118125
0.129562
0.120164
0.122458
0.133209
0.124256
0.126331
0.126104
0.127231
0.128551
0.129671
0.131313
0.132149
0.133693
0.134214
0.135586
0.138126
0.137865
0.139870
0.140264
0.141363
0.142924
0.143722
0.144833
0.146776
0.147674
0.148962
0.149554
0.140442
0.148393
0.153332
0.155000
0.155544
0.157452
0.157952
0.159063
0.160690
0.162532
0.162570
0.164194
0.165044
0.166744
0.167648
0.168954
0.170655
0.169365
0.158782
0.159765
0.161234
0.173240
0.176646
0.178889
0.179328
0.180639
0.181849
0.182678
0.185902
0.187650
0.186779
0.187884
0.190997
0.189905
0.191638
0.194620
0.180636
0.181565
0.167811
0.168711
0.169848
0.170789
0.174767
0.204930
0.203727
0.204316
0.205025
0.194756
0.193383
0.193172
0.196836
0.196158
0.197318
0.197664
0.199412
0.200623
0.188979
0.189354
0.175807
0.206755
0.221762
0.224490
0.223002
0.209184
0.209211
0.211849
0.214308
0.210757
0.198244
0.199579
0.199934
0.234715
0.237098
0.236941
0.238677
0.235880
0.221948
0.243707
0.242830
0.243918
0.245433
0.246819
0.247996
0.248898
