Full Time (seconds)
0.200343
Time - I
0.002250
0.003347
0.004462
0.005926
0.007010
0.008077
0.009504
0.010577
0.011650
0.013110
0.013425
0.014190
0.014905
0.015937
0.017349
0.018589
0.019691
0.020869
0.022125
0.023112
0.024181
0.025638
0.026710
0.027762
0.029347
0.030260
0.031290
0.032680
0.033777
0.034840
0.036249
0.037752
0.038444
0.039876
0.041721
0.042032
0.043420
0.044458
0.045507
0.046942
0.047995
0.049050
0.050577
0.051487
0.052586
0.054204
0.055104
0.056353
0.058053
0.058690
0.059732
0.061572
0.062197
0.063321
0.064860
0.066219
0.066827
0.068206
0.069282
0.070840
0.071950
0.073769
0.073959
0.075775
0.076472
0.077500
0.078937
0.079941
0.080937
0.083108
0.083957
0.084564
0.086054
0.087078
0.088063
0.089540
0.090578
0.092121
0.093528
0.094170
0.096367
0.097207
0.097794
0.099644
0.101652
0.101427
0.102972
0.103806
0.106467
0.106334
0.110730
0.110078
0.110634
0.112922
0.111985
0.113463
0.114368
0.116266
0.116633
0.118014
0.120561
0.120557
0.122821
0.123836
0.125397
0.127323
0.126086
0.127491
0.129138
0.129583
0.132940
0.132918
0.134675
0.137015
0.137286
0.138461
0.138321
0.143393
0.142313
0.141580
0.142817
0.143858
0.147445
0.147224
0.149184
0.150462
0.151609
0.150964
0.151899
0.156058
0.154602
0.157549
0.153722
0.148395
0.149235
0.150158
0.149090
0.150269
0.153367
0.153023
0.155320
0.149781
0.147234
0.147601
0.146632
0.147667
0.159792
0.163273
0.163049
0.166076
0.181125
0.181260
0.180643
0.184372
0.182601
0.183854
0.188458
0.175009
0.190642
0.189282
0.191940
0.176866
0.179558
0.179072
0.181110
0.167817
0.170361
0.169665
0.174117
0.171824
0.172711
0.174483
0.174775
0.176187
0.179023
0.177995
0.178755
0.168836
0.171794
0.170154
0.173943
0.172438
0.175678
0.165738
0.167319
0.165441
0.165397
0.166732
0.169155
0.169911
0.171918
0.169947
0.173826
0.181369
0.183741
0.198189
0.200417
0.200481
0.226217
0.238015
0.218677
0.222703
0.222418
0.240385
0.235768
0.227854
0.225385
0.224463
0.213288
0.213598
0.213322
