Full Time (seconds)
0.110651
Time - I
0.004771
0.005564
0.006334
0.007195
0.007962
0.008755
0.009797
0.010336
0.011128
0.011885
0.012689
0.014135
0.014538
0.015056
0.015901
0.016725
0.017611
0.018028
0.018651
0.019975
0.021159
0.021733
0.021783
0.023042
0.023165
0.024585
0.025360
0.025358
0.027000
0.027659
0.027809
0.029331
0.029268
0.030057
0.030911
0.031606
0.033385
0.034093
0.033958
0.035808
0.036540
0.036225
0.036555
0.036456
0.037106
0.037321
0.037909
0.038485
0.039526
0.040044
0.039431
0.041263
0.042051
0.041769
0.042694
0.043066
0.043927
0.044582
0.045482
0.046409
0.049839
0.048375
0.049896
0.049086
0.049930
0.051841
0.051297
0.052161
0.054579
0.053773
0.054916
0.055178
0.057661
0.058409
0.057417
0.059338
0.058948
0.059623
0.060739
0.061100
0.062307
0.063478
0.063359
0.064355
0.066950
0.067281
0.067528
0.069005
0.068329
0.068971
0.070551
0.072547
0.073329
0.073126
0.073137
0.073791
0.074144
0.075323
0.077380
0.078837
0.077073
0.080697
0.078725
0.080380
0.080418
0.081110
0.081995
0.082566
0.085653
0.084915
0.085413
0.085396
0.086226
0.086863
0.087731
0.091401
0.091718
0.090494
0.091758
0.100107
0.092598
0.102921
0.096804
0.095308
0.095089
0.097659
0.099727
0.099330
0.099961
0.099450
0.100055
0.100577
0.104658
0.102675
0.104550
0.106259
0.104252
0.106951
0.105679
0.114849
0.115680
