Full Time (seconds)
0.062242
Time - I
0.004568
0.005412
0.006286
0.007255
0.008015
0.008847
0.009638
0.010497
0.011242
0.012020
0.012738
0.013575
0.014225
0.015049
0.015782
0.016718
0.017227
0.017998
0.019256
0.019566
0.020242
0.021626
0.022034
0.022578
0.023221
0.024914
0.024807
0.025528
0.026251
0.027027
0.027753
0.028963
0.030313
0.031203
0.031081
0.026127
0.015163
0.034521
0.027910
0.015757
0.036964
0.036494
0.037812
0.038104
0.038700
0.040705
0.041454
0.041229
0.043210
0.043823
0.043929
0.045410
0.046223
0.047014
0.048089
0.048627
0.048587
0.050133
0.050895
0.051602
0.052521
0.053194
0.053161
0.054582
0.055577
0.055011
0.055338
0.057903
0.057652
0.057604
0.059296
0.061059
0.061816
0.062694
0.063346
0.063179
0.062866
0.065669
0.027947
0.026079
0.026395
0.027844
0.026948
0.027260
0.027966
0.034855
0.040240
0.061016
0.061735
0.062226
0.063347
0.066096
0.065278
0.067165
0.067462
0.077069
0.080476
0.079564
0.079453
0.080162
0.083907
0.083942
0.081993
0.081974
0.083263
0.082615
0.085352
0.084146
0.047918
0.084297
0.050030
0.070937
0.071195
0.069633
0.070582
0.073413
0.076575
0.077132
0.080457
0.075078
0.092353
0.093074
0.093871
0.094923
0.095390
0.096217
0.096803
0.097750
0.098510
0.099134
0.038666
0.036826
0.037179
0.036674
0.036305
0.037956
0.044132
0.059322
0.059619
0.058165
0.059599
