Full Time (seconds)
0.079740
Incremental Time - I
0.000171
0.000108
0.000193
0.000214
0.000395
0.000246
0.000402
0.000310
0.000214
0.000206
0.000340
0.001934
0.002236
0.000986
0.001156
0.001291
0.001428
0.001474
0.001428
0.001470
0.001564
0.002394
0.002726
0.002589
0.010272
0.003373
0.004351
0.003701
0.004143
0.004316
0.012063
0.011365
0.006123
0.011951
0.017358
0.010282
0.005946
0.016172
0.013332
0.006350
0.006221
0.007533
0.010251
0.008617
0.008996
0.008408
0.008520
0.012633
0.008916
0.009177
0.015048
0.016090
0.011641
0.012327
0.013540
0.015348
0.014641
0.014173
0.014693
0.015270
0.015743
0.028249
0.017887
0.018575
0.018385
0.018638
0.019040
0.019093
0.020667
0.027688
0.018654
0.017861
0.018385
0.029884
0.023991
0.026543
0.014561
0.045126
0.032950
0.032901
0.043666
0.030873
0.036817
0.039760
0.039564
0.036521
0.032191
0.021978
0.020906
0.039746
0.033205
0.039065
0.070192
0.021764
0.127131
0.042811
0.057796
0.084827
0.055969
0.026126
0.116708
0.059014
0.066047
0.047734
0.093206
0.053071
0.055048
0.050386
0.045252
0.054175
0.093015
0.050901
0.071798
0.065450
0.086170
0.132283
0.049852
0.048356
0.048429
0.037351
0.064483
0.075981
0.080538
0.135081
0.068206
0.067941
0.077089
0.101314
0.056794
0.056052
0.072018
0.064019
0.070666
0.058940
0.070234
0.069789
0.060034
0.061919
0.063045
0.053604
0.054308
Classification Time - C
0.014656
0.008662
0.021332
0.014546
0.024124
0.023302
0.036769
0.014741
0.007738
0.007705
0.014816
0.034406
0.032127
0.018352
0.020382
0.019215
0.019175
0.019208
0.022721
0.060071
0.020253
0.022128
0.023253
0.020632
0.025363
0.024863
0.034229
0.031495
0.043143
0.026140
0.046378
0.031624
0.034105
0.048673
0.028838
0.028970
0.029894
0.029794
0.033127
0.029291
0.029265
0.030573
0.030855
0.040366
0.032288
0.042355
0.032765
0.037301
0.033409
0.034440
0.038157
0.051804
0.036986
0.039908
0.039983
0.042493
0.040930
0.038837
0.039122
0.040340
0.021853
0.045732
0.036918
0.053251
0.043395
0.048463
0.043804
0.047546
0.045563
0.051127
0.024071
0.055150
0.029625
0.049501
0.065944
0.062137
0.026460
0.081093
0.054792
0.061997
0.040667
0.066233
0.071384
0.079431
0.064644
0.069548
0.068506
0.068801
0.048699
0.078153
0.052565
0.079645
0.097762
0.033634
0.183417
0.100734
0.075898
0.092306
0.059375
0.082110
0.170769
0.068040
0.102570
0.086435
0.064461
0.069357
0.081574
0.110164
0.088357
0.077750
0.145221
0.111828
0.099945
0.074717
0.071147
0.073790
0.093319
0.070456
0.060821
0.051150
0.074830
0.061193
0.128518
0.124338
0.132399
0.088205
0.115775
0.057263
0.078059
0.110485
0.092261
0.087747
0.104096
0.082751
0.079079
0.080785
0.079240
0.081677
0.079442
0.082633
0.081536
