Full Time (seconds)
0.101891
Incremental Time - I
0.000154
0.000145
0.000162
0.000231
0.000255
0.000283
0.000308
0.000327
0.000207
0.000262
0.000422
0.000695
0.000810
0.000951
0.000953
0.001095
0.001198
0.001220
0.001243
0.001292
0.001438
0.002241
0.002449
0.002618
0.003160
0.003024
0.003180
0.003359
0.003688
0.003945
0.004145
0.004242
0.004237
0.004269
0.004260
0.004340
0.004370
0.004523
0.004495
0.008769
0.005776
0.005844
0.005865
0.006406
0.006625
0.006519
0.006721
0.006653
0.006954
0.010824
0.007365
0.012034
0.009413
0.010536
0.011768
0.011816
0.015552
0.011622
0.011856
0.012841
0.013363
0.014132
0.009190
0.009315
0.018264
0.015313
0.018260
0.027104
0.022324
0.016689
0.016823
0.020278
0.011256
0.026935
0.020619
0.025425
0.020681
0.022110
0.022367
0.021867
0.023207
0.024915
0.025835
0.026608
0.027367
0.027899
0.028763
0.029815
0.028900
0.028957
0.029222
0.034237
0.019640
0.032501
0.033115
0.043710
0.048773
0.037974
0.045458
0.030830
0.035497
0.022708
0.038142
0.055395
0.030336
0.037835
0.054759
0.073526
0.046732
0.042225
0.042269
0.046607
0.047101
0.057998
0.054948
0.058350
0.056840
0.091548
0.054544
0.049316
0.076154
0.054203
0.044033
0.059735
0.054883
0.058651
0.034083
0.055564
0.063376
0.085606
0.065794
0.069557
0.069061
0.074267
0.064553
0.065938
0.062435
0.054920
0.037621
0.038046
0.078896
Classification Time - C
0.014577
0.014777
0.014290
0.014522
0.021483
0.019329
0.016385
0.021225
0.007700
0.008704
0.017042
0.017223
0.018438
0.019497
0.025037
0.019729
0.018583
0.026193
0.019606
0.018593
0.023002
0.023209
0.027313
0.029345
0.024488
0.024845
0.037909
0.031975
0.025795
0.028959
0.033135
0.026399
0.026528
0.025558
0.026441
0.026420
0.036978
0.029885
0.036205
0.030234
0.030146
0.034902
0.029493
0.040977
0.040517
0.033748
0.016137
0.047305
0.038127
0.033027
0.031668
0.034381
0.037809
0.034190
0.038455
0.034658
0.035243
0.046938
0.046289
0.056808
0.042175
0.032055
0.020867
0.021375
0.054663
0.037093
0.029909
0.060664
0.045944
0.063965
0.043515
0.059861
0.047374
0.056893
0.067205
0.073628
0.045463
0.045788
0.048056
0.048386
0.048570
0.049965
0.050682
0.049623
0.052229
0.053365
0.054426
0.054158
0.055644
0.054778
0.055079
0.065247
0.052737
0.061087
0.063396
0.069224
0.076648
0.087989
0.074768
0.032804
0.065354
0.051826
0.075847
0.044000
0.067716
0.061877
0.081707
0.100806
0.144058
0.105949
0.128161
0.107557
0.079210
0.094679
0.084791
0.061617
0.070896
0.101024
0.110372
0.070720
0.088499
0.055530
0.078183
0.144541
0.075446
0.084440
0.066801
0.102949
0.080314
0.083870
0.084080
0.080002
0.078601
0.089332
0.081645
0.098426
0.084347
0.071599
0.075724
0.044702
0.151033
