Full Time (seconds)
0.082634
Incremental Time - I
0.000470
0.000622
0.000279
0.000246
0.000297
0.000924
0.001076
0.000406
0.000429
0.000463
0.000328
0.002735
0.003099
0.001367
0.001374
0.001572
0.001992
0.002114
0.001977
0.001964
0.002147
0.002201
0.001560
0.002548
0.002844
0.002514
0.002612
0.002733
0.002826
0.003080
0.003160
0.003764
0.003960
0.003987
0.004119
0.004258
0.004708
0.004316
0.002763
0.005978
0.005501
0.006182
0.006133
0.007010
0.006941
0.006402
0.006609
0.006563
0.006948
0.007236
0.007610
0.009252
0.009846
0.009968
0.010298
0.010727
0.011132
0.011848
0.011924
0.019398
0.013866
0.014216
0.009144
0.014800
0.016201
0.015401
0.009605
0.016305
0.036277
0.034454
0.019296
0.019492
0.033601
0.035900
0.021718
0.050508
0.021061
0.016841
0.021821
0.013314
0.044741
0.022555
0.015310
0.019613
0.025749
0.040894
0.050987
0.033951
0.029572
0.019197
0.034599
0.036663
0.033858
0.034712
0.034647
0.033954
0.034482
0.034462
0.034740
0.034818
0.026326
0.023469
0.066814
0.064294
0.049974
0.036671
0.038950
0.039862
0.040734
0.041221
0.047004
0.059522
0.048112
0.083836
0.047923
0.029554
0.048193
0.053264
0.053919
0.059216
0.054783
0.056313
0.063561
0.050899
0.063826
0.058125
0.057534
0.055669
0.058737
0.056025
0.055509
0.065025
0.064420
0.069274
0.060349
0.066491
0.037768
0.073386
0.062908
0.079715
0.079699
Classification Time - C
0.021416
0.016351
0.015678
0.017092
0.015234
0.027557
0.016161
0.015598
0.035458
0.039720
0.008526
0.028569
0.090233
0.106084
0.022473
0.023126
0.033020
0.028605
0.023551
0.023214
0.024739
0.018272
0.026502
0.021022
0.027995
0.028766
0.012074
0.022960
0.028352
0.030366
0.023988
0.025467
0.026270
0.026418
0.028916
0.026651
0.026949
0.019201
0.018348
0.032607
0.033041
0.030193
0.030572
0.032111
0.033257
0.030686
0.030913
0.030524
0.030954
0.031853
0.031721
0.033313
0.034319
0.034340
0.034984
0.035837
0.036449
0.036673
0.036103
0.049449
0.039304
0.038231
0.021189
0.042820
0.021849
0.040276
0.027095
0.048555
0.051936
0.074848
0.057079
0.047013
0.056614
0.077999
0.047798
0.046539
0.052456
0.024673
0.047305
0.025996
0.025979
0.037803
0.034196
0.052154
0.049883
0.072620
0.059141
0.061239
0.056097
0.039354
0.065394
0.061415
0.061705
0.062423
0.060153
0.059675
0.060187
0.061045
0.060669
0.060874
0.041959
0.101708
0.094266
0.091169
0.062982
0.064412
0.065839
0.062616
0.064481
0.036386
0.084471
0.074447
0.070720
0.110863
0.037238
0.037706
0.078398
0.070223
0.081560
0.078165
0.092466
0.080325
0.074229
0.090341
0.083888
0.076361
0.066459
0.078177
0.086153
0.080040
0.103568
0.086532
0.095408
0.084870
0.087250
0.101316
0.070241
0.105156
0.115335
0.092952
0.105264
