Full Accuracy
87.985962
Accuracy - I
50.000000
64.470245
71.172806
74.271629
76.931725
80.151924
81.164619
82.715424
83.899223
84.235893
84.583572
85.775604
86.164688
86.959412
87.491966
87.646523
87.795532
87.889359
87.908676
87.836945
87.985962
