Full Time (seconds)
0.304906
Time - I
0.164455
0.218933
0.253681
0.281325
0.295290
0.327119
0.334591
0.336123
0.412044
0.411312
0.387293
0.453492
0.421974
0.558905
0.380481
0.330421
0.319847
0.313580
0.293887
0.289301
0.296015
