Full Accuracy
94.923080
Accuracy - I
50.000000
53.692307
53.692307
53.769230
53.769230
53.769230
53.769230
53.769230
53.769230
53.846157
53.846157
55.615383
56.153847
57.615387
57.692307
57.692307
57.692307
57.692307
57.692307
57.692307
57.692307
59.615387
60.153847
60.769230
61.076920
61.307693
61.384617
61.384617
61.461536
61.538464
61.538464
65.230766
65.384613
65.384613
65.384613
65.384613
65.384613
65.384613
65.384613
65.384613
65.384613
68.153847
68.384613
68.692307
68.692307
68.769226
68.769226
68.846153
68.769226
68.769226
68.769226
68.769226
68.769226
68.769226
68.769226
68.769226
68.769226
68.769226
68.769226
68.769226
68.769226
71.538460
72.153847
72.076920
72.307693
72.307693
72.307693
72.307693
72.307693
72.307693
72.307693
74.000000
74.384613
75.230774
75.230774
75.307693
76.000000
76.076927
76.076927
76.076927
76.076927
76.692307
77.461540
78.000000
78.153839
78.076920
78.230766
78.230766
78.230766
78.461540
78.538460
80.461540
80.769226
81.384621
81.461540
81.692307
81.769234
81.769234
82.000000
82.000000
82.076927
84.692307
85.076920
85.076920
85.384613
85.615387
85.615387
85.692307
85.692307
85.692307
85.846153
87.000000
88.000000
88.230774
88.384613
88.384613
88.230774
88.307693
88.307693
88.307693
88.538460
91.692307
91.769234
92.000000
91.769234
91.846153
91.769234
91.692307
91.692307
91.692307
91.692314
94.538460
95.000000
95.000000
95.076927
95.000000
95.000000
95.000000
95.000000
95.000000
94.923080
