Full Time (seconds)
0.115044
Time - I
0.003933
0.004221
0.004515
0.004835
0.005127
0.005420
0.005856
0.006348
0.006882
0.007230
0.007723
0.008512
0.009201
0.009963
0.010706
0.011431
0.012272
0.013340
0.013989
0.014714
0.015181
0.015921
0.016686
0.019104
0.018294
0.021161
0.019724
0.021885
0.021378
0.023453
0.024071
0.025875
0.024396
0.024952
0.025803
0.026692
0.027446
0.027907
0.028720
0.029577
0.030339
0.032422
0.031788
0.032902
0.033443
0.034331
0.035054
0.035487
0.036474
0.037228
0.037899
0.038850
0.039248
0.041288
0.040774
0.041611
0.042298
0.043173
0.043731
0.044786
0.045388
0.045985
0.047038
0.048102
0.048344
0.049792
0.055800
0.050478
0.051189
0.051972
0.056914
0.060144
0.054266
0.058835
0.055830
0.056494
0.057606
0.059834
0.058945
0.059549
0.066448
0.061195
0.063669
0.062778
0.063180
0.063990
0.064834
0.065420
0.066251
0.069177
0.068713
0.074884
0.069502
0.070359
0.072026
0.071506
0.074123
0.073190
0.076277
0.074662
0.075244
0.076273
0.076779
0.080028
0.080325
0.081760
0.079799
0.080633
0.082156
0.081963
0.082817
0.086171
0.084604
0.085078
0.087476
0.086517
0.087673
0.091877
0.088797
0.089757
0.093299
0.102710
0.102206
0.092590
0.093824
0.094434
0.094714
0.097261
0.097073
0.108671
0.097846
0.100739
0.099327
0.100021
0.103600
0.101712
0.103306
0.103883
0.104093
0.108177
0.105459
