Full Time (seconds)
0.105321
Time - I
0.003925
0.004667
0.005438
0.006221
0.008449
0.009913
0.008473
0.009215
0.010010
0.011198
0.011523
0.012281
0.014315
0.013911
0.014715
0.015429
0.018475
0.017589
0.018227
0.018198
0.021511
0.021782
0.020481
0.024122
0.021977
0.022746
0.023798
0.024918
0.025192
0.025906
0.026763
0.027707
0.028814
0.029295
0.030143
0.030277
0.031672
0.031989
0.032525
0.033615
0.034490
0.035308
0.035506
0.036502
0.037270
0.038074
0.038636
0.039570
0.040080
0.042502
0.041564
0.042304
0.043218
0.044721
0.044588
0.045340
0.046636
0.047342
0.047550
0.049061
0.049174
0.049823
0.055646
0.056165
0.056939
0.052896
0.053584
0.054217
0.055423
0.056913
0.056513
0.057840
0.058121
0.059105
0.061515
0.060248
0.063044
0.061907
0.062964
0.063828
0.064667
0.064841
0.065976
0.066250
0.067040
0.067809
0.068488
0.076176
0.077628
0.078571
0.078857
0.072878
0.073142
0.074443
0.074512
0.076516
0.076063
0.076854
0.077669
0.078718
0.079225
0.079419
0.079652
0.080817
0.080551
0.081039
0.082227
0.081969
0.082882
0.084173
0.082779
0.083913
0.085114
0.085544
0.086145
0.086818
0.087321
0.088293
0.089236
0.089597
0.091406
0.091629
0.092133
0.093120
0.093319
0.094229
0.094853
0.095522
0.096717
0.097656
0.097937
0.111378
0.099813
0.100302
0.100799
0.101892
0.102389
0.115912
0.103735
0.104393
0.106541
