Full Time (seconds)
0.105187
Time - I
0.004334
0.004698
0.007178
0.008060
0.009049
0.009058
0.010574
0.010637
0.010030
0.010717
0.013272
0.014719
0.013007
0.013757
0.014632
0.015339
0.015988
0.016708
0.017466
0.018878
0.018973
0.020195
0.020435
0.021425
0.021983
0.024792
0.023471
0.024423
0.025025
0.025771
0.027315
0.027279
0.028850
0.028808
0.029861
0.030332
0.031042
0.031757
0.032673
0.033341
0.034113
0.035136
0.039404
0.038585
0.041574
0.037756
0.043693
0.042000
0.045894
0.040853
0.045297
0.042442
0.044496
0.047685
0.049042
0.045330
0.046091
0.046856
0.047627
0.048346
0.049091
0.051406
0.050458
0.052894
0.052543
0.052828
0.054145
0.054662
0.056912
0.056170
0.056432
0.057364
0.058082
0.059150
0.059635
0.060263
0.062091
0.061834
0.063090
0.063329
0.064264
0.065158
0.065622
0.066322
0.067049
0.067794
0.068526
0.074074
0.076580
0.077326
0.076777
0.079883
0.073281
0.081250
0.081629
0.082207
0.083768
0.084654
0.078171
0.078582
0.080482
0.087206
0.080594
0.081166
0.084482
0.083877
0.083670
0.084387
0.085087
0.086124
0.086468
0.092076
0.088684
0.088189
0.087484
0.088052
0.088574
0.089451
0.089483
0.090888
0.091162
0.091110
0.092211
0.093365
0.093415
0.094736
0.096666
0.095798
0.096605
0.097153
0.097927
0.098515
0.103261
0.100389
0.103382
0.101916
0.103545
0.106757
0.104396
0.104574
0.105376
