Full Time (seconds)
0.957537
Incremental Time - I
0.690708
0.010322
0.022032
0.012665
0.012335
0.013851
0.017173
0.018577
0.033924
0.024430
0.031507
0.031713
0.018872
0.017172
0.036165
0.024633
0.023693
0.022704
0.015598
0.015922
0.043072
Classification Time - I
0.393779
0.240483
0.265200
0.256508
0.564764
0.596225
0.658513
0.664851
0.710753
0.567883
0.747280
0.467550
0.560799
0.887140
0.617344
0.559039
0.474432
0.410990
0.387472
0.481646
