Full Time (seconds)
0.586674
Time - I
0.162685
0.177825
0.201842
0.211481
0.225901
0.247915
0.286822
0.277379
0.294671
0.307098
0.322710
0.423946
0.399561
0.472714
0.525142
0.479823
0.480196
0.665834
0.744937
0.701591
0.813875
