Full Time (seconds)
0.287834
Time - I
0.248486
0.279612
0.311846
0.342953
0.375509
0.411204
0.416399
0.472229
0.499337
0.484895
0.451379
0.593667
0.595698
0.644073
0.606314
0.512491
0.344062
0.370549
0.357022
0.327153
0.312440
