Full Time (seconds)
0.034455
Incremental Time - I
0.006465
0.000310
0.000366
0.000450
0.000789
0.000785
0.000881
0.000945
0.000978
0.001079
0.001171
0.001299
0.001364
0.001487
0.001604
0.001648
0.001782
0.001880
0.001924
0.002045
0.002294
Classification Time - I
0.004830
0.006005
0.007291
0.008492
0.010394
0.011115
0.012515
0.013908
0.016599
0.016495
0.017997
0.020551
0.021271
0.022613
0.023797
0.025285
0.027370
0.024881
0.026894
0.027774
