Full Time (seconds)
0.016333
Time - I
0.002049
0.002704
0.003401
0.004008
0.005367
0.005345
0.006003
0.006777
0.007375
0.007993
0.008849
0.009521
0.010334
0.011116
0.011902
0.012730
0.013670
0.014114
0.015130
0.015097
0.016728
