Full Time (seconds)
0.287358
Time - I
0.250034
0.228078
0.307234
0.295329
0.306012
0.305959
0.219611
0.237460
0.290070
0.247216
0.578667
0.504285
0.323379
0.591070
0.382025
0.719280
0.453455
0.444669
0.397186
0.355168
0.333191
