Full Accuracy
94.923080
Accuracy - I
50.000000
53.769238
53.846157
53.846149
53.615387
53.615387
53.615387
53.615387
53.538460
53.538460
53.538460
55.153847
55.692310
56.923073
57.000000
57.153847
57.230770
57.307690
57.307690
57.307690
57.384617
59.076923
59.692307
60.384613
60.692310
60.923080
61.000000
61.000000
61.076920
61.153847
61.153847
64.692307
64.846153
64.692307
64.692307
64.692307
64.692307
64.692307
64.615387
64.615387
64.615387
67.384621
67.615387
67.923073
67.923073
68.000000
68.000000
68.076927
68.000000
68.000000
68.000000
70.846161
71.384613
71.538460
71.692307
71.692307
71.769234
71.769234
71.769234
71.769234
71.769234
74.538460
75.153847
75.076927
75.307693
75.307693
75.307693
75.307693
75.307693
75.307693
75.307693
77.000000
77.384613
78.230766
78.230766
78.307693
79.000000
79.076920
79.076920
79.076920
79.076920
79.692307
80.461540
81.000000
81.153847
81.076927
81.230774
81.230774
81.230774
81.461540
81.538460
81.538460
81.769234
81.846153
82.000000
82.000000
82.000000
82.000000
82.000000
82.076927
82.076927
84.692307
85.076920
85.076920
85.384613
85.615387
85.615387
85.692307
85.692307
85.692307
85.846153
87.000000
88.000000
88.230774
88.384613
88.384613
88.230774
88.307693
88.307693
88.307693
88.538460
91.692307
91.769234
92.000000
91.769234
91.846153
91.769234
91.692307
91.692307
91.692307
91.692314
94.538460
95.000000
95.000000
95.076927
95.000000
95.000000
95.000000
95.000000
95.000000
94.923080
