Full Accuracy
94.923080
Accuracy - I
50.000000
53.846157
53.846157
53.846157
53.846157
53.846157
53.846157
53.846157
53.846157
53.846157
53.846157
55.538464
56.000000
57.461536
57.461536
57.615383
57.615383
57.615383
57.615387
57.615387
57.692307
59.461540
59.999996
60.769230
61.076920
61.307693
61.384617
61.384617
61.461536
61.538464
61.538464
65.230766
65.384613
65.384613
65.384613
65.384613
65.384613
65.384613
65.384613
65.384613
65.384613
68.153847
68.384613
68.692307
68.692307
68.769226
68.769226
68.846153
68.769226
68.769226
68.769226
71.846161
72.307693
72.384613
72.538460
72.538460
72.538460
72.538460
72.538460
72.538460
72.538460
75.307693
75.846153
75.769226
76.000000
76.000000
76.000000
76.000000
76.000000
76.000000
76.000000
76.000000
76.076927
76.076927
76.076927
76.076927
76.076927
76.076927
76.076927
76.076927
76.076927
76.692307
77.461540
78.000000
78.153839
78.076920
78.230766
78.230766
78.230766
78.461540
78.538460
80.461540
80.769226
81.384621
81.461540
81.692307
81.769234
81.769234
82.000000
82.000000
82.076927
84.692307
85.076920
85.076920
85.384613
85.615387
85.615387
85.692307
85.692307
85.692307
85.846153
87.000000
88.000000
88.230774
88.384613
88.384613
88.230774
88.307693
88.307693
88.307693
88.538460
91.692307
91.769234
92.000000
91.769234
91.846153
91.769234
91.692307
91.692307
91.692307
91.692314
94.538460
95.000000
95.000000
95.076927
95.000000
95.000000
95.000000
95.000000
95.000000
94.923080
