Full Time (seconds)
0.106449
Time - I
0.004017
0.004695
0.005439
0.006208
0.006945
0.007703
0.008618
0.009200
0.009941
0.010723
0.011463
0.012205
0.012966
0.013764
0.014442
0.015209
0.015978
0.016728
0.017534
0.018203
0.018965
0.019694
0.020444
0.021215
0.022376
0.023090
0.023569
0.024185
0.025378
0.025701
0.026444
0.027256
0.027989
0.028739
0.029485
0.030808
0.030974
0.031758
0.032496
0.033235
0.033970
0.034260
0.034617
0.034907
0.035182
0.035645
0.036025
0.036377
0.037209
0.037282
0.037725
0.038491
0.039259
0.039968
0.041225
0.041471
0.044055
0.042978
0.043747
0.044622
0.046751
0.045794
0.046722
0.047507
0.048241
0.049034
0.049728
0.050630
0.051320
0.052033
0.052901
0.055251
0.054195
0.056710
0.057530
0.056767
0.058978
0.058962
0.064509
0.065977
0.066696
0.060949
0.062803
0.062437
0.063257
0.063969
0.067167
0.067686
0.066316
0.067288
0.070009
0.068486
0.070322
0.072712
0.070707
0.073863
0.073578
0.072874
0.076285
0.076558
0.075681
0.075987
0.085847
0.077521
0.078764
0.078989
0.080426
0.080676
0.081755
0.081989
0.082835
0.083896
0.084190
0.085415
0.086117
0.086645
0.087762
0.093279
0.089114
0.089471
0.090403
0.091103
0.092346
0.095719
0.093614
0.097154
0.094699
0.095879
0.099575
0.096999
0.101273
0.098582
0.101402
0.100090
0.101021
0.105889
0.102914
0.103337
0.103787
0.105905
0.105611
