Full Time (seconds)
0.105091
Time - I
0.003908
0.004683
0.005433
0.006196
0.006924
0.007704
0.008490
0.009223
0.009933
0.010699
0.011468
0.012181
0.012968
0.013744
0.014470
0.015200
0.016078
0.016696
0.017959
0.018816
0.019244
0.019309
0.019775
0.020097
0.020642
0.020744
0.021268
0.021655
0.022500
0.025238
0.025467
0.023651
0.026886
0.024964
0.026524
0.026491
0.027543
0.027976
0.029961
0.029508
0.030278
0.031107
0.032378
0.032484
0.039537
0.033975
0.034773
0.035514
0.037375
0.037359
0.037886
0.038829
0.039400
0.040058
0.042099
0.041668
0.043279
0.043136
0.043727
0.044610
0.046231
0.046172
0.048434
0.048013
0.049862
0.049956
0.049790
0.050874
0.051338
0.052065
0.052834
0.053665
0.054166
0.055240
0.056007
0.056676
0.057275
0.058291
0.058997
0.059726
0.060347
0.061022
0.061793
0.062785
0.065259
0.066148
0.065090
0.065813
0.073830
0.067008
0.068220
0.070712
0.069204
0.072254
0.072302
0.075787
0.072307
0.082036
0.075732
0.074470
0.075183
0.076870
0.077137
0.077575
0.078271
0.079751
0.079999
0.080747
0.081349
0.083425
0.083490
0.083725
0.084237
0.085066
0.086530
0.087544
0.087934
0.087951
0.098609
0.101227
0.093855
0.091570
0.094730
0.093271
0.094870
0.094606
0.094816
0.098663
0.096477
0.097020
0.098419
0.099172
0.099495
0.100321
0.100813
0.105356
0.102695
0.106478
0.107559
0.105813
0.108959
