Full Time (seconds)
0.016693
Time - I
0.002035
0.002846
0.003598
0.004379
0.005171
0.005946
0.006721
0.008773
0.008485
0.009068
0.009930
0.010273
0.010687
0.011045
0.011936
0.012322
0.013827
0.013115
0.013111
0.014189
0.014579
0.014199
0.014295
0.014787
0.016103
0.016727
0.015788
0.015627
0.015851
0.016305
0.016235
