Full Time (seconds)
0.001349
Incremental Time - I
0.000309
0.000161
0.000263
0.000383
0.000634
0.000759
0.000684
0.000738
0.000745
0.000941
0.001077
0.001436
0.001654
0.004434
0.003630
0.008588
0.008969
0.005696
0.003746
0.004687
0.004986
0.005076
0.005817
0.007201
0.006536
0.008462
0.010794
0.017464
0.008562
0.008290
0.011465
Classification Time - C
0.000814
0.000561
0.000578
0.000861
0.000634
0.000715
0.000718
0.000647
0.000657
0.000658
0.000781
0.000806
0.000884
0.000888
0.001365
0.001012
0.001185
0.001099
0.001048
0.001079
0.001082
0.001075
0.001141
0.001243
0.001199
0.001295
0.001276
0.001310
0.001297
0.001314
0.001372
