Full Time (seconds)
0.107407
Time - I
0.006094
0.004601
0.005862
0.006654
0.007387
0.008184
0.007305
0.009695
0.010480
0.011217
0.011951
0.010726
0.013465
0.014234
0.015049
0.015991
0.016631
0.017228
0.018108
0.018855
0.014656
0.015718
0.015973
0.016288
0.016882
0.024817
0.024455
0.025165
0.025519
0.026312
0.027057
0.029153
0.028634
0.031198
0.030126
0.030953
0.032243
0.032519
0.033235
0.034032
0.035274
0.035461
0.037411
0.037594
0.041639
0.038552
0.040487
0.040278
0.043464
0.041516
0.042330
0.043725
0.043755
0.044601
0.050579
0.046083
0.048277
0.047853
0.049002
0.049091
0.051285
0.064682
0.051184
0.052240
0.052878
0.053482
0.054722
0.056528
0.050900
0.048467
0.049483
0.061922
0.063295
0.067202
0.062726
0.061029
0.063342
0.062751
0.063858
0.064699
0.099099
0.100009
0.071517
0.067183
0.067839
0.068606
0.070480
0.069979
0.073119
0.071709
0.073524
0.073228
0.073437
0.072252
0.067922
0.070012
0.075084
0.075691
0.075454
0.077390
0.078821
0.078245
0.078835
0.079778
0.080700
0.081258
0.081983
0.083042
0.083454
0.085115
0.087942
0.086393
0.085568
0.093289
0.094355
0.091309
0.093594
0.093249
0.106310
0.104947
0.107191
0.097242
0.097169
0.093700
0.099004
0.098704
0.100290
0.099953
0.100400
0.098521
0.099159
0.101307
0.100550
0.101241
0.103891
0.105657
0.107107
0.104113
0.105281
0.108576
0.106949
