Full Time (seconds)
0.110099
Time - I
0.004344
0.005084
0.005880
0.006631
0.006017
0.006626
0.007242
0.007924
0.008500
0.009082
0.009761
0.010285
0.013534
0.015724
0.014971
0.017321
0.017039
0.017241
0.019858
0.018744
0.019778
0.020501
0.020993
0.022038
0.022812
0.023909
0.025062
0.025596
0.026085
0.026745
0.027568
0.028046
0.028950
0.029410
0.031134
0.031286
0.032085
0.033054
0.033601
0.034774
0.035509
0.035905
0.036604
0.037459
0.037653
0.040310
0.046448
0.043465
0.042209
0.043670
0.044354
0.044976
0.048678
0.047238
0.050838
0.046186
0.047473
0.050692
0.049199
0.051616
0.051273
0.053034
0.053438
0.052986
0.057647
0.055519
0.054519
0.057743
0.059731
0.056938
0.058262
0.083140
0.063801
0.071654
0.060497
0.061337
0.064386
0.065601
0.067272
0.067299
0.066948
0.066832
0.067315
0.067032
0.070711
0.071467
0.074546
0.072488
0.072640
0.071645
0.075000
0.073020
0.074038
0.074693
0.077193
0.076839
0.116260
0.117310
0.078724
0.079328
0.082043
0.082980
0.083241
0.086286
0.085509
0.083636
0.084461
0.087665
0.086527
0.089597
0.091583
0.090957
0.088777
0.091259
0.098958
0.091662
0.101698
0.102598
0.093378
0.098804
0.102676
0.102277
0.099696
0.102374
0.097615
0.099631
0.107791
0.106186
0.098122
0.101468
0.103484
0.099949
0.103716
0.102675
0.102400
0.103079
0.104024
0.114264
0.104991
0.105742
0.111848
