Full Time (seconds)
0.107097
Time - I
0.004291
0.005128
0.006425
0.006738
0.007635
0.008329
0.009063
0.010169
0.010710
0.011359
0.012703
0.012858
0.013659
0.014468
0.016850
0.015966
0.016641
0.018131
0.018140
0.020373
0.019664
0.022819
0.021164
0.021939
0.023869
0.023390
0.024395
0.025453
0.025792
0.029844
0.030134
0.028014
0.029085
0.031674
0.030304
0.034152
0.031885
0.037513
0.036347
0.034516
0.038661
0.049057
0.036383
0.040576
0.039107
0.042778
0.044436
0.041875
0.041932
0.042075
0.042492
0.046572
0.049062
0.044852
0.046656
0.048836
0.046501
0.048004
0.048102
0.045442
0.050357
0.052732
0.052685
0.056805
0.058757
0.053923
0.061168
0.061131
0.053212
0.052648
0.054808
0.062015
0.064771
0.060498
0.068911
0.062145
0.063291
0.068827
0.070321
0.071761
0.073688
0.062772
0.066551
0.067917
0.069407
0.070539
0.074387
0.070398
0.075096
0.072096
0.072552
0.073389
0.073853
0.079374
0.076060
0.076926
0.083805
0.077789
0.078669
0.086527
0.080102
0.080602
0.085601
0.081534
0.085288
0.082908
0.082129
0.085947
0.083286
0.083795
0.085764
0.084660
0.085557
0.093802
0.087349
0.089326
0.089303
0.089706
0.090085
0.083936
0.093275
0.092703
0.095991
0.095000
0.090750
0.095180
0.092575
0.090083
0.097682
0.094592
0.092202
0.085504
0.092070
0.086995
0.103174
0.103256
0.104221
0.104354
0.105341
0.105840
0.106824
