Full Time (seconds)
0.107660
Time - I
0.004320
0.005080
0.005836
0.006483
0.007407
0.008180
0.009823
0.011099
0.010508
0.011278
0.011951
0.012708
0.014641
0.014246
0.013870
0.014691
0.015624
0.016928
0.017998
0.018759
0.019955
0.021515
0.021197
0.022247
0.023217
0.023251
0.026217
0.025332
0.025546
0.026309
0.027084
0.027770
0.028543
0.029296
0.029439
0.028541
0.031822
0.035784
0.035484
0.037364
0.037011
0.035053
0.035500
0.035795
0.035930
0.036496
0.037094
0.037070
0.038124
0.037997
0.038387
0.040442
0.036994
0.037689
0.038542
0.044686
0.043156
0.043724
0.044779
0.045262
0.045984
0.048189
0.047488
0.048274
0.048990
0.050908
0.050527
0.054305
0.052037
0.053109
0.053625
0.054659
0.056952
0.060873
0.063564
0.059613
0.058390
0.084341
0.066116
0.060696
0.061461
0.062117
0.056681
0.055247
0.059075
0.061408
0.065715
0.067628
0.067695
0.072998
0.070217
0.075918
0.071180
0.072824
0.071843
0.072744
0.073087
0.074275
0.075005
0.075631
0.076738
0.079554
0.079185
0.087067
0.079617
0.081979
0.083328
0.081425
0.082508
0.082853
0.083671
0.084924
0.086789
0.085870
0.087087
0.078057
0.090054
0.080661
0.089955
0.092968
0.090133
0.087733
0.089434
0.094257
0.101586
0.108288
0.101007
0.096514
0.100391
0.107194
0.108158
0.113518
0.080325
0.080643
0.082563
0.102585
0.104615
0.105854
0.109671
0.108345
0.107739
