Full Time (seconds)
0.110074
Time - I
0.004167
0.005007
0.006702
0.007006
0.008909
0.008356
0.010501
0.010143
0.010723
0.011375
0.013675
0.013010
0.015287
0.015009
0.015664
0.016004
0.018619
0.017581
0.018186
0.020978
0.021060
0.022088
0.021169
0.021917
0.022727
0.025808
0.024841
0.024992
0.028119
0.028698
0.028557
0.031797
0.030468
0.029586
0.032976
0.031135
0.031934
0.032710
0.033408
0.034183
0.034957
0.036238
0.037043
0.038929
0.042304
0.039857
0.041680
0.040323
0.052689
0.041685
0.042756
0.047844
0.043056
0.043856
0.046705
0.044121
0.049520
0.047720
0.051092
0.047320
0.052459
0.047038
0.050875
0.053370
0.049339
0.052297
0.054081
0.051653
0.052430
0.056349
0.055125
0.054954
0.058755
0.057250
0.061386
0.057897
0.062208
0.059428
0.059809
0.063850
0.063331
0.062802
0.063118
0.065367
0.068701
0.072139
0.065916
0.069936
0.069570
0.068049
0.070134
0.069846
0.071292
0.071077
0.074612
0.076954
0.078787
0.080874
0.078411
0.079916
0.077254
0.077516
0.079873
0.084212
0.081426
0.080121
0.081697
0.082646
0.082300
0.086824
0.088036
0.089753
0.085413
0.086556
0.091227
0.088807
0.088782
0.090988
0.094056
0.091879
0.091941
0.092187
0.096784
0.097599
0.094765
0.095489
0.098265
0.098411
0.097454
0.101086
0.099738
0.103557
0.105187
0.101477
0.102009
0.107113
0.107591
0.104267
0.116123
0.118023
0.106736
