Full Time (seconds)
0.098198
Time - I
0.005201
0.005106
0.006043
0.006654
0.007439
0.008266
0.008955
0.009690
0.011219
0.011234
0.013976
0.012849
0.013581
0.014240
0.014976
0.017794
0.016500
0.017358
0.019659
0.021150
0.019970
0.020276
0.021936
0.021768
0.022566
0.025817
0.024123
0.027670
0.027432
0.028755
0.027034
0.027321
0.029994
0.029952
0.028319
0.029958
0.029898
0.029687
0.030014
0.030792
0.033975
0.031684
0.034910
0.033568
0.034211
0.039006
0.041025
0.038284
0.041174
0.038064
0.042550
0.039179
0.042595
0.040756
0.041467
0.042210
0.046526
0.043691
0.044839
0.047867
0.046000
0.049334
0.047879
0.052207
0.049585
0.049961
0.050477
0.051278
0.052002
0.052391
0.052115
0.050134
0.053016
0.059250
0.056582
0.057257
0.060197
0.064539
0.063920
0.060560
0.064896
0.062274
0.063380
0.068563
0.064264
0.069893
0.073306
0.066476
0.067036
0.070452
0.068521
0.073481
0.076535
0.081221
0.066124
0.069210
0.073074
0.074242
0.074605
0.080720
0.076064
0.077334
0.081955
0.078510
0.081531
0.083353
0.090027
0.083743
0.077889
0.078905
0.084160
0.082417
0.078857
0.085855
0.090446
0.087503
0.082874
0.089100
0.093391
0.100849
0.094416
0.092486
0.093261
0.097007
0.095815
0.104590
0.099613
0.109290
0.108613
0.094508
0.091261
0.092297
0.096880
0.093751
0.101896
0.102454
0.103867
0.104221
0.114912
0.097266
0.102396
