Full Accuracy
79.533333
Accuracy - I
cat: testS_0.svm.acc: No such file or directory
50.000000
50.000000
61.666668
69.577774
71.644440
74.555557
77.488884
77.755554
79.933334
80.266663
81.000000
80.022224
80.044441
79.533333
78.377777
79.422226
78.955551
79.377777
79.622223
79.533333
