Full Accuracy
87.332100
Accuracy - I
50.000000
78.260979
82.504250
82.887634
85.122452
85.939110
86.615059
87.081345
87.210960
87.368210
87.415085
87.553009
87.495056
87.340500
87.732277
87.820557
87.599800
87.743279
87.616356
87.737732
87.864662
