Full Accuracy
76.577774
Accuracy - I
50.000000
65.177780
67.111115
66.933334
66.022224
65.400002
65.200005
64.400002
64.644447
64.466667
64.177773
64.555557
65.244446
65.888885
65.955559
66.155556
65.955559
66.022224
66.111115
66.133331
66.333336
66.044441
70.844444
71.222221
72.688889
74.977783
76.555557
76.466667
76.733330
77.155556
76.577774
