Full Time (seconds)
0.015889
Time - I
0.002080
0.002843
0.003663
0.004412
0.005290
0.005952
0.006796
0.007562
0.008363
0.009063
0.010161
0.010310
0.011051
0.011082
0.011919
0.011875
0.015243
0.012721
0.013164
0.016865
0.014196
0.014830
0.015016
0.015916
0.016482
0.015594
0.015163
0.015264
0.016164
0.016449
0.015971
