Full Time (seconds)
0.015926
Time - I
0.004006
0.004373
0.004782
0.005245
0.005563
0.005890
0.006356
0.006717
0.007179
0.007758
0.007963
0.008374
0.008877
0.009227
0.009423
0.009898
0.010314
0.011066
0.011133
0.011646
0.012547
0.012959
0.013330
0.013119
0.013951
0.014563
0.014703
0.014806
0.015172
0.018335
0.017205
