Full Time (seconds)
0.208949
Incremental Time - I
0.000538
0.015206
0.041806
0.077837
0.100204
0.133706
0.163382
0.195677
0.225013
0.259431
0.263907
0.286026
0.305200
0.305698
0.283403
0.299818
0.332944
0.347654
0.352175
0.393332
0.399020
Classification Time - C
0.020015
0.079273
0.098864
0.120245
0.131633
0.143756
0.147576
0.150924
0.167169
0.180676
0.163264
0.177431
0.173626
0.186285
0.167366
0.164654
0.196711
0.203616
0.203471
0.192737
0.190382
