Full Time (seconds)
0.272747
Time - I
0.168253
0.179881
0.203952
0.213429
0.210577
0.220226
0.098090
0.105116
0.133769
0.147224
0.149575
0.164907
0.184556
0.211916
0.233229
0.220865
0.238302
0.658478
0.254323
0.273066
0.280723
