Full Time (seconds)
0.038415
Incremental Time - I
0.108212
0.001146
0.001966
0.001467
0.001276
0.001258
0.001361
0.001429
0.001480
0.002027
0.001682
0.001856
0.002033
0.002146
0.002290
0.002359
Classification Time - I
0.015472
0.026534
0.020105
0.018749
0.025936
0.020412
0.022148
0.024317
0.025829
0.026594
0.028520
0.031269
0.032932
0.033681
0.034064
