Full Time (seconds)
0.002935
Time - I
0.000480
0.000518
0.000555
0.000462
0.000608
0.000628
0.000660
0.000692
0.000733
0.000773
0.000827
0.000893
0.000986
0.001077
0.001186
0.001231
0.001310
0.001392
0.001461
0.001519
0.001056
0.001735
0.001875
0.002083
0.002165
0.002297
0.002432
0.002594
0.002819
0.003085
0.003004
