Full Time (seconds)
0.016326
Time - I
0.002326
0.003166
0.003983
0.004802
0.005697
0.006436
0.007204
0.008064
0.008916
0.009891
0.010423
0.010944
0.011667
0.011585
0.013187
0.012622
0.013337
0.013790
0.014203
0.014075
0.014427
0.014586
0.015552
0.015765
0.015375
0.015471
0.015800
0.016290
0.016605
0.016083
0.017305
