Full Time (seconds)
0.211968
Incremental Time - I
0.000543
0.015363
0.042770
0.079091
0.098445
0.127921
0.164957
0.195665
0.226616
0.259539
0.254502
0.253883
0.261232
0.238571
0.178808
0.347568
0.361232
0.382332
0.376314
0.400278
0.388980
Classification Time - C
0.020538
0.074041
0.100645
0.116436
0.131641
0.143377
0.155122
0.164103
0.173877
0.173752
0.155419
0.155682
0.147722
0.182184
0.135147
0.188042
0.202012
0.201336
0.188468
0.202385
0.209090
