Full Time (seconds)
0.002821
Time - I
0.000433
0.000440
0.000467
0.000491
0.000523
0.000866
0.000574
0.000601
0.000645
0.000707
0.000733
0.000822
0.000864
0.000983
0.001043
0.001112
0.001186
0.001287
0.001350
0.001405
0.001486
0.001702
0.001730
0.001909
0.002085
0.002097
0.002650
0.002530
0.002523
0.002670
0.002919
