Full Time (seconds)
0.105325
Time - I
0.003952
0.004693
0.005438
0.006221
0.007105
0.007729
0.008487
0.009222
0.009995
0.010752
0.011465
0.012203
0.013130
0.014011
0.014720
0.015254
0.015994
0.016736
0.017891
0.018749
0.018942
0.019689
0.020612
0.021224
0.021983
0.023400
0.023465
0.024962
0.025111
0.026192
0.026539
0.027254
0.028010
0.030284
0.030033
0.030685
0.031041
0.032574
0.032921
0.033257
0.035104
0.035324
0.035445
0.036260
0.038122
0.038438
0.040833
0.040675
0.040020
0.041062
0.041880
0.042697
0.044339
0.044520
0.045158
0.046234
0.047472
0.046736
0.049004
0.048508
0.050570
0.049982
0.050816
0.051336
0.051943
0.054525
0.055183
0.055683
0.056520
0.057038
0.057473
0.057397
0.059722
0.059267
0.059663
0.060833
0.063058
0.062120
0.062948
0.063200
0.066077
0.066519
0.065532
0.066214
0.069344
0.068574
0.068555
0.069471
0.070040
0.071232
0.071618
0.072427
0.075347
0.075905
0.076912
0.078278
0.076752
0.076745
0.078281
0.078479
0.083467
0.081903
0.080589
0.083943
0.082028
0.082713
0.083716
0.084267
0.085293
0.085704
0.089473
0.089773
0.087199
0.087396
0.088131
0.090691
0.089722
0.088851
0.092342
0.090870
0.093262
0.091171
0.094536
0.092721
0.096512
0.093973
0.094732
0.098883
0.096297
0.101301
0.097737
0.098461
0.100487
0.099969
0.103804
0.103129
0.103905
0.105290
0.104191
0.105429
0.105571
