Full Time (seconds)
0.015857
Time - I
0.002059
0.002843
0.003597
0.004376
0.005151
0.005992
0.006775
0.007558
0.008406
0.009350
0.010186
0.010584
0.011177
0.011160
0.011464
0.011849
0.012266
0.012665
0.013059
0.013880
0.014043
0.014051
0.014351
0.014537
0.014632
0.014959
0.015018
0.015204
0.015468
0.015629
0.015858
