Full Time (seconds)
0.008022
Incremental Time - I
0.000703
0.000021
0.000020
0.000023
0.000022
0.000023
0.000019
0.000022
0.000022
0.000023
0.000024
0.000528
0.001046
0.001628
0.001919
0.003251
0.002599
0.002935
0.003354
0.003795
0.003809
0.004630
0.005178
0.005929
0.006473
0.006921
0.007965
0.007986
0.008587
0.008998
0.018653
Classification Time - C
0.001878
0.000706
0.000706
0.000714
0.000715
0.000710
0.000700
0.000678
0.000718
0.000708
0.000701
0.001322
0.002332
0.002572
0.003006
0.003335
0.003577
0.003867
0.004213
0.004374
0.004496
0.004980
0.005339
0.005762
0.006098
0.006418
0.006899
0.007247
0.008074
0.007785
0.008052
