Full Time (seconds)
0.002764
Time - I
0.000438
0.000871
0.000560
0.000617
0.000677
0.000743
0.000818
0.000878
0.000946
0.001012
0.001066
0.001092
0.001139
0.001156
0.001163
0.001226
0.001229
0.001271
0.001314
0.001352
0.001406
0.001572
0.001727
0.001812
0.001925
0.002110
0.002188
0.002432
0.002496
0.002708
0.002992
