Full Accuracy
85.581192
Accuracy - I
50.000000
64.557823
74.675522
76.378387
76.550140
77.022835
77.530350
83.342865
82.804649
82.272133
82.779083
85.013428
84.598572
84.833427
84.326485
83.584686
84.060356
85.105515
85.105515
84.060356
85.581192
