Full Accuracy
79.9932
Accuracy - I
50.0198
51.4815
54.3804
55.342
56.5885
60.6626
63.2979
66.8734
68.3763
70.5558
72.0373
73.4547
74.8507
76.2895
77.486
78.9248
79.2311
78.9034
80.0146
78.9889
79.9932
