Full Time (seconds)
0.145700
Incremental Time - I
0.036562
0.000055
0.000062
0.000077
0.000030
0.000066
0.000065
0.000063
0.000065
0.000067
0.000072
0.061191
0.096788
0.134032
0.178146
0.181789
0.240544
0.279652
0.320079
0.393451
0.394706
Classification Time - C
0.153282
0.044575
0.045033
0.019224
0.019381
0.019228
0.044928
0.045392
0.048563
0.045319
0.045652
0.139991
0.182241
0.213070
0.242045
0.260045
0.235082
0.243194
0.299777
0.311612
0.324315
