Full Time (seconds)
0.143419
Incremental Time - I
0.005893
0.000275
0.000571
0.000804
0.001299
0.001448
0.001481
0.001911
0.002114
0.001796
0.002634
0.003167
0.004405
0.004765
0.005812
0.006496
0.007183
0.007645
0.008224
0.008771
0.009343
Classification Time - I
0.010025
0.015330
0.022188
0.028285
0.032709
0.035305
0.039798
0.044964
0.040067
0.054549
0.060593
0.063762
0.071362
0.084734
0.092393
0.100042
0.107889
0.121338
0.124216
0.131888
