Full Time (seconds)
0.132002
Incremental Time - I
0.004743
0.000323
0.000571
0.001129
0.001268
0.001392
0.001647
0.002570
0.002140
0.002492
0.002629
0.003801
0.004324
0.005999
0.005655
0.006257
0.006344
0.007367
0.009126
0.008069
0.009119
Classification Time - I
0.010051
0.015404
0.020380
0.025121
0.031914
0.038808
0.043461
0.046649
0.049774
0.054996
0.060734
0.068444
0.076845
0.087769
0.097037
0.091923
0.106952
0.115084
0.122600
0.131898
