Full Time (seconds)
0.106437
Time - I
0.004256
0.002505
0.002872
0.003238
0.003633
0.004009
0.004356
0.009807
0.010585
0.011319
0.012094
0.012780
0.015300
0.015761
0.016536
0.018393
0.018137
0.008538
0.008805
0.009207
0.009511
0.009986
0.010320
0.010631
0.010974
0.011343
0.026334
0.025049
0.025624
0.028774
0.029213
0.027990
0.029931
0.014336
0.014786
0.015144
0.015646
0.032523
0.033549
0.034220
0.034880
0.035704
0.037711
0.037298
0.041015
0.042228
0.042735
0.040196
0.020574
0.020326
0.020914
0.021770
0.021439
0.021773
0.046273
0.046515
0.046931
0.048116
0.048404
0.051521
0.050039
0.052214
0.051437
0.053825
0.052998
0.055794
0.054557
0.055455
0.056015
0.058059
0.057526
0.058158
0.057991
0.058996
0.059155
0.059690
0.061225
0.059888
0.060313
0.060822
0.061935
0.062000
0.063465
0.064407
0.064278
0.065009
0.065791
0.066716
0.067581
0.068275
0.070283
0.069595
0.070572
0.070973
0.071829
0.072506
0.073294
0.075675
0.074761
0.075544
0.076465
0.077273
0.077989
0.079487
0.079301
0.080217
0.080814
0.081553
0.082242
0.083122
0.084955
0.085535
0.085726
0.086092
0.087216
0.087646
0.089068
0.089278
0.090290
0.090684
0.091624
0.097745
0.093088
0.094248
0.094439
0.096917
0.095986
0.096737
0.098122
0.098476
0.099070
0.100235
0.100542
0.101263
0.102468
0.102596
0.103432
0.104195
0.105163
0.105916
0.106963
