Full Time (seconds)
0.052033
Time - I
0.004284
0.002465
0.002850
0.003232
0.003584
0.003975
0.004325
0.004741
0.005099
0.005514
0.005811
0.006214
0.006552
0.006939
0.007335
0.007729
0.008071
0.008454
0.008736
0.009105
0.009524
0.009869
0.010186
0.010618
0.011009
0.011473
0.011732
0.012080
0.012458
0.012863
0.013241
0.013598
0.013938
0.014262
0.014615
0.015087
0.015464
0.015758
0.016237
0.016583
0.016896
0.017247
0.017646
0.018074
0.018378
0.018887
0.019167
0.019530
0.019920
0.020317
0.020606
0.021001
0.021299
0.021733
0.022251
0.022416
0.022943
0.023113
0.023434
0.023967
0.024243
0.024723
0.025069
0.025471
0.025725
0.026568
0.026601
0.026897
0.027500
0.027650
0.027956
0.028427
0.028812
0.028987
0.029537
0.030055
0.030395
0.030609
0.031025
0.031405
0.031755
0.032029
0.032426
0.032736
0.033034
0.033420
0.034351
0.034264
0.034908
0.035090
0.035426
0.035860
0.035965
0.036442
0.036891
0.037300
0.037658
0.037998
0.038368
0.038633
0.038853
0.039565
0.040056
0.040180
0.040816
0.040888
0.041254
0.042045
0.042029
0.042342
0.043030
0.043289
0.043480
0.089734
0.044163
0.044718
0.045021
0.045285
0.045716
0.046305
0.095195
0.095768
0.096945
0.099953
0.048461
0.048315
0.048603
0.049078
0.049300
0.049504
0.050187
0.050029
0.050454
0.050696
0.050762
0.051259
0.051262
0.051260
0.051794
0.051792
0.052242
