Full Time (seconds)
0.109802
Time - I
0.004175
0.002436
0.002846
0.003216
0.003607
0.004017
0.004406
0.004737
0.005104
0.005552
0.005878
0.006288
0.006651
0.007010
0.007386
0.007760
0.017071
0.017401
0.008819
0.009196
0.009573
0.009941
0.010307
0.010805
0.011572
0.011394
0.011762
0.012132
0.012502
0.012926
0.013289
0.013661
0.028768
0.029852
0.030330
0.031257
0.031875
0.015985
0.016249
0.016617
0.017017
0.017441
0.036435
0.037614
0.037985
0.038944
0.039608
0.040339
0.042209
0.042093
0.042520
0.020997
0.020982
0.021131
0.021305
0.021427
0.021746
0.044900
0.045597
0.046433
0.046234
0.047528
0.023364
0.023719
0.024097
0.024507
0.051210
0.025188
0.052246
0.053772
0.053814
0.055022
0.055308
0.027493
0.027887
0.028108
0.028573
0.028861
0.060254
0.061134
0.061437
0.062102
0.063414
0.063687
0.066336
0.031751
0.032231
0.032586
0.033084
0.068087
0.069146
0.070379
0.070415
0.034770
0.035077
0.035528
0.035962
0.036351
0.036787
0.037001
0.078852
0.077628
0.077925
0.038560
0.038779
0.039141
0.039713
0.040154
0.082548
0.083181
0.084454
0.085642
0.085391
0.042206
0.042610
0.042918
0.043471
0.089167
0.090402
0.090713
0.091540
0.045211
0.045582
0.045944
0.046217
0.095274
0.095945
0.096670
0.097422
0.048198
0.048547
0.049068
0.100620
0.101939
0.102034
0.104598
0.103528
0.051074
0.051562
0.052289
0.052198
