Full Time (seconds)
0.078714
Time - I
0.004024
0.008033
0.012537
0.016764
0.022539
0.024469
0.030086
0.018779
0.020999
0.023086
0.038119
0.043337
0.048402
0.054596
0.068640
0.081009
0.081678
0.096718
0.094315
0.108421
0.079617
