Full Time (seconds)
0.107169
Time - I
0.003912
0.008052
0.012127
0.016209
0.020266
0.024282
0.028462
0.035936
0.036391
0.041011
0.044527
0.050626
0.056533
0.062927
0.068725
0.074935
0.083441
0.086939
0.096613
0.086563
0.105268
