Full Accuracy
79.5333
Accuracy - I
47.7
50
50
50
50
50
50
50
50
50
50
50
50
50
55.9667
68.6333
71.1667
73.2667
75.0667
76.6
77.1333
68.0889
68.0889
68.0889
71.7111
74.1778
77.4
78.8222
79.4222
79.5111
79.5333
