Full Time (seconds)
0.014308
Incremental Time - I
0.002097
0.000041
0.000045
0.000046
0.000042
0.000045
0.000044
0.000048
0.000046
0.000046
0.000042
0.001045
0.002111
0.003192
0.003807
0.004700
0.005010
0.005818
0.006625
0.007466
0.009513
0.009253
0.010486
0.011849
0.012966
0.013996
0.014999
0.016129
0.017191
0.018201
0.018817
Classification Time - C
0.003250
0.001155
0.001150
0.001163
0.001148
0.001167
0.001149
0.001151
0.001147
0.001149
0.001155
0.002166
0.003408
0.004295
0.005090
0.005879
0.009075
0.006859
0.007291
0.007688
0.008013
0.009025
0.009605
0.010158
0.011013
0.011544
0.012379
0.012810
0.013570
0.014212
0.014349
