Full Time (seconds)
0.014353
Incremental Time - I
0.000364
0.000578
0.001165
0.001647
0.002172
0.002523
0.003201
0.003396
0.003860
0.004348
0.004873
0.005181
0.005660
0.005776
0.006265
0.006467
0.007113
0.007048
0.007586
0.007696
0.008072
0.009854
0.011027
0.012295
0.015556
0.015826
0.015767
0.016736
0.017739
0.018376
0.019734
Classification Time - C
0.002099
0.002861
0.004374
0.004897
0.005217
0.005451
0.005662
0.005725
0.005807
0.005847
0.005836
0.006178
0.006483
0.006584
0.006869
0.007045
0.007395
0.007548
0.007694
0.007901
0.007950
0.008958
0.009520
0.010383
0.011713
0.011944
0.012316
0.013246
0.013860
0.013829
0.014340
