Full Time (seconds)
0.005640
Incremental Time - I
0.000620
0.000066
0.000053
0.000050
0.000054
0.000051
0.000051
0.000055
0.000071
0.000065
0.000064
0.000078
0.000095
0.000104
0.000112
0.000108
0.000163
0.000116
0.000119
0.000121
0.000126
0.000220
0.000250
0.000271
0.001713
0.001712
0.001652
0.001759
0.001834
0.001854
0.001927
Classification Time - I
0.000616
0.000658
0.000843
0.000764
0.000878
0.000853
0.000883
0.001040
0.001025
0.001102
0.001221
0.001301
0.001427
0.001550
0.001803
0.001766
0.001930
0.002073
0.002189
0.002280
0.002540
0.002806
0.002928
0.003152
0.003406
0.003635
0.003947
0.004172
0.004667
0.004833
