Full Time (seconds)
0.250535
Time - I
0.002236
0.003377
0.004543
0.006046
0.006420
0.007162
0.007885
0.008986
0.010745
0.012321
0.013121
0.013618
0.015117
0.016169
0.017244
0.018697
0.019731
0.021075
0.022454
0.023412
0.024722
0.025891
0.026905
0.028103
0.029468
0.030488
0.031622
0.032926
0.033999
0.035083
0.038495
0.037567
0.038668
0.040114
0.041144
0.042225
0.043655
0.045435
0.048677
0.049764
0.049737
0.053550
0.050724
0.051775
0.054261
0.054312
0.055331
0.056447
0.057869
0.059031
0.060586
0.061418
0.063006
0.064025
0.064981
0.066779
0.067761
0.073247
0.073824
0.071366
0.073372
0.073147
0.074199
0.075854
0.077183
0.078039
0.079209
0.080618
0.081792
0.083048
0.084370
0.084783
0.086273
0.087940
0.089972
0.091005
0.091359
0.092336
0.093445
0.094552
0.095572
0.096906
0.098070
0.105307
0.108699
0.101799
0.102652
0.104196
0.105589
0.106204
0.107893
0.109285
0.109928
0.111180
0.112148
0.113481
0.115272
0.115812
0.116869
0.119694
0.119471
0.120775
0.121748
0.122996
0.123901
0.125780
0.126753
0.127400
0.128911
0.129929
0.131129
0.132869
0.133503
0.134687
0.135908
0.138107
0.138522
0.141263
0.144525
0.142489
0.145769
0.144443
0.145598
0.148465
0.148079
0.148750
0.145383
0.141348
0.141699
0.141733
0.154781
0.155852
0.160184
0.158782
0.162072
0.155384
0.149324
0.163174
0.164332
0.165333
0.166395
0.170908
0.168886
0.170040
0.172002
0.172355
0.174255
0.174999
0.176532
0.176997
0.180727
0.179976
0.181888
0.179163
0.169079
0.184232
0.185952
0.186726
0.188513
0.191662
0.191293
0.194625
0.185323
0.180919
0.194620
0.199406
0.185369
0.184726
0.174223
0.200666
0.202779
0.189761
0.190456
0.192617
0.201275
0.209524
0.209282
0.210946
0.200066
0.197760
0.200467
0.218858
0.216124
0.188745
0.188658
0.191587
0.190344
0.190241
0.191635
0.192498
0.225579
0.215491
0.228339
0.229751
0.232863
0.201081
0.200991
0.200942
0.212835
0.217883
0.203215
0.205298
0.183292
0.241223
0.236224
0.208809
0.210399
0.211181
0.227786
0.242740
0.267998
