Full Time (seconds)
0.217550
Time - I
0.002277
0.003704
0.004646
0.006226
0.007426
0.008423
0.009932
0.010966
0.012015
0.013451
0.013888
0.014430
0.016325
0.016542
0.017804
0.018822
0.019795
0.022108
0.022296
0.023531
0.024795
0.026507
0.028124
0.028079
0.029565
0.030770
0.031682
0.033132
0.034945
0.035571
0.037049
0.037872
0.039221
0.040417
0.041873
0.043452
0.047297
0.045549
0.047118
0.048435
0.049077
0.053682
0.051313
0.052046
0.053038
0.055102
0.058958
0.059584
0.059451
0.060352
0.062834
0.061631
0.062902
0.063725
0.065472
0.066719
0.070051
0.071444
0.071815
0.072696
0.076139
0.076047
0.074518
0.081864
0.077645
0.078526
0.082530
0.080993
0.081889
0.086526
0.085719
0.086570
0.089889
0.091253
0.090472
0.092256
0.092270
0.095554
0.098675
0.096485
0.097065
0.099270
0.101616
0.103179
0.102615
0.102969
0.106468
0.104776
0.107412
0.108136
0.110089
0.112598
0.114375
0.111537
0.114541
0.114887
0.116873
0.122791
0.121365
0.118586
0.121341
0.123120
0.125982
0.128346
0.128713
0.125795
0.128726
0.130408
0.133177
0.130351
0.122686
0.133423
0.138719
0.135664
0.140928
0.137701
0.141252
0.144177
0.146479
0.145867
0.145208
0.147520
0.150410
0.150530
0.150869
0.152081
0.150856
0.164377
0.166184
0.154638
0.159176
0.162969
0.148509
0.147314
0.153512
0.161872
0.165335
0.163362
0.165654
0.170201
0.179689
0.168633
0.169448
0.171663
0.172721
0.178176
0.178581
0.176655
0.176630
0.191331
0.179967
0.185215
0.181308
0.171343
0.170720
0.174793
0.186673
0.190685
0.189371
0.194622
0.195959
0.167604
0.193015
0.196112
0.197281
0.192261
0.185946
0.199150
0.200410
0.203728
0.204414
0.200259
0.190210
0.192322
0.196361
0.209900
0.210836
0.217056
0.216073
0.229257
0.224184
0.231857
0.204127
0.202324
0.219496
0.286044
0.237836
0.219734
0.211416
0.226227
0.233105
0.233041
0.231944
0.205426
0.222514
0.234418
0.224668
0.253253
0.235671
0.243465
0.235907
0.242115
0.246114
0.241707
0.243130
0.252184
0.245144
0.266168
0.253364
0.248096
0.250188
