Full Time (seconds)
0.247409
Time - I
0.002295
0.003465
0.004630
0.006202
0.007476
0.008930
0.009898
0.012237
0.012027
0.013500
0.014641
0.015730
0.017242
0.019388
0.018327
0.019124
0.020284
0.022754
0.022634
0.023833
0.026396
0.026387
0.027493
0.028739
0.030018
0.031405
0.033045
0.033798
0.034885
0.035591
0.038218
0.038143
0.039191
0.040594
0.045591
0.043380
0.044218
0.045405
0.046385
0.049152
0.049667
0.046069
0.052236
0.052401
0.053474
0.054924
0.056056
0.057585
0.058710
0.060109
0.062261
0.062300
0.063362
0.064900
0.069931
0.066648
0.069708
0.069449
0.070875
0.072842
0.073792
0.073736
0.074982
0.076664
0.078050
0.079878
0.080706
0.084436
0.088156
0.085176
0.085200
0.087129
0.093750
0.095645
0.096622
0.093303
0.099765
0.085591
0.090468
0.098052
0.096504
0.098062
0.098794
0.103087
0.102543
0.103339
0.106744
0.106310
0.106020
0.109063
0.110146
0.110038
0.112332
0.113560
0.118104
0.116177
0.117647
0.117821
0.118126
0.119846
0.120804
0.122358
0.123195
0.124958
0.126068
0.126107
0.128549
0.129746
0.132866
0.132543
0.135109
0.134580
0.137755
0.139747
0.136725
0.138237
0.138819
0.157273
0.157303
0.157129
0.147625
0.149075
0.146235
0.149817
0.152572
0.152752
0.143277
0.144907
0.146155
0.150517
0.146555
0.147336
0.153330
0.159078
0.152500
0.165837
0.165928
0.163703
0.169520
0.170992
0.172351
0.161540
0.164968
0.161651
0.163343
0.184894
0.180321
0.179246
0.181247
0.181519
0.185410
0.158411
0.159206
0.197956
0.151051
0.185376
0.186605
0.192372
0.192706
0.189945
0.180468
0.197310
0.198133
0.183971
0.196155
0.202065
0.199015
0.190997
0.190098
0.191879
0.209825
0.179478
0.205163
0.206219
0.193067
0.216520
0.217280
0.211508
0.200163
0.219371
0.232891
0.218625
0.233866
0.218542
0.220318
0.226437
0.227315
0.195228
0.241443
0.243264
0.206759
0.221232
0.235427
0.236696
0.217769
0.215283
0.236578
0.254954
0.236079
0.256550
0.239637
0.239905
0.245903
0.241319
0.213394
0.212561
0.245364
0.213886
0.212152
0.270045
0.254496
