Full Time (seconds)
0.107295
Time - I
0.004361
0.005130
0.005898
0.006648
0.007425
0.008216
0.008974
0.009701
0.010545
0.012981
0.013210
0.014349
0.015041
0.015423
0.016463
0.015734
0.016550
0.017252
0.018454
0.019108
0.019783
0.020266
0.021450
0.021815
0.022520
0.026339
0.024014
0.027391
0.025641
0.026285
0.027112
0.027335
0.027672
0.028000
0.028204
0.029088
0.029023
0.029947
0.030075
0.030507
0.030858
0.032583
0.033359
0.033742
0.034945
0.035713
0.035987
0.036113
0.038045
0.037631
0.038381
0.039114
0.039937
0.040650
0.043086
0.043523
0.042882
0.045067
0.044540
0.045460
0.045951
0.048145
0.049239
0.048162
0.050495
0.050010
0.052796
0.051221
0.055480
0.053295
0.054548
0.054198
0.055016
0.055674
0.056545
0.057286
0.058337
0.058766
0.059478
0.060747
0.061160
0.061712
0.062887
0.063186
0.064616
0.065863
0.065802
0.066233
0.069636
0.068932
0.068477
0.069246
0.070435
0.070649
0.071504
0.072223
0.073117
0.073666
0.074609
0.075559
0.076057
0.076713
0.080401
0.078252
0.079779
0.082414
0.081742
0.084074
0.083627
0.085923
0.086403
0.084338
0.084975
0.085876
0.086912
0.087731
0.088439
0.089785
0.090159
0.090297
0.092660
0.091864
0.092534
0.093362
0.094501
0.094875
0.095629
0.096461
0.097132
0.098153
0.098793
0.099712
0.100035
0.101098
0.101610
0.103681
0.103203
0.104002
0.104656
0.107286
0.106166
