Full Time (seconds)
0.105921
Time - I
0.004256
0.005082
0.005887
0.006693
0.007481
0.008234
0.009016
0.011210
0.011788
0.011478
0.012150
0.012882
0.013667
0.014494
0.015067
0.015811
0.016567
0.017352
0.018595
0.018860
0.019551
0.020318
0.021557
0.021845
0.022636
0.023818
0.024114
0.024864
0.026023
0.026426
0.027161
0.027948
0.029118
0.030360
0.031169
0.031958
0.032759
0.032566
0.033340
0.034488
0.035893
0.036899
0.036430
0.037277
0.039376
0.038648
0.039376
0.040480
0.040840
0.041997
0.042371
0.043002
0.045275
0.044676
0.045366
0.046510
0.047666
0.047560
0.048903
0.049661
0.050300
0.050614
0.051445
0.053072
0.052957
0.054142
0.054472
0.055229
0.055766
0.056664
0.057385
0.057673
0.058381
0.058323
0.059928
0.058905
0.060487
0.061034
0.060383
0.060718
0.061148
0.062268
0.062688
0.064088
0.064470
0.064944
0.065713
0.066819
0.067256
0.069522
0.068734
0.070482
0.070171
0.070952
0.071793
0.072439
0.073163
0.073896
0.074870
0.075453
0.076230
0.076967
0.077698
0.078445
0.079220
0.079972
0.084370
0.081493
0.082495
0.083017
0.084402
0.084527
0.085234
0.086389
0.087202
0.087521
0.088196
0.089946
0.090133
0.092244
0.091814
0.093146
0.095154
0.093600
0.095011
0.095017
0.096183
0.096530
0.097349
0.098048
0.098845
0.099602
0.100333
0.101188
0.102217
0.102498
0.104388
0.104122
0.104959
0.106009
0.108236
