Full Time (seconds)
0.005682
Incremental Time - I
0.001449
0.000073
0.000066
0.000071
0.000072
0.000086
0.000092
0.000090
0.000097
0.000099
0.000098
0.000067
0.000068
0.000071
0.000092
0.000070
0.000084
0.000086
0.000088
0.000099
0.000096
0.000299
0.000247
0.000266
0.000591
0.000581
0.000489
0.000493
0.000526
0.000546
0.000634
Classification Time - I
0.000723
0.000801
0.000883
0.000975
0.001104
0.001398
0.001292
0.001429
0.001532
0.001638
0.001749
0.001723
0.001790
0.002341
0.001856
0.001941
0.002033
0.002090
0.002169
0.002260
0.002513
0.002696
0.003770
0.003165
0.003416
0.003642
0.003926
0.004233
0.004699
0.004863
