Full Time (seconds)
0.017283
Time - I
0.002329
0.003049
0.003759
0.004872
0.005144
0.005906
0.006507
0.007208
0.007281
0.008525
0.009257
0.010001
0.010626
0.013842
0.012417
0.013390
0.014170
0.018378
0.015658
0.016477
0.017254
