Full Time (seconds)
0.017637
Time - I
0.004460
0.003801
0.004289
0.004695
0.005096
0.005527
0.008075
0.008717
0.009542
0.009724
0.010932
0.010819
0.013651
0.012077
0.012819
0.013192
0.014031
0.014366
0.015870
0.016863
0.016352
