Full Accuracy
91.153847
Accuracy - I
50.000000
51.000000
52.000000
53.461540
53.461540
53.538460
53.615387
53.692307
53.692307
53.692307
53.615387
53.692307
54.692310
55.076927
55.615383
56.692307
56.846153
57.384617
57.461536
57.461536
57.461540
57.692307
58.615387
59.076923
59.538460
59.692307
59.923077
60.307693
60.692310
60.846149
60.846149
63.769234
64.384613
64.538460
64.538460
64.538460
64.538460
64.538460
64.538460
64.538460
64.538460
64.615387
65.615387
66.769234
67.000000
67.153847
67.000000
67.153847
67.461540
67.384613
67.384621
67.923073
69.461540
70.384613
70.692307
70.846161
70.923080
71.000000
71.000000
71.153847
71.230766
71.230766
71.230766
71.307693
71.384613
71.384613
71.384613
71.384613
71.384613
71.384613
71.461540
71.538460
72.923073
73.230766
73.307693
73.692307
73.615387
73.846153
74.230774
74.230774
74.461540
74.538460
74.769226
75.461540
75.538460
75.615387
75.692307
76.307693
76.384613
76.461533
76.615387
76.769234
77.153847
78.461540
78.923073
79.461540
79.461540
79.615387
79.692307
79.692307
79.538460
80.923073
81.461540
82.692307
82.923080
82.923080
82.923080
82.923080
82.923080
83.000000
83.076927
82.923080
83.461540
83.923080
84.461540
84.615387
84.846153
84.769234
85.000000
85.230766
85.307693
88.461533
88.461533
88.461533
88.461533
88.538460
88.461533
88.230774
88.230774
88.153847
88.153847
89.615387
90.307693
91.230766
91.307693
91.230766
91.153847
91.076920
91.153847
91.307693
91.153847
