Full Time (seconds)
0.106846
Time - I
0.004459
0.005370
0.006396
0.007342
0.008245
0.009102
0.009917
0.010769
0.011594
0.012294
0.013108
0.013825
0.014830
0.015299
0.016064
0.016816
0.017592
0.018807
0.019293
0.020377
0.021195
0.021440
0.021767
0.021624
0.021810
0.022134
0.022825
0.023026
0.023495
0.023831
0.024393
0.025515
0.026765
0.026892
0.028884
0.029305
0.029155
0.029997
0.031722
0.032088
0.032401
0.033130
0.034302
0.034988
0.035628
0.036446
0.037685
0.037984
0.039500
0.040304
0.040223
0.040560
0.041669
0.042474
0.043351
0.043765
0.044560
0.046510
0.047365
0.048343
0.049388
0.049696
0.050421
0.049724
0.051038
0.055766
0.053504
0.054422
0.054097
0.055303
0.056923
0.056926
0.058359
0.057411
0.058048
0.059258
0.060440
0.060201
0.061046
0.061735
0.063567
0.065269
0.070233
0.064882
0.065675
0.066602
0.066975
0.067945
0.070738
0.069137
0.072495
0.070832
0.072735
0.072723
0.075688
0.073957
0.074575
0.075603
0.076883
0.077014
0.077572
0.079118
0.079768
0.080572
0.083102
0.086556
0.084864
0.082919
0.084119
0.084406
0.085186
0.086148
0.087270
0.087519
0.091090
0.091942
0.092625
0.091035
0.091622
0.092342
0.092683
0.096951
0.097435
0.095767
0.096150
0.099765
0.098163
0.101118
0.102579
0.100078
0.101261
0.101057
0.105607
0.106073
0.104085
0.104396
0.105161
0.105851
0.107822
0.110093
0.113838
