Full Time (seconds)
0.108567
Time - I
0.004672
0.005432
0.006354
0.007008
0.007810
0.009800
0.010778
0.011091
0.010919
0.011780
0.012451
0.013165
0.014045
0.014949
0.015443
0.016205
0.017153
0.017711
0.020347
0.019908
0.021161
0.022302
0.022375
0.022511
0.024241
0.023739
0.024660
0.025599
0.026196
0.026897
0.027519
0.029310
0.030282
0.029829
0.030314
0.030490
0.033151
0.030025
0.030487
0.031257
0.031407
0.032186
0.034304
0.035322
0.035584
0.039095
0.038466
0.039803
0.037453
0.038439
0.039171
0.039854
0.040509
0.041267
0.042211
0.048008
0.047517
0.047795
0.050561
0.052318
0.046583
0.048751
0.048198
0.049293
0.049602
0.050557
0.056073
0.055349
0.055690
0.057747
0.057707
0.055347
0.055778
0.056659
0.062276
0.062913
0.065662
0.063842
0.063492
0.060918
0.061695
0.065531
0.068907
0.064312
0.070894
0.071235
0.072716
0.066902
0.068046
0.073792
0.069288
0.074789
0.076364
0.076311
0.079184
0.073065
0.074572
0.076600
0.075600
0.076669
0.079258
0.077362
0.080768
0.079045
0.082033
0.080587
0.081261
0.081980
0.084916
0.086274
0.085773
0.089724
0.087340
0.087297
0.087710
0.090999
0.091716
0.092555
0.090640
0.091303
0.093765
0.092850
0.096595
0.094251
0.095117
0.095976
0.099709
0.100386
0.100860
0.102203
0.102883
0.100060
0.100917
0.102488
0.105866
0.105039
0.107614
0.108401
0.105699
0.107030
0.109941
