Full Time (seconds)
1.026101
Incremental Time - I
0.690340
0.011162
0.012725
0.019257
0.018289
0.024382
0.022526
0.027271
0.020774
0.031164
0.032671
0.034342
0.023641
0.022428
0.041159
0.024428
0.017321
0.038140
0.030582
0.025847
0.048977
Classification Time - I
0.239340
0.424647
0.428371
0.498632
0.477494
0.436745
0.609500
0.571863
0.558525
0.721986
0.712807
0.680815
0.637807
0.817393
0.394273
0.866414
0.717516
0.948821
0.547064
0.921613
