Full Time (seconds)
0.105276
Time - I
0.003924
0.004678
0.005443
0.006202
0.006958
0.007720
0.008448
0.009206
0.009984
0.010688
0.011538
0.011835
0.012137
0.012594
0.012776
0.013077
0.013577
0.013876
0.014560
0.015111
0.015583
0.016347
0.017395
0.017951
0.018766
0.019526
0.020320
0.021067
0.021851
0.022517
0.023388
0.023557
0.024180
0.024970
0.025716
0.026478
0.027619
0.028213
0.029115
0.029460
0.031191
0.031166
0.032052
0.033516
0.034320
0.034357
0.035552
0.036315
0.037169
0.038223
0.037719
0.039620
0.039243
0.040047
0.042034
0.042162
0.043966
0.042948
0.044902
0.044968
0.045240
0.046013
0.049264
0.049168
0.049808
0.050557
0.050271
0.050806
0.052167
0.053687
0.054406
0.054410
0.056066
0.056877
0.057559
0.056861
0.059035
0.059809
0.060734
0.061395
0.060835
0.061594
0.063851
0.064464
0.065134
0.063975
0.064721
0.068206
0.067942
0.067203
0.068666
0.070872
0.069488
0.070012
0.071025
0.074919
0.073546
0.072921
0.073812
0.074612
0.075282
0.076438
0.079241
0.077570
0.080425
0.081527
0.079711
0.080450
0.084186
0.084763
0.083459
0.084519
0.087080
0.087115
0.086012
0.087570
0.087385
0.088407
0.088675
0.092473
0.090322
0.093219
0.095537
0.094767
0.096525
0.093935
0.094759
0.096696
0.096834
0.100475
0.099323
0.099347
0.100121
0.102688
0.101878
0.103412
0.103809
0.106565
0.105035
0.104905
0.105192
