Full Time (seconds)
0.105111
Time - I
0.003953
0.004703
0.005454
0.006212
0.006963
0.007722
0.008455
0.009209
0.009966
0.010677
0.011506
0.012324
0.013268
0.013755
0.014710
0.015184
0.016391
0.017327
0.017516
0.018198
0.019288
0.020304
0.021133
0.021871
0.022638
0.023393
0.024205
0.024908
0.025738
0.026606
0.027325
0.027651
0.027355
0.028968
0.028201
0.028873
0.029403
0.029842
0.030260
0.030710
0.030245
0.032673
0.032299
0.033506
0.034315
0.035047
0.035822
0.035482
0.037378
0.037113
0.039101
0.039688
0.040114
0.041249
0.042035
0.041498
0.043329
0.044390
0.045145
0.045961
0.046644
0.047487
0.048196
0.047453
0.048434
0.049980
0.051245
0.052124
0.051310
0.053391
0.054452
0.053619
0.054210
0.054951
0.055673
0.056893
0.057777
0.060067
0.058923
0.063153
0.062012
0.062580
0.061723
0.062669
0.067028
0.065567
0.067164
0.067708
0.066298
0.067467
0.068987
0.070741
0.069256
0.072473
0.070758
0.074849
0.074640
0.076011
0.075229
0.074510
0.077741
0.076017
0.077989
0.080533
0.078175
0.079016
0.081284
0.080446
0.084210
0.084969
0.084043
0.083549
0.084625
0.085674
0.086719
0.086482
0.087584
0.088294
0.090490
0.092561
0.093428
0.091124
0.092444
0.097964
0.093744
0.097378
0.094729
0.098121
0.096223
0.100736
0.097821
0.102155
0.100983
0.100162
0.104524
0.101854
0.102845
0.103755
0.107067
0.108099
0.105230
