Full Time (seconds)
0.121804
Incremental Time - I
0.005907
0.000328
0.000579
0.000816
0.002918
0.003213
0.003427
0.003766
0.003929
0.004161
0.004291
0.005882
0.006548
0.006175
0.005665
0.005813
0.006497
0.009208
0.008768
0.009032
0.009795
Classification Time - I
0.010052
0.015635
0.020259
0.025324
0.030009
0.035008
0.039970
0.045110
0.049574
0.054574
0.062039
0.068403
0.061482
0.067173
0.073898
0.079555
0.093225
0.098592
0.105412
0.112281
