Full Time (seconds)
0.141868
Incremental Time - I
0.005086
0.000259
0.000480
0.000829
0.003095
0.002993
0.002321
0.003661
0.003992
0.004255
0.004262
0.005937
0.006575
0.006846
0.007334
0.008088
0.008854
0.009132
0.010220
0.010550
0.010677
Classification Time - I
0.008076
0.015522
0.020651
0.025616
0.031362
0.035103
0.040008
0.044826
0.049772
0.055521
0.062765
0.069688
0.077186
0.084673
0.092333
0.088479
0.107301
0.115138
0.122871
0.131348
