Full Time (seconds)
0.136670
Incremental Time - I
0.004399
0.000325
0.000572
0.000815
0.002841
0.003277
0.003415
0.003657
0.003980
0.004276
0.004491
0.005738
0.006561
0.006995
0.007604
0.008166
0.007432
0.008890
0.009764
0.010319
0.010733
Classification Time - I
0.010062
0.015713
0.020740
0.025184
0.030806
0.035349
0.040302
0.044928
0.049828
0.054368
0.062202
0.069217
0.077205
0.083884
0.091656
0.098999
0.106642
0.115155
0.122587
0.130461
