Full Accuracy
94.000000
Accuracy - I
50.000000
53.692307
53.538460
53.461540
53.307690
53.307693
53.307693
53.307693
53.307693
53.307693
53.307693
55.076920
55.538464
57.000000
57.076923
57.076923
57.076923
57.076923
57.076923
57.076923
57.076923
58.615387
59.153843
59.769230
59.923077
60.076923
60.153847
60.307693
60.307693
60.538464
60.538464
62.769230
63.461536
63.461536
63.461536
63.461536
63.461540
63.461536
63.461540
63.461536
63.461536
66.153847
66.000000
66.307693
66.384613
66.461540
66.461540
66.538467
66.307693
66.307693
66.307693
69.384613
69.846153
70.000000
70.153847
70.153847
70.153847
70.153847
70.153847
70.153847
70.153847
72.923073
73.538467
73.461540
73.692307
73.692307
73.692307
73.692307
73.692307
73.692307
73.692307
75.307693
75.538460
76.384613
76.384613
76.461533
77.153847
77.230766
77.230766
77.230766
77.230766
77.230766
77.384613
77.615387
78.000000
78.230766
78.384613
78.384613
78.461540
78.461540
78.461540
80.384621
80.692307
81.307693
81.384621
81.615379
81.307693
81.461540
81.692307
81.846153
81.923073
84.538460
84.923080
84.846153
85.230766
85.461540
85.461540
85.538467
85.538467
85.538467
85.692307
86.846153
87.846153
88.076927
88.230774
88.230774
88.076927
88.153847
88.153847
88.153847
88.384613
91.538460
91.615387
91.846153
91.615387
91.615387
91.538460
91.461540
91.461540
91.461540
91.461540
94.307693
94.769234
94.769234
94.846153
94.769226
94.769226
94.769226
94.769226
94.769226
94.692307
