Full Time (seconds)
0.142892
Incremental Time - I
0.004402
0.000088
0.000102
0.000099
0.000113
0.000117
0.000124
0.000132
0.000137
0.000148
0.000157
0.000176
0.000173
0.000193
0.000199
0.000286
0.000212
0.000222
0.000228
0.000246
0.000255
0.000772
0.000489
0.000729
0.000799
0.000822
0.000561
0.000926
0.000558
0.000539
0.000536
0.000555
0.000556
0.000581
0.000572
0.000587
0.000605
0.000612
0.000640
0.000620
0.000892
0.000675
0.000657
0.000683
0.000659
0.000672
0.000686
0.000683
0.001003
0.000737
0.000719
0.001050
0.000797
0.000811
0.000799
0.000778
0.001112
0.001090
0.001102
0.000876
0.000861
0.000518
0.000541
0.000519
0.000778
0.000803
0.000928
0.000700
0.000683
0.000626
0.000646
0.000886
0.000918
0.000900
0.000926
0.000926
0.001191
0.000955
0.000951
0.000949
0.000963
0.001233
0.001034
0.001023
0.001226
0.001039
0.001049
0.001036
0.001010
0.001310
0.001063
0.001324
0.001313
0.001131
0.001091
0.001136
0.001389
0.001151
0.001193
0.001353
0.001232
0.001189
0.001213
0.001191
0.001808
0.001466
0.001252
0.001220
0.001171
0.001240
0.001483
0.001541
0.001321
0.001289
0.001278
0.001274
0.001311
0.001540
0.001601
0.001391
0.001331
0.001350
0.001539
0.001612
0.001404
0.001380
0.001365
0.001581
0.001645
0.001657
0.001435
0.001454
0.001466
0.001663
0.001645
0.001459
0.001405
0.001453
0.001469
0.001719
0.001691
Classification Time - I
0.005817
0.006708
0.007636
0.008579
0.009521
0.010459
0.011498
0.012503
0.013454
0.014695
0.017564
0.016801
0.017734
0.018220
0.021160
0.021719
0.021298
0.022268
0.023124
0.024153
0.024593
0.025854
0.027719
0.027558
0.030767
0.031100
0.031694
0.030895
0.035808
0.033192
0.033596
0.034550
0.036485
0.036374
0.038486
0.038675
0.040505
0.040979
0.042449
0.042197
0.043076
0.045487
0.045864
0.047420
0.046773
0.049345
0.049047
0.049766
0.051278
0.051523
0.052399
0.054984
0.056383
0.055287
0.058205
0.060488
0.058834
0.059533
0.060571
0.060900
0.061336
0.061605
0.062717
0.062653
0.063142
0.063408
0.064680
0.065886
0.065995
0.065911
0.067630
0.067899
0.068750
0.069308
0.070541
0.071578
0.072446
0.073037
0.074499
0.075448
0.076292
0.076843
0.078789
0.079102
0.082573
0.080419
0.081880
0.083050
0.083726
0.084130
0.085024
0.089272
0.087006
0.091027
0.088880
0.090701
0.091582
0.091591
0.092260
0.094361
0.094540
0.098574
0.099848
0.097666
0.098365
0.102871
0.100202
0.105002
0.103507
0.102331
0.103845
0.106467
0.105602
0.105904
0.107399
0.107815
0.108671
0.110419
0.110589
0.117382
0.113710
0.113166
0.114181
0.115416
0.120576
0.117084
0.117873
0.119142
0.119833
0.125939
0.125961
0.124148
0.133528
0.124645
0.125994
0.130747
0.128715
0.132980
0.129377
0.130663
