Full Time (seconds)
0.132572
Incremental Time - I
0.004746
0.000088
0.000102
0.000110
0.000113
0.000117
0.000125
0.000149
0.000149
0.000153
0.000166
0.000178
0.000185
0.000201
0.000198
0.000207
0.000212
0.000223
0.000227
0.000257
0.000252
0.000778
0.000567
0.000692
0.000811
0.000819
0.000834
0.000772
0.000807
0.000701
0.000623
0.000567
0.000580
0.000572
0.000588
0.000578
0.000571
0.000589
0.000865
0.000622
0.000643
0.000663
0.000673
0.000682
0.000682
0.000995
0.000994
0.001010
0.001024
0.000974
0.000810
0.000800
0.000790
0.000781
0.001049
0.001090
0.001059
0.001101
0.001104
0.000964
0.000858
0.000887
0.001124
0.000894
0.001109
0.001120
0.000974
0.000899
0.000903
0.000911
0.001142
0.001217
0.001225
0.001017
0.000949
0.000992
0.000990
0.001001
0.001191
0.001302
0.001259
0.000898
0.000703
0.000634
0.000588
0.000880
0.001028
0.000997
0.001003
0.001034
0.000891
0.001166
0.001320
0.001318
0.001387
0.001230
0.001199
0.001155
0.001397
0.001446
0.001453
0.001446
0.001283
0.001244
0.001184
0.001380
0.001490
0.001182
0.001234
0.001213
0.001255
0.001538
0.001443
0.001456
0.001543
0.001566
0.001402
0.001335
0.001399
0.001457
0.001394
0.001425
0.001418
0.001422
0.001426
0.001600
0.001491
0.001430
0.001432
0.001465
0.001410
0.001717
0.001565
0.001530
0.001524
0.001525
0.001736
0.001611
0.001549
0.001505
0.001519
Classification Time - I
0.005810
0.006674
0.007623
0.008577
0.009549
0.010526
0.011584
0.012532
0.013662
0.014515
0.015517
0.018275
0.017827
0.018259
0.019446
0.020442
0.020731
0.022354
0.023195
0.024202
0.025189
0.026179
0.027891
0.027386
0.028377
0.029263
0.030316
0.031271
0.032131
0.033541
0.033963
0.035650
0.036049
0.037398
0.038013
0.038927
0.039766
0.040653
0.042939
0.043141
0.044866
0.045166
0.046809
0.047819
0.047844
0.048726
0.049373
0.050151
0.054716
0.052548
0.053296
0.054022
0.056717
0.055996
0.056905
0.058277
0.058758
0.061716
0.062654
0.061603
0.062744
0.063371
0.064263
0.065347
0.066223
0.067774
0.067935
0.068961
0.072540
0.072830
0.071874
0.072642
0.073970
0.077146
0.076592
0.079331
0.079612
0.078327
0.079421
0.080359
0.081625
0.083917
0.084387
0.081684
0.082129
0.082940
0.083288
0.083920
0.084593
0.088096
0.089117
0.087031
0.087888
0.089272
0.093132
0.091076
0.094210
0.095767
0.096388
0.094428
0.095709
0.095929
0.100402
0.098757
0.099065
0.099971
0.101699
0.101798
0.104544
0.107133
0.104529
0.108891
0.106485
0.107156
0.113167
0.110770
0.112237
0.110551
0.111718
0.115821
0.117564
0.115772
0.115252
0.120619
0.117543
0.119454
0.118801
0.124557
0.120714
0.126502
0.126625
0.123375
0.126774
0.125054
0.131402
0.127275
0.127958
0.129080
0.129858
0.130962
