Full Time (seconds)
0.142877
Incremental Time - I
0.005902
0.000088
0.000106
0.000109
0.000114
0.000112
0.000124
0.000128
0.000137
0.000155
0.000156
0.000175
0.000177
0.000193
0.000200
0.000220
0.000228
0.000224
0.000228
0.000247
0.000253
0.000787
0.000577
0.000527
0.000516
0.000512
0.000505
0.000713
0.000533
0.000551
0.000556
0.000556
0.000565
0.000585
0.000879
0.000852
0.000633
0.000584
0.000609
0.000927
0.000632
0.000658
0.000667
0.000983
0.001014
0.000993
0.000990
0.000766
0.000682
0.000701
0.001002
0.000817
0.000761
0.000752
0.001054
0.001107
0.001084
0.000826
0.000786
0.000814
0.001102
0.000856
0.000841
0.000848
0.001181
0.000895
0.000877
0.000874
0.001110
0.001222
0.000935
0.000937
0.000919
0.000688
0.001095
0.001213
0.000959
0.001160
0.000996
0.001010
0.001004
0.000968
0.001013
0.001024
0.001581
0.001359
0.001090
0.001066
0.001093
0.001063
0.001091
0.001106
0.001323
0.001135
0.001157
0.001138
0.001448
0.001173
0.001438
0.001456
0.001243
0.001279
0.001225
0.001192
0.001412
0.001244
0.001520
0.001249
0.001261
0.001245
0.001261
0.001555
0.001593
0.001382
0.001331
0.001333
0.001338
0.001580
0.001634
0.001424
0.001346
0.001365
0.001371
0.001327
0.001564
0.001608
0.001449
0.001443
0.001419
0.001606
0.001649
0.001018
0.000883
0.000811
0.000781
0.001041
0.001002
0.001224
0.001015
0.001036
0.001014
Classification Time - I
0.005810
0.006653
0.007547
0.008457
0.009420
0.010439
0.011432
0.012471
0.013882
0.014563
0.015629
0.016386
0.017225
0.018121
0.019266
0.019756
0.021140
0.022173
0.022490
0.023380
0.024395
0.025163
0.026176
0.027111
0.031373
0.029892
0.031807
0.031893
0.032804
0.032836
0.034325
0.034506
0.036523
0.037565
0.037680
0.038339
0.040207
0.040800
0.041598
0.043435
0.044540
0.045482
0.045107
0.046442
0.047058
0.051186
0.050324
0.049579
0.051151
0.051856
0.052473
0.053527
0.054444
0.055833
0.056608
0.057090
0.059701
0.059746
0.060513
0.061241
0.063822
0.063361
0.063944
0.064978
0.065596
0.067525
0.067710
0.069673
0.070209
0.070118
0.073680
0.074349
0.073185
0.075865
0.074642
0.080681
0.076749
0.077563
0.081195
0.082250
0.080799
0.081405
0.083319
0.083220
0.084352
0.085381
0.087142
0.087962
0.087837
0.089722
0.089892
0.091295
0.091600
0.092758
0.097310
0.096009
0.095544
0.096338
0.096877
0.098543
0.103901
0.104009
0.100637
0.102277
0.103042
0.103103
0.104047
0.109578
0.106029
0.107182
0.108227
0.109022
0.110026
0.114949
0.111336
0.112702
0.114093
0.114522
0.115186
0.116046
0.117022
0.122362
0.118509
0.120728
0.120663
0.124960
0.123029
0.123355
0.124554
0.125429
0.125998
0.125951
0.131150
0.130383
0.127767
0.127110
0.128066
0.130317
0.129095
0.129668
