Full Time (seconds)
0.143103
Incremental Time - I
0.005897
0.000086
0.000104
0.000108
0.000120
0.000120
0.000132
0.000137
0.000137
0.000154
0.000159
0.000172
0.000187
0.000191
0.000201
0.000212
0.000226
0.000230
0.000233
0.000269
0.000251
0.000778
0.000492
0.000491
0.000495
0.000725
0.000825
0.000566
0.000856
0.000857
0.000886
0.000859
0.000655
0.000563
0.000575
0.000582
0.000582
0.000582
0.000888
0.000930
0.000611
0.000685
0.000797
0.000725
0.000479
0.000467
0.000534
0.000532
0.000513
0.000898
0.000835
0.000730
0.001012
0.001021
0.001033
0.000810
0.000765
0.000766
0.000786
0.000778
0.001056
0.001051
0.001110
0.001108
0.001119
0.000881
0.000856
0.000877
0.000856
0.000880
0.000808
0.000845
0.001175
0.001202
0.000938
0.000969
0.000933
0.000932
0.000908
0.001238
0.000953
0.001251
0.001012
0.001036
0.001000
0.001012
0.001320
0.001338
0.001061
0.001000
0.001058
0.001099
0.001105
0.001335
0.001381
0.001408
0.001396
0.001368
0.001315
0.001150
0.001148
0.001381
0.001387
0.001444
0.001219
0.001195
0.001216
0.001437
0.001485
0.001583
0.001444
0.001326
0.001302
0.001268
0.001516
0.001555
0.001580
0.001495
0.001410
0.001323
0.001291
0.001312
0.001510
0.001632
0.001411
0.001368
0.001351
0.001612
0.001656
0.001650
0.001476
0.001437
0.001392
0.001486
0.002062
0.001743
0.001500
0.001447
0.001462
0.001409
0.001735
Classification Time - I
0.005762
0.006579
0.007514
0.008424
0.009824
0.010355
0.011436
0.012380
0.013362
0.014329
0.015652
0.016391
0.017152
0.018543
0.018829
0.019677
0.020573
0.022096
0.022219
0.023232
0.024917
0.025726
0.025931
0.027317
0.030265
0.029038
0.030123
0.031766
0.031575
0.032646
0.033583
0.035182
0.036620
0.037224
0.037808
0.038568
0.039297
0.043344
0.043840
0.043983
0.045542
0.045159
0.043230
0.043711
0.043997
0.045393
0.045418
0.045665
0.046232
0.046923
0.048157
0.048753
0.050317
0.051093
0.051656
0.052968
0.053418
0.054576
0.056012
0.060751
0.057581
0.058312
0.059408
0.065448
0.061965
0.061768
0.063158
0.064375
0.064750
0.066834
0.066879
0.068030
0.068572
0.072599
0.071699
0.073622
0.075070
0.078518
0.080155
0.081755
0.076040
0.077417
0.078669
0.079136
0.081771
0.084729
0.087249
0.082501
0.090000
0.084833
0.089099
0.086402
0.088310
0.088269
0.089065
0.089989
0.091728
0.091797
0.092624
0.097544
0.094429
0.095891
0.096559
0.099543
0.101905
0.100857
0.100368
0.100783
0.101596
0.103059
0.107873
0.108959
0.106805
0.106105
0.106989
0.108973
0.108912
0.109706
0.112400
0.112724
0.116887
0.113801
0.114454
0.115470
0.119795
0.116976
0.117949
0.120298
0.120009
0.125802
0.122253
0.123158
0.128631
0.125492
0.125439
0.130885
0.128045
0.128255
0.131607
0.130181
