Full Time (seconds)
0.123560
Incremental Time - I
0.081791
0.044471
0.008623
0.011981
0.055943
0.075629
0.046304
0.080250
0.099704
0.104126
0.114648
0.119238
0.152373
0.155845
0.138407
0.146464
0.155910
0.166836
0.174143
0.177601
0.164265
Classification Time - C
0.070326
0.018696
0.022126
0.069767
0.046987
0.104250
0.093857
0.107325
0.094044
0.100411
0.105244
0.108203
0.101312
0.100986
0.100126
0.069028
0.108287
0.113353
0.073295
0.115608
