Full Time (seconds)
0.199629
Incremental Time - I
0.000178
0.000048
0.000061
0.000080
0.000066
0.000078
0.000105
0.000086
0.000096
0.000121
0.000059
0.000077
0.000081
0.000112
0.000126
0.000167
0.000136
0.000141
0.000168
0.000150
0.000160
0.000207
0.000172
0.000181
0.000234
0.000206
0.000204
0.000253
0.000219
0.000213
0.000293
0.000230
0.000247
0.000318
0.000250
0.000251
0.000332
0.000270
0.000273
0.001944
0.001094
0.000964
0.001025
0.001129
0.000996
0.001128
0.000998
0.001001
0.001186
0.000980
0.000978
0.001074
0.001078
0.001077
0.001150
0.001183
0.001069
0.001220
0.001091
0.001093
0.001231
0.001202
0.001191
0.001263
0.001217
0.001210
0.001451
0.001240
0.001229
0.001360
0.001305
0.001343
0.001319
0.001281
0.001376
0.001308
0.001274
0.001194
0.001468
0.001352
0.001432
0.001569
0.001393
0.001260
0.001630
0.001476
0.001347
0.001528
0.001417
0.001254
0.001632
0.001524
0.001474
0.001661
0.001467
0.001547
0.001765
0.001575
0.001516
0.001653
0.001586
0.001583
0.001676
0.001536
0.001474
0.001737
0.001613
0.001604
0.001840
0.001668
0.001619
0.001848
0.001654
0.002148
0.001877
0.001691
0.001500
0.001805
0.001636
0.001677
0.001843
0.001744
0.001835
0.002018
0.001617
0.001648
0.001998
0.001627
0.001691
0.001820
0.001693
0.001732
0.002049
0.001722
0.001600
0.001858
0.001605
0.001670
0.001944
0.001825
0.001665
0.002048
0.001933
0.001890
0.002123
0.001877
0.001719
0.002139
0.001719
0.001676
0.002118
0.001843
0.001860
0.002009
0.001827
0.001726
0.001990
0.001754
0.001743
0.001940
0.001745
0.001753
0.001918
0.001678
0.001933
0.002260
0.001806
0.001770
0.002114
0.001782
0.001693
0.002036
0.001711
0.001732
0.002001
0.001915
0.001786
0.002105
0.001872
0.001787
0.002002
0.001749
0.001762
0.002033
0.001624
0.001691
0.001880
0.002168
0.002071
0.002348
0.001914
0.002096
0.002259
0.001964
0.001906
0.002229
0.002210
0.001962
0.002274
0.001713
0.001618
0.002950
0.002649
0.002336
0.002573
0.002223
0.001961
0.002442
0.002029
0.001967
0.002223
Classification Time - I
0.003240
0.004414
0.005967
0.007134
0.008304
0.009894
0.011127
0.012391
0.013921
0.014423
0.015282
0.015888
0.017249
0.018211
0.019912
0.021217
0.022561
0.023879
0.024862
0.025991
0.027590
0.028770
0.030338
0.031554
0.032755
0.034054
0.035472
0.038637
0.037832
0.039128
0.040161
0.041379
0.042956
0.044165
0.045306
0.046800
0.048955
0.049170
0.050688
0.051909
0.053112
0.054665
0.055915
0.056828
0.058629
0.059716
0.060929
0.062357
0.063578
0.065049
0.067534
0.068551
0.069242
0.071203
0.072487
0.072519
0.074097
0.076546
0.077290
0.078564
0.080707
0.081725
0.082268
0.083078
0.086087
0.085982
0.088333
0.088402
0.090122
0.090924
0.091946
0.094289
0.094618
0.095839
0.098088
0.098747
0.100230
0.102214
0.102952
0.103669
0.105735
0.108822
0.107827
0.109207
0.110268
0.111513
0.112841
0.114148
0.115064
0.118606
0.119213
0.119152
0.122940
0.121692
0.123153
0.124777
0.125500
0.129188
0.130656
0.129503
0.131240
0.132255
0.133959
0.134624
0.136146
0.137210
0.138497
0.140142
0.140953
0.142631
0.143478
0.144896
0.148706
0.147457
0.151431
0.152223
0.154611
0.155682
0.156565
0.155209
0.156809
0.158102
0.159006
0.160497
0.162697
0.160666
0.151427
0.152371
0.153769
0.157236
0.169240
0.170340
0.158665
0.159697
0.161274
0.162957
0.163129
0.166759
0.179388
0.181896
0.182077
0.183569
0.184444
0.180066
0.173023
0.188203
0.190053
0.176296
0.177700
0.178549
0.180158
0.180729
0.178122
0.170726
0.171653
0.172657
0.173962
0.174633
0.170857
0.165158
0.166205
0.167223
0.210020
0.209529
0.196448
0.197781
0.198315
0.189448
0.186629
0.187349
0.189525
0.189796
0.191130
0.192856
0.194816
0.197154
0.184507
0.183208
0.183794
0.185229
0.174492
0.179249
0.179964
0.180321
0.182130
0.239295
0.234965
0.223506
0.209899
0.232992
0.250259
0.211977
0.213627
0.217568
0.216065
0.214441
0.191289
0.193925
0.226729
0.262663
0.260125
0.261713
0.245505
0.264071
0.264568
0.265495
0.271842
0.267852
0.256939
0.249830
