Full Time (seconds)
0.189136
Incremental Time - I
0.000180
0.000052
0.000059
0.000074
0.000065
0.000080
0.000106
0.000085
0.000094
0.000119
0.000102
0.000112
0.000144
0.000063
0.000095
0.000100
0.000136
0.000142
0.000174
0.000151
0.000160
0.000204
0.000168
0.000182
0.000234
0.000204
0.000205
0.000257
0.000217
0.000212
0.000294
0.000231
0.000232
0.000306
0.000250
0.000249
0.000332
0.000280
0.000272
0.001814
0.000960
0.000813
0.000883
0.000853
0.000823
0.000930
0.000868
0.000843
0.000941
0.000884
0.000874
0.000985
0.000876
0.000882
0.000984
0.000909
0.000918
0.001019
0.000934
0.000937
0.001084
0.000957
0.000952
0.001082
0.001002
0.000989
0.001123
0.000996
0.000984
0.001132
0.000985
0.001011
0.001153
0.001026
0.001021
0.001181
0.001053
0.001035
0.001215
0.001065
0.001076
0.001247
0.001087
0.001096
0.001259
0.001103
0.001131
0.001282
0.001119
0.001116
0.001266
0.001150
0.001123
0.001322
0.001187
0.001159
0.001353
0.001192
0.001180
0.001376
0.001208
0.001201
0.001419
0.001205
0.001177
0.001383
0.001226
0.001228
0.001476
0.001258
0.001255
0.001470
0.001287
0.001312
0.001537
0.001307
0.001315
0.001552
0.001309
0.001292
0.001556
0.001350
0.001341
0.001593
0.001363
0.001324
0.001609
0.001377
0.001354
0.001618
0.001405
0.001406
0.001685
0.001325
0.001391
0.001645
0.001445
0.001435
0.001700
0.001476
0.001427
0.001725
0.001510
0.001497
0.001788
0.001499
0.001495
0.001760
0.001486
0.001493
0.001675
0.001427
0.001411
0.001695
0.001567
0.001548
0.001890
0.001498
0.001445
0.001660
0.001428
0.001547
0.001812
0.001414
0.001446
0.001863
0.001432
0.001426
0.001655
0.001389
0.001406
0.001617
0.001287
0.001391
0.001543
0.001448
0.001302
0.001568
0.001258
0.001283
0.001544
0.001271
0.001278
0.001693
0.001333
0.001379
0.001597
0.001399
0.001291
0.001556
0.001570
0.001638
0.001909
0.001400
0.001397
0.001703
0.001434
0.001845
0.002053
0.001607
0.001623
0.001880
0.001538
0.001518
0.001632
0.001445
0.001973
0.002275
0.001891
0.001697
0.001941
Classification Time - I
0.003244
0.004445
0.006044
0.007680
0.008388
0.009988
0.011153
0.012378
0.013984
0.015347
0.016575
0.017957
0.018621
0.019149
0.020215
0.021628
0.022310
0.024231
0.025000
0.026167
0.027729
0.029361
0.030210
0.031676
0.032864
0.034111
0.035649
0.037000
0.038015
0.039204
0.040282
0.041492
0.043025
0.044186
0.045595
0.046890
0.048142
0.049238
0.051301
0.052029
0.053190
0.055195
0.056194
0.056916
0.059485
0.060087
0.060838
0.062455
0.064494
0.064788
0.066437
0.067711
0.068673
0.071057
0.071629
0.073983
0.074119
0.075268
0.076535
0.077980
0.079979
0.080514
0.082096
0.084064
0.084544
0.087330
0.087875
0.088532
0.090058
0.091603
0.092192
0.094219
0.094972
0.096074
0.098857
0.098843
0.101875
0.101540
0.103006
0.105493
0.105434
0.109032
0.108148
0.109360
0.110387
0.111869
0.113134
0.113925
0.115321
0.117192
0.117874
0.119256
0.120908
0.121919
0.123173
0.124532
0.125726
0.126906
0.128749
0.131896
0.130812
0.132067
0.133416
0.134932
0.138773
0.137891
0.138900
0.139699
0.143719
0.144874
0.143773
0.144853
0.146744
0.148077
0.149004
0.150240
0.151993
0.152724
0.154129
0.155236
0.156764
0.157496
0.159112
0.160103
0.161112
0.162832
0.163740
0.165196
0.166759
0.168515
0.169148
0.170976
0.172571
0.173155
0.174529
0.176294
0.176875
0.181293
0.179681
0.180608
0.182476
0.183448
0.187639
0.186516
0.187577
0.188584
0.189667
0.191022
0.192419
0.178738
0.180101
0.183815
0.189710
0.198652
0.200087
0.205157
0.186710
0.190324
0.176195
0.183835
0.195141
0.186992
0.183093
0.194004
0.199792
0.183147
0.184367
0.173590
0.174653
0.175135
0.177238
0.166156
0.170191
0.167982
0.169348
0.169798
0.173165
0.161650
0.165188
0.163704
0.167719
0.165056
0.166436
0.167425
0.171738
0.168886
0.170400
0.170651
0.190297
0.209551
0.210802
0.212378
0.189918
0.190222
0.188539
0.252008
0.242833
0.238238
0.219850
0.217651
0.210574
0.208812
0.208854
0.186014
0.261226
0.259514
0.245944
0.229903
0.224671
0.216364
