Full Time (seconds)
0.108577
Time - I
0.004205
0.005058
0.005941
0.007079
0.007902
0.008404
0.009173
0.009949
0.010747
0.011483
0.012489
0.013054
0.013866
0.014657
0.015203
0.016352
0.016705
0.017604
0.018300
0.019522
0.020288
0.020051
0.021316
0.020782
0.020993
0.021260
0.021716
0.022201
0.022560
0.023011
0.023504
0.025080
0.025107
0.025939
0.026870
0.028385
0.028146
0.029839
0.030322
0.031412
0.031932
0.033785
0.033726
0.034878
0.035330
0.035098
0.035932
0.036586
0.037258
0.039256
0.040006
0.041245
0.042639
0.041589
0.041874
0.043128
0.044512
0.044160
0.044937
0.045618
0.046348
0.048573
0.049118
0.049250
0.050130
0.050934
0.050783
0.051633
0.052883
0.054390
0.054019
0.055056
0.057152
0.057899
0.057529
0.059608
0.058593
0.059175
0.060002
0.060760
0.061456
0.063472
0.064174
0.063580
0.064687
0.065075
0.066471
0.066652
0.067588
0.068598
0.068857
0.070642
0.072597
0.073495
0.074357
0.074516
0.073634
0.074288
0.074963
0.076145
0.079699
0.077232
0.077840
0.079231
0.080395
0.081944
0.080993
0.082063
0.086776
0.085961
0.086733
0.084644
0.085481
0.086325
0.087110
0.087938
0.088544
0.092201
0.092981
0.093675
0.091602
0.092535
0.093367
0.094707
0.098129
0.095707
0.098623
0.100087
0.097829
0.098237
0.099086
0.103329
0.100647
0.102898
0.101990
0.103365
0.104186
0.105056
0.108536
0.105744
0.109030
