Full Time (seconds)
0.109658
Time - I
0.004306
0.005113
0.005925
0.006764
0.007547
0.008283
0.009133
0.009873
0.010645
0.011438
0.012391
0.013138
0.013772
0.014574
0.015401
0.016258
0.017083
0.017820
0.018678
0.019457
0.020356
0.021040
0.021778
0.022329
0.023356
0.024284
0.024777
0.025691
0.026437
0.027241
0.027500
0.028058
0.029395
0.030430
0.031454
0.031990
0.032486
0.033618
0.033754
0.035623
0.035403
0.035711
0.036640
0.037573
0.041431
0.039050
0.040361
0.041412
0.042217
0.041654
0.043723
0.044034
0.044201
0.044714
0.045468
0.046249
0.047313
0.047933
0.049784
0.050740
0.050961
0.050711
0.051513
0.052309
0.053268
0.054167
0.054553
0.055379
0.056493
0.057129
0.058338
0.060102
0.059099
0.061054
0.060678
0.063142
0.062136
0.062829
0.064709
0.066286
0.067098
0.068269
0.066532
0.067375
0.068139
0.068902
0.069556
0.070317
0.073439
0.072727
0.073577
0.075643
0.074632
0.074971
0.075860
0.076989
0.079613
0.077835
0.081267
0.082359
0.080053
0.080733
0.080469
0.084769
0.082040
0.084149
0.084710
0.082767
0.083308
0.083799
0.085911
0.084764
0.088145
0.088999
0.086985
0.088440
0.089468
0.092966
0.091519
0.091449
0.094515
0.092791
0.093134
0.093699
0.094584
0.098779
0.095830
0.100032
0.098623
0.099214
0.099568
0.102995
0.103766
0.101153
0.103184
0.106438
0.104442
0.105272
0.105309
0.109408
0.109917
