Full Time (seconds)
0.107512
Time - I
0.004262
0.005062
0.005871
0.006661
0.007414
0.008213
0.008974
0.009762
0.010601
0.011273
0.012093
0.012752
0.013676
0.014471
0.015268
0.016265
0.016984
0.017753
0.018212
0.019143
0.020102
0.020887
0.020977
0.022481
0.023207
0.024007
0.024060
0.024852
0.025768
0.026634
0.027056
0.028353
0.028819
0.030088
0.031118
0.031633
0.032725
0.033494
0.034262
0.035068
0.035275
0.036640
0.037403
0.037197
0.038619
0.038626
0.039281
0.040709
0.042085
0.041621
0.043730
0.043115
0.044395
0.044676
0.045411
0.046109
0.046862
0.047721
0.049827
0.050635
0.051374
0.052284
0.053064
0.053880
0.052978
0.053679
0.054462
0.055517
0.056207
0.056580
0.059816
0.060009
0.060630
0.059741
0.060911
0.061857
0.062040
0.064966
0.063382
0.066178
0.064896
0.065232
0.066090
0.065809
0.066406
0.066991
0.069067
0.068804
0.069896
0.068380
0.069036
0.069530
0.070315
0.071524
0.071703
0.074941
0.073153
0.073962
0.074628
0.075464
0.077687
0.080105
0.077931
0.078557
0.080093
0.082531
0.083817
0.081589
0.082273
0.083364
0.084241
0.085220
0.086280
0.090021
0.087145
0.089701
0.088438
0.090637
0.092866
0.093693
0.094489
0.092314
0.093659
0.093538
0.094984
0.096045
0.099087
0.097725
0.100304
0.098302
0.099262
0.099557
0.103857
0.104852
0.101770
0.103493
0.103412
0.106565
0.108535
0.105623
0.106515
