Full Time (seconds)
0.106592
Time - I
0.004192
0.005075
0.005937
0.006784
0.007558
0.008370
0.009118
0.009908
0.010728
0.011648
0.012287
0.012587
0.012906
0.013068
0.013517
0.013844
0.014124
0.014815
0.015263
0.015784
0.016298
0.017138
0.017868
0.018190
0.019490
0.020272
0.021148
0.021814
0.022630
0.023637
0.023477
0.024258
0.025056
0.026715
0.027433
0.027969
0.028096
0.029794
0.030613
0.031396
0.031231
0.032556
0.033288
0.033538
0.034442
0.035037
0.036071
0.036518
0.037316
0.037993
0.040029
0.040541
0.041553
0.042294
0.043091
0.043317
0.044679
0.044050
0.044978
0.045555
0.046830
0.047045
0.049274
0.048570
0.050853
0.050104
0.051254
0.052600
0.052396
0.053128
0.053975
0.055003
0.055420
0.056227
0.056847
0.057684
0.059655
0.059467
0.059948
0.061340
0.061582
0.062518
0.064094
0.065668
0.065312
0.067364
0.065961
0.068763
0.069008
0.068203
0.069241
0.071908
0.070324
0.071023
0.072186
0.075793
0.073973
0.074439
0.075804
0.078229
0.076897
0.077382
0.080454
0.079028
0.079756
0.080227
0.081581
0.084353
0.085294
0.084244
0.086814
0.085013
0.085695
0.086187
0.091128
0.087946
0.089375
0.089254
0.090339
0.090880
0.092101
0.092319
0.093251
0.094036
0.109076
0.095496
0.096289
0.097738
0.097659
0.108175
0.099365
0.099652
0.101027
0.101930
0.105707
0.103083
0.105192
0.104218
0.105267
0.106019
0.106638
