Full Time (seconds)
0.106042
Time - I
0.004318
0.004592
0.004911
0.005230
0.005586
0.005913
0.006380
0.006831
0.007251
0.007737
0.008204
0.008919
0.009703
0.010533
0.011258
0.012079
0.012804
0.013760
0.014206
0.015006
0.016094
0.016462
0.017689
0.017958
0.018686
0.019457
0.020404
0.020958
0.022363
0.022489
0.023940
0.024721
0.024787
0.026430
0.027148
0.027264
0.029414
0.029570
0.030228
0.031147
0.031286
0.031791
0.032600
0.033333
0.033993
0.035903
0.037339
0.037458
0.038391
0.037766
0.039712
0.039610
0.040151
0.041186
0.041696
0.042278
0.043566
0.044421
0.045971
0.046720
0.046486
0.046897
0.049131
0.048322
0.049078
0.050097
0.052673
0.051429
0.052674
0.052926
0.053890
0.054426
0.056058
0.057437
0.058402
0.057897
0.058109
0.059287
0.059678
0.060357
0.061245
0.062129
0.062718
0.063329
0.064015
0.067029
0.066137
0.066453
0.067115
0.067937
0.068689
0.070726
0.070082
0.070837
0.071657
0.072438
0.073285
0.073896
0.075052
0.075504
0.079334
0.076963
0.077438
0.079600
0.079318
0.080624
0.081858
0.081498
0.082141
0.083171
0.083751
0.087198
0.085333
0.086153
0.086743
0.088827
0.088276
0.088727
0.091042
0.093876
0.091559
0.092019
0.095973
0.093529
0.094564
0.095487
0.095788
0.097507
0.097272
0.101328
0.099049
0.099468
0.103625
0.100994
0.103821
0.103577
0.103384
0.104970
0.105231
0.109374
0.109099
