Full Time (seconds)
0.000799
Incremental Time - I
0.000196
0.000087
0.000125
0.000247
0.000237
0.000227
0.000238
0.000575
0.000704
0.000819
0.000879
0.001040
0.001072
0.001140
0.001556
0.001550
0.002240
0.002474
0.001298
0.005236
0.007399
0.004342
0.004502
0.004035
0.003273
0.003886
0.003823
0.005713
0.004354
0.004421
0.004332
Classification Time - C
0.000492
0.000276
0.000333
0.000412
0.000397
0.000389
0.000383
0.000394
0.000415
0.000404
0.000402
0.000489
0.000541
0.000532
0.000583
0.000604
0.000631
0.000681
0.000388
0.000692
0.000686
0.000681
0.000813
0.000912
0.000792
0.000815
0.000789
0.000821
0.000845
0.000828
0.000799
