Full Time (seconds)
0.002559
Time - I
0.000355
0.000454
0.000551
0.000686
0.000760
0.000861
0.000954
0.001063
0.001150
0.001265
0.001350
0.001488
0.001550
0.001651
0.001798
0.001881
0.001991
0.002146
0.002291
0.002438
0.002579
