Full Time (seconds)
0.303099
Time - I
0.222016
0.235426
0.246542
0.224564
0.233413
0.209072
0.195161
0.187937
0.319560
0.334511
0.215130
0.226575
0.364223
0.338305
0.228119
0.400071
0.387185
0.337143
0.313551
0.299017
0.327937
