Full Time (seconds)
0.240648
Time - I
0.002123
0.003250
0.004359
0.005735
0.007002
0.007825
0.009217
0.009572
0.010981
0.011427
0.012775
0.013735
0.014639
0.015667
0.016838
0.019239
0.019903
0.021287
0.021679
0.023962
0.025206
0.026414
0.026275
0.027324
0.029345
0.030166
0.030919
0.032711
0.033533
0.034339
0.035749
0.037226
0.038204
0.039339
0.040441
0.042850
0.043948
0.043940
0.045122
0.047523
0.047549
0.048447
0.054237
0.052111
0.052004
0.055458
0.055547
0.056292
0.057777
0.058529
0.061789
0.062057
0.061757
0.064538
0.065866
0.065199
0.066600
0.068187
0.069946
0.071548
0.073412
0.073174
0.073271
0.074698
0.076952
0.078267
0.079061
0.079846
0.080442
0.081965
0.086305
0.085432
0.085281
0.086373
0.088128
0.091491
0.090816
0.091664
0.092683
0.096021
0.095395
0.096222
0.097592
0.098070
0.108533
0.101979
0.101700
0.105127
0.106490
0.107353
0.106581
0.107642
0.119226
0.110636
0.112942
0.113959
0.118141
0.116977
0.120167
0.122451
0.118269
0.123999
0.123680
0.123334
0.124615
0.124204
0.118027
0.118303
0.128305
0.130381
0.130568
0.133951
0.135564
0.134505
0.138401
0.139227
0.137050
0.138948
0.140054
0.143265
0.144796
0.145538
0.146785
0.147847
0.148011
0.149141
0.150942
0.151691
0.153478
0.143903
0.156761
0.161232
0.146609
0.137492
0.158692
0.167870
0.162616
0.165511
0.163745
0.170394
0.169047
0.171011
0.168239
0.172372
0.171500
0.173811
0.175937
0.174445
0.178614
0.179500
0.177619
0.181983
0.179966
0.195361
0.189942
0.183478
0.190065
0.188664
0.191824
0.176158
0.191215
0.192245
0.192113
0.183372
0.193547
0.198168
0.183128
0.186371
0.187173
0.203552
0.174666
0.177430
0.178351
0.207642
0.177701
0.225069
0.223330
0.209285
0.212541
0.207692
0.199804
0.202451
0.216009
0.216253
0.220551
0.221487
0.192495
0.239498
0.179815
0.181168
0.181579
0.183310
0.183628
0.184753
0.184668
0.176090
0.174762
0.193764
0.222205
0.234975
0.242725
0.234743
0.227098
0.226545
0.224720
0.196541
0.190981
0.186555
0.249669
0.236513
0.253477
