Full Time (seconds)
0.452591
Time - I
0.012870
0.035286
0.065614
0.079491
0.103204
0.124102
0.145641
0.167533
0.190778
0.215306
0.238803
0.255051
0.287521
0.308691
0.317401
0.300814
0.302458
0.388063
0.411634
0.440845
0.447840
