Full Accuracy
91.153847
Accuracy - I
50.000000
51.923077
52.846153
53.692307
53.769230
53.769230
53.846157
53.846157
53.846157
53.846157
53.846157
53.923077
54.769230
55.230766
55.846153
56.461536
56.846153
57.230770
57.615387
57.615387
57.692307
58.000000
58.846153
59.153851
59.615387
59.846157
60.000004
60.692303
60.923080
61.076920
61.153847
61.846153
64.153847
64.153847
64.000000
63.846153
63.846153
63.769234
63.769234
63.769234
63.846153
63.846153
63.846153
64.076920
64.153847
64.230766
64.230766
64.230766
64.307693
64.307693
64.307693
64.846153
66.384613
67.153847
67.538467
67.692307
67.846153
67.923073
67.923073
68.076927
68.153847
68.230766
69.692307
70.076927
70.846161
70.923080
71.000000
71.461540
71.461540
71.461540
71.461540
71.538460
72.923073
73.230766
73.307693
73.692307
73.615387
73.846153
74.230774
74.230774
74.461540
74.538460
74.769226
75.461540
75.538460
75.615387
75.692307
76.307693
76.384613
76.461533
76.615387
76.769234
77.153847
78.461540
78.923073
79.461540
79.461540
79.615387
79.692307
79.692307
79.538460
80.923073
81.461540
82.692307
82.923080
82.923080
82.923080
82.923080
82.923080
83.000000
83.076927
82.923080
83.461540
83.923080
84.461540
84.615387
84.846153
84.769234
85.000000
85.230766
85.307693
88.461533
88.461533
88.461533
88.461533
88.538460
88.461533
88.230774
88.230774
88.153847
88.153847
89.615387
90.307693
91.230766
91.307693
91.230766
91.153847
91.076920
91.153847
91.307693
91.153847
