Full Time (seconds)
0.110581
Time - I
0.004446
0.005373
0.006388
0.007288
0.008181
0.009060
0.009865
0.010682
0.011491
0.012244
0.013016
0.013382
0.013555
0.013989
0.014268
0.014772
0.015095
0.015588
0.016064
0.016639
0.016923
0.017654
0.018710
0.019533
0.020301
0.020541
0.021543
0.022094
0.023439
0.024178
0.025756
0.025046
0.025891
0.027630
0.028484
0.029274
0.029255
0.030882
0.031612
0.031458
0.032189
0.033020
0.034729
0.035569
0.035510
0.036505
0.037898
0.038665
0.039014
0.039526
0.040956
0.041995
0.041358
0.042102
0.042847
0.043608
0.044416
0.045830
0.047246
0.048347
0.048068
0.049561
0.050343
0.051163
0.050768
0.051398
0.052019
0.052745
0.055073
0.054232
0.056628
0.055713
0.057619
0.058298
0.058236
0.059222
0.059483
0.060828
0.061826
0.063679
0.064385
0.065146
0.064579
0.065965
0.065523
0.066377
0.069176
0.068663
0.070606
0.071322
0.070203
0.072022
0.071764
0.072973
0.073870
0.074114
0.075415
0.077830
0.078606
0.077599
0.077819
0.078378
0.081064
0.082335
0.083299
0.081262
0.083325
0.085847
0.084725
0.084199
0.085112
0.088599
0.087385
0.090306
0.090908
0.088978
0.090369
0.093360
0.094508
0.094042
0.095786
0.096551
0.094732
0.095567
0.098945
0.096413
0.099488
0.097849
0.102073
0.100000
0.100393
0.101604
0.103755
0.107346
0.106981
0.104078
0.105207
0.106643
0.109928
0.107587
0.111503
