Full Time (seconds)
0.107933
Time - I
0.004571
0.005423
0.006279
0.007180
0.007992
0.008842
0.009732
0.010453
0.011243
0.011971
0.012762
0.013637
0.014427
0.015032
0.015767
0.016753
0.017491
0.018223
0.018772
0.019486
0.020393
0.021029
0.022415
0.022480
0.023448
0.024721
0.025512
0.025952
0.026670
0.027096
0.028393
0.028660
0.029893
0.030518
0.031206
0.032881
0.033113
0.034420
0.035223
0.035080
0.036470
0.036541
0.037579
0.039003
0.039973
0.041253
0.040289
0.042277
0.042051
0.043090
0.043368
0.044653
0.045759
0.045591
0.046795
0.047502
0.047995
0.048600
0.049294
0.050356
0.050858
0.052175
0.052843
0.059267
0.059726
0.055141
0.055561
0.057911
0.057597
0.057719
0.064882
0.064854
0.066118
0.060710
0.066755
0.068969
0.062944
0.064133
0.066099
0.071951
0.065834
0.066980
0.067388
0.077451
0.070893
0.071247
0.072649
0.071172
0.080836
0.079631
0.073860
0.074948
0.075540
0.075966
0.077163
0.077241
0.085337
0.078704
0.080625
0.081105
0.080971
0.082691
0.081514
0.082699
0.083686
0.082729
0.085301
0.083800
0.083932
0.084441
0.085108
0.087442
0.086285
0.095298
0.088757
0.088776
0.092108
0.092900
0.091036
0.095533
0.092685
0.093996
0.094463
0.094828
0.095356
0.096117
0.096866
0.097753
0.099550
0.099325
0.100839
0.100700
0.102306
0.102576
0.103216
0.103895
0.105267
0.108144
0.105894
0.106745
0.108362
