Full Time (seconds)
0.109670
Time - I
0.004651
0.005490
0.006301
0.007142
0.007909
0.008750
0.009519
0.010318
0.011115
0.011908
0.012833
0.013345
0.014149
0.014872
0.015608
0.016375
0.017098
0.017871
0.018623
0.019903
0.020688
0.021178
0.021683
0.022692
0.023186
0.023999
0.024689
0.025433
0.026186
0.027604
0.028470
0.029561
0.030211
0.030863
0.031920
0.031739
0.032878
0.033298
0.034089
0.034819
0.036148
0.036374
0.037108
0.039075
0.039740
0.040545
0.041300
0.040864
0.041536
0.042675
0.043831
0.043935
0.046004
0.046787
0.046094
0.048347
0.049123
0.048929
0.049378
0.050722
0.051050
0.051650
0.052114
0.054654
0.055681
0.055946
0.055902
0.056059
0.057018
0.057486
0.058622
0.058977
0.061884
0.061092
0.063821
0.062323
0.063044
0.063700
0.064598
0.067113
0.066021
0.068584
0.067787
0.068120
0.068833
0.069977
0.070430
0.073879
0.072264
0.073087
0.073845
0.073924
0.074170
0.074534
0.074539
0.076126
0.075228
0.076980
0.076181
0.077293
0.077072
0.077846
0.078637
0.079382
0.080336
0.081160
0.082617
0.083251
0.083731
0.084239
0.084774
0.085868
0.086138
0.087297
0.087743
0.088492
0.089688
0.089848
0.092342
0.093299
0.093397
0.093595
0.093844
0.094734
0.095574
0.097094
0.099382
0.097553
0.099273
0.099063
0.099811
0.104221
0.101544
0.102584
0.104101
0.104038
0.104366
0.105696
0.106072
0.106541
0.111040
