Full Time (seconds)
0.110421
Time - I
0.004575
0.005429
0.006308
0.007263
0.008053
0.008901
0.009729
0.010908
0.011294
0.012009
0.012822
0.013566
0.014289
0.015087
0.016192
0.016572
0.017330
0.018142
0.019183
0.020118
0.020373
0.021646
0.021827
0.022625
0.023438
0.024659
0.024834
0.025625
0.028593
0.027753
0.027903
0.028900
0.030308
0.030748
0.031862
0.032788
0.033625
0.033536
0.034826
0.035453
0.036068
0.041315
0.037873
0.038034
0.039676
0.044150
0.040342
0.041113
0.041803
0.042590
0.043606
0.046131
0.044920
0.051724
0.046607
0.051633
0.053817
0.054371
0.056571
0.052200
0.052420
0.051602
0.053452
0.053205
0.054040
0.054741
0.060439
0.056238
0.057313
0.057695
0.060321
0.061136
0.061817
0.060866
0.061495
0.062268
0.063865
0.063855
0.064607
0.066938
0.066135
0.068594
0.067455
0.068859
0.069231
0.069978
0.070443
0.071690
0.074356
0.074565
0.075833
0.074315
0.074957
0.076326
0.077579
0.077572
0.078097
0.081227
0.082163
0.081478
0.083790
0.082502
0.082618
0.084132
0.084138
0.085104
0.085625
0.091399
0.089907
0.087858
0.089613
0.089037
0.091898
0.089670
0.094112
0.092980
0.090589
0.091083
0.094402
0.094006
0.092235
0.093166
0.096909
0.094685
0.095402
0.096212
0.097269
0.100627
0.099023
0.099149
0.103447
0.100779
0.101459
0.102341
0.103063
0.103741
0.104527
0.105233
0.107224
0.107137
0.107874
