Full Time (seconds)
0.617882
Time - I
0.261055
0.293606
0.289795
0.278289
0.414287
0.389180
0.370730
0.517465
0.536443
0.584033
0.559022
0.669608
0.563223
0.495434
0.329072
0.366839
0.702819
0.707070
0.634156
0.550919
0.849058
