Full Accuracy
96.615387
Accuracy - I
cat: testS_0.svm.acc: No such file or directory
72.000000
79.615387
84.769234
88.769234
91.384613
91.846153
93.153847
93.230774
93.692307
93.307693
94.153847
95.076927
95.692307
96.000000
96.000000
95.461533
95.769234
96.307693
96.538460
96.769234
