Full Time (seconds)
0.058288
Incremental Time - I
0.014671
0.002203
0.003363
0.005883
0.007279
0.011835
0.006857
0.014010
0.017977
0.021923
0.025335
0.027689
0.028421
0.037599
0.048454
0.024864
0.045598
0.048665
0.063818
0.067335
0.069749
Classification Time - C
0.028219
0.026626
0.027268
0.029543
0.035215
0.019972
0.033025
0.052615
0.044492
0.053340
0.078964
0.079733
0.072576
0.064573
0.036044
0.075109
0.075089
0.076768
0.099614
0.082722
