Full Time (seconds)
0.132392
Incremental Time - I
0.000271
0.000323
0.000359
0.000412
0.000438
0.000581
0.000610
0.000690
0.000760
0.000749
0.000777
0.001432
0.001653
0.001947
0.002108
0.002260
0.002478
0.002618
0.002619
0.002838
0.002959
0.004450
0.004833
0.005216
0.005590
0.006183
0.006377
0.006742
0.007060
0.007873
0.008209
0.009319
0.009669
0.009763
0.010010
0.010347
0.010771
0.010852
0.011091
0.011112
0.011326
0.013289
0.013474
0.014439
0.015433
0.014779
0.015604
0.015583
0.018008
0.016092
0.016948
0.020410
0.021487
0.021794
0.022459
0.023185
0.024159
0.024715
0.025502
0.027693
0.027379
0.030234
0.030839
0.031245
0.031857
0.032347
0.032991
0.033171
0.033945
0.034380
0.034764
0.038010
0.042449
0.040988
0.042860
0.041767
0.042379
0.043675
0.045512
0.044487
0.045687
0.050256
0.050905
0.051650
0.053021
0.056735
0.058185
0.057523
0.057364
0.058048
0.058663
0.062302
0.064542
0.065186
0.066005
0.066579
0.070380
0.070504
0.071058
0.071456
0.069601
0.074717
0.075021
0.076029
0.077126
0.078554
0.079336
0.079810
0.080071
0.081237
0.081978
0.087421
0.086740
0.084468
0.085199
0.083013
0.087365
0.087726
0.095531
0.096171
0.097357
0.101875
0.105575
0.107222
0.105648
0.105606
0.106220
0.106795
0.100674
0.100541
0.099187
0.093561
0.093720
0.094625
0.095025
0.095118
0.094906
0.098702
0.096798
0.097036
0.113748
Classification Time - C
cat: testS_0.svm.time: No such file or directory
cat: test1II_0000.svm.time: No such file or directory
cat: test1II_0001.svm.time: No such file or directory
cat: test1II_0002.svm.time: No such file or directory
cat: test1II_0003.svm.time: No such file or directory
cat: test1II_0004.svm.time: No such file or directory
cat: test1II_0005.svm.time: No such file or directory
cat: test1II_0006.svm.time: No such file or directory
cat: test1II_0007.svm.time: No such file or directory
cat: test1II_0008.svm.time: No such file or directory
cat: test1II_0009.svm.time: No such file or directory
cat: test2II_0000.svm.time: No such file or directory
cat: test2II_0001.svm.time: No such file or directory
cat: test2II_0002.svm.time: No such file or directory
cat: test2II_0003.svm.time: No such file or directory
cat: test2II_0004.svm.time: No such file or directory
cat: test2II_0005.svm.time: No such file or directory
cat: test2II_0006.svm.time: No such file or directory
cat: test2II_0007.svm.time: No such file or directory
cat: test2II_0008.svm.time: No such file or directory
cat: test2II_0009.svm.time: No such file or directory
cat: test3II_0000.svm.time: No such file or directory
cat: test3II_0001.svm.time: No such file or directory
cat: test3II_0002.svm.time: No such file or directory
cat: test3II_0003.svm.time: No such file or directory
cat: test3II_0004.svm.time: No such file or directory
cat: test3II_0005.svm.time: No such file or directory
cat: test3II_0006.svm.time: No such file or directory
cat: test3II_0007.svm.time: No such file or directory
cat: test3II_0008.svm.time: No such file or directory
cat: test3II_0009.svm.time: No such file or directory
cat: test4II_0000.svm.time: No such file or directory
cat: test4II_0001.svm.time: No such file or directory
cat: test4II_0002.svm.time: No such file or directory
cat: test4II_0003.svm.time: No such file or directory
cat: test4II_0004.svm.time: No such file or directory
cat: test4II_0005.svm.time: No such file or directory
cat: test4II_0006.svm.time: No such file or directory
cat: test4II_0007.svm.time: No such file or directory
cat: test4II_0008.svm.time: No such file or directory
cat: test4II_0009.svm.time: No such file or directory
cat: test5II_0000.svm.time: No such file or directory
cat: test5II_0001.svm.time: No such file or directory
cat: test5II_0002.svm.time: No such file or directory
cat: test5II_0003.svm.time: No such file or directory
cat: test5II_0004.svm.time: No such file or directory
cat: test5II_0005.svm.time: No such file or directory
cat: test5II_0006.svm.time: No such file or directory
cat: test5II_0007.svm.time: No such file or directory
cat: test5II_0008.svm.time: No such file or directory
cat: test5II_0009.svm.time: No such file or directory
cat: test6II_0000.svm.time: No such file or directory
cat: test6II_0001.svm.time: No such file or directory
cat: test6II_0002.svm.time: No such file or directory
cat: test6II_0003.svm.time: No such file or directory
cat: test6II_0004.svm.time: No such file or directory
cat: test6II_0005.svm.time: No such file or directory
cat: test6II_0006.svm.time: No such file or directory
cat: test6II_0007.svm.time: No such file or directory
cat: test6II_0008.svm.time: No such file or directory
cat: test6II_0009.svm.time: No such file or directory
cat: test7II_0000.svm.time: No such file or directory
cat: test7II_0001.svm.time: No such file or directory
cat: test7II_0002.svm.time: No such file or directory
cat: test7II_0003.svm.time: No such file or directory
cat: test7II_0004.svm.time: No such file or directory
cat: test7II_0005.svm.time: No such file or directory
cat: test7II_0006.svm.time: No such file or directory
cat: test7II_0007.svm.time: No such file or directory
cat: test7II_0008.svm.time: No such file or directory
cat: test7II_0009.svm.time: No such file or directory
cat: test8II_0000.svm.time: No such file or directory
cat: test8II_0001.svm.time: No such file or directory
cat: test8II_0002.svm.time: No such file or directory
cat: test8II_0003.svm.time: No such file or directory
cat: test8II_0004.svm.time: No such file or directory
cat: test8II_0005.svm.time: No such file or directory
cat: test8II_0006.svm.time: No such file or directory
cat: test8II_0007.svm.time: No such file or directory
cat: test8II_0008.svm.time: No such file or directory
cat: test8II_0009.svm.time: No such file or directory
cat: test9II_0000.svm.time: No such file or directory
cat: test9II_0001.svm.time: No such file or directory
cat: test9II_0002.svm.time: No such file or directory
cat: test9II_0003.svm.time: No such file or directory
cat: test9II_0004.svm.time: No such file or directory
cat: test9II_0005.svm.time: No such file or directory
cat: test9II_0006.svm.time: No such file or directory
cat: test9II_0007.svm.time: No such file or directory
cat: test9II_0008.svm.time: No such file or directory
cat: test9II_0009.svm.time: No such file or directory
0.095645
0.098076
0.098917
0.099543
0.101605
0.100640
0.102438
0.102976
0.103019
0.102850
0.105814
0.106055
0.107136
0.106994
0.107376
0.108105
0.109902
0.109040
0.111195
0.110458
0.112117
0.104405
0.105889
0.103653
0.099416
0.108113
0.109017
0.119055
0.119993
0.121014
0.123370
0.125224
0.127885
0.126410
0.129390
0.128273
0.128992
0.121413
0.119379
0.110865
0.111097
0.111390
0.111943
0.111694
0.111985
0.112210
0.114229
0.112668
0.112270
0.131508
