Full Time (seconds)
0.002958
Time - I
0.001558
0.001004
0.001060
0.001121
0.001198
0.001252
0.001337
0.001386
0.001476
0.001542
0.001621
0.001659
0.001727
0.001782
0.002048
0.001938
0.002006
0.002102
0.002126
0.002198
0.002257
0.002330
0.002404
0.002469
0.002532
0.002591
0.002716
0.002874
0.002804
0.002931
0.002974
