Full Time (seconds)
0.003052
Time - I
0.000510
0.000575
0.000639
0.000699
0.000759
0.001387
0.000893
0.000962
0.001031
0.001100
0.001160
0.001189
0.001219
0.001259
0.001334
0.001312
0.001345
0.001402
0.001442
0.001494
0.001538
0.001687
0.001839
0.001956
0.003622
0.002220
0.002353
0.002501
0.002677
0.002817
0.002969
