Full Time (seconds)
0.452651
Time - I
0.015493
0.058395
0.111919
0.130912
0.197135
0.231344
0.279075
0.306375
0.323372
0.398069
0.360054
0.446840
0.454311
0.396615
0.447648
0.458050
0.468096
0.452584
0.515536
0.462620
0.454654
