Full Time (seconds)
0.387432
Time - I
0.012916
0.030335
0.056307
0.079451
0.101230
0.137865
0.146467
0.221027
0.179356
0.223443
0.232673
0.229366
0.279288
0.300473
0.292722
0.321509
0.391020
0.390740
0.342070
0.324086
0.438486
