Full Time (seconds)
0.000800
Incremental Time - I
0.000493
0.000216
0.000275
0.000497
0.000530
0.000566
0.000658
0.000630
0.000662
0.000846
0.000950
0.001467
0.001278
0.001991
0.002260
0.004008
0.003056
0.003555
0.004345
0.004507
0.004185
Classification Time - C
0.000480
0.000442
0.000491
0.000484
0.000540
0.000563
0.000579
0.000580
0.000596
0.000614
0.000654
0.000660
0.000673
0.000681
0.000703
0.000735
0.000753
0.000788
0.000836
0.000809
