Full Time (seconds)
0.000793
Incremental Time - I
0.000390
0.000125
0.000286
0.000436
0.000471
0.000777
0.001103
0.000743
0.000923
0.001081
0.001394
0.001442
0.001274
0.001560
0.002814
0.004063
0.004610
0.004863
0.005438
0.005117
0.004443
Classification Time - C
0.000254
0.000488
0.000531
0.000542
0.000509
0.000526
0.000528
0.000546
0.000653
0.000569
0.000565
0.000576
0.000629
0.000636
0.000685
0.000740
0.000746
0.000799
0.000782
0.000823
