Full Time (seconds)
0.016084
Time - I
0.002036
0.002722
0.003395
0.004002
0.004701
0.005382
0.006022
0.006726
0.007425
0.008080
0.009025
0.009594
0.010195
0.010961
0.011565
0.012375
0.013153
0.014373
0.014407
0.015918
0.016705
