Full Time (seconds)
0.014721
Time - I
0.003683
0.002724
0.003352
0.004389
0.004721
0.005387
0.006076
0.006672
0.007333
0.008152
0.008857
0.010932
0.010292
0.010942
0.012026
0.013495
0.011948
0.012870
0.013978
0.014662
0.015408
