Full Time (seconds)
0.016681
Time - I
0.004022
0.004557
0.005199
0.005742
0.006304
0.006822
0.007536
0.008018
0.008590
0.009145
0.010833
0.010409
0.010953
0.011571
0.012523
0.013204
0.014423
0.014732
0.014563
0.015657
0.015851
