Full Time (seconds)
0.105709
Time - I
0.004099
0.004212
0.005526
0.004887
0.005125
0.006444
0.005890
0.006351
0.006771
0.007221
0.007727
0.008425
0.009166
0.009970
0.010779
0.011440
0.012270
0.012968
0.013709
0.014412
0.015458
0.017979
0.017943
0.017736
0.018664
0.021573
0.021720
0.020438
0.022908
0.024608
0.022677
0.023592
0.026899
0.024980
0.025827
0.026481
0.027310
0.028967
0.028717
0.030015
0.030267
0.030978
0.034430
0.032494
0.033706
0.034388
0.034793
0.035733
0.036285
0.036951
0.037867
0.039002
0.039855
0.039971
0.040848
0.042171
0.046307
0.043275
0.045819
0.045354
0.045593
0.048468
0.048221
0.047664
0.048476
0.049345
0.050830
0.052378
0.052876
0.052334
0.057839
0.055052
0.056788
0.055323
0.057080
0.056554
0.057678
0.059927
0.058831
0.050917
0.060116
0.060934
0.043565
0.044459
0.063385
0.069743
0.064778
0.065544
0.069830
0.067081
0.076895
0.069652
0.069576
0.071798
0.071508
0.071931
0.072687
0.062618
0.073719
0.079365
0.075619
0.079131
0.076706
0.079092
0.078329
0.081606
0.079846
0.081185
0.069695
0.070222
0.075241
0.078576
0.084953
0.085032
0.086119
0.086906
0.088215
0.096447
0.091769
0.089826
0.090813
0.099598
0.091721
0.091665
0.086610
0.094800
0.094760
0.096113
0.097489
0.097487
0.098974
0.087562
0.086928
0.100399
0.103423
0.101975
0.102225
0.103194
0.114832
0.108258
0.105973
