Full Time (seconds)
0.002779
Time - I
0.000840
0.000949
0.000990
0.001086
0.001158
0.001232
0.001323
0.001450
0.001463
0.001558
0.001647
0.001762
0.001854
0.001951
0.002051
0.002172
0.002286
0.002410
0.002528
0.002637
0.002779
