Full Time (seconds)
0.002753
Time - I
0.000442
0.000558
0.000673
0.000784
0.000891
0.001015
0.001103
0.001212
0.001315
0.001435
0.001538
0.001627
0.001739
0.001833
0.001937
0.002075
0.002189
0.002362
0.002777
0.002628
0.002760
