Full Time (seconds)
0.177943
Time - I
0.002279
0.003431
0.004596
0.006164
0.007285
0.008413
0.009841
0.010927
0.011973
0.013400
0.014579
0.015718
0.017322
0.018366
0.019387
0.021235
0.021155
0.021855
0.022562
0.024101
0.024802
0.026229
0.027337
0.028514
0.029827
0.030897
0.031945
0.033795
0.034707
0.035762
0.037268
0.038018
0.039172
0.041050
0.041641
0.042690
0.044791
0.045200
0.046709
0.048202
0.049250
0.049758
0.051758
0.052297
0.053410
0.054753
0.055864
0.057397
0.059396
0.060413
0.061391
0.062489
0.063042
0.064143
0.065481
0.066986
0.067665
0.070246
0.070157
0.071916
0.072668
0.073620
0.074700
0.076718
0.077947
0.079580
0.079752
0.080917
0.081841
0.083219
0.084843
0.086341
0.088139
0.089624
0.089004
0.091417
0.091431
0.094039
0.095063
0.095387
0.096806
0.099470
0.099041
0.099842
0.101074
0.102696
0.103346
0.104661
0.106227
0.106883
0.108252
0.109871
0.113140
0.111802
0.113308
0.114740
0.115726
0.116457
0.117297
0.119274
0.119942
0.121025
0.122957
0.123580
0.124471
0.125974
0.127575
0.129250
0.129469
0.130570
0.131762
0.133049
0.134493
0.135142
0.136678
0.137715
0.138716
0.140533
0.141203
0.142725
0.143686
0.147405
0.146226
0.149097
0.149063
0.149330
0.148148
0.140229
0.141332
0.142454
0.145998
0.144825
0.157888
0.152772
0.162760
0.161546
0.150033
0.150946
0.165463
0.166025
0.167850
0.171601
0.170533
0.172958
0.163191
0.159829
0.163171
0.176105
0.169911
0.181086
0.176340
0.166345
0.169354
0.168595
0.171601
0.170749
0.175074
0.173032
0.177035
0.175483
0.176636
0.177202
0.179809
0.166643
0.167478
0.169386
0.172731
0.201675
0.178159
0.205114
0.204567
0.203887
0.205930
0.206273
0.192239
0.194971
0.180350
0.180788
0.169598
0.172867
0.172043
0.175572
0.173333
0.176872
0.175537
0.176234
0.177645
0.180723
0.203596
0.196175
0.226266
0.228624
0.229337
0.213861
0.210120
0.198988
0.200526
0.200954
0.202426
0.202947
0.206686
0.205351
0.180690
0.184942
0.195575
0.195551
0.196161
0.197751
0.198356
0.199218
0.201638
