Full Time (seconds)
0.002587
Time - I
0.000358
0.000471
0.000557
0.000653
0.000781
0.000868
0.000951
0.001069
0.001164
0.001251
0.001363
0.001459
0.001559
0.001648
0.001829
0.001969
0.002034
0.002168
0.002319
0.002448
0.002552
