Full Time (seconds)
0.257307
Incremental Time - I
0.000116
0.000039
0.000039
0.000039
0.000248
0.000320
0.000417
0.000714
0.000851
0.001063
0.001428
0.002060
0.001771
0.002468
0.002568
0.003150
0.003634
0.004139
0.004523
0.005412
0.005729
0.006165
0.007153
0.007446
0.008060
0.009070
0.009344
0.009726
0.011186
0.012293
0.012339
0.013675
0.014386
0.015720
0.016662
0.016838
0.017653
0.020591
0.019979
0.021070
0.022869
0.023548
0.024563
0.028223
0.027364
0.030506
0.032911
0.031132
0.033547
0.036334
0.037347
0.038762
0.040779
0.041560
0.041497
0.043803
0.046259
0.045581
0.047708
0.049356
0.050880
0.053252
0.054355
0.056238
0.059503
0.060353
0.062422
0.065155
0.066430
0.068490
0.071803
0.072257
0.079222
0.076986
0.078716
0.085692
0.088317
0.090657
0.092945
0.091125
0.091539
0.096687
0.103518
0.099765
0.099651
0.103386
0.105147
0.109599
0.111423
0.112659
0.113805
0.125345
0.127102
0.122208
0.133285
0.127057
0.134647
0.135039
0.146522
0.139951
0.154111
0.146259
0.159825
0.156102
0.161467
0.157601
0.161676
0.163073
0.167005
0.168661
0.167833
0.169122
0.174469
0.182039
0.181220
0.189652
0.195250
0.196102
0.201215
0.209971
0.205665
0.212646
0.223341
0.210864
0.220627
0.224071
0.234933
0.234064
0.236285
0.238823
0.243554
0.246031
0.250082
0.262861
0.257593
0.260667
0.266624
0.270232
0.271508
0.281841
0.278980
0.281486
0.287614
0.289907
0.295509
0.300740
0.303124
0.306493
0.307232
0.292731
0.318932
0.326131
0.328147
0.319402
0.338264
0.326919
0.336690
0.352340
0.355883
0.343291
0.360488
0.370404
0.375359
0.382487
0.367670
0.378988
0.397637
0.403120
0.406203
0.413474
0.333117
0.407513
0.401633
0.414414
0.423087
0.436335
0.435469
0.445849
0.452772
0.382761
0.424178
0.469677
0.474162
0.467073
0.477674
0.494142
0.479694
0.473377
0.504823
0.407687
0.517600
0.510318
0.495282
0.515620
0.472665
0.514106
0.561459
0.530014
0.553574
0.570131
0.531236
0.324418
0.317832
0.294105
0.267515
0.301632
0.292525
0.273923
0.578057
0.603811
0.532091
Classification Time - C
cat: testS_0.svm.time: No such file or directory
cat: test1II_0000.svm.time: No such file or directory
cat: test1II_0001.svm.time: No such file or directory
cat: test1II_0002.svm.time: No such file or directory
cat: test2II_0000.svm.time: No such file or directory
cat: test2II_0001.svm.time: No such file or directory
cat: test2II_0002.svm.time: No such file or directory
cat: test3II_0000.svm.time: No such file or directory
cat: test3II_0001.svm.time: No such file or directory
cat: test3II_0002.svm.time: No such file or directory
cat: test4II_0000.svm.time: No such file or directory
cat: test4II_0001.svm.time: No such file or directory
cat: test4II_0002.svm.time: No such file or directory
cat: test5II_0000.svm.time: No such file or directory
cat: test5II_0001.svm.time: No such file or directory
cat: test5II_0002.svm.time: No such file or directory
cat: test6II_0000.svm.time: No such file or directory
cat: test6II_0001.svm.time: No such file or directory
cat: test6II_0002.svm.time: No such file or directory
cat: test7II_0000.svm.time: No such file or directory
0.087108
0.088279
0.089492
0.090794
0.091407
0.092388
0.093815
cat: test9II_0002.svm.time: No such file or directory
cat: test10II_0000.svm.time: No such file or directory
cat: test10II_0001.svm.time: No such file or directory
cat: test10II_0002.svm.time: No such file or directory
0.102946
0.104594
0.106173
0.107600
0.108951
0.110773
0.112039
0.113317
0.117326
0.116909
0.118321
0.120459
0.123451
0.124035
0.124981
cat: test16II_0000.svm.time: No such file or directory
cat: test16II_0001.svm.time: No such file or directory
cat: test16II_0002.svm.time: No such file or directory
cat: test17II_0000.svm.time: No such file or directory
cat: test17II_0001.svm.time: No such file or directory
cat: test17II_0002.svm.time: No such file or directory
cat: test18II_0000.svm.time: No such file or directory
cat: test18II_0001.svm.time: No such file or directory
cat: test18II_0002.svm.time: No such file or directory
cat: test19II_0000.svm.time: No such file or directory
cat: test19II_0001.svm.time: No such file or directory
cat: test19II_0002.svm.time: No such file or directory
cat: test20II_0000.svm.time: No such file or directory
cat: test20II_0001.svm.time: No such file or directory
cat: test20II_0002.svm.time: No such file or directory
cat: test21II_0000.svm.time: No such file or directory
cat: test21II_0001.svm.time: No such file or directory
cat: test21II_0002.svm.time: No such file or directory
cat: test22II_0000.svm.time: No such file or directory
cat: test22II_0001.svm.time: No such file or directory
cat: test22II_0002.svm.time: No such file or directory
cat: test23II_0000.svm.time: No such file or directory
cat: test23II_0001.svm.time: No such file or directory
cat: test23II_0002.svm.time: No such file or directory
cat: test24II_0000.svm.time: No such file or directory
cat: test24II_0001.svm.time: No such file or directory
cat: test24II_0002.svm.time: No such file or directory
cat: test25II_0000.svm.time: No such file or directory
cat: test25II_0001.svm.time: No such file or directory
cat: test25II_0002.svm.time: No such file or directory
cat: test26II_0000.svm.time: No such file or directory
cat: test26II_0001.svm.time: No such file or directory
cat: test26II_0002.svm.time: No such file or directory
cat: test27II_0000.svm.time: No such file or directory
cat: test27II_0001.svm.time: No such file or directory
cat: test27II_0002.svm.time: No such file or directory
cat: test28II_0000.svm.time: No such file or directory
cat: test28II_0001.svm.time: No such file or directory
cat: test28II_0002.svm.time: No such file or directory
cat: test29II_0000.svm.time: No such file or directory
cat: test29II_0001.svm.time: No such file or directory
cat: test29II_0002.svm.time: No such file or directory
cat: test30II_0000.svm.time: No such file or directory
cat: test30II_0001.svm.time: No such file or directory
cat: test30II_0002.svm.time: No such file or directory
cat: test31II_0000.svm.time: No such file or directory
cat: test31II_0001.svm.time: No such file or directory
cat: test31II_0002.svm.time: No such file or directory
cat: test32II_0000.svm.time: No such file or directory
cat: test32II_0001.svm.time: No such file or directory
cat: test32II_0002.svm.time: No such file or directory
cat: test33II_0000.svm.time: No such file or directory
cat: test33II_0001.svm.time: No such file or directory
cat: test33II_0002.svm.time: No such file or directory
cat: test34II_0000.svm.time: No such file or directory
cat: test34II_0001.svm.time: No such file or directory
cat: test34II_0002.svm.time: No such file or directory
0.204355
0.202605
0.215718
0.230220
0.228559
0.225413
0.228965
0.230646
0.232010
0.237683
0.234370
0.234298
cat: test39II_0000.svm.time: No such file or directory
cat: test39II_0001.svm.time: No such file or directory
cat: test39II_0002.svm.time: No such file or directory
cat: test40II_0000.svm.time: No such file or directory
cat: test40II_0001.svm.time: No such file or directory
cat: test40II_0002.svm.time: No such file or directory
cat: test41II_0000.svm.time: No such file or directory
cat: test41II_0001.svm.time: No such file or directory
cat: test41II_0002.svm.time: No such file or directory
cat: test42II_0000.svm.time: No such file or directory
cat: test42II_0001.svm.time: No such file or directory
cat: test42II_0002.svm.time: No such file or directory
cat: test43II_0000.svm.time: No such file or directory
cat: test43II_0001.svm.time: No such file or directory
cat: test43II_0002.svm.time: No such file or directory
cat: test44II_0000.svm.time: No such file or directory
cat: test44II_0001.svm.time: No such file or directory
cat: test44II_0002.svm.time: No such file or directory
cat: test45II_0000.svm.time: No such file or directory
cat: test45II_0001.svm.time: No such file or directory
cat: test45II_0002.svm.time: No such file or directory
cat: test46II_0000.svm.time: No such file or directory
cat: test46II_0001.svm.time: No such file or directory
cat: test46II_0002.svm.time: No such file or directory
0.297488
0.275318
0.250647
0.279921
0.301533
0.297530
0.280188
0.257812
0.269392
0.261269
0.280472
0.314582
0.266293
0.312886
0.269602
0.271774
0.318835
0.275781
0.277912
0.292144
0.327823
0.282916
0.336053
0.288527
0.294943
0.286414
0.288534
0.275163
0.345168
0.350318
0.200534
0.265918
0.302037
0.288019
0.296022
0.302526
0.288192
0.207416
0.362480
0.209613
0.283539
0.370874
0.222548
0.374173
0.222135
0.223175
0.376691
0.315191
0.385504
0.222022
0.278855
0.336097
0.317792
0.401239
0.228653
0.408692
0.315582
0.384106
0.327942
0.414936
0.411882
0.245969
0.251397
0.227061
0.212741
0.206773
0.205890
0.184852
0.428449
0.433046
0.433677
0.426600
