Full Accuracy
80.035912
Accuracy - I
cat: testS_0.svm.acc: No such file or directory
51.481483
54.380371
55.406044
56.652588
60.726662
63.361965
66.958878
68.440369
70.619873
72.058632
73.433319
75.135666
77.051590
78.618507
79.686905
80.384918
79.273811
80.798012
79.708260
80.035912
