Full Time (seconds)
0.002774
Time - I
0.000442
0.000505
0.000559
0.000628
0.000669
0.000736
0.000801
0.000904
0.000932
0.001056
0.001066
0.001100
0.001110
0.001135
0.001165
0.001208
0.001312
0.001274
0.001345
0.001364
0.001392
0.001543
0.001666
0.001805
0.001933
0.002076
0.002215
0.002340
0.002491
0.002692
0.002797
