Full Time (seconds)
0.032872
Incremental Time - I
0.006465
0.000371
0.000463
0.001504
0.001517
0.001631
0.001812
0.001988
0.002126
0.002376
0.002485
0.001718
0.001505
0.001142
0.001641
0.001847
0.001849
0.001941
0.001998
0.002042
0.001958
0.001294
0.000914
0.001471
0.001526
0.001486
0.001506
0.001546
0.001074
0.001628
0.001716
Classification Time - I
0.004999
0.006376
0.007572
0.009081
0.010525
0.012095
0.014269
0.015878
0.017044
0.017982
0.019084
0.019736
0.020553
0.021545
0.021995
0.023561
0.024390
0.024176
0.025976
0.025931
0.027513
0.027894
0.028289
0.027298
0.032230
0.028056
0.013704
0.030301
0.030566
0.030151
