Full Accuracy
93.000000
Accuracy - I
50.000000
60.923077
70.076927
74.538460
79.230766
83.153847
84.461540
85.384613
86.692307
87.230774
87.692307
89.000000
89.307693
90.000000
91.000000
91.384613
91.923073
92.153847
92.846153
93.000000
93.000000
