Full Accuracy
93.000000
Accuracy - I
50.000000
62.153847
71.000000
75.846153
80.000000
82.846153
83.615387
84.923080
85.692307
86.846153
87.384621
88.230774
89.692307
90.769234
91.076920
91.538460
92.307693
92.384613
92.538467
93.000000
93.000000
