Full Accuracy
93.000000
Accuracy - I
50.000000
62.230766
70.153847
73.923073
78.000000
82.307693
84.538460
85.307693
86.461540
86.923073
87.230774
88.538460
88.846153
89.461540
90.384613
91.230766
91.769234
91.923073
92.615387
92.846153
93.000000
