Full Time (seconds)
0.117267
Time - I
0.004296
0.008418
0.013124
0.017502
0.022391
0.026401
0.029849
0.033368
0.037786
0.042521
0.045805
0.053211
0.058030
0.063982
0.069265
0.082228
0.107125
0.092478
0.098266
0.105667
0.115732
