Full Time (seconds)
0.076488
Time - I
0.004221
0.008694
0.012911
0.017015
0.021149
0.025121
0.029214
0.033283
0.037332
0.041397
0.045441
0.052714
0.057534
0.064182
0.060720
0.083605
0.089857
0.098367
0.103125
0.113337
0.083654
