Full Time (seconds)
0.108046
Time - I
0.004303
0.010486
0.014622
0.017759
0.019786
0.024925
0.026892
0.030695
0.034417
0.038489
0.042235
0.047556
0.053136
0.070292
0.069532
0.075581
0.087248
0.090759
0.082982
0.105718
0.116742
