Full Time (seconds)
0.109941
Time - I
0.004320
0.008597
0.012810
0.016955
0.021130
0.025062
0.030005
0.035288
0.040548
0.044944
0.049325
0.056001
0.059660
0.068022
0.070461
0.075917
0.081713
0.099831
0.098879
0.096490
0.106278
