Full Time (seconds)
0.106370
Time - I
0.004307
0.008690
0.013309
0.016771
0.020845
0.027432
0.030932
0.036775
0.037841
0.044260
0.046772
0.051290
0.058667
0.063852
0.096558
0.084358
0.091910
0.097501
0.094057
0.100322
0.106644
