Full Time (seconds)
0.106103
Time - I
0.004262
0.008490
0.012915
0.017472
0.020820
0.024931
0.029400
0.033101
0.037382
0.041955
0.045322
0.052027
0.059935
0.063601
0.069894
0.080270
0.082301
0.090223
0.097755
0.103646
0.108460
