Full Accuracy
94.923080
Accuracy - I
50.000000
70.692307
76.230774
81.230774
83.846161
87.769226
89.384613
90.230766
90.230766
91.230766
91.461540
92.615387
93.461540
93.538460
93.384621
94.000000
94.230774
94.153847
94.538460
95.000000
94.923080
