Full Accuracy
94.923080
Accuracy - I
50.000000
72.999992
77.692314
82.000000
85.923073
88.923080
89.076927
89.692307
89.846153
90.923080
91.230766
92.153847
93.307693
93.769226
93.923073
94.230774
94.307693
94.307693
94.538460
95.000000
94.923080
