Full Time (seconds)
0.105333
Time - I
0.004045
0.007995
0.012049
0.019727
0.020163
0.025212
0.028266
0.032297
0.038255
0.041699
0.044812
0.050868
0.058273
0.062462
0.074592
0.083444
0.111000
0.086862
0.092985
0.099106
0.107154
