Full Time (seconds)
0.115183
Time - I
0.003906
0.007975
0.012660
0.016069
0.020146
0.020750
0.028483
0.032896
0.036409
0.040501
0.045226
0.055611
0.063050
0.063145
0.068922
0.083980
0.089053
0.087048
0.101756
0.112338
0.119326
