Full Time (seconds)
0.112420
Time - I
0.004709
0.005503
0.006317
0.007189
0.007978
0.008808
0.009953
0.009570
0.010224
0.010923
0.011814
0.012680
0.014180
0.014854
0.015617
0.016391
0.015984
0.017887
0.018632
0.019394
0.020151
0.021488
0.021647
0.022372
0.023612
0.024666
0.025674
0.026230
0.026192
0.026980
0.027753
0.029944
0.029611
0.030181
0.030977
0.031821
0.032503
0.029927
0.033984
0.034819
0.035711
0.036422
0.037055
0.038139
0.039112
0.039348
0.030488
0.040971
0.041700
0.042431
0.032472
0.033415
0.033750
0.046840
0.046199
0.047020
0.047692
0.053399
0.050171
0.042801
0.044653
0.044812
0.052084
0.053056
0.053884
0.056289
0.055230
0.055931
0.057047
0.054689
0.053700
0.061872
0.060156
0.061648
0.061265
0.064092
0.062915
0.063557
0.064714
0.065397
0.066215
0.066648
0.067751
0.068338
0.063737
0.059551
0.070336
0.072152
0.071806
0.072535
0.073244
0.073663
0.074333
0.074655
0.074459
0.076519
0.064576
0.064815
0.065891
0.065605
0.077151
0.083333
0.080029
0.079612
0.079922
0.080785
0.081561
0.082732
0.083357
0.084462
0.085294
0.095780
0.086450
0.088558
0.089053
0.089791
0.090519
0.091880
0.091015
0.091567
0.094958
0.092985
0.095048
0.096305
0.098186
0.101245
0.109496
0.104028
0.106478
0.107550
0.100464
0.106415
0.106066
0.106933
0.103549
0.104101
0.108853
0.109255
0.109484
0.107295
0.110108
