Full Time (seconds)
0.112568
Time - I
0.004760
0.005618
0.006370
0.007239
0.008062
0.008159
0.009554
0.010365
0.011144
0.011897
0.011843
0.013370
0.014367
0.014860
0.014308
0.016737
0.017188
0.017872
0.018008
0.020781
0.022417
0.023097
0.017311
0.017895
0.018522
0.019118
0.022816
0.028837
0.029525
0.027365
0.028105
0.032206
0.032217
0.030152
0.032732
0.034819
0.036382
0.035922
0.038656
0.038795
0.038547
0.036192
0.036080
0.036347
0.039128
0.037079
0.037518
0.039095
0.038562
0.039465
0.039583
0.040410
0.045654
0.041507
0.042648
0.044381
0.043986
0.044802
0.045292
0.046637
0.046778
0.047686
0.048301
0.049134
0.053144
0.050539
0.051366
0.052168
0.054111
0.057899
0.054818
0.060047
0.056378
0.056865
0.059405
0.056680
0.058795
0.060248
0.066121
0.061358
0.065642
0.062623
0.063901
0.064165
0.064906
0.069139
0.066493
0.069518
0.067939
0.074293
0.069417
0.070224
0.071030
0.071703
0.072525
0.074978
0.074074
0.084541
0.078614
0.065308
0.066750
0.085585
0.079107
0.079939
0.081175
0.083456
0.091499
0.086152
0.084511
0.093123
0.085363
0.085771
0.079522
0.081729
0.084526
0.081525
0.088779
0.089854
0.093580
0.091735
0.092078
0.093126
0.093601
0.094867
0.095089
0.096947
0.096498
0.097570
0.091321
0.091754
0.093762
0.092838
0.097614
0.105059
0.102745
0.104541
0.105917
0.107038
0.107520
0.108825
0.109310
