Full Time (seconds)
0.108709
Time - I
0.004669
0.005863
0.007981
0.007305
0.008060
0.010018
0.011058
0.012110
0.011347
0.012140
0.012978
0.013900
0.014372
0.015123
0.016045
0.017463
0.017316
0.018041
0.018811
0.018536
0.021780
0.024982
0.022648
0.022640
0.023340
0.024773
0.025132
0.025577
0.026467
0.027262
0.026044
0.028865
0.029705
0.025515
0.031340
0.032124
0.033628
0.033498
0.034736
0.035398
0.038540
0.037230
0.037299
0.038215
0.038780
0.040354
0.040295
0.041103
0.042471
0.042786
0.045826
0.045179
0.044980
0.046060
0.046325
0.047460
0.050636
0.048930
0.057368
0.050404
0.051160
0.051996
0.058739
0.051493
0.053940
0.054893
0.055864
0.056369
0.056822
0.059652
0.060645
0.067823
0.059978
0.060783
0.063759
0.062805
0.065009
0.063632
0.072884
0.064985
0.066022
0.074957
0.076088
0.075867
0.072893
0.069979
0.077596
0.071238
0.072160
0.074638
0.073513
0.077693
0.075043
0.075726
0.078379
0.079701
0.078881
0.077496
0.079612
0.084904
0.090697
0.090113
0.088446
0.091966
0.084407
0.093298
0.086136
0.086367
0.087251
0.096864
0.088512
0.097926
0.092239
0.090220
0.090393
0.090700
0.091223
0.102843
0.092034
0.092043
0.092188
0.093356
0.094207
0.094707
0.080892
0.076982
0.097383
0.098382
0.098863
0.099217
0.099961
0.102674
0.105479
0.092454
0.104504
0.111728
0.104410
0.137134
0.109353
0.107146
0.110365
