Full Time (seconds)
0.107387
Time - I
0.004407
0.005352
0.006254
0.010122
0.008434
0.009135
0.009714
0.012575
0.012560
0.013812
0.014472
0.014875
0.014425
0.015361
0.016030
0.016757
0.018082
0.018358
0.019259
0.019726
0.020950
0.024598
0.021998
0.022675
0.023437
0.024323
0.027072
0.027358
0.027177
0.029775
0.028925
0.031304
0.030156
0.031983
0.031215
0.034660
0.032804
0.033515
0.034315
0.037982
0.036372
0.036547
0.037451
0.041276
0.039383
0.040006
0.044200
0.041588
0.057311
0.042769
0.043484
0.048117
0.048562
0.049499
0.047725
0.047336
0.045824
0.045821
0.046254
0.046902
0.048018
0.048605
0.066275
0.049563
0.052116
0.051240
0.055568
0.056218
0.055744
0.054929
0.057260
0.058166
0.060220
0.057080
0.060123
0.062618
0.061063
0.060286
0.061206
0.063456
0.064216
0.063426
0.064147
0.065080
0.067881
0.069735
0.066930
0.067558
0.072186
0.069108
0.070450
0.071085
0.071834
0.075884
0.076642
0.073600
0.074358
0.075170
0.077577
0.076769
0.077370
0.079900
0.078809
0.082183
0.084325
0.084652
0.085617
0.084623
0.083754
0.086389
0.086897
0.087549
0.090672
0.093231
0.089950
0.089409
0.089537
0.095835
0.095169
0.095155
0.093017
0.093268
0.097747
0.094941
0.095519
0.096682
0.100784
0.101683
0.100435
0.099336
0.139340
0.101462
0.101741
0.104426
0.103558
0.104318
0.104810
0.105407
0.109003
0.111793
0.112916
