Full Time (seconds)
0.120379
Time - I
0.004640
0.005470
0.006180
0.006983
0.007808
0.008662
0.009280
0.010061
0.011085
0.011909
0.013073
0.013194
0.014067
0.014861
0.017617
0.017985
0.017698
0.018136
0.018802
0.020609
0.020333
0.022576
0.021442
0.024951
0.023586
0.035537
0.027614
0.025196
0.026192
0.026740
0.028233
0.029057
0.029008
0.031616
0.033299
0.031509
0.032254
0.032764
0.036475
0.036901
0.035798
0.039343
0.037847
0.037477
0.038486
0.041094
0.042895
0.040477
0.041682
0.042011
0.042665
0.046315
0.047101
0.044896
0.045718
0.046475
0.047668
0.047977
0.052011
0.050936
0.050283
0.051421
0.051759
0.054610
0.056326
0.054252
0.059062
0.055799
0.056671
0.057085
0.058286
0.058533
0.060633
0.064019
0.065636
0.061708
0.063930
0.062985
0.063754
0.064695
0.065356
0.066141
0.066821
0.067666
0.068808
0.077334
0.071644
0.071125
0.073235
0.076063
0.076459
0.075660
0.083372
0.075753
0.076043
0.077117
0.077429
0.078175
0.082530
0.082594
0.082192
0.091942
0.082502
0.082830
0.086412
0.084243
0.085228
0.085678
0.086494
0.089585
0.089036
0.089353
0.089858
0.092078
0.095296
0.096595
0.092979
0.093675
0.098356
0.102605
0.095622
0.096300
0.096274
0.099801
0.101013
0.106467
0.097863
0.099091
0.099133
0.099323
0.110073
0.100830
0.112491
0.095535
0.094892
0.106332
0.105240
0.106636
0.108257
0.110233
0.118066
