Full Time (seconds)
0.151860
Incremental Time - I
0.000179
0.000047
0.000059
0.000073
0.000067
0.000079
0.000106
0.000085
0.000096
0.000132
0.000100
0.000112
0.000148
0.000063
0.000095
0.000100
0.000133
0.000144
0.000178
0.000153
0.000162
0.000209
0.000174
0.000184
0.000240
0.000204
0.000207
0.000262
0.000220
0.000217
0.000295
0.000232
0.000236
0.000310
0.000251
0.000251
0.000330
0.000269
0.000274
0.001796
0.001392
0.001041
0.001013
0.000940
0.000907
0.000965
0.001021
0.000980
0.001082
0.000946
0.001004
0.001081
0.001004
0.000943
0.001052
0.001057
0.001058
0.001153
0.000955
0.001090
0.001100
0.001005
0.000941
0.001174
0.001061
0.001029
0.001193
0.001138
0.001107
0.001219
0.001146
0.001118
0.001317
0.001247
0.001164
0.001430
0.001266
0.001088
0.001302
0.001158
0.001253
0.001351
0.001302
0.001235
0.001403
0.001258
0.001225
0.001500
0.001231
0.001173
0.001410
0.001283
0.001369
0.001462
0.001342
0.001294
0.001542
0.001289
0.001334
0.001466
0.001397
0.001343
0.001641
0.001522
0.001463
0.001611
0.001406
0.001420
0.001618
0.001467
0.001506
0.001774
0.001558
0.001641
0.001858
0.001577
0.001560
0.001854
0.001635
0.001562
0.001798
0.001747
0.001635
0.001935
0.001552
0.001523
0.001713
0.001488
0.001503
0.001737
0.001471
0.001513
0.001755
0.001485
0.001521
0.001727
0.001485
0.001514
0.001703
0.001466
0.001503
0.001628
0.001570
0.001450
0.001762
0.001492
0.001505
0.001755
0.001460
0.001423
0.001593
0.001331
0.001289
0.001626
0.001506
0.001535
0.001711
0.001451
0.001388
0.001683
0.001552
0.001562
0.001626
0.001444
0.001464
0.001647
0.001467
0.001444
0.001660
0.001446
0.001418
0.001682
0.001719
0.001756
0.002147
0.001934
0.001871
0.002177
0.001911
0.001869
0.002153
0.001763
0.001659
0.002053
0.001594
0.001802
0.001954
0.001786
0.001702
0.002015
0.001690
0.001741
0.001850
0.001603
0.001592
0.001843
0.001527
0.001581
0.001881
0.001677
0.001633
0.002097
0.001664
0.001587
0.001869
0.001547
0.001559
0.001854
0.001566
0.001690
0.001871
Classification Time - I
0.003245
0.004455
0.006054
0.007226
0.008409
0.009983
0.011167
0.012462
0.014119
0.015171
0.016586
0.017966
0.018341
0.019735
0.019909
0.021400
0.022668
0.023853
0.025017
0.026583
0.028233
0.029439
0.030603
0.031687
0.032876
0.034887
0.035746
0.037447
0.038705
0.039189
0.040827
0.042137
0.043071
0.045008
0.045384
0.047364
0.049044
0.049296
0.050865
0.052782
0.053158
0.054857
0.055962
0.056883
0.058955
0.060891
0.061703
0.062489
0.064325
0.065866
0.066328
0.067620
0.069223
0.070229
0.071385
0.072789
0.075384
0.075242
0.076581
0.078517
0.079414
0.080364
0.083181
0.083081
0.084320
0.086189
0.087941
0.088266
0.090023
0.092434
0.093924
0.093675
0.095238
0.095966
0.097613
0.099164
0.099999
0.102591
0.104486
0.105525
0.105469
0.106980
0.107635
0.109090
0.111130
0.113769
0.112942
0.115922
0.116716
0.118845
0.118522
0.118999
0.121032
0.121733
0.124757
0.126632
0.126248
0.126991
0.130524
0.131978
0.131198
0.132413
0.133669
0.136863
0.133682
0.129385
0.127696
0.139655
0.140818
0.143442
0.143542
0.145310
0.145917
0.147464
0.151283
0.150134
0.152388
0.152453
0.154748
0.158024
0.158051
0.157675
0.155575
0.147713
0.148714
0.150129
0.151563
0.152671
0.153661
0.155541
0.156173
0.151041
0.147263
0.148942
0.152197
0.153407
0.151452
0.153343
0.156186
0.154645
0.156676
0.156950
0.159157
0.159426
0.162507
0.161580
0.159789
0.153012
0.153716
0.145048
0.146020
0.156532
0.157656
0.159778
0.159732
0.154947
0.151968
0.153169
0.153840
0.155498
0.155576
0.156449
0.157453
0.158412
0.159570
0.160419
0.161454
0.162279
0.164122
0.164041
0.221261
0.189797
0.226145
0.219325
0.207585
0.210021
0.209930
0.196094
0.196490
0.188610
0.186308
0.190807
0.183690
0.177924
0.179256
0.179384
0.180583
0.181221
0.174350
0.172529
0.173666
0.174302
0.175670
0.176141
0.168192
0.168153
0.169384
0.169984
0.171606
0.173309
0.172812
0.173049
0.174367
0.174951
0.175742
0.176564
0.168209
0.169028
0.169679
0.170780
