Full Time (seconds)
0.611662
Time - I
0.249986
0.311067
0.343580
0.342356
0.404412
0.392475
0.430899
0.427614
0.462878
0.425240
0.533575
0.562246
0.520606
0.583930
0.721305
0.642113
0.668924
0.696110
0.732257
0.662036
0.822302
