Full Time (seconds)
0.448605
Time - I
0.253366
0.302504
0.310424
0.338627
0.385353
0.399256
0.369651
0.450568
0.373507
0.414591
0.408065
0.568086
0.525586
0.588050
0.357412
0.410258
0.708861
0.642292
0.749776
0.740262
0.734324
