Full Accuracy
91.0433
Accuracy - I
49.2357
83.5695
89.4794
90.3319
90.9112
90.867
90.9994
91.2974
90.9027
90.9221
90.9303
91.4849
91.5925
91.3496
91.2586
91.5069
91.4158
91.2144
91.4296
91.5234
91.2089
