Full Time (seconds)
0.256877
Incremental Time - I
0.076377
0.009530
0.023057
0.028848
0.040681
0.053012
0.071290
0.082761
0.124848
0.148473
0.146331
0.174060
0.072531
0.213053
0.239858
0.265914
0.258773
0.250234
0.228433
0.351914
0.399249
Classification Time - C
0.048868
0.061703
0.072686
0.087634
0.115185
0.127574
0.183020
0.195222
0.208685
0.197719
0.084310
0.228754
0.245349
0.250769
0.265747
0.223952
0.199760
0.195156
0.174935
0.324436
