Full Time (seconds)
0.298518
Time - I
0.249385
0.282539
0.314036
0.346611
0.341988
0.410478
0.442670
0.430616
0.414743
0.431146
0.410864
0.452466
0.413205
0.627031
0.368594
0.339450
0.320966
0.308863
0.289901
0.290889
0.297307
