Full Time (seconds)
0.005666
Incremental Time - I
0.000623
0.000083
0.000096
0.000107
0.000116
0.000132
0.000141
0.000144
0.000161
0.000185
0.000184
0.000188
0.000223
0.000497
0.000443
0.000401
0.000418
0.000451
0.000501
0.000530
0.000568
Classification Time - I
0.000761
0.000959
0.001142
0.001302
0.001483
0.001654
0.001838
0.001989
0.002181
0.002372
0.002546
0.002727
0.002940
0.003128
0.003344
0.003608
0.003892
0.004207
0.004518
0.004831
