Full Time (seconds)
0.005676
Incremental Time - I
0.001297
0.000113
0.000103
0.000108
0.000125
0.000132
0.000142
0.000154
0.000158
0.000218
0.000189
0.000199
0.000211
0.000460
0.000395
0.000439
0.000484
0.000488
0.000525
0.000533
0.000590
Classification Time - I
0.000809
0.000964
0.001237
0.001322
0.001521
0.001757
0.001882
0.002093
0.002417
0.002459
0.002647
0.002842
0.003081
0.003238
0.004247
0.003743
0.004798
0.004371
0.005380
0.005095
