Full Time (seconds)
0.016428
Time - I
0.004485
0.004829
0.005228
0.005617
0.006022
0.006698
0.006821
0.007277
0.008043
0.008130
0.011451
0.011205
0.009384
0.012516
0.010976
0.013405
0.011391
0.011294
0.011630
0.012076
0.012400
0.012802
0.013952
0.013588
0.013907
0.015217
0.014732
0.017826
0.015659
0.016861
0.019121
