Full Time (seconds)
0.179306
Incremental Time - I
0.113042
0.014289
0.021449
0.025859
0.037778
0.041906
0.045161
0.049038
0.065697
0.073132
0.068388
0.085996
0.110671
0.106938
0.072764
0.141435
0.156522
0.170179
0.179320
0.192402
0.146097
Classification Time - C
0.060316
0.080291
0.077594
0.088302
0.085550
0.099425
0.058789
0.122156
0.119354
0.121089
0.125480
0.135138
0.096615
0.078354
0.158235
0.152194
0.162617
0.226044
0.186775
0.181673
