Full Accuracy
85.581192
Accuracy - I
50.000000
50.000000
50.000000
50.000000
50.000000
50.000000
50.000000
50.000000
50.000000
50.000000
50.000000
50.423771
61.285763
68.689240
71.772415
71.772415
71.772415
71.772415
71.299721
71.299721
71.299721
82.602150
85.293205
85.590729
83.688011
85.571754
86.679443
87.248917
86.535400
86.535400
85.581192
