Full Time (seconds)
0.002969
Time - I
0.000480
0.000523
0.000544
0.000572
0.000603
0.000644
0.000741
0.000694
0.000731
0.000779
0.000827
0.000898
0.000974
0.001070
0.001159
0.001255
0.001314
0.001390
0.001454
0.001539
0.001584
0.001761
0.001973
0.002019
0.002184
0.002747
0.002908
0.002983
0.002723
0.002894
0.003031
