Full Time (seconds)
0.002778
Time - I
0.000438
0.000940
0.000672
0.000523
0.000892
0.001000
0.001102
0.000821
0.001346
0.001419
0.001565
0.001623
0.001735
0.001836
0.001968
0.002051
0.002200
0.002369
0.002490
0.002620
0.002791
