Full Time (seconds)
0.811681
Time - I
0.251699
0.278705
0.315303
0.319484
0.316208
0.298018
0.305094
0.289341
0.271532
0.294401
0.287561
0.270954
0.267972
0.270731
0.237448
0.251239
0.255857
0.539123
0.364984
0.350810
0.676723
