Full Time (seconds)
0.101467
Time - I
0.004736
0.009282
0.013207
0.017324
0.021463
0.027141
0.032101
0.033949
0.037911
0.045608
0.047497
0.053826
0.063727
0.064580
0.075651
0.084074
0.082641
0.098218
0.098902
0.093566
0.102248
