Full Time (seconds)
0.103211
Time - I
0.004927
0.008989
0.013167
0.017456
0.017414
0.027753
0.033463
0.037457
0.038013
0.046549
0.051589
0.058558
0.058797
0.064415
0.071150
0.076233
0.083016
0.090075
0.105208
0.110729
0.107261
