Full Time (seconds)
0.113686
Time - I
0.004654
0.008907
0.013131
0.017464
0.021381
0.025489
0.029679
0.033780
0.040207
0.042279
0.046450
0.051996
0.060202
0.064667
0.079875
0.076148
0.091433
0.088677
0.095030
0.100887
0.107745
