Full Time (seconds)
0.101454
Time - I
0.004677
0.010992
0.010771
0.017017
0.021133
0.025277
0.029685
0.033745
0.037553
0.049161
0.050954
0.056876
0.050857
0.055252
0.060408
0.069717
0.093031
0.088355
0.094841
0.106175
0.107179
