Full Time (seconds)
0.120129
Time - I
0.004560
0.008872
0.013113
0.017246
0.021298
0.025368
0.029525
0.033802
0.038217
0.041743
0.044774
0.052028
0.058054
0.064174
0.070285
0.070483
0.070489
0.088810
0.094899
0.100767
0.107303
