Full Time (seconds)
0.091401
Time - I
0.003933
0.008030
0.009739
0.014268
0.020570
0.024226
0.028739
0.032335
0.036538
0.041108
0.044522
0.052238
0.056969
0.062443
0.052499
0.052631
0.058874
0.087459
0.093577
0.104080
0.093470
