Full Time (seconds)
0.105346
Time - I
0.003911
0.008014
0.012173
0.016245
0.020319
0.018381
0.020778
0.023601
0.026001
0.041175
0.044551
0.050491
0.056525
0.062484
0.068527
0.074588
0.085883
0.087407
0.094669
0.099174
0.105381
