Full Time (seconds)
0.111500
Time - I
0.003888
0.008967
0.012055
0.016075
0.020193
0.024181
0.028268
0.033961
0.036380
0.040388
0.045467
0.050633
0.049944
0.054526
0.068511
0.064999
0.080862
0.090357
0.093090
0.104085
0.098592
