Full Time (seconds)
0.105244
Time - I
0.003914
0.008988
0.012068
0.016116
0.020205
0.024203
0.028268
0.029168
0.036374
0.041745
0.045096
0.051409
0.056438
0.064011
0.058777
0.066067
0.071079
0.086907
0.093898
0.099206
0.109207
