Full Time (seconds)
0.081270
Time - I
0.003914
0.008014
0.012188
0.016089
0.020151
0.024957
0.028311
0.032201
0.036400
0.041708
0.045539
0.051186
0.056560
0.062538
0.068461
0.075024
0.080958
0.089744
0.093546
0.089202
0.081664
