Full Accuracy
71.066666
Accuracy - I
50.000000
66.888885
69.422218
70.266663
72.155556
71.955559
72.222229
72.111115
71.888885
73.622223
74.644440
73.555550
72.577782
71.933334
73.133331
72.555557
72.444443
71.800003
70.733330
70.888885
71.066666
