Full Time (seconds)
0.016205
Time - I
0.004023
0.004614
0.005285
0.005732
0.006307
0.005570
0.007454
0.006977
0.009037
0.009363
0.009751
0.010573
0.011063
0.011664
0.012532
0.012788
0.013912
0.014684
0.014728
0.016058
0.016341
