Full Time (seconds)
0.214252
Time - I
0.002316
0.003460
0.004635
0.006198
0.006582
0.007338
0.008061
0.009133
0.010204
0.011633
0.012789
0.013938
0.015419
0.016517
0.017587
0.019086
0.020679
0.021442
0.022591
0.023694
0.024833
0.026631
0.027331
0.028415
0.029855
0.030947
0.031978
0.033865
0.034812
0.036066
0.037077
0.038083
0.039194
0.040610
0.041688
0.042778
0.044183
0.045895
0.046310
0.048211
0.049281
0.050103
0.051347
0.052352
0.053978
0.054856
0.056087
0.056987
0.058382
0.059493
0.060597
0.062760
0.063630
0.064063
0.065544
0.066580
0.068530
0.069560
0.070139
0.071176
0.072880
0.075715
0.075296
0.077031
0.078434
0.078312
0.080750
0.080855
0.083424
0.084788
0.085884
0.085399
0.086871
0.089493
0.090502
0.091181
0.091451
0.092609
0.093940
0.096129
0.096720
0.099284
0.098582
0.100876
0.103047
0.102199
0.103674
0.105895
0.107154
0.106953
0.109389
0.110493
0.110463
0.113723
0.116120
0.114049
0.115363
0.116350
0.120232
0.118810
0.121486
0.121537
0.122631
0.123557
0.124526
0.125945
0.129253
0.129998
0.133062
0.132894
0.132214
0.133069
0.135952
0.135646
0.136643
0.137716
0.138872
0.140136
0.142354
0.142491
0.145204
0.133698
0.140924
0.146540
0.148301
0.151318
0.153926
0.153765
0.153094
0.154352
0.155377
0.156870
0.157861
0.161498
0.160006
0.160228
0.149939
0.150949
0.165050
0.166385
0.167336
0.171511
0.169512
0.172686
0.172050
0.176385
0.174390
0.177703
0.176839
0.181116
0.179801
0.180398
0.181529
0.184842
0.184047
0.185273
0.186170
0.187875
0.188453
0.189758
0.191429
0.191936
0.188457
0.179849
0.180779
0.182223
0.183170
0.201339
0.200477
0.202007
0.206249
0.205239
0.205106
0.206102
0.207983
0.208600
0.210055
0.211014
0.201046
0.196560
0.183926
0.185399
0.185592
0.218187
0.217185
0.203209
0.216870
0.222795
0.224026
0.225399
0.221407
0.210035
0.202368
0.197292
0.213282
0.213634
0.186774
0.188519
0.188644
0.197913
0.204048
0.194562
0.192317
0.193241
0.197765
0.209160
0.245616
0.247102
0.248089
0.249938
0.249276
