Full Time (seconds)
0.251033
Time - I
0.002285
0.003420
0.004557
0.006069
0.007151
0.008252
0.009670
0.010772
0.011819
0.013254
0.013642
0.014394
0.015138
0.016212
0.017327
0.018758
0.019792
0.020849
0.022288
0.023923
0.024663
0.025941
0.027104
0.028367
0.029605
0.031044
0.031684
0.033094
0.034414
0.035457
0.036656
0.037778
0.039202
0.040295
0.041705
0.042590
0.043847
0.044941
0.045954
0.047373
0.048497
0.049496
0.050925
0.051973
0.053019
0.054491
0.055633
0.056626
0.058043
0.059147
0.060154
0.061698
0.063257
0.063821
0.065643
0.066237
0.068073
0.069803
0.070326
0.070985
0.073790
0.073399
0.074511
0.076415
0.077006
0.078044
0.079416
0.081560
0.082495
0.083906
0.084146
0.085138
0.088505
0.088495
0.089787
0.091311
0.091165
0.092412
0.093775
0.095167
0.095939
0.099144
0.099046
0.099449
0.100777
0.102938
0.104941
0.106006
0.105394
0.106982
0.108749
0.110501
0.111426
0.113504
0.112476
0.114937
0.115061
0.116147
0.117255
0.120181
0.119683
0.122922
0.122584
0.125774
0.124491
0.125605
0.126759
0.127830
0.131215
0.121169
0.121175
0.130863
0.134710
0.137925
0.136437
0.139084
0.138879
0.140001
0.142336
0.141991
0.143936
0.144638
0.148647
0.148578
0.148737
0.148993
0.152473
0.151647
0.152611
0.154589
0.158058
0.156637
0.157608
0.159134
0.159671
0.159270
0.150278
0.153418
0.164802
0.167469
0.167686
0.167983
0.156310
0.157316
0.160105
0.159432
0.175430
0.177281
0.176459
0.180285
0.180830
0.180312
0.182473
0.182304
0.184342
0.186825
0.188200
0.187338
0.189122
0.191925
0.190905
0.193938
0.193079
0.195471
0.195449
0.197778
0.199944
0.198761
0.200438
0.201223
0.202650
0.206164
0.189057
0.196778
0.208524
0.208336
0.211998
0.211116
0.213209
0.215564
0.199915
0.201776
0.186821
0.187244
0.188187
0.191176
0.189803
0.223614
0.225643
0.224983
0.226858
0.227462
0.211429
0.226126
0.234801
0.215000
0.227193
0.234247
0.217495
0.236807
0.231793
0.220719
0.221992
0.235685
0.242896
0.226066
0.229399
0.227227
0.250126
0.248671
0.253080
