Full Time (seconds)
0.215744
Time - I
0.002261
0.003511
0.004610
0.006170
0.007290
0.008402
0.009835
0.010923
0.011995
0.013444
0.014557
0.016186
0.017324
0.018290
0.019342
0.020777
0.021118
0.021871
0.022589
0.023802
0.024837
0.028078
0.028464
0.028520
0.030750
0.030921
0.032232
0.035630
0.034478
0.035528
0.036935
0.038015
0.039106
0.040615
0.041896
0.044737
0.046869
0.047444
0.048542
0.047675
0.049261
0.050536
0.051717
0.052367
0.054637
0.054802
0.055926
0.056965
0.058365
0.060359
0.061583
0.063102
0.063142
0.065096
0.065944
0.066631
0.067740
0.069103
0.071441
0.072261
0.073328
0.074979
0.075326
0.077700
0.077449
0.078373
0.080360
0.081779
0.081959
0.083276
0.085653
0.085541
0.086825
0.087846
0.090479
0.091368
0.092521
0.094172
0.094771
0.097641
0.097189
0.097821
0.100558
0.099813
0.101139
0.102237
0.103200
0.105357
0.105783
0.109579
0.108317
0.109325
0.110637
0.113927
0.115078
0.115306
0.115418
0.116877
0.119687
0.118773
0.120648
0.122721
0.123101
0.123964
0.134113
0.128217
0.127083
0.128226
0.129943
0.130775
0.131766
0.133020
0.134347
0.135622
0.136693
0.138817
0.138817
0.141254
0.141580
0.142393
0.141164
0.133525
0.134592
0.148604
0.148376
0.149800
0.150822
0.152872
0.152946
0.157127
0.155462
0.156924
0.158139
0.159458
0.160094
0.161580
0.162502
0.164024
0.165267
0.166814
0.167132
0.170264
0.169937
0.171081
0.172978
0.173580
0.174736
0.176401
0.176779
0.178164
0.179280
0.180714
0.181589
0.183135
0.187631
0.184784
0.189676
0.187327
0.191792
0.190389
0.176798
0.180711
0.180606
0.194449
0.196142
0.184997
0.185878
0.172654
0.193475
0.202339
0.203047
0.203974
0.191394
0.190596
0.178009
0.179197
0.179755
0.194854
0.212156
0.213672
0.215308
0.202219
0.200605
0.189109
0.192059
0.191382
0.186688
0.178726
0.219097
0.225307
0.197621
0.227460
0.224290
0.212152
0.231433
0.232478
0.233733
0.234921
0.235868
0.202982
0.238097
0.229779
0.205964
0.207456
0.223864
0.243984
0.248518
0.246967
0.247683
0.248700
0.237457
