Full Time (seconds)
0.199784
Time - I
0.002311
0.003454
0.004661
0.006211
0.007337
0.008440
0.009895
0.010975
0.012185
0.013503
0.014623
0.015815
0.017238
0.017678
0.018981
0.019056
0.020285
0.021515
0.022804
0.023925
0.025104
0.026703
0.027385
0.028497
0.029929
0.030990
0.032110
0.033474
0.034528
0.035559
0.037318
0.038433
0.039568
0.041139
0.041840
0.042788
0.044394
0.045351
0.047245
0.047798
0.048772
0.050642
0.051287
0.052332
0.053437
0.054856
0.055940
0.057113
0.058470
0.059582
0.061641
0.062608
0.062997
0.064149
0.065618
0.066795
0.067702
0.069838
0.071284
0.072043
0.073343
0.074065
0.075986
0.076278
0.077334
0.078418
0.079837
0.081233
0.081989
0.084978
0.086058
0.085488
0.086947
0.089621
0.089000
0.090809
0.091568
0.093329
0.094020
0.096257
0.096668
0.097675
0.099448
0.100298
0.101189
0.102273
0.103916
0.104739
0.106002
0.107327
0.109114
0.109429
0.111768
0.111995
0.113537
0.114861
0.115466
0.116466
0.117901
0.119037
0.120019
0.121231
0.122504
0.124059
0.124653
0.126083
0.127538
0.129829
0.131029
0.130791
0.131750
0.133573
0.134388
0.135692
0.136740
0.137887
0.139225
0.140259
0.142095
0.142785
0.143810
0.144872
0.145900
0.147959
0.148517
0.149861
0.151971
0.151975
0.153099
0.154399
0.155958
0.156628
0.151023
0.146933
0.148186
0.149209
0.150281
0.163664
0.165235
0.166143
0.167235
0.170330
0.169708
0.171360
0.172207
0.173759
0.175612
0.167157
0.163299
0.164420
0.165645
0.166969
0.168581
0.169330
0.169698
0.171193
0.188223
0.179470
0.188479
0.183235
0.176890
0.177790
0.179229
0.179965
0.180586
0.174712
0.169999
0.172057
0.172609
0.173287
0.174765
0.170409
0.164854
0.167532
0.166124
0.167365
0.167862
0.172956
0.171114
0.170590
0.171685
0.172522
0.173426
0.175108
0.175364
0.177698
0.177359
0.178203
0.179039
0.180284
0.181551
0.183953
0.171593
0.175488
0.176436
0.176796
0.176604
0.175773
0.177019
0.177696
0.239485
0.187093
0.240570
0.241948
0.243153
0.209274
0.210502
0.212275
0.212611
0.213064
0.252423
