Full Time (seconds)
0.015890
Time - I
0.002031
0.002855
0.003594
0.006013
0.006806
0.006032
0.006754
0.007514
0.008276
0.009059
0.009941
0.010114
0.010397
0.010477
0.010705
0.011162
0.011118
0.011290
0.011495
0.012205
0.012527
0.012406
0.013782
0.013174
0.013694
0.014556
0.014406
0.014658
0.015048
0.016049
0.015851
