Full Time (seconds)
0.106837
Time - I
0.004568
0.005407
0.006279
0.007186
0.008005
0.008836
0.009644
0.010487
0.011355
0.012037
0.012798
0.013643
0.014212
0.015182
0.016090
0.016559
0.017542
0.018286
0.018844
0.019518
0.020274
0.021015
0.021960
0.022557
0.023292
0.024017
0.024806
0.025935
0.026747
0.027951
0.028623
0.029447
0.030294
0.031278
0.031313
0.032818
0.033745
0.034452
0.035204
0.036086
0.037321
0.036670
0.037267
0.038002
0.038754
0.039944
0.040581
0.041074
0.043155
0.043873
0.044653
0.045394
0.044802
0.045569
0.046684
0.047094
0.047778
0.048616
0.049402
0.050033
0.051171
0.053237
0.055294
0.053105
0.054759
0.054721
0.055466
0.056730
0.057038
0.057701
0.058903
0.060990
0.061953
0.062600
0.063594
0.062247
0.063034
0.063717
0.064408
0.065592
0.065920
0.068317
0.069637
0.069242
0.069309
0.071815
0.070600
0.071750
0.072013
0.072675
0.073917
0.074581
0.074847
0.075768
0.076673
0.077633
0.078051
0.078755
0.081187
0.081388
0.082615
0.081762
0.089035
0.090418
0.090701
0.083500
0.085557
0.085055
0.084842
0.084744
0.085092
0.088330
0.089120
0.089167
0.090713
0.091559
0.089429
0.093129
0.093995
0.091610
0.095666
0.093528
0.103750
0.094916
0.096079
0.096143
0.096818
0.097929
0.098376
0.100315
0.100036
0.101058
0.101156
0.102050
0.102885
0.106130
0.104883
0.105252
0.106056
0.107063
0.108582
