Full Time (seconds)
0.107571
Time - I
0.004411
0.005322
0.006278
0.007212
0.008070
0.008948
0.009710
0.010534
0.011427
0.012112
0.012924
0.013857
0.014507
0.015282
0.016075
0.016731
0.017393
0.018549
0.018880
0.019900
0.020799
0.021721
0.022497
0.023276
0.023391
0.027063
0.025306
0.026392
0.027457
0.027564
0.027920
0.028741
0.030329
0.030423
0.031190
0.032137
0.033721
0.033478
0.035331
0.036124
0.035815
0.036595
0.037365
0.038068
0.038866
0.039674
0.040434
0.041188
0.043149
0.043081
0.044074
0.043769
0.044897
0.044931
0.049463
0.044973
0.045791
0.048945
0.047161
0.046683
0.047195
0.048022
0.048737
0.050266
0.051059
0.050954
0.051798
0.052538
0.053467
0.054042
0.054796
0.055445
0.056257
0.057461
0.057843
0.058752
0.059322
0.060103
0.062044
0.061684
0.063451
0.063185
0.063821
0.064925
0.065336
0.065930
0.066847
0.067658
0.068894
0.069401
0.070054
0.071709
0.071361
0.072066
0.075172
0.074307
0.075078
0.075066
0.079184
0.077263
0.077721
0.078311
0.078816
0.079609
0.083032
0.081166
0.081984
0.082624
0.083447
0.084250
0.084919
0.085981
0.086595
0.087801
0.087890
0.088771
0.090543
0.093141
0.091301
0.092054
0.092479
0.093725
0.093915
0.105622
0.095477
0.096666
0.097051
0.102340
0.101364
0.102792
0.100114
0.101351
0.105467
0.102299
0.103044
0.103761
0.107178
0.108668
0.106408
0.106817
0.109457
