Full Time (seconds)
0.107069
Time - I
0.004441
0.005389
0.006413
0.007375
0.008250
0.009090
0.009919
0.010756
0.011541
0.012607
0.013073
0.014255
0.014533
0.015365
0.016076
0.017019
0.017613
0.018324
0.019597
0.020115
0.021616
0.021439
0.021757
0.022035
0.021760
0.022075
0.023207
0.023618
0.024031
0.024272
0.024400
0.025881
0.026426
0.027318
0.027755
0.028585
0.029288
0.029968
0.031435
0.031602
0.032367
0.033100
0.033818
0.034559
0.035276
0.036124
0.036833
0.037923
0.038306
0.039596
0.039972
0.040840
0.041387
0.042174
0.043129
0.043727
0.045311
0.045180
0.045999
0.046732
0.048068
0.049056
0.048953
0.049886
0.050740
0.051241
0.052040
0.052792
0.053440
0.054317
0.055156
0.056863
0.056541
0.057221
0.057984
0.059475
0.059836
0.060527
0.061196
0.061914
0.062919
0.063259
0.064051
0.064793
0.065912
0.066282
0.067374
0.067833
0.068546
0.069303
0.070529
0.070803
0.071559
0.072490
0.073538
0.073765
0.075599
0.076051
0.076048
0.079207
0.079115
0.078286
0.079123
0.079832
0.080571
0.081738
0.082160
0.082949
0.083742
0.086356
0.085537
0.088282
0.089395
0.087406
0.088806
0.088976
0.089586
0.092132
0.091485
0.091903
0.092581
0.093889
0.097415
0.096052
0.096343
0.099697
0.100177
0.099632
0.107770
0.099523
0.103459
0.104649
0.102813
0.103610
0.104630
0.104244
0.109789
0.105923
0.106290
0.106959
0.108857
