Full Time (seconds)
0.106876
Time - I
0.004560
0.004864
0.005172
0.005532
0.005972
0.006282
0.006732
0.007194
0.007692
0.008166
0.008654
0.009516
0.010225
0.010933
0.011670
0.012396
0.013371
0.013922
0.014845
0.015660
0.016593
0.017381
0.017724
0.018431
0.019694
0.020771
0.020954
0.021456
0.022214
0.022964
0.023732
0.024638
0.026080
0.027057
0.027774
0.028610
0.029428
0.030256
0.030196
0.031243
0.032165
0.032491
0.033280
0.034225
0.034727
0.035621
0.037326
0.037801
0.037757
0.038648
0.039250
0.040709
0.040823
0.041611
0.042348
0.043171
0.043889
0.044641
0.045301
0.048660
0.048273
0.047835
0.048663
0.050621
0.051027
0.052273
0.051384
0.052400
0.053864
0.054129
0.054632
0.056662
0.055911
0.056718
0.057499
0.058317
0.061061
0.063097
0.060566
0.063092
0.062146
0.069144
0.069627
0.069814
0.065126
0.065741
0.068448
0.067225
0.069134
0.068747
0.069411
0.072480
0.072157
0.073975
0.074806
0.073217
0.073948
0.075023
0.083337
0.084368
0.076865
0.081165
0.081061
0.081917
0.080443
0.082577
0.084681
0.085280
0.085959
0.084780
0.084618
0.085448
0.086985
0.087118
0.088322
0.089425
0.089935
0.092902
0.090724
0.095617
0.092041
0.093242
0.096244
0.094879
0.096324
0.096419
0.097068
0.097959
0.098535
0.104936
0.103367
0.104178
0.102335
0.101959
0.103320
0.104120
0.104261
0.115899
0.106615
0.106592
0.106984
