Full Time (seconds)
0.307104
Time - I
0.019883
0.037775
0.060107
0.088615
0.112237
0.126523
0.151870
0.192285
0.216008
0.248930
0.235718
0.269843
0.280340
0.257531
0.273165
0.258760
0.417244
0.361758
0.380388
0.361414
0.323149
