mean_accFULL,stdev_accFULL, mean_timeFULL, stdev_timeFULL
67.243813,0.0,0.3157896,0.06848024664123549
mean_accI,stdev_accI
50.0,0.0
50.0,0.0
50.0,0.0
50.34901,0.0
50.34901,0.0
50.34901,0.0
51.068394,0.0
51.068394,0.0
54.729378,0.0
55.078391999999994,0.0
55.69097899999999,0.0
59.72234000000001,0.0
60.07135000000001,0.0
62.293579,0.0
61.901844,0.0
64.672585,0.0
65.370605,0.0
67.265175,0.0
67.635551,0.0
68.269493,0.0
67.243813,0.0
mean_timeI,stdev_timeI
0.22142330000000002,0.0013511669071995208
0.24394269999999998,0.014066785710791695
0.2519222,0.01293373496627241
0.24178699999999997,0.03318717166818126
0.2530001,0.04340586283095867
0.24901369999999998,0.044972070693437664
0.2599687,0.054157015675718324
0.27216070000000003,0.04985515579723593
0.3054498,0.04787324048359375
0.297598,0.04898589925682695
0.2810878,0.065262119373084
0.3029909,0.06726210554812172
0.3181555,0.06280651452808592
0.35538220000000004,0.07608403096401592
0.3319693,0.09551815544590928
0.36222150000000003,0.052278054361589756
0.33770069999999996,0.07160071906381636
0.317555,0.050962397577909234
0.3803226,0.0864832810447584
0.3845942,0.08845402703702454
0.3366309,0.07340386865592001
