mean_accFULL,stdev_accFULL, mean_timeFULL, stdev_timeFULL
91.153847,0.0,0.10564409999999999,0.011180658929598021
mean_accI,stdev_accI
50.0,0.0
54.46154,0.0
67.076927,0.0
71.846153,0.0
75.46154,0.0
79.07692,0.0
81.846153,0.0
83.769234,0.0
84.846153,0.0
85.769234,0.0
85.846153,0.0
86.769226,0.0
87.07692,0.0
87.153847,0.0
88.0,0.0
88.230774,0.0
89.307693,0.0
90.53846,0.0
90.769234,0.0
91.07692,0.0
91.153847,0.0
mean_timeI,stdev_timeI
0.0046965,9.230535075377694e-05
0.0097254,0.0008352876018341096
0.013953799999999999,0.0006399695826105074
0.0184298,0.0010583821825996711
0.0220541,0.002738160714786479
0.0259571,0.0027612362951724683
0.029692299999999998,0.0036592121207227723
0.0353443,0.0014292313435316675
0.0384534,0.0008879629872166222
0.0432433,0.008250103340093518
0.0424746,0.0068230584409697745
0.048312100000000004,0.007995492667052411
0.057985699999999994,0.006487189085677504
0.0652108,0.007391449711960737
0.0665135,0.010361572202132262
0.0732381,0.011677067396777707
0.0823455,0.005730157012586033
0.08340220000000001,0.011617070990572452
0.09221510000000001,0.006921337289698988
0.1018783,0.004447301005478864
0.10578270000000001,0.009911812481972091
