mean_accFULL,stdev_accFULL, mean_timeFULL, stdev_timeFULL
91.153847,0.0,0.1037091,0.010129625225599964
mean_accI,stdev_accI
50.0,0.0
53.000004000000004,0.0
65.769234,0.0
73.538467,0.0
75.46154,0.0
77.769234,0.0
81.0,0.0
82.769234,0.0
84.692307,0.0
85.615387,0.0
86.230766,0.0
86.692307,0.0
88.153847,0.0
88.384613,0.0
88.769234,0.0
89.461533,0.0
89.692307,0.0
90.692307,0.0
90.53846,0.0
91.230766,0.0
91.153847,0.0
mean_timeI,stdev_timeI
0.0047558,1.627404204383313e-05
0.0086263,0.00096587416364659
0.013233100000000001,0.0003343741915878079
0.0175251,0.0006854601779502261
0.021657799999999998,0.001634788114031228
0.0252334,0.002027963905004228
0.029756499999999998,0.0030005314806991553
0.032791100000000004,0.002537731990489846
0.0381649,0.002520150676712274
0.0431442,0.0015372461524861066
0.0467676,0.0015245408197588912
0.0524655,0.0017128833553073266
0.06041729999999999,0.003096116494004133
0.0646375,0.004159974178605761
0.0697972,0.005322323005772739
0.0783595,0.0027208098978061647
0.0849887,0.0033679437528293475
0.0899605,0.005268086100916221
0.092113,0.010266586146870395
0.0974313,0.008370374690272566
0.1038988,0.008752769908244284
