mean_accFULL,stdev_accFULL, mean_timeFULL, stdev_timeFULL
73.846413,0.0,0.3411625,0.12520280772255513
mean_accI,stdev_accI
50.0,0.0
50.0,0.0
50.0,0.0
50.698025,0.0
51.680980999999996,0.0
53.903206,0.0
58.283581000000005,0.0
58.611225000000005,0.0
59.351967,0.0
62.72802399999999,0.0
64.430367,0.0
64.800735,0.0
67.571472,0.0
68.248138,0.0
68.31221,0.0
69.337891,0.0
70.712578,0.0
71.624184,0.0
71.624184,0.0
72.713936,0.0
73.846413,0.0
mean_timeI,stdev_timeI
0.22030729999999998,0.00700711801670273
0.221513,0.030223696538385976
0.2375614,0.02577981565833584
0.2503638,0.03513864023107452
0.248423,0.029642160923627387
0.2593531,0.03459202088937723
0.26463040000000004,0.0428726414763023
0.2768751,0.05012189063883277
0.2832694,0.06229306589055032
0.3052751,0.05966329143051213
0.2883449,0.0604607545537691
0.29888630000000005,0.06258694528777992
0.3015152,0.0731191384124415
0.3048726,0.08189305415832149
0.3166012,0.08180181625910814
0.3518529,0.07216217945780184
0.3378266,0.0859590442713531
0.3519298,0.08861426583519783
0.34061210000000003,0.09781022004593044
0.3401014,0.0996410862046598
0.3608776,0.1259648420395328
