mean_accFULL,stdev_accFULL, mean_timeFULL, stdev_timeFULL
87.036766,0.0,0.5263126,0.2421115101078656
mean_accI,stdev_accI
50.0,0.0
62.370346,0.0
69.144646,0.0
73.601067,0.0
75.811348,0.0
77.861603,0.0
78.766701,0.0
80.022232,0.0
82.458809,0.0
82.999672,0.0
83.038315,0.0
84.291084,0.0
84.440094,0.0
85.254135,0.0
85.899834,0.0
86.360657,0.0
86.804924,0.0
87.414764,0.0
87.326477,0.0
86.942932,0.0
87.036766,0.0
mean_timeI,stdev_timeI
0.26299,0.014790011336484268
0.28704399999999997,0.04455297215425451
0.29059029999999997,0.04706509423730783
0.2991547,0.04851605098212343
0.32399009999999995,0.060304021329795614
0.3558555,0.04746383029271401
0.3362754,0.06139307030421086
0.3492156,0.06783491372475124
0.3584765,0.07264291191124185
0.3817869,0.10372795324571119
0.418719,0.11174868507106073
0.4379099,0.13589577483616708
0.4266495,0.126289515927359
0.4439896,0.13165898639051485
0.37775820000000004,0.11193613108157309
0.4645854,0.163194552515429
0.48952039999999997,0.1831411386470373
0.4611088,0.1895165561274265
0.47024160000000004,0.17136551825343005
0.4660998,0.1682968768072262
0.4065817,0.12833507124022386
