mean_accFULL,stdev_accFULL, mean_timeFULL, stdev_timeFULL
93.0,0.0,0.1044145,0.013821534158695987
mean_accI,stdev_accI
50.0,0.0
62.153847,0.0
71.0,0.0
75.846153,0.0
80.0,0.0
82.846153,0.0
83.615387,0.0
84.92308,0.0
85.692307,0.0
86.846153,0.0
87.384621,0.0
88.230774,0.0
89.692307,0.0
90.769234,0.0
91.07692,0.0
91.53846,0.0
92.307693,0.0
92.384613,0.0
92.538467,0.0
93.0,0.0
93.0,0.0
mean_timeI,stdev_timeI
0.0043493,0.000254421806367999
0.0087977,0.000596979070915481
0.0130155,0.0011751286690779394
0.0170134,0.0004950715324296301
0.0208642,0.00021274230629775688
0.0252528,0.0006673462869205664
0.0294759,0.000918176508085455
0.0325764,0.003842956390882184
0.0371475,0.003563738151311219
0.0422534,0.0018466504331416428
0.0461094,0.0015497373397521995
0.0532577,0.0030556059609983892
0.0580367,0.005634506269408173
0.0647003,0.0032895991667341146
0.06524769999999999,0.012903986722887019
0.0762494,0.005233901905419659
0.0741506,0.016660057957748994
0.0812078,0.01799035164130423
0.091019,0.012516941816771557
0.0960613,0.015371148045391187
0.109793,0.014955663988380231
