mean_accFULL,stdev_accFULL, mean_timeFULL, stdev_timeFULL
91.153847,0.0,0.1052832,0.010045624783401425
mean_accI,stdev_accI
50.0,0.0
52.769234,0.0
64.230766,0.0
69.769234,0.0
72.307693,0.0
75.384613,0.0
79.153847,0.0
82.153847,0.0
83.46154,0.0
84.769234,0.0
85.384613,0.0
86.769226,0.0
87.076927,0.0
87.230774,0.0
88.153847,0.0
88.769234,0.0
89.153847,0.0
90.53846,0.0
90.384613,0.0
91.153847,0.0
91.153847,0.0
mean_timeI,stdev_timeI
0.0046614000000000004,0.00014448698518859383
0.0091068,0.0008531219529860116
0.0129994,0.0012130083997144365
0.0173526,0.0011633762360761313
0.0220464,0.0017125430862381893
0.025901600000000004,0.00211786555023894
0.0298141,0.0019865074013342
0.033918199999999996,0.002272067966510784
0.0379263,0.0025011004711259937
0.0428809,0.0029166480170832332
0.0483457,0.002547152878978584
0.053644500000000005,0.002479072732113988
0.0586628,0.003458059050970647
0.0645071,0.004037717629497579
0.07150999999999999,0.004841272078011452
0.0780164,0.0046970404440810735
0.08746620000000001,0.004586221678995565
0.0924053,0.005257932928231186
0.0967992,0.0030222162508110953
0.1012586,0.008848108990688976
0.10638449999999999,0.010748757119365526
