mean_accFULL,stdev_accFULL, mean_timeFULL, stdev_timeFULL
91.153847,0.0,0.10940069999999999,0.004071843045709018
mean_accI,stdev_accI
50.0,0.0
53.000004000000004,0.0
65.692314,0.0
70.615379,0.0
75.0,0.0
78.07692,0.0
80.384613,0.0
82.53846,0.0
83.384613,0.0
84.92308,0.0
85.46154,0.0
85.692307,0.0
87.307693,0.0
88.307693,0.0
88.461533,0.0
88.92308,0.0
89.769234,0.0
90.53846,0.0
90.307686,0.0
91.153847,0.0
91.153847,0.0
mean_timeI,stdev_timeI
0.0045644,1.0373041983911907e-05
0.0091143,0.0005414521729160902
0.0132649,0.0005883006506502908
0.0179593,0.0008123677396625526
0.0217018,0.0009729006800970653
0.025729400000000003,0.0005462681881029982
0.0298991,0.001269852611744984
0.0348066,0.0018682358999274641
0.036859199999999995,0.0038995932209512432
0.0420676,0.0038615199137702824
0.0454672,0.0034183993265204634
0.0519926,0.002789612127558637
0.0566946,0.002981289437661348
0.0636664,0.0030661636978840862
0.0692526,0.0061014231345372745
0.0744744,0.0073740557542418044
0.080622,0.008180457743237165
0.0891983,0.0017782485796735824
0.0953069,0.00487810620015596
0.1024192,0.003639091852524629
0.10924720000000002,0.0020525957982786345
