mean_accFULL,stdev_accFULL, mean_timeFULL, stdev_timeFULL
93.0,0.0,0.10761780000000001,0.004087250496632453
mean_accI,stdev_accI
50.0,0.0
58.0,0.0
68.923073,0.0
72.846153,0.0
76.92308,0.0
81.076927,0.0
83.615387,0.0
84.769234,0.0
86.0,0.0
86.692307,0.0
87.230766,0.0
88.461533,0.0
89.153847,0.0
90.07692,0.0
91.0,0.0
91.46154,0.0
92.0,0.0
92.230766,0.0
92.846153,0.0
93.07692,0.0
93.0,0.0
mean_timeI,stdev_timeI
0.004370799999999999,5.64226117005505e-05
0.0089962,0.0008568281041142383
0.0134861,0.0020359247666737485
0.0173353,0.0009263581081009896
0.0216196,0.000885243494437799
0.0255936,0.0008369943846884515
0.030120199999999996,0.0013097378702965302
0.0354551,0.0064643987681247935
0.037515900000000005,0.0014141868845539626
0.0419292,0.0025486350508109675
0.046172399999999995,0.0023101541651298226
0.053238799999999996,0.0021362237606476413
0.058851799999999996,0.0017744303499057576
0.0640285,0.00046305825167515036
0.0702053,0.0014618783237100585
0.07632140000000001,0.0016247763743563806
0.0831779,0.0028140760255859778
0.09023060000000001,0.0031342674919526414
0.0941199,0.004367446125089072
0.1017544,0.004588600856712451
0.10852969999999999,0.0025969486817331504
