mean_accFULL,stdev_accFULL, mean_timeFULL, stdev_timeFULL
84.202896,0.0,0.2287667,0.03034440769656833
mean_accI,stdev_accI
50.0,0.0
71.304344,0.0
78.188408,0.0
81.231888,0.0
83.840584,0.0
84.202896,0.0
mean_timeI,stdev_timeI
0.0022513999999999998,1.0469001862641928e-05
0.048041,0.00945663689338516
0.0960265,0.01795306867765075
0.14298349999999999,0.02672878672580058
0.19084600000000002,0.032178570298328116
0.2473602,0.022711679598342742
