mean_accFULL,stdev_accFULL, mean_timeFULL, stdev_timeFULL
93.0,0.0,0.1026046,0.016411462242388195
mean_accI,stdev_accI
50.0,0.0
65.230766,0.0
72.692314,0.0
77.230766,0.0
80.307693,0.0
83.0,0.0
84.153847,0.0
84.615387,0.0
86.153847,0.0
87.307693,0.0
88.0,0.0
88.769234,0.0
90.0,0.0
90.769234,0.0
91.307693,0.0
91.769234,0.0
92.153847,0.0
92.307693,0.0
92.769226,0.0
93.0,0.0
93.0,0.0
mean_timeI,stdev_timeI
0.0041922,5.753800676268007e-05
0.0081969,0.0007546079850565527
0.0123278,0.0010410214855291573
0.0165597,0.0015687394125362074
0.0211926,0.0020316290234412603
0.0256303,0.0005981267145569294
0.02988,0.0016552867492438347
0.033923800000000004,0.0016455550768999217
0.0380594,0.001910812695047727
0.0418746,0.0019166795477828025
0.0453641,0.001220457969598117
0.0520992,0.0005625874351798338
0.05827020000000001,0.001043526691347929
0.0641115,0.0008877930502093405
0.0718271,0.0027134968193990743
0.0739923,0.0116839923356702
0.0801234,0.012526724065861042
0.0822862,0.012787649873565074
0.0899431,0.013521332014018934
0.0958073,0.014210585733881627
0.1077056,0.0013254713375500306
