mean_accFULL,stdev_accFULL, mean_timeFULL, stdev_timeFULL
93.0,0.0,0.10305919999999999,0.014066764879593947
mean_accI,stdev_accI
50.0,0.0
60.923077,0.0
70.076927,0.0
74.53846,0.0
79.230766,0.0
83.153847,0.0
84.46154,0.0
85.384613,0.0
86.692307,0.0
87.230774,0.0
87.692307,0.0
89.0,0.0
89.307693,0.0
90.0,0.0
91.0,0.0
91.384613,0.0
91.923073,0.0
92.153847,0.0
92.846153,0.0
93.0,0.0
93.0,0.0
mean_timeI,stdev_timeI
0.0043872,0.0006062280099104627
0.00888,0.0006760310643750036
0.0131188,0.0005580375933174716
0.0178815,0.0014024466121745963
0.0210527,0.00028032086773711445
0.025623600000000003,0.0009258296219547576
0.029929400000000002,0.001508541252704449
0.0344669,0.0019142538697303909
0.0390263,0.002750114989515084
0.0420805,0.0012248416904509193
0.0464455,0.0015080252171484248
0.0526734,0.0022648696896534937
0.0575285,0.0031355775030730434
0.0655139,0.003445948327786964
0.0681198,0.012838082357666281
0.07730010000000001,0.0026050851745512394
0.0839378,0.001930226687896181
0.0887339,0.0034383921452394643
0.0949644,0.0010041600359393778
0.1028723,0.004161753905106197
0.10667470000000001,0.0044329793354908505
