mean_accFULL,stdev_accFULL, mean_timeFULL, stdev_timeFULL
93.0,0.0,0.10252710000000001,0.01392082917749115
mean_accI,stdev_accI
50.0,0.0
62.69230700000001,0.0
72.384613,0.0
75.076927,0.0
78.53846,0.0
81.53846,0.0
83.92308,0.0
84.384613,0.0
85.769234,0.0
86.307693,0.0
87.307693,0.0
88.53846,0.0
89.0,0.0
89.769234,0.0
90.769234,0.0
91.230766,0.0
91.769234,0.0
92.0,0.0
92.769226,0.0
93.0,0.0
93.0,0.0
mean_timeI,stdev_timeI
0.0043058,3.269318651408036e-05
0.0084002,0.0010545548613303888
0.0125029,0.0015563481794108784
0.0163405,0.0018025797100575359
0.0205068,0.0024240446365527187
0.0246251,0.0027846005279034193
0.0299149,0.005053516255484338
0.0325258,0.0037682500447820608
0.0363595,0.0039832290990546295
0.0404018,0.004567522980541835
0.0466391,0.0014752572995921755
0.0532601,0.0022593189460543193
0.0589256,0.0028941851741418048
0.06458699999999999,0.0041200818222727345
0.0690501,0.006399212250998815
0.07601,0.004443116273768023
0.0837987,0.003103193016877937
0.08937389999999999,0.002627195354999955
0.0959695,0.002963720494018736
0.10224739999999999,0.0026377851483562645
0.10464910000000001,0.012493587906068724
