mean_accFULL,stdev_accFULL, mean_timeFULL, stdev_timeFULL
89.927536,0.0,0.2140339,0.038687102695716166
mean_accI,stdev_accI
50.0,0.0
78.91304,0.0
83.260872,0.0
85.144928,0.0
88.478264,0.0
89.927536,0.0
mean_timeI,stdev_timeI
0.0021361,1.5249408003081327e-05
0.052388000000000004,0.001664836395031723
0.103132,0.003995990657313068
0.1502197,0.011411093842300034
0.1959377,0.018891481990275114
0.24178510000000003,0.011545130723960354
