mean_accFULL,stdev_accFULL, mean_timeFULL, stdev_timeFULL
80.976158,0.0,0.33018040000000004,0.12078803144002122
mean_accI,stdev_accI
50.0,0.0
52.158146,0.0
56.951607,0.0
58.653946,0.0
59.750973,0.0
64.152702,0.0
68.597153,0.0
71.887764,0.0
74.067268,0.0
74.743942,0.0
76.574432,0.0
77.664185,0.0
77.293816,0.0
77.991837,0.0
78.71122,0.0
79.77961,0.0
79.758255,0.0
79.822334,0.0
79.865051,0.0
79.47332,0.0
80.976158,0.0
mean_timeI,stdev_timeI
0.21191909999999997,0.02922137399024518
0.2231674,0.0400478224992737
0.22919459999999997,0.04135811867685581
0.2447364,0.023799863333874655
0.2530582,0.04407740624250328
0.2550574,0.03971794868038602
0.2539346,0.048002154572477265
0.2547893,0.05412643757403174
0.2632009,0.06956667717049914
0.2453433,0.06354014898043249
0.2689444,0.07702679217461357
0.2809564,0.07362240858627517
0.2923883,0.09075041378669055
0.31585359999999996,0.0867009555261968
0.29950679999999996,0.08380305796303351
0.2766247,0.07489128102352399
0.2673671,0.0802233914037684
0.3287122,0.11491730542225183
0.3232286,0.08331623447937515
0.3315977,0.10540429659601168
0.3280081,0.10924839314602705
