mean_accFULL,stdev_accFULL, mean_timeFULL, stdev_timeFULL
94.92308,0.0,0.1054216,0.021909492591112193
mean_accI,stdev_accI
50.0,0.0
70.846161,0.0
77.153847,0.0
79.923073,0.0
82.846153,0.0
86.230766,0.0
88.153847,0.0
89.46154,0.0
89.230766,0.0
90.153847,0.0
90.846153,0.0
92.307693,0.0
93.0,0.0
93.0,0.0
93.384621,0.0
93.923073,0.0
94.153847,0.0
94.307693,0.0
94.53846,0.0
94.92308,0.0
94.92308,0.0
mean_timeI,stdev_timeI
0.0039421,0.0002172062256116164
0.007907899999999999,0.00044310381276726666
0.0114063,0.002046478278517621
0.015366399999999999,0.002794250175708046
0.0204003,0.0011724031398039762
0.0243326,0.001406818727957989
0.0283337,0.0011252544452996691
0.0317076,0.005020232336367622
0.0376748,0.0022907155990117066
0.042271199999999995,0.0025591392129212334
0.0474305,0.00508638359304089
0.052911200000000005,0.003530509840424372
0.0592292,0.004573096368982401
0.0634478,0.004241721814965659
0.07010809999999999,0.004609379626852666
0.0769839,0.0051366735983081075
0.0826518,0.005211305334452095
0.0801748,0.014172851417018698
0.0925198,0.007872188765239027
0.0952355,0.009037952450638362
0.10039229999999999,0.0109921615309375
