mean_accFULL,stdev_accFULL, mean_timeFULL, stdev_timeFULL
81.503311,0.0,0.4655541,0.14786120598006017
mean_accI,stdev_accI
50.0,0.0
52.158146,0.0
56.951607,0.0
58.653946,0.0
59.750973,0.0
64.152702,0.0
68.597153,0.0
71.887764,0.0
74.067268,0.0
74.743942,0.0
76.574432,0.0
77.664185,0.0
77.293816,0.0
77.991837,0.0
78.71122,0.0
79.77961,0.0
79.758255,0.0
79.822334,0.0
79.865051,0.0
79.47332,0.0
80.976158,0.0
mean_timeI,stdev_timeI
0.9319061,0.04265356878243342
0.0147349,0.004203109971596429
0.0140568,0.002897550413711554
0.0144869,0.0031813269226674723
0.0163721,0.0025182871802521298
0.015614900000000001,0.0042989528298567475
0.016462499999999998,0.0035407652107669854
0.0161062,0.004854213537398892
0.017429300000000002,0.0045909964072204535
0.0156718,0.005361230845410201
0.017248199999999998,0.005986626759332467
0.0162625,0.006196646050709834
0.0159243,0.005421568921139587
0.0168043,0.005957461279773457
0.0180894,0.0060782732416369695
0.0192855,0.006733558053180766
0.018696,0.007361603901324765
0.023059299999999998,0.0096700029305982
0.019594300000000002,0.008398644243103895
0.0177154,0.006866378654154039
0.0260127,0.008923381347772702
mean_timeC,stdev_timeC
0.3679323,0.09711149649992815
0.3935672,0.08368935724823212
0.42673829999999996,0.06521830759167414
0.43364779999999997,0.0704566425601195
0.4254804,0.09234121503448199
0.4465383,0.10305590406187855
0.4479158,0.10840427275588972
0.40080669999999996,0.1241852162940948
0.46501359999999997,0.13963395893167727
0.44466599999999995,0.14651324437136126
0.46234919999999996,0.16272234689242218
0.47451499999999996,0.1217061048865942
0.4532538,0.1641331359691475
0.5128217,0.15843222969813378
0.4879091,0.17936148786827744
0.4640714,0.17489184989345719
0.5221661,0.21337617162052874
0.4345644,0.14257564457445815
0.5294555,0.20028201161376313
0.5249037000000001,0.20069020555796938
