mean_accFULL,stdev_accFULL, mean_timeFULL, stdev_timeFULL
94.0,0.0,0.1285837,0.018520465227238037
mean_accI,stdev_accI
50.0,0.0
72.230766,0.0
78.153847,0.0
80.230766,0.0
83.53846,0.0
86.384613,0.0
88.307693,0.0
89.692307,0.0
89.46154,0.0
89.615387,0.0
90.615387,0.0
91.692307,0.0
92.615387,0.0
92.923073,0.0
93.307693,0.0
93.92308,0.0
94.230774,0.0
94.076927,0.0
94.230774,0.0
94.461533,0.0
94.769226,0.0
mean_timeI,stdev_timeI
0.005113,1.5209646062066341e-05
0.0003257,4.8773968466795897e-05
0.0005721999999999999,5.977736472389315e-06
0.0007962000000000001,7.614722581946109e-05
0.0012705,9.677264305806906e-05
0.0014113,0.00011236058027618047
0.001652,0.00013701824696003083
0.0019997,0.00017451459665152494
0.0021285,0.00010909450541210187
0.0024548,9.19574780960079e-05
0.0026585999999999997,7.267155946830611e-05
0.0042471,0.00012975827954743807
0.0046316000000000005,0.0007828982053881589
0.0052905,0.00039664880912184487
0.0057662,0.0001777231304898467
0.006295,0.00022731133813438432
0.0068974,0.0005909732462453591
0.0072155,0.0009455399691886818
0.0078543,0.0010533596041027754
0.0083163,0.0010954115462033231
0.0086519,0.001633347037357476
mean_timeC,stdev_timeC
0.0100605,0.0009910674660295444
0.014718799999999999,0.0012480222398303289
0.019698,0.0019236241836699808
0.0252891,0.002150240164880813
0.030608200000000002,0.0029455043635268235
0.036469600000000005,0.0010981852909838735
0.042011900000000005,0.00156806068830968
0.045640599999999996,0.0033690063223449146
0.0510629,0.0011283219054074151
0.0563523,0.0012249537905116626
0.0640392,0.0033808154111758973
0.070861,0.004332937058803827
0.0784619,0.0029206229719778015
0.0858734,0.0036299992102845776
0.09294670000000001,0.00250549392114387
0.09827630000000001,0.013690132805540395
0.10620210000000001,0.013762995220275754
0.11463620000000001,0.01583409306107131
0.1137755,0.018120697014126632
0.1218929,0.017319580001643613
