mean_accFULL,stdev_accFULL, mean_timeFULL, stdev_timeFULL
84.561043,0.0,0.005973,0.0005316034445168899
mean_accI,stdev_accI
50.0,0.0
84.837532,0.0
85.234413,0.0
83.806816,0.0
82.527954,0.0
85.212158,0.0
85.687706,0.0
85.687706,0.0
85.41803,0.0
84.882103,0.0
85.956238,0.0
85.956238,0.0
86.525719,0.0
83.721893,0.0
84.228836,0.0
84.197571,0.0
85.543098,0.0
85.543098,0.0
85.574364,0.0
85.574364,0.0
85.067421,0.0
mean_timeI,stdev_timeI
0.0013062,2.6682495302268014e-05
9.21e-05,7.475143997126594e-06
0.0001023,1.5670212364724203e-06
0.0001075,2.3386843404881395e-05
0.00011789999999999999,2.0041346151283242e-05
0.0001284,1.798888545741509e-05
0.0001361,1.7316979464611544e-05
0.0001484,2.0227593914144997e-05
0.0001515,1.987320921352272e-05
0.0001826,3.460956836226395e-05
0.00018779999999999998,3.420786134469353e-05
0.00020439999999999998,4.0000555551697585e-05
0.0002157,5.0999019598419734e-05
0.0004454,6.632780546481075e-05
0.0004056,8.806588442751257e-05
0.00040270000000000003,0.00010046453216047055
0.0004392,0.00010512828142586349
0.0004698,0.0001110483378233701
0.0005163,0.000126051180081743
0.0005191999999999999,0.00013105537421682147
0.0006005,5.3769570080731224e-05
mean_timeC,stdev_timeC
0.0007509,0.00011618706181556248
0.0009207999999999999,0.00016113196799862872
0.0011037,0.00019155970928726694
0.0012604,0.00021327978494612815
0.0014397,0.0002406666897506914
0.0016967,0.0002744436999540059
0.0019362000000000001,0.00012278418283946652
0.0021488,0.00020934596564857255
0.0023458,0.000442538083734672
0.002435,0.00041802153054597556
0.0027864,0.00027420195314970154
0.0028485,0.0006106610716628696
0.0030350000000000004,0.0006370564252002243
0.0031806,0.0006558853558359113
0.0032365,0.000765812603999467
0.0035353000000000003,0.0008759226310328758
0.0039025000000000006,0.0009893251628144196
0.0040793999999999995,0.001023186221781961
0.0048745,0.0004282066609062083
0.005153,0.00039754133258204877
