mean_accFULL,stdev_accFULL, mean_timeFULL, stdev_timeFULL
84.561043,0.0,0.0056589,1.94676369621197e-05
mean_accI,stdev_accI
50.0,0.0
78.167786,0.0
77.425591,0.0
79.059204,0.0
83.150002,0.0
81.453857,0.0
85.30056,0.0
85.841759,0.0
86.316864,0.0
85.511826,0.0
85.480568,0.0
84.973618,0.0
84.973618,0.0
83.990997,0.0
83.183685,0.0
83.183685,0.0
84.49794,0.0
85.036156,0.0
85.305252,0.0
85.305252,0.0
84.798309,0.0
mean_timeI,stdev_timeI
0.0006414,7.212211865995064e-05
8.39e-05,2.8067379246694513e-06
9.54e-05,2.836272984824353e-06
0.00010499999999999999,9.93310961716756e-06
0.0001139,1.0213825053437237e-05
0.0001153,2.3542160761776594e-05
0.0001328,2.663247808389015e-05
0.0001394,3.153199433379796e-05
0.00014810000000000002,2.884999518582667e-05
0.0001679,2.072277330217491e-05
0.0001881,3.6433958518576226e-05
0.0001905,3.677937223801165e-05
0.00022339999999999998,3.8916434688816095e-05
0.0004692,4.186698513679298e-05
0.0003879,4.658910220689432e-05
0.0003964,5.0200044267355414e-05
0.0004189,6.261877602693229e-06
0.0004685,4.105890078087008e-05
0.0005115,1.8398369492974082e-05
0.0005273,4.2439499421071525e-06
0.0005667000000000001,2.4111085509459028e-05
mean_timeC,stdev_timeC
0.0007373,7.232035213778575e-05
0.0009423000000000001,2.617483948799346e-05
0.0011124,0.00010648338420200175
0.0011879,0.00021321582701312042
0.0013364,0.00032619462493016857
0.0015425,0.0003559604378766457
0.0016759,0.0003304207586968134
0.0018357000000000002,0.00035627363079520773
0.0020997999999999998,0.00025650505734672066
0.0022673,0.0002777837088255697
0.0024397999999999998,0.0002957171321080708
0.002646,0.00032094651683211434
0.0028315,0.00034576911050262685
0.0030233,0.0003605668531015512
0.0034006,0.00014607471452042
0.0035933,2.420766637061724e-05
0.0038848,1.3538422688366974e-05
0.0041867,3.0151653722842717e-05
0.0044705000000000005,5.385835331888837e-05
0.004874,0.0002243444771873032
