mean_accFULL,stdev_accFULL, mean_timeFULL, stdev_timeFULL
94.0,0.0,0.1375632,0.011226857518171918
mean_accI,stdev_accI
50.0,0.0
70.846161,0.0
76.461533,0.0
79.230766,0.0
82.53846,0.0
85.923073,0.0
87.769226,0.0
89.384613,0.0
89.076927,0.0
90.07692,0.0
90.769234,0.0
92.230766,0.0
92.923073,0.0
93.0,0.0
93.384621,0.0
93.923073,0.0
94.153847,0.0
94.230774,0.0
94.461533,0.0
94.769234,0.0
94.769226,0.0
mean_timeI,stdev_timeI
0.0058601,1.2031902038608193e-05
0.0003212,9.114091653405e-06
0.0005885,6.383529152784097e-05
0.0008026,7.074209810603903e-06
0.0013181999999999998,8.992317708898958e-05
0.0014367,0.00011302905231252125
0.0016951999999999998,0.00018320650158283743
0.0019026999999999998,0.0002443540464162605
0.0021697,0.00024254028302302458
0.0024298,0.0003602683567687966
0.0026274,6.494818447552378e-05
0.0041388,0.00010880747523339868
0.0047769,0.000347292847928405
0.0049315999999999995,0.0003683374660401638
0.0056139,0.0004627469791005302
0.0062461,0.00012377528922293896
0.0070945999999999995,0.0002020160609676589
0.0076042,0.00018459132036895875
0.007728799999999999,0.0008012152991272418
0.008044800000000001,0.001049129035597306
0.0092197,0.0011358695200887584
mean_timeC,stdev_timeC
0.010242,0.0005798246861480346
0.015577299999999999,0.0008844140621526394
0.0202187,3.852574896524826e-05
0.025570700000000002,0.0019693897560186286
0.0302672,0.0022980920008660323
0.0347268,0.002368987772586989
0.0396966,0.00335477318988267
0.044547500000000004,0.003162866289723085
0.049214,0.004005637360853658
0.0551578,0.001964234247175673
0.0633648,0.00221795234895212
0.0689667,0.0023182958324309386
0.0753208,0.006138124628545395
0.0834726,0.006321206516340234
0.0955462,0.0034307135571351776
0.10104759999999999,0.001850878181957001
0.10897079999999999,0.004420763101547063
0.11055200000000001,0.012438670677456744
0.1178254,0.016791721870546148
0.1272263,0.013495119068677303
