mean_accFULL,stdev_accFULL, mean_timeFULL, stdev_timeFULL
94.0,0.0,0.1346119,0.016155757029960284
mean_accI,stdev_accI
50.0,0.0
71.0,0.0
77.0,0.0
83.230766,0.0
85.0,0.0
89.0,0.0
89.846153,0.0
90.384613,0.0
90.384613,0.0
91.0,0.0
91.230766,0.0
92.307693,0.0
93.307693,0.0
93.53846,0.0
93.384621,0.0
94.076927,0.0
94.307693,0.0
94.307693,0.0
94.461533,0.0
94.92308,0.0
94.846153,0.0
mean_timeI,stdev_timeI
0.0058811,1.2600264547487213e-05
0.00033180000000000004,4.0573116441527847e-05
0.0005767999999999999,1.3281566172707191e-05
0.0007741,5.184474686771823e-05
0.001335,0.00013663739523928935
0.0015088,0.0001070605228623303
0.0017185,0.00020044242731185108
0.0018731999999999998,0.00013055335222727062
0.0021862,9.781706281512334e-05
0.0023077,0.00018541607865075297
0.0026156,0.0002024270513323531
0.0041245,0.000387363524354062
0.0048146000000000005,0.0003708450410136886
0.0050945999999999995,0.00024820699247021837
0.0054900999999999995,0.0007164208027874865
0.0061386999999999995,0.0004125891284181988
0.006833400000000001,0.000751353918676885
0.0070881,0.0007794902108999761
0.0072159,0.001628934310796138
0.0077017000000000006,0.001475381988202076
0.0087335,0.0010455075588227739
mean_timeC,stdev_timeC
0.010345499999999999,0.00039366349137867027
0.0153834,0.0009451355223223579
0.0205759,0.001535776202590874
0.0259232,0.0018635182853945923
0.030753700000000002,0.0009323280359758939
0.035097699999999996,0.00013268262048127434
0.0402472,0.0015665491303427993
0.0456789,0.0016536669320701247
0.0489043,0.0036317394684457563
0.055570699999999994,0.0014394390921466597
0.0634162,0.0020614592350511746
0.0697975,0.004723954211133813
0.0727077,0.006969318220282064
0.0805523,0.008972784704006023
0.0884489,0.008426547842648518
0.09556020000000001,0.009806000541618495
0.097276,0.016406252148359647
0.1041519,0.019635295207298963
0.11650070000000001,0.01899258812771153
0.1241539,0.01579028868534919
