mean_accFULL,stdev_accFULL, mean_timeFULL, stdev_timeFULL
91.115028,0.0,0.1696149,0.032316937163901466
mean_accI,stdev_accI
50.0,0.0
75.987915,0.0
82.897453,0.0
85.609962,0.0
86.567474,0.0
87.348412,0.0
88.12104,0.0
88.617729,0.0
89.376579,0.0
89.271751,0.0
89.583549,0.0
90.42791,0.0
90.014046,0.0
90.218246,0.0
90.527283,0.0
90.524513,0.0
90.709396,0.0
90.855637,0.0
90.913597,0.0
90.932915,0.0
91.115028,0.0
mean_timeI,stdev_timeI
0.1310142,0.014744930652788965
0.0133802,0.0018751255246871694
0.020812,0.002155243425282217
0.0269532,0.005154578133400767
0.035985,0.004061918785773815
0.0417429,0.0031334123553865187
0.05089249999999999,0.00577646137834882
0.061405299999999996,0.010548341544737943
0.0707251,0.009213061229098127
0.08024640000000001,0.011829038151937796
0.0814243,0.008436935752985207
0.087381,0.006635959547127386
0.0958441,0.0130825087591537
0.1079758,0.015276031769481963
0.11130480000000001,0.027564694902477455
0.1368214,0.014998617085881244
0.15204089999999998,0.010883771460808572
0.1483295,0.020624747288687496
0.1806689,0.04077903115695615
0.18920220000000001,0.005604225068840671
0.1792095,0.03579839353084002
mean_timeC,stdev_timeC
0.05899600000000001,0.012368847130324366
0.0734771,0.004964742500875547
0.07500609999999999,0.014220080820601704
0.0897916,0.011834746922140375
0.0969447,0.0132337763490077
0.10292680000000001,0.013887289238724738
0.103904,0.024780968683424966
0.1157856,0.022312077228861207
0.1055921,0.029376604945091936
0.12421839999999999,0.023762300764025357
0.12507790000000002,0.027421589416005778
0.12310289999999999,0.02569149876018222
0.12143330000000001,0.027939968862028302
0.1222562,0.03560455967304064
0.1564332,0.03172632807762173
0.14279,0.029713578078417652
0.1420206,0.02803554644930452
0.1583542,0.03452531009370759
0.1807707,0.017061206959063595
0.1612431,0.040864032145777184
