mean_accFULL,stdev_accFULL, mean_timeFULL, stdev_timeFULL
71.066666,0.0,0.016222,0.00038004648838442566
mean_accI,stdev_accI
50.0,0.0
64.599998,0.0
63.333332,0.0
63.59999800000001,0.0
62.844443999999996,0.0
61.733334,0.0
62.0,0.0
60.377777,0.0
60.311108000000004,0.0
60.53333299999999,0.0
60.799999,0.0
64.755554,0.0
66.755554,0.0
68.222221,0.0
68.400002,0.0
68.377777,0.0
70.0,0.0
69.844444,0.0
70.066666,0.0
70.844444,0.0
70.688889,0.0
71.577774,0.0
71.555557,0.0
71.933334,0.0
72.422226,0.0
72.422226,0.0
72.311111,0.0
72.311111,0.0
71.733337,0.0
71.288887,0.0
71.066666,0.0
mean_timeI,stdev_timeI
0.0020518999999999997,1.0289692793168203e-05
0.0028445000000000002,2.8787535883125205e-05
0.0036098,1.6725230441860384e-05
0.0044148,5.383266253452048e-05
0.0051781,2.4981993515330224e-05
0.0059759,2.1794239809841562e-05
0.006765499999999999,6.342668558615076e-05
0.0076764,0.0003872877770111292
0.0084187,6.346136182311598e-05
0.0092538,0.00018956781255148673
0.010091600000000001,0.00012160701734138013
0.0105168,0.00012713492395439148
0.010908600000000001,0.0001751996955857324
0.0114331,0.0006332930601230364
0.0117272,0.00036130959331606753
0.0121195,0.00031376008173266535
0.012659,0.0004868552146172413
0.0129991,0.0002702695979120766
0.0132972,0.00030041149556344677
0.014105499999999998,0.0004930209033206516
0.0142591,0.00034595036573987836
0.0144463,0.0004814439046590301
0.014812200000000001,0.0006743154224017784
0.014910999999999999,0.0005241545573588005
0.015716,0.001178438420585103
0.0156351,0.0007161735435245038
0.015720400000000002,0.000685316180070678
0.0157682,0.00048791615855367753
0.0158833,0.0007287935311946116
0.0162683,0.0006695139281598252
0.0161877,0.00041771442929882627
