mean_accFULL,stdev_accFULL, mean_timeFULL, stdev_timeFULL
67.243813,0.0,0.2872424,0.10968678274594235
mean_accI,stdev_accI
50.0,0.0
50.0,0.0
50.0,0.0
50.0,0.0
50.0,0.0
50.0,0.0
50.0,0.0
50.0,0.0
50.0,0.0
50.0,0.0
50.0,0.0
50.0,0.0
50.370373,0.0
53.33332800000001,0.0
58.433086,0.0
59.914566,0.0
62.400364,0.0
63.710983,0.0
64.366295,0.0
66.503075,0.0
67.243813,0.0
mean_timeI,stdev_timeI
0.226365,0.01652566080709365
0.236662,0.033389440113771165
0.2575296,0.03643059396288906
0.26501169999999996,0.02188551080331967
0.2701492,0.027625336694981864
0.3045948,0.03928093157358782
0.2999642,0.05219925166513405
0.30610539999999997,0.0692695180744508
0.3280656,0.07147776488950952
0.3337535,0.07118803607699822
0.33772729999999995,0.07442874114368275
0.3290028,0.08629039583458226
0.34763120000000003,0.0985834569103762
0.3383494,0.1061971280059452
0.354599,0.09772457734651789
0.3375028,0.11826555647618721
0.3224723,0.11965024973094615
0.2998239,0.10463709603667759
0.2942864,0.09609144684124829
0.3484062,0.13900642838196767
0.2951701,0.1088108758998842
