mean_accFULL,stdev_accFULL, mean_timeFULL, stdev_timeFULL
93.0,0.0,0.1077148,0.004543183387107424
mean_accI,stdev_accI
50.0,0.0
51.69230700000001,0.0
53.615387,0.0
53.76923000000001,0.0
53.69230700000001,0.0
53.76923000000001,0.0
53.76923000000001,0.0
53.76923000000001,0.0
53.76923000000001,0.0
53.76923000000001,0.0
53.76923000000001,0.0
54.615382999999994,0.0
55.0,0.0
55.615382999999994,0.0
56.076919999999994,0.0
56.769234,0.0
57.076919999999994,0.0
57.384617000000006,0.0
57.461536,0.0
57.461536,0.0
57.46154,0.0
58.30769,0.0
59.076923,0.0
59.53846,0.0
59.84615699999999,0.0
60.153847,0.0
60.30769299999999,0.0
60.69231,0.0
60.692303,0.0
60.84615699999999,0.0
61.0,0.0
64.53846,0.0
64.615387,0.0
64.615387,0.0
64.615387,0.0
64.615387,0.0
64.615387,0.0
64.53846,0.0
64.461533,0.0
64.461533,0.0
64.461533,0.0
65.07692,0.0
66.692314,0.0
67.07692,0.0
67.307693,0.0
67.53846,0.0
67.538467,0.0
67.769226,0.0
67.769226,0.0
67.923073,0.0
67.923073,0.0
69.846153,0.0
70.692307,0.0
71.307693,0.0
71.53846,0.0
71.53846,0.0
71.53846,0.0
71.53846,0.0
71.53846,0.0
71.615387,0.0
71.692307,0.0
73.384613,0.0
74.153847,0.0
74.230774,0.0
74.923073,0.0
75.153847,0.0
75.0,0.0
75.076927,0.0
75.076927,0.0
75.153847,0.0
75.076927,0.0
75.846153,0.0
76.846153,0.0
77.384613,0.0
77.307686,0.0
77.615387,0.0
77.769234,0.0
78.07692,0.0
78.230766,0.0
78.153839,0.0
78.153839,0.0
78.230766,0.0
78.846153,0.0
79.53846,0.0
79.692307,0.0
79.846153,0.0
80.0,0.0
80.230766,0.0
80.384621,0.0
80.384621,0.0
80.384621,0.0
80.384621,0.0
80.307693,0.0
80.307693,0.0
80.538467,0.0
80.692307,0.0
80.769226,0.0
80.769226,0.0
80.769226,0.0
80.769226,0.0
80.769226,0.0
82.615379,0.0
83.307686,0.0
83.53846,0.0
83.846153,0.0
83.846153,0.0
84.07692,0.0
84.07692,0.0
84.153847,0.0
84.153847,0.0
84.307686,0.0
84.384613,0.0
85.0,0.0
85.923073,0.0
86.07692,0.0
86.307693,0.0
86.615387,0.0
86.384613,0.0
86.384613,0.0
86.538467,0.0
86.615387,0.0
89.692307,0.0
89.92308,0.0
89.846153,0.0
90.307693,0.0
90.307693,0.0
90.07692,0.0
89.92308,0.0
89.846153,0.0
89.846153,0.0
89.846153,0.0
91.615387,0.0
92.846153,0.0
93.07692,0.0
92.923073,0.0
92.923073,0.0
92.923073,0.0
93.0,0.0
93.07692,0.0
93.076927,0.0
93.0,0.0
mean_timeI,stdev_timeI
0.0045666,0.0006231697111452776
0.0050778,0.00018905425441156072
0.0059974,0.00036482482858977066
0.0066734,7.28776752891828e-05
0.0076010999999999995,0.0003693572344853509
0.008455,0.0007164974994141061
0.0093919,0.0011814611904097591
0.0099944,0.0006049925986691446
0.010572,0.00016539111893394467
0.011314399999999999,0.00018460359933893168
0.0122409,0.00046729682453684887
0.0128751,0.0010103251896735473
0.013769899999999998,0.0005743043037739954
0.0146073,0.0006144500793392413
0.0149286,0.0007818724249446894
0.0156623,0.0008140065588051351
0.016434999999999998,0.0008608934635339937
0.0174204,0.000554023104211368
0.0186755,0.0007843542637807939
0.019249099999999998,0.0008507127012099905
0.0196491,0.0018613248835768089
0.0202708,0.00170332027392254
0.0210603,0.0019140370395812323
0.021677099999999998,0.0020035357884389178
0.022304400000000002,0.0019902813424795556
0.0247229,0.003813002533728797
0.0246759,0.001038703513467096
0.025465300000000003,0.0008676362589114042
0.026123,0.0008562829231302259
0.026923799999999998,0.0008354615224865569
0.027099699999999997,0.0010631139846904677
0.0283975,0.0006365422653332268
0.0288744,0.00034463642678432413
0.0297033,0.0013016916386849164
0.030475000000000002,0.0018732040287521624
0.030903599999999996,0.001646061508233786
0.0324818,0.0010515210992758175
0.0329332,0.0009953606604866624
0.0333697,0.0003515789938106211
0.034318100000000004,0.0009792959432390416
0.035508200000000004,0.0009948000134030284
0.0358266,0.0003584956841519229
0.0369608,0.001116295142175422
0.0376051,0.0007122010405933299
0.0394083,0.0016848763917734605
0.0396407,0.001548927517850836
0.040781200000000004,0.0018230719983344348
0.0413558,0.001269134683335242
0.0411716,0.003797990848973821
0.0419293,0.0009268896674122307
0.0430528,0.0007803424889111193
0.0430571,0.0041458220589461435
0.042940099999999995,0.004282779872154689
0.0438108,0.004386857817517124
0.0453234,0.004916386527612417
0.0452786,0.003255959807286734
0.0474537,0.0006642603321657022
0.0482474,0.0010481325403889643
0.0488258,0.000688301258332587
0.0498952,0.0012243181140718469
0.050962799999999996,0.0016154848463816956
0.05143450000000001,0.006075831342293828
0.051042699999999996,0.0048077379307852365
0.0517828,0.004701803809886868
0.051535,0.0043741297547182
0.0536385,0.004535496475335173
0.053989699999999995,0.00327370503829801
0.0562976,0.0022723665197322365
0.05720460000000001,0.0032572837764002077
0.0570665,0.003686887975575666
0.058214100000000005,0.003276755185308241
0.0593722,0.001690034240284301
0.0610812,0.0025933525192092357
0.0609966,0.002275476418979843
0.060929500000000004,0.0014934242717846659
0.06169090000000001,0.0008470373794716643
0.0627232,0.001099116695856771
0.063295,0.0007286233594937795
0.0638885,0.0006411724070447482
0.0653039,0.0021249538269493455
0.0700966,0.010574781796540507
0.0706451,0.010526523425772314
0.06927069999999999,0.002903908364409747
0.0683747,0.002184326443348406
0.0681756,0.0022537959189874402
0.0700327,0.002166720309592356
0.0714898,0.0029924721404068423
0.07206749999999999,0.003323615476154447
0.0726475,0.0025517678947915494
0.0727236,0.0033236375721656425
0.0718074,0.0033512841717765465
0.0764445,0.010934664647095698
0.0751229,0.002853133772226992
0.0749299,0.002033295106198039
0.0750053,0.0031458140811772943
0.0735533,0.0024885071852641097
0.0753749,0.002311073990353594
0.0756531,0.0007646231388366738
0.0767677,0.00196120762400222
0.0776181,0.0024698720817078767
0.0773717,0.0016673647904536192
0.0783172,0.0012398030130271113
0.0795477,0.0033203916117764735
0.0814993,0.0035119347959651982
0.0808469,0.00177352852622486
0.0808232,0.0006991024086482443
0.0817527,0.0021911426775391278
0.0822992,0.0030024618343397246
0.0851405,0.007775593957305698
0.0844411,0.0036478133617582754
0.08517440000000001,0.0030996167576725457
0.0860026,0.0014034420543791622
0.0864597,0.003107425910442418
0.0870202,0.0039361654436773875
0.0900529,0.002980155344571448
0.0899564,0.0031888325345388285
0.0907976,0.0023816578819525424
0.0907304,0.0016735226453336238
0.09303639999999999,0.005042199370204325
0.0924358,0.005404146120238504
0.0936497,0.004895763430422946
0.09307109999999999,0.0026676468386118038
0.0932655,0.0021903512782707316
0.0948931,0.0030582694253086635
0.09603049999999999,0.003868974749350415
0.0970528,0.004882374212978308
0.09878830000000001,0.003790200230711946
0.0985339,0.002870355899342257
0.0987093,0.0021201223261354007
0.1012243,0.004878478133598633
0.0996406,0.0011403056315450386
0.10069239999999999,0.0010909151306230107
0.10142,0.0073885655351134776
0.10462350000000001,0.013702790796444026
0.10361590000000001,0.004027417023077915
0.1048614,0.004152363000616503
0.1044019,0.0021840712468028855
0.1049053,0.0010912935291051036
0.10629249999999998,0.0022281462274974504
0.1076557,0.0035910779888805276
0.1084193,0.0044572531663445904
