mean_accFULL,stdev_accFULL, mean_timeFULL, stdev_timeFULL
73.846413,0.0,0.40289169999999996,0.0879382393691416
mean_accI,stdev_accI
50.0,0.0
72.709511,0.0
71.205246,0.0
68.113182,0.0
66.595795,0.0
65.919128,0.0
65.434685,0.0
64.451721,0.0
62.336288,0.0
62.008636,0.0
62.05135700000001,0.0
63.903206,0.0
65.32061,0.0
66.367653,0.0
67.785057,0.0
69.921844,0.0
71.381966,0.0
72.407646,0.0
73.105667,0.0
73.105667,0.0
73.846413,0.0
mean_timeI,stdev_timeI
0.014852599999999999,0.0003756118563978869
0.059835400000000004,0.0015655706946669649
0.0958094,0.01771926970654641
0.1511269,0.0061819047487180045
0.18157689999999999,0.01657177372958141
0.2262521,0.02342943733591948
0.2543979,0.02964358790118962
0.2989906,0.039105933758901035
0.34049429999999997,0.03845499232739489
0.3653749,0.05097045794150437
0.3714302,0.05273483951873436
0.3745527,0.08764019143831467
0.38373979999999996,0.08040283614096652
0.4033791,0.057920271810001416
0.3708146,0.08582036620652594
0.3667834,0.08478851095284076
0.35114520000000005,0.09453565402158536
0.383122,0.09056113145273749
0.36005370000000003,0.08258371796217191
0.35626250000000004,0.08749430207638285
0.3602949,0.09722216906475371
