mean_accFULL,stdev_accFULL, mean_timeFULL, stdev_timeFULL
93.0,0.0,0.1047714,0.009044207454989567
mean_accI,stdev_accI
50.0,0.0
51.846153,0.0
53.69230700000001,0.0
53.76923000000001,0.0
53.84615699999999,0.0
53.84615699999999,0.0
53.84615699999999,0.0
53.84614899999999,0.0
53.84615699999999,0.0
53.84615699999999,0.0
53.84614899999999,0.0
54.53846,0.0
55.30769299999999,0.0
56.153847,0.0
56.461536,0.0
57.076923,0.0
57.53846,0.0
57.615387,0.0
57.69230700000001,0.0
57.69230700000001,0.0
57.69230700000001,0.0
58.53846,0.0
59.30769299999999,0.0
59.84615699999999,0.0
60.153847,0.0
60.46154,0.0
60.615382999999994,0.0
61.0,0.0
61.0,0.0
61.153847,0.0
61.230774,0.0
64.53846,0.0
64.92308,0.0
65.0,0.0
65.0,0.0
65.0,0.0
65.0,0.0
64.92308,0.0
64.92308,0.0
64.92308,0.0
64.92308,0.0
65.307693,0.0
67.07692,0.0
67.46154,0.0
67.769226,0.0
68.0,0.0
68.0,0.0
68.230766,0.0
68.230766,0.0
68.307693,0.0
68.307693,0.0
70.0,0.0
70.615387,0.0
71.307693,0.0
71.692307,0.0
71.692307,0.0
71.692307,0.0
71.692307,0.0
71.846161,0.0
71.92308,0.0
72.0,0.0
73.692307,0.0
74.46154,0.0
74.53846,0.0
75.230774,0.0
75.46154,0.0
75.53846,0.0
75.615379,0.0
75.615379,0.0
75.692307,0.0
75.615387,0.0
76.53846,0.0
77.53846,0.0
78.07692,0.0
78.0,0.0
78.307693,0.0
78.46154,0.0
78.846153,0.0
78.923073,0.0
78.846153,0.0
78.846153,0.0
78.923073,0.0
79.538467,0.0
80.230766,0.0
80.384621,0.0
80.538467,0.0
80.692307,0.0
80.923073,0.0
81.076927,0.0
81.076927,0.0
81.076927,0.0
81.46154,0.0
81.769234,0.0
82.692307,0.0
83.076927,0.0
83.230766,0.0
83.307686,0.0
83.615387,0.0
83.615387,0.0
84.07692,0.0
84.153847,0.0
85.923073,0.0
86.692307,0.0
86.923073,0.0
87.230774,0.0
87.230774,0.0
87.46154,0.0
87.46154,0.0
87.53846,0.0
87.53846,0.0
87.692307,0.0
87.769234,0.0
88.384613,0.0
89.307693,0.0
89.461533,0.0
89.692307,0.0
90.0,0.0
89.769234,0.0
89.769234,0.0
89.92308,0.0
90.0,0.0
90.153847,0.0
90.0,0.0
90.0,0.0
90.0,0.0
90.0,0.0
90.0,0.0
90.0,0.0
89.92308,0.0
89.846153,0.0
89.846153,0.0
91.615387,0.0
92.846153,0.0
93.07692,0.0
92.923073,0.0
92.923073,0.0
92.923073,0.0
93.0,0.0
93.07692,0.0
93.076927,0.0
93.0,0.0
mean_timeI,stdev_timeI
0.0043636000000000005,6.618861936415766e-05
0.0051611999999999995,0.00014651719656371017
0.006084,0.0005515114585290943
0.006646299999999999,2.432671142774733e-05
0.0074755,0.0006578904417403657
0.008545800000000001,0.0013960566527823212
0.0089515,0.0007095794137687792
0.009589700000000001,0.0006183533779320686
0.0106292,0.0010310161977389104
0.011096400000000001,0.0007554969225615682
0.0119995,0.0009772983452127374
0.0125445,0.0009020507807829394
0.013769,0.000634663865540037
0.0146873,0.0008248913800549069
0.0154033,0.0010934115876466651
0.0161611,0.0010076032563574922
0.016723,0.00030207541368928976
0.0177503,0.000909720353857284
0.0185445,0.001068300545518702
0.0190785,0.0008147663946050904
0.0198811,0.0007808527318828368
0.0207004,0.0007802572510254409
0.0212117,0.0006554157374437152
0.0218695,0.0001426185666579061
0.0230039,0.0010959401291433155
0.0233653,0.00021004552416612499
0.0244226,0.0009542143015766072
0.025235200000000003,0.0013930929457705095
0.0251087,0.001254149827129474
0.025903199999999998,0.0014733898028393955
0.027161799999999996,0.0007006807483519943
0.027631499999999996,0.0014020957527929397
0.0286114,0.0017008689413225094
0.029961900000000003,0.0017087570824042449
0.0308417,0.0011633552099184685
0.0318119,0.0014901713883532547
0.031885399999999994,0.0012381435206702722
0.0325413,0.0007933521076209905
0.0332906,0.0008132037055170532
0.033372200000000005,0.0017530568730078318
0.0347885,0.0011119146899730115
0.0354313,0.0010849552013280945
0.0362199,0.0038033393645876814
0.0368873,0.0020711262663370158
0.038134,0.0022527416382907483
0.038647,0.0023659193186206127
0.039394200000000004,0.003143900365964405
0.0406653,0.0015165238064585578
0.0407055,0.002196876633870106
0.0418957,0.0017301687811052163
0.0433247,0.0015312429265142743
0.044067499999999996,0.0015160940494133837
0.0455871,0.0017370949216052264
0.0463608,0.0015772425164049938
0.046541299999999994,0.001997202935774597
0.0467294,0.0011843219532242442
0.0476942,0.0019331530260748174
0.0481265,0.0010191698419138335
0.0488229,0.0008373627184334282
0.0498525,0.0010783511332894612
0.050682700000000004,0.0008125206390541029
0.051570000000000005,0.0011225398780345302
0.05237970000000001,0.0011472518903885057
0.052442,0.0024735596931458026
0.0546952,0.002002639802305391
0.0549582,0.0019732801118949135
0.054979599999999997,0.0018029957293349316
0.0562564,0.0016865705637970397
0.05727139999999999,0.002076147725422682
0.0580779,0.002636492006435824
0.05869919999999999,0.0015665367180148998
0.062191300000000005,0.007609496757342106
0.0610765,0.002016911293702991
0.0619235,0.0036804236244698165
0.0625415,0.0037420379251596756
0.0627679,0.0025388626696919952
0.0628959,0.0025632653848818164
0.0646931,0.0024719236975818373
0.0642191,0.0012328750004224533
0.0657376,0.0021717687722223092
0.0672683,0.002272219279813362
0.0674455,0.002426753718676683
0.0670963,0.0027633492983053097
0.0682729,0.0018233863764374725
0.0690356,0.0020544633903338888
0.0708211,0.0016824588784804726
0.0707562,0.0023067844285931892
0.0692096,0.00781302193918731
0.0692198,0.007920793447909398
0.0724764,0.0016018152341779103
0.0738006,0.0016743609859021188
0.0745372,0.001355886409532727
0.07646349999999999,0.002979742541078188
0.0755198,0.004203280591791768
0.0755874,0.004888345646080642
0.0765335,0.004920840855201703
0.0815634,0.013702732648798358
0.0831342,0.014220510420593989
0.08007149999999999,0.002565853042037545
0.0816136,0.0038802747382684698
0.0810406,0.002808996230368105
0.08161389999999999,0.0018946198358040676
0.0827093,0.003926558630375683
0.0816587,0.003334550845982777
0.0852015,0.0018855438502222933
0.0844889,0.0013458657230364542
0.0851813,0.0013079147143449377
0.085834,0.0010773189974293703
0.0879843,0.003285068950739254
0.0895595,0.0039858575056762316
0.08953249999999999,0.005314374558162459
0.0877622,0.004212722682541542
0.0874341,0.006383103467575767
0.0884442,0.0043972171199521196
0.0879121,0.008797868459651652
0.0898843,0.005577250199595577
0.0943432,0.003452522388695609
0.0938559,0.003783969005334652
0.0938887,0.0013344301363836524
0.0945238,0.002215887020786233
0.0957957,0.002460285758018998
0.0955109,0.004178334608429538
0.09519720000000001,0.004824853130752617
0.0967297,0.004110046608278575
0.0924606,0.012384380325411701
0.0935531,0.012932202316955401
0.09764500000000001,0.006571619536562759
0.0981525,0.005095769558063716
0.10016449999999999,0.0036798048936805823
0.1000238,0.003390478261904128
0.0990756,0.0032657007823742833
0.1002853,0.0031844165364753652
0.10164759999999999,0.0027651469802204413
0.1019226,0.00115901732323359
0.1031787,0.002808175684991551
0.10408310000000001,0.001598266661800285
0.1028702,0.001954244884006781
0.106365,0.003742058465010343
0.104016,0.003963530356751274
0.1052968,0.009988985264891637
0.10520929999999999,0.009193044811160227
