mean_accFULL,stdev_accFULL, mean_timeFULL, stdev_timeFULL
86.532555,0.0,0.0027449,0.00012655034132268817
mean_accI,stdev_accI
50.0,0.0
69.403252,0.0
70.824173,0.0
71.296867,0.0
71.296867,0.0
71.328705,0.0
71.331558,0.0
71.331558,0.0
71.331558,0.0
71.331558,0.0
71.331558,0.0
71.331558,0.0
71.772415,0.0
71.299721,0.0
71.299721,0.0
71.299721,0.0
71.299721,0.0
71.299721,0.0
71.299721,0.0
71.299721,0.0
71.299721,0.0
82.333038,0.0
85.828568,0.0
86.395195,0.0
84.52375,0.0
85.600166,0.0
86.407486,0.0
85.69397,0.0
85.456123,0.0
85.994339,0.0
86.532555,0.0
mean_timeI,stdev_timeI
0.0004527,2.2963981458894377e-05
0.0004849,6.504263558962263e-05
0.0005653,1.0667187487284962e-05
0.0006196,1.4261058087595668e-05
0.0006807,2.1929432277193126e-05
0.0007446,1.3688600285557964e-05
0.0008064999999999999,9.924716620639605e-06
0.0009406,0.00019268119899057206
0.0009450999999999999,1.8369358544416636e-05
0.0010002000000000001,1.0086294331087785e-05
0.0011061,0.0001386918646977296
0.0010861,4.7439903503743e-05
0.0011129999999999998,5.527305954179763e-05
0.0011467,6.408336584307802e-05
0.0011696,1.1286176402031674e-05
0.001216,2.5214634198769936e-05
0.0012431,1.4662499407975723e-05
0.0013529,0.0002847885960575747
0.0013013999999999999,6.281931762337657e-05
0.0013676,1.4743736900045972e-05
0.0014567999999999998,0.00019492950292634287
0.0015533,2.6516451916163713e-05
0.0016632,0.00010696499946763482
0.0018118,1.8819611520373595e-05
0.002091,0.00046391306656887063
0.0020818,2.1022739011735714e-05
0.0022095,2.4717290394467672e-05
0.0024411000000000003,0.0002069581009662477
0.00247,9.979645952303782e-05
0.0027867,0.0005949853499597001
0.0026191,0.0004121101390000817
