mean_accFULL,stdev_accFULL, mean_timeFULL, stdev_timeFULL
94.92308,0.0,0.1056764,0.0028740109873755812
mean_accI,stdev_accI
50.0,0.0
53.84615699999999,0.0
53.84615699999999,0.0
53.84615699999999,0.0
53.84615699999999,0.0
53.84615699999999,0.0
53.84615699999999,0.0
53.84615699999999,0.0
53.84615699999999,0.0
53.84615699999999,0.0
53.84615699999999,0.0
55.615382999999994,0.0
56.153847,0.0
57.53846,0.0
57.53846,0.0
57.615382999999994,0.0
57.69230700000001,0.0
57.69230700000001,0.0
57.69230700000001,0.0
57.69230700000001,0.0
57.69230700000001,0.0
59.53846,0.0
60.076923,0.0
60.692303,0.0
61.076919999999994,0.0
61.30769299999999,0.0
61.384617000000006,0.0
61.384617000000006,0.0
61.461536,0.0
61.538464,0.0
61.538464,0.0
63.923080000000006,0.0
64.846153,0.0
64.846153,0.0
64.846153,0.0
64.615387,0.0
64.692307,0.0
64.692307,0.0
64.615387,0.0
64.615387,0.0
64.615387,0.0
64.692307,0.0
64.692307,0.0
64.692307,0.0
64.846153,0.0
64.92308,0.0
64.92308,0.0
64.92308,0.0
64.92308,0.0
64.92308,0.0
64.92308,0.0
68.0,0.0
68.46154,0.0
68.615379,0.0
68.769226,0.0
68.769226,0.0
68.769226,0.0
68.769226,0.0
68.769226,0.0
68.769226,0.0
68.769226,0.0
71.53846,0.0
72.153847,0.0
72.07692,0.0
72.307693,0.0
72.307693,0.0
72.307693,0.0
72.307693,0.0
72.307693,0.0
72.307693,0.0
72.307693,0.0
74.0,0.0
74.384613,0.0
75.230774,0.0
75.230774,0.0
75.307693,0.0
76.0,0.0
76.076927,0.0
76.076927,0.0
76.076927,0.0
76.076927,0.0
76.692307,0.0
77.46154,0.0
78.0,0.0
78.153839,0.0
78.07692,0.0
78.230766,0.0
78.230766,0.0
78.230766,0.0
78.46154,0.0
78.53846,0.0
80.46154,0.0
80.769226,0.0
81.384621,0.0
81.46154,0.0
81.692307,0.0
81.769234,0.0
81.769234,0.0
82.0,0.0
82.0,0.0
82.076927,0.0
84.692307,0.0
85.07692,0.0
85.07692,0.0
85.384613,0.0
85.615387,0.0
85.615387,0.0
85.692307,0.0
85.692307,0.0
85.692307,0.0
85.846153,0.0
87.0,0.0
88.0,0.0
88.230774,0.0
88.384613,0.0
88.384613,0.0
88.230774,0.0
88.307693,0.0
88.307693,0.0
88.307693,0.0
88.53846,0.0
91.692307,0.0
91.769234,0.0
92.0,0.0
91.769234,0.0
91.846153,0.0
91.769234,0.0
91.692307,0.0
91.692307,0.0
91.692307,0.0
91.692314,0.0
94.53846,0.0
95.0,0.0
95.0,0.0
95.076927,0.0
95.0,0.0
95.0,0.0
95.0,0.0
95.0,0.0
95.0,0.0
94.92308,0.0
mean_timeI,stdev_timeI
0.0039426999999999995,2.6837163287749547e-05
0.0046844,0.0003208077305801717
0.0056062,0.00034654350376251444
0.0061916,1.0772392698209792e-05
0.0069558,1.7618172436436152e-05
0.007797999999999999,0.00024351773834546211
0.0085267,0.00017731957966714588
0.0092465,0.00011193971591888215
0.009681100000000002,0.0006819085064076492
0.0107755,7.578954779885913e-05
0.0121536,0.0019231110327915142
0.012426900000000001,0.0005592032923921516
0.0130216,0.00014101000752507676
0.0140699,0.0010183419475904066
0.0147096,0.000624929898290823
0.0153288,0.0008456088930468978
0.0158501,0.0007865428504255542
0.0166587,0.000765992464424785
0.0172687,0.001443663014695604
0.018660799999999998,0.0013771152457220132
0.0195135,0.001380617192900818
0.0193467,0.0015865637956848052
0.0209935,0.0010269126599234775
0.021615699999999998,0.0006734387788722065
0.0226154,0.001305022451914142
0.023242099999999998,0.0006166386390027073
0.0239977,0.001063738799392658
0.0244679,0.0003423381856196197
0.02443,0.002241622378744664
0.0266436,0.001107667840304323
0.0274486,0.001379856208289674
0.027170499999999997,0.0024906747523958687
0.0285258,0.0009530343120790565
0.0292652,0.0008259429358819738
0.029806199999999998,0.0016647445449677863
0.030103199999999997,0.00149515690741065
0.0312506,0.002202860120641142
0.0317408,0.0013592483053348106
0.0313158,0.002779042912786902
0.032889999999999996,0.0013426068341517968
0.034777,0.001385099996390153
0.0347794,0.0008494679642118475
0.0357571,0.0016780067176398448
0.0347374,0.0012788289087199178
0.0351664,0.0005747509992258494
0.0361035,0.0018732943797848036
0.0357633,0.003134000604481258
0.0365992,0.004251007640025544
0.0369483,0.003156206339191967
0.0376702,0.002112591762635544
0.0371982,0.0033550414403799344
0.0394414,0.0013511724291641431
0.0404816,0.0014672962436626995
0.0407948,0.0012620160942801895
0.0414446,0.000976737904114166
0.042099700000000004,0.0014517816678519906
0.042280899999999996,0.0037227840970614086
0.044001,0.0012731054769953495
0.0441705,0.0004454698518293784
0.0455815,0.0016280569366238045
0.0470927,0.001927259773184024
0.0469771,0.0015377993258766458
0.0473318,0.0009950886950976347
0.0483079,0.001104668623011746
0.0485599,0.0005036968775408911
0.0492837,0.0003775473627389165
0.0506915,0.001710185191401471
0.050254,0.006557876655002152
0.0501148,0.005420355519295351
0.0503884,0.005024302653658073
0.0521305,0.003776239730207817
0.0542318,0.003941127300659039
0.0547057,0.004735852147889191
0.0539689,0.004832048782176494
0.056232000000000004,0.007461110804997098
0.0551598,0.005038143502874403
0.0592882,0.0020063025029474833
0.0603309,0.002045351501983622
0.06002419999999999,0.0017003741287663066
0.0614383,0.00239997463181037
0.0612549,0.002587359634410683
0.061373500000000004,0.0021271279149751815
0.06303539999999999,0.0029655180248239193
0.0621379,0.0027679666604446904
0.0668074,0.00669399613584193
0.0647278,0.0018200928425647833
0.0668933,0.002778262768549999
0.0676082,0.0029422626138550048
0.06745609999999999,0.0028085576547402426
0.0692396,0.005897622123458834
0.068564,0.001222810060657191
0.07025790000000001,0.0025077601980873503
0.0718481,0.0028850370862241793
0.0710199,0.002186330434007326
0.0716227,0.00224637614590453
0.07357359999999999,0.0043692076627233015
0.0719605,0.0066950175213445935
0.0730082,0.0067638421658436435
0.0732437,0.006927406794753718
0.0755893,0.00657336945645923
0.0782682,0.004034627720675659
0.0774915,0.002311992707120372
0.0795167,0.0042946511965467025
0.0786067,0.0031023051304187037
0.0797564,0.0017567692696158642
0.0801647,0.0022623205907995347
0.0808677,0.0010686068864544074
0.08172019999999999,0.0032555180437732704
0.08282419999999999,0.0016856368265765647
0.0826849,0.0021927161973730683
0.0850829,0.004581982357257852
0.0852728,0.002907635457817154
0.0856634,0.001355794166613142
0.0846463,0.004034895070919853
0.08703179999999999,0.001416042670417965
0.0872483,0.0009961084334102947
0.0881216,0.0014704995523064034
0.0901695,0.0031619781167982674
0.090836,0.0028723341650225076
0.0906358,0.0018175172809815772
0.0934673,0.003842015647200481
0.0914746,0.006019059823224519
0.0912009,0.006408781049813173
0.0956144,0.0038323864685655654
0.0953504,0.0034979894923925785
0.1013754,0.008986734003209646
0.0977874,0.004327726146604009
0.095043,0.00834384651504728
0.0948241,0.008593266749806695
0.0950338,0.009382264448296996
0.0981274,0.012046051849280561
0.0968401,0.006844395881952538
0.10000010000000001,0.005100189396265379
0.1033995,0.0043913644867575674
0.1007086,0.004852812705592045
0.103138,0.002536798507305354
0.10241960000000001,0.006115532523373943
0.1037813,0.008237857192390643
0.1053914,0.007764808908001393
0.1048141,0.008042791409427173
0.10482169999999999,0.005983129969617351
