mean_accFULL,stdev_accFULL, mean_timeFULL, stdev_timeFULL
76.82222,0.0,0.0169172,0.00037806901192477776
mean_accI,stdev_accI
50.0,0.0
63.955551,0.0
65.200005,0.0
65.35556,0.0
64.755554,0.0
63.711113,0.0
63.66666399999999,0.0
62.377781000000006,0.0
62.35555999999999,0.0
62.35555999999999,0.0
62.59999800000001,0.0
62.977772,0.0
67.311111,0.0
69.244446,0.0
71.155556,0.0
70.777779,0.0
72.044441,0.0
72.755554,0.0
72.799995,0.0
73.711105,0.0
74.333336,0.0
75.08889,0.0
75.444443,0.0
75.622223,0.0
76.0,0.0
76.0,0.0
75.977776,0.0
75.977776,0.0
75.755554,0.0
76.222221,0.0
76.82222,0.0
mean_timeI,stdev_timeI
0.0023343,1.6055805457493828e-05
0.0032752999999999997,0.00031344007047245524
0.0040523,0.0001477242551362354
0.004809,2.424871130596433e-05
0.0056326,2.3046812264509826e-05
0.0064359,1.7316979464611452e-05
0.0072399000000000005,1.7278438715475454e-05
0.0080693,2.9751003717895068e-05
0.0088911,4.1685195880019295e-05
0.0097286,8.563254832908661e-05
0.0106068,0.00019804421504076108
0.0110437,0.00017470867815372603
0.0114985,0.00014769506875090115
0.0118297,0.00027485836756813907
0.0124093,0.0007299869176909952
0.012698999999999998,0.0003827415722274118
0.0129132,0.00023659801821279518
0.013323699999999999,0.00025677618875415804
0.0138904,0.0003739495509646544
0.014280999999999999,0.0003767822831409259
0.0150759,0.0007752776491898459
0.014987400000000001,0.0004067202696913174
0.0152053,0.0005409423978371246
0.015434400000000001,0.0006518164704202487
0.0156786,0.0005281193467810516
0.015734199999999997,0.0005477943247444444
0.0162242,0.0003706824936668998
0.0163921,0.00045229156034084426
0.0166596,0.0008544920778515805
0.0167958,0.0006906854566298609
0.0167923,0.0004042972091584764
