mean_accFULL,stdev_accFULL, mean_timeFULL, stdev_timeFULL
93.0,0.0,0.10576769999999999,0.00533375771332411
mean_accI,stdev_accI
50.0,0.0
52.23076999999999,0.0
53.384621,0.0
53.23076999999999,0.0
53.23076999999999,0.0
53.15384300000001,0.0
53.15384300000001,0.0
53.15384300000001,0.0
53.15384300000001,0.0
53.076923,0.0
53.076923,0.0
53.769226,0.0
54.615382999999994,0.0
55.615382999999994,0.0
55.923073,0.0
56.538456,0.0
56.846153,0.0
56.846153,0.0
56.923073,0.0
56.923073,0.0
56.923073,0.0
57.769234,0.0
58.615387,0.0
59.000004000000004,0.0
59.15385100000001,0.0
59.46154,0.0
59.53846,0.0
59.923077,0.0
59.923077,0.0
60.000004000000004,0.0
60.076923,0.0
62.384617000000006,0.0
63.0,0.0
63.076927,0.0
63.076919999999994,0.0
63.076919999999994,0.0
63.076919999999994,0.0
63.076919999999994,0.0
63.076919999999994,0.0
63.0,0.0
63.0,0.0
63.615382999999994,0.0
65.153847,0.0
65.53846,0.0
65.769234,0.0
65.92308,0.0
65.92308,0.0
66.153847,0.0
66.153847,0.0
66.307693,0.0
66.307693,0.0
68.307693,0.0
69.307693,0.0
69.846153,0.0
70.0,0.0
70.0,0.0
70.0,0.0
70.0,0.0
70.0,0.0
70.076927,0.0
70.153847,0.0
71.846161,0.0
72.615387,0.0
72.692307,0.0
73.384613,0.0
73.615387,0.0
73.615387,0.0
73.692307,0.0
73.692307,0.0
73.769226,0.0
73.769226,0.0
74.769226,0.0
75.53846,0.0
76.076927,0.0
76.0,0.0
76.307693,0.0
76.461533,0.0
76.846153,0.0
76.846153,0.0
76.769234,0.0
76.769234,0.0
76.692307,0.0
76.692307,0.0
76.846153,0.0
76.92308,0.0
77.076927,0.0
77.153847,0.0
77.230766,0.0
77.384613,0.0
77.53846,0.0
77.53846,0.0
78.230766,0.0
78.692307,0.0
79.692307,0.0
79.846153,0.0
80.0,0.0
80.07692,0.0
80.307693,0.0
80.230766,0.0
80.692307,0.0
80.769226,0.0
82.615379,0.0
83.307686,0.0
83.53846,0.0
83.846153,0.0
83.846153,0.0
84.07692,0.0
84.07692,0.0
84.153847,0.0
84.153847,0.0
84.307686,0.0
84.384613,0.0
85.0,0.0
85.923073,0.0
86.07692,0.0
86.307693,0.0
86.615387,0.0
86.384613,0.0
86.384613,0.0
86.538467,0.0
86.615387,0.0
89.692307,0.0
89.92308,0.0
89.846153,0.0
90.307693,0.0
90.307693,0.0
90.07692,0.0
89.92308,0.0
89.846153,0.0
89.846153,0.0
89.846153,0.0
91.615387,0.0
92.846153,0.0
93.07692,0.0
92.923073,0.0
92.923073,0.0
92.923073,0.0
93.0,0.0
93.07692,0.0
93.076927,0.0
93.0,0.0
mean_timeI,stdev_timeI
0.004432,0.00047499707601439216
0.0051297999999999995,0.00013945194313613718
0.0057996,0.00023903612000420916
0.0067518,0.00017329538046032542
0.007552499999999999,0.00023347483804470233
0.0082688,0.00029152579455150933
0.0090433,7.791027603025885e-05
0.0098322,0.00014374421727499166
0.010613399999999999,0.00043070232050557703
0.011325499999999999,0.00011725020729666566
0.0120871,0.00010817521794652307
0.0129938,0.0003083835274459389
0.013753199999999998,0.000496008019648428
0.0145489,0.0005864674756540211
0.015317,0.00042586174073544394
0.0160204,0.0004893399636244724
0.0164523,0.0010617234469379388
0.0171158,0.0011671519752514382
0.0181342,0.0013575578399791625
0.0184633,0.002051504491288717
0.0189555,0.0019356465615166195
0.020246300000000002,0.0019790081718993597
0.0211038,0.002025192983945535
0.0218617,0.0021772110115670664
0.0227688,0.0003077494652039759
0.023287099999999998,0.0022605735481657455
0.0237138,0.002039081917595923
0.025967,0.0016407114987779612
0.0258763,0.00040523519919506826
0.0266189,0.000524111618731057
0.027958699999999996,0.001592531461402114
0.029896,0.004806625126958739
0.0291715,0.000688217706188319
0.030358299999999998,0.0009637567754481537
0.0305319,0.0005770015309049585
0.032133,0.0015805919425610428
0.032676,0.001405950133460564
0.0335843,0.0014096848386942536
0.033728,0.0006205895046915744
0.0344557,0.0009140860705887852
0.035764699999999996,0.0009704506456052036
0.036392999999999995,0.0013330786423413534
0.0373223,0.0014503860060917112
0.0377327,0.0015092129700240743
0.0390716,0.0017530362993009203
0.0391222,0.0011687742677219117
0.0392972,0.0020289088364602954
0.0404339,0.0023466273884023437
0.0417735,0.0016710892821417077
0.0437339,0.002829189968485286
0.0442704,0.002794652520638499
0.0446143,0.0011267536504883803
0.0456637,0.0023674119507268777
0.0456978,0.0009900371261276576
0.046460600000000005,0.0014341490082197786
0.0465068,0.0018477460022657032
0.047844399999999995,0.0018668482768797485
0.0487415,0.0017933827285638473
0.0493194,0.0018123209919265902
0.0493322,0.000773146069280861
0.049849199999999996,0.001508498355613584
0.0516663,0.0015871028147049714
0.0528377,0.0018318123417958387
0.0536986,0.002001947618362345
0.0560744,0.008585395521853764
0.0551304,0.0017696512650802133
0.0564505,0.0025202777734915555
0.056217,0.0022273889547080807
0.0580276,0.0019036751123375365
0.057560299999999995,0.0017759937468608644
0.0588616,0.00228862759457861
0.059743000000000004,0.003329099511212535
0.0596251,0.002136639492806921
0.0609383,0.0012047213647423474
0.061528000000000006,0.001697430541861566
0.060381399999999995,0.004000485587192301
0.0630249,0.0016032554693497837
0.06310550000000001,0.0011222076704227068
0.0653031,0.0022812206990507917
0.0655995,0.0020837464257117927
0.0666907,0.0018076957739373938
0.0670199,0.0023534024753771093
0.0659974,0.0008466651181088223
0.0678515,0.0024222660304397247
0.0684124,0.003020835579769277
0.0677513,0.002114585541213953
0.06877219999999999,0.002246465460822104
0.0680593,0.0009330091163065402
0.0687719,0.0031872988023647175
0.0692245,0.002611108374703059
0.0694945,0.0021456311296316624
0.06985939999999999,0.009563489161040195
0.0695025,0.008742657608276532
0.072985,0.0023396440375027592
0.0734896,0.002505015466796341
0.0739738,0.002522627325274625
0.0733051,0.0023581962245185044
0.0743804,0.004777468348636359
0.0742301,0.00680246643913482
0.077209,0.00525058563929354
0.0779182,0.004575357686078276
0.0774119,0.0033883506459633137
0.07902909999999999,0.0013867286404420367
0.0803577,0.0027586678769934525
0.0798602,0.0017577379276280712
0.08219119999999999,0.0030861029650857594
0.082312,0.0034223564331547288
0.0805705,0.006926683978964569
0.0813622,0.006579040183289149
0.0863819,0.00391876123992717
0.0861629,0.0034480612088534607
0.0857786,0.0023412237635713293
0.08753649999999999,0.003522748871422872
0.0873447,0.0015906079236149538
0.08732219999999999,0.0030583743612143583
0.0956539,0.013876650319871864
0.09088929999999999,0.00418921167471346
0.0927096,0.0037794225955237602
0.0916978,0.0029616727555743087
0.0975973,0.014255808976226735
0.09415369999999999,0.003139077113137271
0.0922682,0.002290876096363329
0.09508849999999999,0.0035765037940548726
0.0953974,0.002907356806448085
0.0966606,0.0034599953500289906
0.0948264,0.006275097665463948
0.0957291,0.0069289102630452175
0.09814890000000001,0.001758673455256041
0.0993511,0.004115929419813815
0.1001391,0.012370775709532345
0.10048539999999999,0.0018578452393386627
0.1021293,0.003059910893764356
0.1038389,0.005397007801653719
0.1034003,0.005626498655666968
0.1021524,0.005861441843854538
0.10737460000000001,0.005916574932622196
0.10720650000000001,0.004661877786900897
0.1082003,0.005313789776504984
0.1075822,0.003567066638009446
0.1063769,0.004882820051523048
0.10676250000000001,0.004812369969383299
