mean_accFULL,stdev_accFULL, mean_timeFULL, stdev_timeFULL
94.92308,0.0,0.1041714,0.010336954679422973
mean_accI,stdev_accI
50.0,0.0
53.615387,0.0
53.615387,0.0
53.769237999999994,0.0
53.76923000000001,0.0
53.69230700000001,0.0
53.69230700000001,0.0
53.69230700000001,0.0
53.69230700000001,0.0
53.69230700000001,0.0
53.69230700000001,0.0
55.461536,0.0
56.0,0.0
57.384617000000006,0.0
57.461536,0.0
57.461536,0.0
57.538456,0.0
57.538456,0.0
57.538456,0.0
57.538456,0.0
57.538456,0.0
59.46154,0.0
60.000004000000004,0.0
60.615382999999994,0.0
60.923080000000006,0.0
61.153847,0.0
61.230766,0.0
61.230766,0.0
61.30769299999999,0.0
61.384617000000006,0.0
61.384617000000006,0.0
65.07692,0.0
65.230766,0.0
65.230766,0.0
65.230766,0.0
65.230766,0.0
65.230766,0.0
65.230766,0.0
65.230766,0.0
65.230766,0.0
65.230766,0.0
67.769226,0.0
68.230774,0.0
68.53846,0.0
68.53846,0.0
68.615379,0.0
68.615379,0.0
68.692307,0.0
68.615379,0.0
68.615379,0.0
68.615379,0.0
71.692307,0.0
72.153847,0.0
72.307686,0.0
72.46154,0.0
72.46154,0.0
72.46154,0.0
72.46154,0.0
72.46154,0.0
72.46154,0.0
72.46154,0.0
75.153847,0.0
75.769226,0.0
75.692307,0.0
75.846153,0.0
75.846153,0.0
75.846153,0.0
75.846153,0.0
75.846153,0.0
75.846153,0.0
75.846153,0.0
77.53846,0.0
77.92308,0.0
78.769234,0.0
78.769234,0.0
78.846153,0.0
79.53846,0.0
79.615387,0.0
79.615387,0.0
79.615387,0.0
79.615387,0.0
80.230766,0.0
81.0,0.0
81.53846,0.0
81.692307,0.0
81.615379,0.0
81.769234,0.0
81.769234,0.0
81.769234,0.0
82.0,0.0
82.076927,0.0
84.0,0.0
84.307693,0.0
84.92308,0.0
85.0,0.0
85.230766,0.0
85.307693,0.0
85.307693,0.0
85.538467,0.0
85.538467,0.0
85.615387,0.0
85.615387,0.0
85.615387,0.0
85.615387,0.0
85.692307,0.0
85.692307,0.0
85.692307,0.0
85.846153,0.0
85.846153,0.0
85.846153,0.0
85.846153,0.0
87.0,0.0
88.0,0.0
88.230774,0.0
88.384613,0.0
88.384613,0.0
88.230774,0.0
88.307693,0.0
88.307693,0.0
88.307693,0.0
88.53846,0.0
91.692307,0.0
91.769234,0.0
92.0,0.0
91.769234,0.0
91.846153,0.0
91.769234,0.0
91.692307,0.0
91.692307,0.0
91.692307,0.0
91.692314,0.0
94.53846,0.0
95.0,0.0
95.0,0.0
95.076927,0.0
95.0,0.0
95.0,0.0
95.0,0.0
95.0,0.0
95.0,0.0
94.92308,0.0
mean_timeI,stdev_timeI
0.0039575,6.388053085426118e-05
0.0048463,0.0008480000065513625
0.0057372,0.0008472327241607756
0.0061919,0.0003875370806631141
0.0070066,0.00017589150696444169
0.0079265,0.0005186000921283715
0.0087244,0.0004934968647879694
0.0089855,0.000878423619648035
0.0099305,0.001223172764212444
0.0104303,0.0010083119061084225
0.0111922,0.0012431853173736137
0.0119171,0.0011736933585907354
0.012832099999999999,0.001394547274207655
0.0135796,0.0014276884347317056
0.0140815,0.0014376654880588723
0.0150834,0.0011560812351310882
0.0158013,0.0016822576794296403
0.016983500000000002,0.0004651635912952206
0.0179326,0.0007759101036130985
0.0178729,0.0014349004185347193
0.0188363,0.0016829666960460033
0.0199682,0.001992412708250979
0.0206935,0.0017461665473577003
0.0213554,0.0019812132197777757
0.022543,0.0009943255670721404
0.0231069,0.0009270814958783293
0.0240749,0.0006536381006846727
0.0251778,0.0009582773664817049
0.0254805,0.0009035985158120706
0.026196000000000004,0.0007860128639037799
0.026902500000000003,0.0004224929322222768
0.027437499999999997,0.00039954341997390497
0.028427199999999996,0.0005825735623554808
0.0296387,0.0012566284742206914
0.0303205,0.001413672620438614
0.031044,0.0009168261679414605
0.0317186,0.0005348670031990294
0.0324507,0.0015045691926779423
0.033321500000000004,0.0009417314137032683
0.033789400000000004,0.0007631819646133629
0.0343022,0.00041424383586911265
0.0361478,0.0024515451272842407
0.035952,0.00044822836441558035
0.0363811,0.001741562035134615
0.0372047,0.0035392337855655828
0.037711499999999995,0.0032036291313307643
0.0395195,0.003908725175808604
0.0398624,0.0013143604443902653
0.0413582,0.001995890433421189
0.041347,0.0004520970888844315
0.0420989,0.0007051416642538333
0.042807899999999996,0.0014543551033591039
0.042872900000000005,0.0017745362117090398
0.043793700000000005,0.0012256372537491596
0.0450189,0.001520788132661629
0.0463868,0.0012882668633133084
0.0469707,0.001725222307736342
0.0479759,0.0018619009670525195
0.047919699999999996,0.0038920268084608285
0.0485711,0.0034925871801733334
0.0484661,0.002845043856330591
0.051543799999999994,0.0027171924153843482
0.05075539999999999,0.0004140097153986175
0.05278580000000001,0.002121765344654722
0.0527269,0.0008993913312160991
0.0536328,0.001455079058562341
0.0539956,0.0016532871095688946
0.0546083,0.002164134830981348
0.055283700000000005,0.003616984196506501
0.055437499999999994,0.0015134094878048632
0.05757759999999999,0.0013485893205700374
0.0582557,0.001389408191361424
0.058988,0.0008743575419192719
0.0626355,0.009620721008439139
0.061775899999999995,0.002546686319732193
0.06150799999999999,0.0019255093409854499
0.0615449,0.0005160672759760449
0.062336499999999996,0.0004731023497440415
0.06381679999999999,0.0019485028896850784
0.06450789999999999,0.0023642831871180064
0.06681089999999999,0.0028998513927441156
0.0663034,0.001899092777559268
0.0675128,0.0030454038155883364
0.0703778,0.005469461151602496
0.06724369999999999,0.004151055047949991
0.06828719999999999,0.004691108345701591
0.0684447,0.004983089984024861
0.0703621,0.002522621363670032
0.07146670000000001,0.0016896853125820664
0.0727818,0.0027939004118098247
0.07283680000000001,0.002662330048827324
0.0742754,0.003544189272598179
0.0757526,0.0034096054577880076
0.07631210000000001,0.003992223647988115
0.0759199,0.003676794722762385
0.07690140000000001,0.002930914881814969
0.0776307,0.0039552247035479
0.0799091,0.005988915176297698
0.07904639999999999,0.0035342772072628616
0.07986610000000001,0.0012704182557112613
0.08177229999999999,0.0026558652095148017
0.0817548,0.005995721711724489
0.0796548,0.0038881512259113
0.0814842,0.004464198168640017
0.0824471,0.004709102354896195
0.082785,0.0024930964236823602
0.082033,0.002846418334211141
0.083978,0.002560563175900524
0.084189,0.004363015827510956
0.0850114,0.0034407636167959363
0.0853266,0.006189814845552507
0.0852109,0.0055588727964099565
0.0850699,0.004415899517023053
0.085704,0.003203360214940972
0.0870339,0.0012470678899812228
0.088841,0.0031363814252167175
0.0879437,0.0013508835832726498
0.0886197,0.0010934221559448598
0.0895845,0.0050953146506264825
0.090723,0.0013456190644705749
0.0932409,0.002867657714349235
0.0923256,0.0013092401698016369
0.093471,0.0026690148827693797
0.0946488,0.0031730457082536118
0.09574740000000001,0.003031027775817598
0.0964908,0.0019380003325306452
0.0959854,0.0026489293099078506
0.09677909999999999,0.0014070543265196891
0.09674579999999999,0.0019541078555471566
0.0989554,0.0019714654560616706
0.1003569,0.0034996621249613336
0.0979032,0.004983638826756566
0.0999485,0.0008585941027827625
0.10234829999999999,0.0031358897744942753
0.1024475,0.0023970095837197733
0.1037891,0.003288720739132465
0.10396760000000001,0.005069822135823789
0.1049911,0.0043344926769654
0.10240469999999999,0.005879917857513921
0.1033792,0.008248964632674279
0.10355859999999999,0.007877538845773255
