mean_accFULL,stdev_accFULL, mean_timeFULL, stdev_timeFULL
91.153847,0.0,0.1129299,0.007518371727530727
mean_accI,stdev_accI
50.0,0.0
50.92308,0.0
52.53846,0.0
53.76923000000001,0.0
53.76923000000001,0.0
53.84615699999999,0.0
53.84615699999999,0.0
53.84615699999999,0.0
53.84615699999999,0.0
53.84615699999999,0.0
53.84615699999999,0.0
54.076923,0.0
54.769237999999994,0.0
55.076927,0.0
55.615382999999994,0.0
56.384617000000006,0.0
56.846153,0.0
57.30769,0.0
57.46154,0.0
57.46154,0.0
57.615387,0.0
57.69230700000001,0.0
58.69230700000001,0.0
59.15384300000001,0.0
59.69230700000001,0.0
59.923077,0.0
60.076923,0.0
60.46154,0.0
60.76923000000001,0.0
61.0,0.0
61.076919999999994,0.0
62.076919999999994,0.0
64.615387,0.0
64.846153,0.0
64.846153,0.0
64.846153,0.0
64.92308,0.0
64.92308,0.0
64.846153,0.0
64.846153,0.0
64.846153,0.0
64.92308,0.0
66.230766,0.0
67.153847,0.0
67.538467,0.0
67.692307,0.0
67.692307,0.0
67.769226,0.0
68.076927,0.0
68.153847,0.0
68.153847,0.0
68.846146,0.0
70.53846,0.0
71.076927,0.0
71.384613,0.0
71.384613,0.0
71.53846,0.0
71.53846,0.0
71.692307,0.0
71.769234,0.0
71.846161,0.0
72.07692,0.0
73.384613,0.0
73.769226,0.0
74.46154,0.0
74.53846,0.0
74.615387,0.0
75.07692,0.0
75.153847,0.0
75.153847,0.0
75.153847,0.0
75.769226,0.0
76.692307,0.0
77.000008,0.0
77.076927,0.0
77.46154,0.0
77.384613,0.0
77.615387,0.0
78.0,0.0
78.0,0.0
78.230766,0.0
78.307693,0.0
78.53846,0.0
79.230766,0.0
79.307693,0.0
79.384613,0.0
79.46154,0.0
80.0,0.0
80.07692,0.0
80.153847,0.0
80.307693,0.0
80.384621,0.0
80.538467,0.0
81.692307,0.0
82.307693,0.0
82.615387,0.0
82.53846,0.0
82.769234,0.0
82.846153,0.0
83.076927,0.0
82.923073,0.0
84.307686,0.0
84.846153,0.0
86.07692,0.0
86.307693,0.0
86.307693,0.0
86.307693,0.0
86.307693,0.0
86.307693,0.0
86.384613,0.0
86.46154,0.0
86.384621,0.0
86.846153,0.0
87.307693,0.0
87.846153,0.0
88.0,0.0
88.230774,0.0
88.153847,0.0
88.384613,0.0
88.615379,0.0
88.692307,0.0
88.53846,0.0
88.53846,0.0
88.53846,0.0
88.307693,0.0
88.307693,0.0
88.230774,0.0
88.230774,0.0
88.153847,0.0
88.153847,0.0
88.153847,0.0
89.615387,0.0
90.307693,0.0
91.230766,0.0
91.307693,0.0
91.230766,0.0
91.153847,0.0
91.07692,0.0
91.153847,0.0
91.307693,0.0
91.153847,0.0
mean_timeI,stdev_timeI
0.0046201,1.3219934442601014e-05
0.0053892,3.558339188129447e-05
0.006092,0.00028052688522373987
0.0069129,0.0004312687870303932
0.0077372,2.8681391567045998e-05
0.0083953,0.0010432518658289357
0.0090384,0.0007605746657772807
0.009740200000000001,0.0011849462997677715
0.010176300000000001,0.0014977996491149575
0.0111852,0.0014354529134272104
0.0119551,0.0014925310679811286
0.0131188,6.804704255145843e-05
0.0147836,0.0025954205482391908
0.014785500000000002,0.00041882408134097393
0.0161664,0.0008996063583590327
0.0165189,0.0011950407199013016
0.0173835,0.000737762119144406
0.017775,0.0003769665472926977
0.0177085,0.0020541558552791893
0.0187559,0.002486257761286137
0.0193276,0.0024931086440648973
0.0212084,0.002815147369341632
0.0210519,0.0010903633899862107
0.022329099999999998,0.0015281607281667437
0.0235486,0.0010053946930876896
0.025018999999999996,0.0037062728208028914
0.0249813,0.001195165358154818
0.0252164,0.00016419311123728008
0.0263804,0.0008451857389552505
0.0268161,0.0002454109705054864
0.0281932,0.00102890910947253
0.028403099999999997,0.0003205625090715104
0.0295061,0.0011806161715157244
0.0308894,0.0014285878964130198
0.031190299999999997,0.0010070722196325126
0.0304234,0.0035918539378865496
0.0314149,0.004199767809719431
0.031935599999999995,0.003265481152227885
0.033063999999999996,0.004730535675563369
0.033838099999999996,0.004768208851922863
0.0360128,0.001103992230246411
0.0364666,0.0010998783973189443
0.0382033,0.0019941351258126903
0.037938700000000006,0.0009065625001436285
0.038542200000000006,0.0006236056089833983
0.039364500000000004,0.0006360314894370839
0.0404126,0.001263579325215126
0.0409587,0.001237968142652395
0.0415436,0.00048721708599851963
0.0426252,0.0010754494460973574
0.0433939,0.0009435131100779084
0.044447,0.0011357248297404125
0.044749899999999995,0.0009177549237132963
0.0451151,0.00024013674345163316
0.046178800000000006,0.0009833296949085227
0.0471283,0.0011217884579743384
0.047594199999999996,0.0003620195820363565
0.0489024,0.0009862152345654009
0.0502942,0.0020493153761954527
0.049629099999999995,0.002179983203299205
0.0514293,0.001913168404622145
0.052090899999999996,0.0018480322538070352
0.052214,0.0005897690696836818
0.0537898,0.0015792762618082722
0.0533112,0.003723726681699397
0.05464290000000001,0.0008087383109235981
0.055667,0.0020285545483312885
0.056656,0.001682884098471694
0.056864000000000005,0.0010940099532352426
0.057806500000000004,0.002038062383190902
0.0592198,0.0025309488690563806
0.057527400000000006,0.007711403233019411
0.060699800000000005,0.001841352630842641
0.0612511,0.001791664617053094
0.061051900000000006,0.004954264794654757
0.061816399999999994,0.004156575518915113
0.063318,0.0018454278636673921
0.0643945,0.001591938318877686
0.0645088,0.0010111908051621313
0.0647307,0.006431448844026773
0.0646736,0.0060488152963112446
0.0660601,0.007442109250743368
0.0660318,0.006307878350831513
0.0668968,0.006970776934220938
0.0670535,0.005572045908919909
0.0714559,0.0025416294620227826
0.07140969999999999,0.0019069150217039038
0.0721553,0.002006905304193498
0.07224610000000001,0.0014681884113120869
0.0732768,0.0014602217335429278
0.0750178,0.0025606503861323984
0.07554540000000001,0.0027175666893585362
0.0778381,0.003766600071682686
0.0775321,0.003458681169656049
0.0781374,0.003197734899720253
0.07618549999999999,0.01276351941406967
0.0750873,0.011392571098454174
0.07572670000000001,0.011575592032375709
0.08019430000000001,0.0014187446759567272
0.08108309999999999,0.002997211016558189
0.08016110000000001,0.002194323254318844
0.0815414,0.004826555551207184
0.07739359999999999,0.014434586567608296
0.0801257,0.015960759018779636
0.084566,0.0010587488423186649
0.0823242,0.018084692764877154
0.0837017,0.012312905199649492
0.0847618,0.010546874026617241
0.0848904,0.010315150434622312
0.0857853,0.011686953448183149
0.08679010000000001,0.01138144773499595
0.0878181,0.005932733423791919
0.0887608,0.0031338491703051404
0.0899865,0.004616793385745855
0.09353510000000001,0.00289153559549247
0.0936275,0.0055934411839026026
0.0904043,0.005788796536797994
0.0929505,0.0033854765707520577
0.0931264,0.004533436278242906
0.0953561,0.0032118761028408303
0.0955959,0.0017482704755144604
0.0979573,0.00271210586691105
0.09600420000000001,0.009005021979120564
0.0982426,0.002250008997512875
0.0979594,0.0024320433201551134
0.0957021,0.008608878588088257
0.0951871,0.007295809412867696
0.09781100000000001,0.005486281638981199
0.0995702,0.0014169416831095526
0.09969900000000001,0.005690455439691195
0.10404119999999999,0.005390520069735593
0.0991757,0.005343723629954429
0.10521080000000001,0.005310945109446674
0.10220510000000001,0.004603880234227549
0.10143519999999999,0.004354351764486753
0.1037564,0.0045123009454403895
0.1049376,0.006909422635470748
0.1081986,0.004130792692288815
0.1081249,0.0028311921890099767
0.1092368,0.004287221679984989
0.1099764,0.004509298817135789
