mean_accFULL,stdev_accFULL, mean_timeFULL, stdev_timeFULL
84.202896,0.0,0.2139287,0.031578779978016884
mean_accI,stdev_accI
50.0,0.0
50.217396,0.0
50.507248,0.0
50.724636,0.0
50.942028,0.0
51.30434799999999,0.0
51.30434799999999,0.0
51.376811999999994,0.0
51.594204000000005,0.0
51.66666399999999,0.0
51.66667199999999,0.0
51.66667199999999,0.0
51.66666399999999,0.0
51.739132,0.0
52.10145200000001,0.0
52.24638,0.0
52.971016,0.0
52.971016,0.0
52.971016,0.0
53.55072800000001,0.0
53.55072800000001,0.0
53.478264,0.0
54.13043600000001,0.0
54.13043600000001,0.0
54.13043600000001,0.0
54.710144,0.0
54.78261199999999,0.0
54.78261199999999,0.0
54.92754,0.0
55.0,0.0
55.36232,0.0
56.086956,0.0
56.086956,0.0
56.086956,0.0
56.811595999999994,0.0
56.811595999999994,0.0
56.811595999999994,0.0
57.028984,0.0
56.956516,0.0
57.10144799999999,0.0
57.318844,0.0
57.391304000000005,0.0
57.318844,0.0
57.318844,0.0
57.46377199999999,0.0
57.391304000000005,0.0
58.11594,0.0
58.11594,0.0
58.11594,0.0
58.69564799999999,0.0
58.84058,0.0
58.84058,0.0
58.91304,0.0
59.202895999999996,0.0
59.420292,0.0
60.07246399999999,0.0
60.07246399999999,0.0
60.07246399999999,0.0
60.36232,0.0
60.579711999999994,0.0
60.65217199999999,0.0
61.15942,0.0
61.15942,0.0
61.231888000000005,0.0
61.231888000000005,0.0
61.231888000000005,0.0
61.44927199999999,0.0
62.173916,0.0
62.173916,0.0
62.173916,0.0
62.89855200000001,0.0
62.89855200000001,0.0
62.89855200000001,0.0
63.55072800000001,0.0
63.47826,0.0
63.55072800000001,0.0
63.623192,0.0
63.913048,0.0
64.057968,0.0
64.49276,0.0
64.420288,0.0
64.565216,0.0
65.072464,0.0
65.072464,0.0
65.072464,0.0
65.217392,0.0
65.217392,0.0
65.507248,0.0
66.159424,0.0
66.231888,0.0
66.231888,0.0
66.231888,0.0
66.594208,0.0
66.739128,0.0
66.739128,0.0
66.884056,0.0
66.95652,0.0
67.246376,0.0
67.17392,0.0
67.31884,0.0
67.31884,0.0
67.391296,0.0
67.391296,0.0
68.115944,0.0
68.115944,0.0
68.115944,0.0
68.260864,0.0
68.768112,0.0
68.695656,0.0
69.202896,0.0
69.420288,0.0
69.420288,0.0
69.420288,0.0
69.420288,0.0
69.420288,0.0
69.63768,0.0
69.710144,0.0
69.782608,0.0
70.507248,0.0
70.507248,0.0
70.507248,0.0
70.579712,0.0
70.652176,0.0
70.72464,0.0
71.44928,0.0
71.44928,0.0
71.449272,0.0
71.666672,0.0
71.95652,0.0
71.95652,0.0
72.028992,0.0
72.028992,0.0
72.246376,0.0
72.68116,0.0
72.826088,0.0
72.826088,0.0
73.550728,0.0
73.550728,0.0
73.333336,0.0
74.057976,0.0
73.985512,0.0
73.91304,0.0
73.91304,0.0
74.130432,0.0
74.202896,0.0
74.855072,0.0
74.855072,0.0
74.855072,0.0
74.855072,0.0
75.0,0.0
75.0,0.0
75.507248,0.0
75.652168,0.0
75.579712,0.0
75.579712,0.0
75.652176,0.0
75.72464,0.0
75.72464,0.0
76.014488,0.0
76.231888,0.0
76.449272,0.0
76.811592,0.0
76.95652,0.0
76.95652,0.0
77.028984,0.0
77.101448,0.0
77.101448,0.0
77.463768,0.0
77.68116,0.0
77.971016,0.0
78.115936,0.0
78.260872,0.0
78.76812,0.0
78.840584,0.0
78.840584,0.0
79.565224,0.0
79.565224,0.0
79.565224,0.0
79.565224,0.0
79.855072,0.0
79.927536,0.0
79.927536,0.0
80.217392,0.0
80.217392,0.0
80.72464,0.0
80.869568,0.0
80.797104,0.0
80.942032,0.0
80.869568,0.0
80.869568,0.0
81.231888,0.0
81.231888,0.0
81.376816,0.0
82.101456,0.0
82.101456,0.0
82.101456,0.0
82.608704,0.0
82.608704,0.0
82.608704,0.0
82.68116,0.0
82.971016,0.0
83.115944,0.0
83.478264,0.0
83.695656,0.0
83.76812,0.0
83.76812,0.0
83.695656,0.0
83.695656,0.0
83.76812,0.0
84.13044,0.0
84.202896,0.0
mean_timeI,stdev_timeI
0.0022432,0.00014428505736138365
0.0033713,2.5166335538660454e-05
0.0044996,6.725275706863856e-05
0.0059829,0.00012635967183665322
0.0071655,0.00023866678305397538
0.0084119,0.0005417811058597985
0.0099249,0.0011057907628078249
0.0108809,0.00038146630840015785
0.0118547,0.0002692986982680923
0.0137237,0.0012821368491701655
0.013602999999999999,0.00022284922655862595
0.0145314,0.0008033812157237549
0.015067,0.00044018354757482193
0.017012199999999998,0.0023631208555166565
0.0176163,0.0008195713039279879
0.018745,0.0004076583536901128
0.019483,0.0013803245995054933
0.020771699999999997,0.0015807162265532957
0.022065,0.0016589370090512778
0.0235134,0.0005258616632622012
0.0247334,0.000570130823193726
0.0261389,0.000540420299396683
0.027126499999999998,0.00047796704907346923
0.0281938,0.000490987395176518
0.0297272,0.0007225646914521446
0.030721599999999998,0.0005193350877163351
0.032017000000000004,0.0006348348866700187
0.033244800000000005,0.0007611308545695534
0.0343078,0.0006803340356030996
0.0353756,0.0007040559005584074
0.0364569,0.000361748669658922
0.0380407,0.0012801302060511056
0.0386016,0.00028102044211923287
0.0424068,0.006076072741134321
0.0415827,0.001594418113990877
0.0425745,0.0017662175687043775
0.0444583,0.002559331425283651
0.0449607,0.000882389565013348
0.046079,0.0007057131932386637
0.0482111,0.0014365868848690562
0.0497967,0.002640211146859281
0.0503339,0.0014696287853286842
0.0510807,0.0006983665147248168
0.0522652,0.0018222225013549919
0.053750900000000004,0.0023266754273951586
0.05661700000000001,0.005968701906147136
0.059428,0.005256026741856544
0.0587079,0.0019379453868007283
0.06021990000000001,0.002070723354557801
0.0597642,0.0014714212177347453
0.0601955,0.0004783657944850704
0.064814,0.006055805919391186
0.0631179,0.0011357004153091303
0.0638332,0.0006105925719241015
0.0686049,0.009631044589128312
0.06655710000000001,0.0008759050493949445
0.0675259,0.0006570338144519925
0.0694317,0.002453397329328363
0.0704972,0.0016685274146184517
0.07166360000000001,0.0019575178841243486
0.073822,0.002906234103899179
0.0769302,0.011160821831547872
0.0795298,0.010424834321092216
0.0770524,0.0017676455904205846
0.078494,0.0026521041541471267
0.0785924,0.0016285056681237281
0.0805728,0.0019240863805972963
0.0786917,0.006631492844333351
0.0809361,0.0033623034581138638
0.0828399,0.004348620277998783
0.08576520000000001,0.0038384918276728325
0.0869276,0.0025499087652524183
0.0872097,0.0011878459542849459
0.0886301,0.0014056384433179566
0.0903108,0.0016515868329175607
0.0911483,0.001244237745234677
0.0915309,0.00461478386276107
0.088497,0.014690776721013314
0.0896267,0.01650089039382084
0.08972440000000001,0.016144451026074973
0.0920341,0.016802054804563506
0.0986041,0.0023820228774906614
0.10036750000000001,0.0021209492240765963
0.0998443,0.0009720900792736364
0.1015836,0.0033423400053123123
0.10170349999999999,0.003058127976756733
0.1042924,0.004591035400042613
0.10756360000000001,0.003616875361106294
0.10767,0.002839869676196037
0.1057953,0.003570625405848237
0.10846800000000001,0.004099233126113006
0.1097716,0.0034407542196442905
0.1098162,0.003258590042743436
0.1124164,0.0013198528705882326
0.11310260000000001,0.0032412500743454592
0.1140021,0.0035355104126247126
0.116142,0.0013189446960017361
0.11732770000000001,0.0011742667735891862
0.1180784,0.001037503220878535
0.12001710000000002,0.002315313535283434
0.1202289,0.004638125398381453
0.1256975,0.011578335941173358
0.1226922,0.006406171968413658
0.1240791,0.0070189395598227265
0.1262627,0.0029708476923449158
0.1248907,0.00541356647794327
0.125674,0.005970902295484511
0.12727,0.003682602974346635
0.13223990000000002,0.004037110695369483
0.1301814,0.007647022894928166
0.1312261,0.008306855595096004
0.1343513,0.016431106103634317
0.1300324,0.009007765393135952
0.129944,0.01154803775539377
0.12884489999999998,0.012427860703095907
0.1350282,0.009271810764054908
0.1369494,0.007945558398669452
0.1393236,0.007220168668389956
0.1426723,0.005171983716782822
0.1418103,0.007926067289506053
0.14115709999999998,0.009608922016658382
0.1429356,0.004782164205554727
0.14362550000000002,0.007137638969263961
0.1453451,0.007758990318763564
0.1456697,0.010324135950394211
0.1469606,0.009362952824830425
0.15159229999999999,0.006140329018509966
0.1515424,0.006637179508060803
0.1497633,0.009773264802510982
0.1507714,0.012038822037244526
0.1534292,0.004597429107664409
0.1530514,0.009535114148358278
0.14653670000000002,0.01733827820523775
0.1520539,0.012324470864909372
0.15792420000000001,0.011255214720297427
0.15349379999999999,0.01159276522280647
0.1514853,0.01594744711753786
0.1547406,0.016970794266752645
0.1573618,0.014715403273818598
0.1589582,0.014643978275500596
0.1694466,0.007341807667204455
0.1632556,0.015086927256550434
0.1621203,0.012026525563196638
0.16231,0.011637624203896219
0.163777,0.011055580471217038
0.1631743,0.011441231936873469
0.1631734,0.013313632430290717
0.1702641,0.014286773233775826
0.1739891,0.012477940272069474
0.16919299999999998,0.019144926835993798
0.1720372,0.015741524547090945
0.1768958,0.014670427175481672
0.1778902,0.015052947587322119
0.1728373,0.02498231632819948
0.1807721,0.016607027417799836
0.1829337,0.007964376254435884
0.1874977,0.008867874291821887
0.18218879999999998,0.02020874863793182
0.1882717,0.024829836317758248
0.1837899,0.019174696685707673
0.1719436,0.03825501631362292
0.176344,0.0364836123059229
0.1768286,0.0341675571630295
0.17335879999999998,0.032624865856854916
0.17858829999999998,0.034940237171013404
0.174566,0.030747179975478146
0.17473719999999998,0.028811044872101083
0.1765818,0.029471323809199118
0.1954161,0.01392605590211704
0.18934820000000002,0.024403534542721015
0.1894479,0.015258396096357351
0.1889121,0.017363667101482655
0.19978,0.011326724916467832
0.19645220000000002,0.013255391211796717
0.20204019999999998,0.0141841010900703
0.20243570000000002,0.011478117451626522
0.20329519999999998,0.011480694915088257
0.1936457,0.013991876873942093
0.1980942,0.01472644071654036
0.200889,0.01782714086255374
0.1952393,0.021026366939577983
0.1992814,0.02327592288276545
0.1973229,0.02741697150570144
0.207126,0.022818573302368302
0.2039469,0.01870789293587068
0.2053935,0.02118838165520592
0.2041386,0.024766374292576623
0.2121225,0.01768074752221875
0.21269200000000002,0.019129272472661718
0.21431680000000003,0.01998475983676895
0.2140443,0.016516585153179286
0.21446749999999998,0.019431817083501658
0.21642809999999998,0.020825446685618906
0.2129038,0.017133778481895536
0.2156521,0.020174457549915273
0.2180994,0.01765401128607572
0.2184843,0.017396452410062102
0.2119056,0.01784450036161157
0.2199899,0.02308882249752512
0.21925469999999997,0.027931149322137742
0.2118904,0.02841345043460931
0.2196375,0.029137707365199477
0.2198218,0.022927105291917396
0.2107349,0.02776813837416305
0.21151970000000003,0.024378740971273405
0.2224453,0.03150714940401093
0.2234406,0.028624248241268763
0.2236049,0.029767059230147528
0.2195955,0.029682172255974342
0.2186387,0.029976876533050898
0.2242726,0.028918882071523207
