mean_accFULL,stdev_accFULL, mean_timeFULL, stdev_timeFULL
73.846413,0.0,0.3752445,0.08097637758047438
mean_accI,stdev_accI
50.0,0.0
50.0,0.0
50.0,0.0
50.0,0.0
50.0,0.0
50.0,0.0
50.0,0.0
50.0,0.0
50.0,0.0
50.0,0.0
50.0,0.0
51.068394,0.0
55.840492,0.0
57.300613,0.0
61.353333,0.0
64.273575,0.0
66.389008,0.0
69.287895,0.0
72.122704,0.0
73.86776,0.0
73.846413,0.0
mean_timeI,stdev_timeI
0.2262048,0.012520324896387916
0.2451216,0.021790982381608117
0.2521172,0.03709058601975559
0.27291570000000004,0.03720979088014934
0.2756616,0.040450014781483364
0.26834009999999997,0.04015256821300476
0.3041685,0.05627951823265724
0.31940050000000003,0.06734190389390217
0.3333333,0.0682536401016255
0.3213679,0.059143717518243454
0.3758552,0.08058454900675577
0.3367282,0.0725849607927764
0.360743,0.07850869481642003
0.3726995,0.07534548645959713
0.3482158,0.07794809139820053
0.3768938,0.07600391000292903
0.3828474,0.06762090931262804
0.36062659999999996,0.07051026786724832
0.36536810000000003,0.08940910785379257
0.3872354,0.08008778724791109
0.3888873,0.07256548620391867
