mean_accFULL,stdev_accFULL, mean_timeFULL, stdev_timeFULL
91.153847,0.0,0.1049201,0.008352796131303046
mean_accI,stdev_accI
50.0,0.0
52.923077,0.0
52.769234,0.0
52.46154,0.0
52.46154,0.0
52.30769299999999,0.0
52.30769299999999,0.0
52.30769299999999,0.0
52.30769299999999,0.0
52.23076999999999,0.0
52.23076999999999,0.0
52.23076999999999,0.0
53.15384300000001,0.0
53.46154,0.0
54.000004000000004,0.0
54.923077,0.0
55.384617000000006,0.0
55.846153,0.0
55.923073,0.0
55.923073,0.0
56.076919999999994,0.0
56.076919999999994,0.0
56.153847,0.0
56.23076999999999,0.0
56.23076999999999,0.0
56.615387,0.0
56.923073,0.0
57.076923,0.0
57.153847,0.0
57.153847,0.0
57.30769,0.0
60.153847,0.0
61.076919999999994,0.0
61.153847,0.0
61.153847,0.0
61.153847,0.0
61.153847,0.0
61.153847,0.0
61.153847,0.0
61.153847,0.0
61.153847,0.0
61.153847,0.0
62.461536,0.0
63.307697,0.0
63.69230700000001,0.0
63.846153,0.0
63.846153,0.0
64.0,0.0
64.307693,0.0
64.307693,0.0
64.307693,0.0
64.846153,0.0
66.384613,0.0
67.153847,0.0
67.538467,0.0
67.692307,0.0
67.846153,0.0
67.923073,0.0
67.923073,0.0
68.076927,0.0
68.153847,0.0
68.230766,0.0
69.692307,0.0
70.076927,0.0
70.846161,0.0
70.92308,0.0
71.0,0.0
71.46154,0.0
71.46154,0.0
71.46154,0.0
71.46154,0.0
71.53846,0.0
72.923073,0.0
73.230766,0.0
73.307693,0.0
73.692307,0.0
73.615387,0.0
73.846153,0.0
74.230774,0.0
74.230774,0.0
74.46154,0.0
74.53846,0.0
74.769226,0.0
75.46154,0.0
75.53846,0.0
75.615387,0.0
75.692307,0.0
76.307693,0.0
76.384613,0.0
76.461533,0.0
76.615387,0.0
76.769234,0.0
77.153847,0.0
78.46154,0.0
78.923073,0.0
79.46154,0.0
79.46154,0.0
79.615387,0.0
79.692307,0.0
79.692307,0.0
79.53846,0.0
80.923073,0.0
81.46154,0.0
82.692307,0.0
82.92308,0.0
82.92308,0.0
82.92308,0.0
82.92308,0.0
82.92308,0.0
83.0,0.0
83.076927,0.0
82.92308,0.0
83.46154,0.0
83.92308,0.0
84.46154,0.0
84.615387,0.0
84.846153,0.0
84.769234,0.0
85.0,0.0
85.230766,0.0
85.307693,0.0
88.461533,0.0
88.461533,0.0
88.461533,0.0
88.461533,0.0
88.53846,0.0
88.461533,0.0
88.230774,0.0
88.230774,0.0
88.153847,0.0
88.153847,0.0
89.615387,0.0
90.307693,0.0
91.230766,0.0
91.307693,0.0
91.230766,0.0
91.153847,0.0
91.07692,0.0
91.153847,0.0
91.307693,0.0
91.153847,0.0
mean_timeI,stdev_timeI
0.0044283000000000005,1.1489608831945177e-05
0.0054204000000000006,7.516529932237491e-05
0.0064041,2.036036454596165e-05
0.0078661,0.0011542938630271856
0.008511099999999999,0.0014301824631066408
0.0094377,0.0006972316767840594
0.009914599999999999,0.00011438550801759979
0.0105054,0.0013288562500636905
0.0117382,0.0005130022308810062
0.0122918,0.001138802665570779
0.0126993,0.001453097155886159
0.0139104,0.00019484877326902633
0.0147547,0.00044689920563813917
0.014868500000000002,0.0022976222129265146
0.015889,0.0023246741707172646
0.0167528,0.0007185181974035172
0.017765200000000002,0.0012390337453928452
0.0184033,0.0010051185723308693
0.018268899999999998,0.0026392799712547867
0.0190397,0.002974102069906516
0.0203028,0.0030764343285332417
0.0196291,0.003377826863861175
0.0209953,0.0032048311118615213
0.021282500000000003,0.0032553575755121657
0.0214408,0.0033310763959350374
0.0217854,0.003349161228327674
0.0221492,0.0033316109483418244
0.023030000000000002,0.0013314051891808805
0.024085299999999997,0.000706432830808736
0.0234517,0.0023241092941406844
0.0240849,0.0023559181956181
0.0249914,0.0027401393800721564
0.025579,0.0025050874014470813
0.0270511,0.001943004457591959
0.0286221,0.0015493269112029837
0.0286356,0.001634006881530457
0.029885000000000002,0.0021606844080316566
0.0302189,0.001459820190601874
0.0313117,0.0015999331965220723
0.0336985,0.0028177941037469565
0.034101599999999996,0.0028550182019268
0.033996700000000005,0.001305364236099981
0.0348375,0.0015461627950797698
0.0353606,0.0012027424403328322
0.0365978,0.0015272524931319565
0.036286,0.0018052603382584156
0.0393708,0.005643060946369837
0.039833799999999996,0.0032819844200320837
0.0392253,0.0010679423673588381
0.0388395,0.002153946055756994
0.0401283,0.003335853882025144
0.0407323,0.0031071441710998873
0.0416032,0.003417891188697758
0.0434531,0.001532358708367955
0.0435626,0.0015602089033915378
0.044489,0.001149622933352013
0.045432099999999996,0.0014825494145783694
0.0469494,0.002195653342401757
0.0473423,0.002145301069262256
0.0470831,0.0032461658905374637
0.047308499999999996,0.0024644960832682296
0.0481219,0.0019951220764654978
0.0498815,0.0014620520776558467
0.05042339999999999,0.0013192561203614367
0.0517266,0.0016220141251611284
0.0523737,0.0022473024842142525
0.0525672,0.0010539377801580343
0.0535672,0.0016162969886612903
0.0549925,0.0017807190339235936
0.0553588,0.002190617305185407
0.0543431,0.00686613464686565
0.05475529999999999,0.007431650258634797
0.0551589,0.007699758126792758
0.0559616,0.0075399647685590095
0.0589731,0.001191875408291021
0.059174700000000004,0.00044634218313357375
0.0609177,0.0019350889758469633
0.0611963,0.001048525001026574
0.061970800000000006,0.0012314278794238113
0.0653175,0.003641848836023326
0.06185310000000001,0.0036746137952776013
0.065495,0.00917437428686859
0.0645058,0.0021708907951448033
0.06593450000000001,0.0023423040532300206
0.06679890000000001,0.002112453941641225
0.06675,0.00034608797853853576
0.06835480000000001,0.002046049407462532
0.0703184,0.0030162016658189282
0.0693261,0.001299558168507024
0.0698786,0.0007922135234055698
0.07532029999999999,0.011129572928314306
0.0717872,0.0010187462665234908
0.072891,0.0017602307929485978
0.0706391,0.01051007807825951
0.0723055,0.010594255416655448
0.0716382,0.009898671524783291
0.0725879,0.010132150878926613
0.0739242,0.008388528950629874
0.0739378,0.008607453692391652
0.0783584,0.0015595984668425977
0.0789432,0.0012921023179299689
0.0793731,0.0013459091475034025
0.0797649,0.0006256394861792728
0.0816195,0.00276963544532489
0.0839431,0.006321904995068072
0.081926,0.002593277462980003
0.08539559999999999,0.006893720430781755
0.08397879999999999,0.003308300530483892
0.08568200000000001,0.0033503134513388805
0.08501689999999999,0.0028449534052032888
0.0873505,0.0031168915516014434
0.09004619999999999,0.0036592109592703784
0.08758540000000001,0.0018513875997328176
0.0901717,0.0044488791110171184
0.08988399999999999,0.002010903334877693
0.0925063,0.0040335143223854935
0.09031829999999999,0.0016497873297286916
0.09234139999999999,0.0026484335915572615
0.0933548,0.002800232998242191
0.0906151,0.0074598450602021355
0.0912212,0.009339951948484533
0.09430350000000001,0.0013249770018968461
0.0956538,0.0016635663029901887
0.0966929,0.001960105521535909
0.0973397,0.004015594602435747
0.099049,0.003523122541786538
0.0961595,0.008102235552268551
0.09590570000000001,0.008178321942115563
0.09886740000000001,0.005398706207149183
0.1028867,0.005937322760863405
0.1019816,0.0036392058107962686
0.1024953,0.003940585772868464
0.099395,0.013882556969088944
0.1030162,0.0019560675289411085
0.10470870000000002,0.0035223946100471017
0.1056735,0.004074256530678667
0.10760209999999999,0.004090840784266996
0.1062081,0.004993033579120234
0.10037879999999999,0.01810881185009724
0.1038128,0.018636843842238952
0.1052997,0.009616922874114498
