mean_accFULL,stdev_accFULL, mean_timeFULL, stdev_timeFULL
76.82222,0.0,0.016833599999999997,0.00046417386589270353
mean_accI,stdev_accI
50.0,0.0
50.0,0.0
50.0,0.0
50.0,0.0
50.0,0.0
50.0,0.0
50.0,0.0
50.0,0.0
50.0,0.0
50.0,0.0
50.0,0.0
56.911109999999994,0.0
59.999995999999996,0.0
61.844443999999996,0.0
63.644444,0.0
63.66666399999999,0.0
64.711113,0.0
65.244446,0.0
65.288887,0.0
66.0,0.0
66.622223,0.0
67.333336,0.0
71.466667,0.0
73.666672,0.0
73.777779,0.0
75.666664,0.0
76.066666,0.0
76.35556,0.0
77.244446,0.0
77.111115,0.0
76.82222,0.0
mean_timeI,stdev_timeI
0.0044892000000000005,0.00017554663831079837
0.0048628,0.00013806504103340412
0.0052487,7.656086903024723e-05
0.0056641,0.00013512089237255486
0.0059969,2.52210229768739e-05
0.0063953,2.8883097710137227e-05
0.0068102,2.9783664426438086e-05
0.007224800000000001,2.9577769429834352e-05
0.007764599999999999,0.00036059617302461756
0.0081989,0.0003642247322128957
0.008499999999999999,4.971027168615304e-05
0.0090488,0.00051011366924986
0.0094517,0.0005439091120970691
0.0098148,0.00033089870890584547
0.010435400000000001,0.0009934514694851593
0.0104944,0.00011222121011644794
0.0109886,0.0001781118250488221
0.0114547,0.00023288435375143222
0.0119498,0.000552776989390839
0.012398900000000001,0.0005758173803868337
0.0126352,0.00026032364471941454
0.0131964,0.00031239014068949094
0.013588,0.0003724128533406618
0.0142298,0.0005588515604940788
0.0144537,0.0003091123671993011
0.015015200000000001,0.0005330102771575381
0.0153819,0.0004019299137356606
0.015562699999999999,0.0003731061957852394
0.015898000000000002,0.0003956204690806017
0.0162883,0.00029274146728242413
0.0168914,0.0007166777053413431
