mean_accFULL,stdev_accFULL, mean_timeFULL, stdev_timeFULL
94.92308,0.0,0.1073165,0.003914285524417792
mean_accI,stdev_accI
50.0,0.0
53.76923000000001,0.0
53.76923000000001,0.0
53.84615699999999,0.0
53.84615699999999,0.0
53.84615699999999,0.0
53.84615699999999,0.0
53.76923000000001,0.0
53.76923000000001,0.0
53.76923000000001,0.0
53.76923000000001,0.0
53.76923000000001,0.0
53.84615699999999,0.0
53.84615699999999,0.0
53.84615699999999,0.0
53.84615699999999,0.0
53.84615699999999,0.0
53.84615699999999,0.0
53.84615699999999,0.0
53.84615699999999,0.0
53.84615699999999,0.0
55.769234,0.0
56.30769,0.0
56.923073,0.0
57.23076999999999,0.0
57.461536,0.0
57.53846,0.0
57.53846,0.0
57.615387,0.0
57.69230700000001,0.0
57.69230700000001,0.0
61.384617000000006,0.0
61.538464,0.0
61.538464,0.0
61.538464,0.0
61.538464,0.0
61.538464,0.0
61.538464,0.0
61.538464,0.0
61.538464,0.0
61.538464,0.0
64.307693,0.0
64.53846,0.0
64.846153,0.0
64.846153,0.0
64.92308,0.0
64.92308,0.0
65.0,0.0
64.92308,0.0
64.92308,0.0
64.92308,0.0
68.0,0.0
68.46154,0.0
68.615379,0.0
68.769226,0.0
68.769226,0.0
68.769226,0.0
68.769226,0.0
68.769226,0.0
68.769226,0.0
68.769226,0.0
71.53846,0.0
72.153847,0.0
72.07692,0.0
72.307693,0.0
72.307693,0.0
72.307693,0.0
72.307693,0.0
72.307693,0.0
72.307693,0.0
72.307693,0.0
74.0,0.0
74.384613,0.0
75.230774,0.0
75.230774,0.0
75.307693,0.0
76.0,0.0
76.076927,0.0
76.076927,0.0
76.076927,0.0
76.076927,0.0
76.692307,0.0
77.46154,0.0
78.0,0.0
78.153839,0.0
78.07692,0.0
78.230766,0.0
78.230766,0.0
78.230766,0.0
78.46154,0.0
78.53846,0.0
80.46154,0.0
80.769226,0.0
81.384621,0.0
81.46154,0.0
81.692307,0.0
81.769234,0.0
81.769234,0.0
82.0,0.0
82.0,0.0
82.076927,0.0
84.692307,0.0
85.07692,0.0
85.07692,0.0
85.384613,0.0
85.615387,0.0
85.615387,0.0
85.692307,0.0
85.692307,0.0
85.692307,0.0
85.846153,0.0
87.0,0.0
88.0,0.0
88.230774,0.0
88.384613,0.0
88.384613,0.0
88.230774,0.0
88.307693,0.0
88.307693,0.0
88.307693,0.0
88.53846,0.0
91.692307,0.0
91.769234,0.0
92.0,0.0
91.769234,0.0
91.846153,0.0
91.769234,0.0
91.692307,0.0
91.692307,0.0
91.692307,0.0
91.692314,0.0
94.53846,0.0
95.0,0.0
95.0,0.0
95.076927,0.0
95.0,0.0
95.0,0.0
95.0,0.0
95.0,0.0
95.0,0.0
94.92308,0.0
mean_timeI,stdev_timeI
0.0039386,4.2245841346943245e-05
0.0049169999999999995,0.0007298054535285414
0.0054418,0.00019259214244961631
0.0062945,0.00019025611393300594
0.0069623,4.6920855348839024e-05
0.0079388,0.0006818676639283541
0.0085955,0.00021371021397105868
0.0093056,0.00016964813258296942
0.010183300000000001,0.0005549472547508957
0.0109441,0.0006203182785205244
0.011622799999999999,0.00035828598136746084
0.0119181,0.0003892743819524274
0.012168,0.0005671813349068064
0.012704199999999999,0.0011208033626724078
0.012584500000000002,0.0003106778431465982
0.0132045,0.0006439225712597576
0.013824,0.0006974300442816233
0.0143007,0.0013275784178554408
0.0142539,0.0003592645110345424
0.014993000000000001,0.0006343420037943082
0.0152108,0.0010603246672599856
0.0161688,0.001021771642241498
0.0170573,0.0009638885424270912
0.0178781,0.0008254428373774761
0.0183445,0.00021484115579241866
0.0198304,0.0009996602978567823
0.0196817,0.0011370242888053593
0.0204353,0.0009171613271393424
0.0213644,0.001305729868268659
0.0220399,0.001384537022497653
0.0229864,0.0003945918284900373
0.0237425,0.0003762287277116877
0.024518900000000003,0.0004476376138500134
0.025787700000000004,0.0010309434783515325
0.0264574,0.0011894689010926963
0.0268876,0.0007921920642537807
0.0280055,0.0014483577865216104
0.028497,0.0010713418377592337
0.0299703,0.001499201643097641
0.030383,0.0012143558877949338
0.0312049,0.001474891216327496
0.0326625,0.003901281904707734
0.0321739,0.002612016396494393
0.0332051,0.002714005709074483
0.0343307,0.0032171550596416356
0.0339985,0.002661325828730234
0.0346539,0.0030410473506489325
0.0346129,0.002227900229663199
0.036322900000000005,0.002427660165216247
0.037739,0.0013633598204435982
0.0388248,0.0012688617646449021
0.0395555,0.0015420231479744031
0.0401913,0.001316373895720108
0.040440199999999996,0.0005156947417481257
0.041955900000000004,0.0015716715411730692
0.0426963,0.0016829678844232298
0.0426964,0.000499519146557745
0.044346000000000003,0.002025852851955881
0.0445287,0.0010141049748423482
0.0455439,0.0011854903767358619
0.0467163,0.0013895416550471276
0.0468333,0.0005732967139468212
0.0485035,0.0018709658973078286
0.048744300000000004,0.0019179053997062053
0.0516807,0.007466696310209012
0.049963600000000004,0.0013494046588526864
0.05139200000000001,0.0017115762715500986
0.05202710000000001,0.001836476000387699
0.0525123,0.002157896148772893
0.053913199999999994,0.0024671642651252703
0.0540036,0.0025362819331542085
0.055969599999999994,0.0025196430170429567
0.0552835,0.001148552252959255
0.056427700000000004,0.0018212213270830716
0.057064199999999995,0.0013297647912318938
0.058440500000000006,0.0014841210080942411
0.0586359,0.0014992839364917584
0.0587383,0.0009487854282654683
0.0606217,0.002534643347692135
0.060969300000000004,0.0015876865104785484
0.061421899999999995,0.0014405770024542256
0.0648174,0.010719626602120471
0.0628464,0.0011931681636159533
0.0629477,0.0007223846390024256
0.0648118,0.001843262614677212
0.06587499999999999,0.0018313352748442575
0.0657164,0.0011677118365989666
0.0664813,0.001150792195740732
0.0671192,0.0010465347899934639
0.0679066,0.001451382268352789
0.06813739999999999,0.0038940297950124172
0.06883130000000001,0.004222220086110573
0.0696528,0.0020532231463941965
0.0716112,0.0014256581170346086
0.0717216,0.0013952009970689613
0.0753424,0.013118768456765377
0.0714848,0.0062771643421036675
0.0734227,0.007103376787760092
0.074186,0.0011543554237947882
0.074824,0.002348598873087244
0.0764803,0.003581708501384344
0.0764215,0.004395224561321578
0.07677769999999999,0.005060787642913569
0.0780053,0.0027494522707057286
0.0795559,0.002477212073189446
0.0797899,0.0011965840686442907
0.08173230000000001,0.0032060631812586334
0.0817611,0.0033414643646162063
0.08098069999999999,0.005697350067258363
0.0818681,0.005759054116972877
0.0856362,0.006082396490419435
0.0857177,0.0029846317118792987
0.0853533,0.0016573623656615103
0.0887988,0.012172510037877242
0.0857571,0.004294831763617498
0.08642520000000001,0.00429674586945361
0.08813370000000001,0.004075734999836089
0.0894911,0.004447211821904697
0.09015039999999999,0.001921341498941706
0.09237609999999999,0.004344238264644331
0.0909548,0.004405552552051659
0.0905126,0.007299559776680602
0.0913323,0.003823295961747025
0.09457360000000001,0.003455142228942567
0.0967336,0.004197352901267389
0.09244630000000001,0.011452140208032927
0.08958429999999999,0.013169422716192907
0.09195790000000001,0.012192201336646854
0.0919509,0.012219814678081935
0.0987577,0.01156525978043247
0.09810529999999999,0.010060018721542111
0.10168759999999999,0.00452834314070831
0.0998087,0.005851762603409903
0.10095670000000001,0.008323546814109153
0.0998566,0.006720162650148019
0.1013032,0.007978584444206462
0.10213540000000002,0.009289933383327712
0.1021331,0.009511725097069523
0.1024289,0.011110249696663988
0.10318920000000001,0.009564945777856416
0.1064986,0.005359208693661986
