mean_accFULL,stdev_accFULL, mean_timeFULL, stdev_timeFULL
89.855072,0.0,0.2217206,0.03912448047564196
mean_accI,stdev_accI
50.0,0.0
50.652168,0.0
50.652168,0.0
50.652168,0.0
50.724636,0.0
50.724636,0.0
50.724636,0.0
51.086964,0.0
51.159416,0.0
51.30434799999999,0.0
52.028984,0.0
52.028984,0.0
52.028984,0.0
52.536232,0.0
52.6087,0.0
52.68116,0.0
53.405792,0.0
53.405792,0.0
53.405792,0.0
54.05797199999999,0.0
54.05797199999999,0.0
54.05797199999999,0.0
54.78261199999999,0.0
54.78261199999999,0.0
54.637684,0.0
55.217392,0.0
55.36232,0.0
55.36232,0.0
55.579711999999994,0.0
55.7971,0.0
55.94202800000001,0.0
56.666668,0.0
56.666668,0.0
56.594204000000005,0.0
57.318844,0.0
57.318844,0.0
57.318844,0.0
57.6087,0.0
57.6087,0.0
57.68116,0.0
58.188408,0.0
58.188408,0.0
58.188408,0.0
58.26087199999999,0.0
58.4058,0.0
58.55072800000001,0.0
59.275364,0.0
59.275364,0.0
59.275364,0.0
59.92753600000001,0.0
60.000004000000004,0.0
60.000004000000004,0.0
60.07246399999999,0.0
60.579711999999994,0.0
60.579711999999994,0.0
61.231888000000005,0.0
61.231888000000005,0.0
61.231888000000005,0.0
61.73912800000001,0.0
61.811595999999994,0.0
61.811595999999994,0.0
62.391304000000005,0.0
62.391304000000005,0.0
62.463768,0.0
62.463768,0.0
62.536232,0.0
62.753624,0.0
63.47826,0.0
63.47826,0.0
63.47826,0.0
64.202896,0.0
64.202896,0.0
64.202896,0.0
64.782608,0.0
64.927536,0.0
64.927536,0.0
65.507248,0.0
65.507248,0.0
65.507248,0.0
66.014496,0.0
66.159424,0.0
66.159424,0.0
66.666672,0.0
66.666672,0.0
66.884056,0.0
67.246376,0.0
67.536232,0.0
67.536232,0.0
68.260864,0.0
68.260864,0.0
68.260864,0.0
68.768112,0.0
68.913048,0.0
68.985512,0.0
69.202896,0.0
69.202896,0.0
69.347832,0.0
69.492752,0.0
69.63768,0.0
69.63768,0.0
69.63768,0.0
69.782608,0.0
69.927536,0.0
70.652176,0.0
70.652176,0.0
70.652176,0.0
71.014496,0.0
71.304352,0.0
71.376816,0.0
71.95652,0.0
72.101448,0.0
72.101448,0.0
72.101448,0.0
72.173912,0.0
72.246376,0.0
72.463768,0.0
72.608696,0.0
72.753616,0.0
73.478264,0.0
73.478264,0.0
73.478264,0.0
73.623184,0.0
73.91304,0.0
73.985512,0.0
74.710152,0.0
74.710144,0.0
74.710144,0.0
75.0,0.0
75.434784,0.0
75.434784,0.0
75.507248,0.0
75.942024,0.0
76.014488,0.0
76.5942,0.0
76.5942,0.0
76.666672,0.0
77.31884,0.0
77.173912,0.0
77.101448,0.0
77.826088,0.0
77.826088,0.0
77.826088,0.0
78.260872,0.0
78.333336,0.0
78.260872,0.0
78.913048,0.0
78.985504,0.0
78.985504,0.0
79.202896,0.0
79.202896,0.0
79.27536,0.0
79.927536,0.0
79.855072,0.0
79.855072,0.0
79.927536,0.0
80.0,0.0
80.289856,0.0
80.434784,0.0
80.797104,0.0
80.869568,0.0
81.08696,0.0
81.44928,0.0
81.521736,0.0
81.594208,0.0
81.739136,0.0
81.811592,0.0
82.173912,0.0
82.31884,0.0
82.31884,0.0
82.753624,0.0
82.826088,0.0
82.826088,0.0
83.4058,0.0
83.4058,0.0
83.4058,0.0
84.13044,0.0
84.13044,0.0
84.13044,0.0
84.565216,0.0
84.710144,0.0
84.710144,0.0
85.0,0.0
85.144928,0.0
85.217392,0.0
85.652176,0.0
85.797104,0.0
85.797104,0.0
85.869568,0.0
85.869568,0.0
86.014488,0.0
86.376808,0.0
86.5942,0.0
86.739128,0.0
87.463768,0.0
87.463768,0.0
87.463768,0.0
87.971016,0.0
87.971016,0.0
88.1884,0.0
88.1884,0.0
88.4058,0.0
88.55072,0.0
89.27536,0.0
89.27536,0.0
89.27536,0.0
89.27536,0.0
89.27536,0.0
89.347824,0.0
89.855072,0.0
89.927536,0.0
89.927536,0.0
mean_timeI,stdev_timeI
0.0001472,1.6193277068654782e-06
4.7600000000000005e-05,1.8378731669453632e-06
6.29e-05,5.566766466171262e-06
8.35e-05,7.1840873540841045e-06
4.11e-05,3.695342413844156e-06
6.049999999999999e-05,1.758313585987058e-05
4.97e-05,1.0853058964590991e-05
7.65e-05,2.2041627284148813e-05
8.34e-05,2.0565343015212107e-05
9.64e-05,2.3684031188404844e-05
9.02e-05,2.028573664206235e-05
0.00010499999999999999,1.1015141094572204e-05
0.0001348,1.1754904413808637e-05
0.00011570000000000001,1.1954078801814882e-05
0.0001202,1.9469634476966093e-05
0.0001774,1.9138094645671148e-05
0.0001403,1.3654872960066506e-05
0.00015040000000000002,1.469088908889527e-05
0.000171,3.299831645537225e-06
0.00015250000000000002,4.222953153106644e-06
0.0001628,1.1173381065928276e-05
0.0002062,1.6193277068654782e-06
0.0001735,7.276293317647691e-06
0.0001851,2.2437320101414365e-05
0.0002343,2.0575065816014614e-06
0.0002056,1.955050439815357e-06
0.00020669999999999998,2.2978492359402336e-05
0.0002604,2.4404917537250566e-05
0.00023129999999999998,2.7145902084845135e-05
0.0002212,1.7510631691124742e-05
0.00029810000000000004,2.99814757623585e-06
0.00022920000000000001,1.3774372338997278e-05
0.00023089999999999997,1.0969148655306944e-05
0.0003196,3.668847836098472e-05
0.0002578,2.061175500641429e-05
0.000254,1.3148721948877357e-05
0.0003342,2.87973764237107e-05
0.0002663,1.3532265967760985e-05
0.00027959999999999997,1.77588788434906e-05
0.0006246,3.986421397137482e-05
0.0005031,4.5785611519583557e-05
0.0004968,5.060039525537324e-05
0.0006064,7.266850150588709e-05
0.0005119,4.0831496557328285e-05
0.0005009999999999999,2.968725877094976e-05
0.0006254,5.5108378068432865e-05
0.0005142,2.5763022596996154e-05
0.0005207,4.018858323233381e-05
0.0006292,5.46154231370997e-05
0.0005586,3.7918626322985695e-05
0.0005483,3.247238142723067e-05
0.0006965,7.068120919546676e-05
0.0005664,3.230823768363451e-05
0.0005622,3.740112891938484e-05
0.0006839,3.3261422432334784e-05
0.0006018,4.982368914482348e-05
0.0005805000000000001,5.842421491889204e-05
0.0007281,7.750333326165183e-05
0.0006246,3.731011182567597e-05
0.0006167,3.428005574998707e-05
0.0007209,5.565259303133243e-05
0.0006330999999999999,4.60517824483121e-05
0.0006378,4.4273894992170925e-05
0.0007608000000000001,4.151519132933283e-05
0.0006728999999999999,3.489173732179773e-05
0.0006688,5.184978302751131e-05
0.0008106000000000001,5.089029595337627e-05
0.0007015999999999999,4.783350754904395e-05
0.0006895,6.332850858815481e-05
0.0008106999999999999,3.2819540250012985e-05
0.0007083,3.325340416993256e-05
0.0006753999999999999,3.46576911457696e-05
0.0008271000000000001,8.175906337797935e-05
0.0007223,3.3032139231697106e-05
0.0007037,5.30409694900503e-05
0.0009053,9.589931062201532e-05
0.0007263,7.946354859654556e-05
0.0007082,6.628691843460182e-05
0.0008769000000000001,6.969050628792035e-05
0.0008139999999999999,0.00011979334056801506
0.0007805,5.855149680219778e-05
0.0009362999999999999,6.948708912852485e-05
0.000776,6.582299496883034e-05
0.0007718,7.656485994095317e-05
0.0009537,6.631917771906806e-05
0.0008076,3.1174063293421045e-05
0.0008111,3.458789126590727e-05
0.0009894,4.720922697006497e-05
0.0008429,4.707783153695827e-05
0.0008286999999999999,9.479457321551222e-05
0.0010005,0.00010925327353346344
0.0008625000000000001,6.623233517113997e-05
0.0008371,5.946137868865434e-05
0.0010425999999999999,7.022218706046939e-05
0.0008937000000000001,9.807712384762424e-05
0.0009054,9.940959041594869e-05
0.0010553,7.194604459824969e-05
0.0008943,3.692349447769598e-05
0.0008862999999999999,5.3878567167288335e-05
0.0011046,7.524212767976315e-05
0.0009018,5.122456008162057e-05
0.0009268,7.943942486084744e-05
0.0011037,6.776437936785897e-05
0.0009184,3.325056390499264e-05
0.000887,7.428772891041067e-05
0.0010841,0.00023411651894824598
0.0009246,0.00015828399231199037
0.0009073,0.000180281292552623
0.0010918,0.0001434013791968388
0.000967,6.182771762459509e-05
0.0009207,7.55881383992665e-05
0.0011634,0.00011793425663855643
0.0009683000000000001,9.667936698179195e-05
0.0010114,8.6275012476254e-05
0.0011823,0.00011125551172363953
0.0009923,4.780992458568501e-05
0.001042,0.00012261593153692007
0.0012093,0.0001069943404526094
0.0010052,4.679933522794719e-05
0.0009842,7.804670966087479e-05
0.0012299,7.784949867818323e-05
0.0010467,0.00011505269324193252
0.0010195,8.849639038464284e-05
0.0013118,9.989639077008181e-05
0.0010791,5.005874327006001e-05
0.0010501999999999998,5.9775134183593974e-05
0.0012939,6.216546022064377e-05
0.0010704999999999998,9.29375537061789e-05
0.0010668000000000001,4.131666330509601e-05
0.0013467,5.0177573565178416e-05
0.0010995,7.37009724042589e-05
0.0010742,0.00012061306360055327
0.0013573,0.00012844458381384212
0.001116,0.00012714558584551804
0.0010405,9.175117316840026e-05
0.0012961000000000001,0.00011338670312009448
0.001139,5.628498911788114e-05
0.0011182000000000002,6.975002986857184e-05
0.0013592,0.00013461616214671668
0.0011103999999999999,0.00012783774438282649
0.0010874,0.00013769709106908862
0.0013575,0.00015398502813224695
0.0011749,9.240063732343935e-05
0.0011339,0.00013354354262852912
0.0014452,0.0002710550579576859
0.0010978,0.00016527270393705874
0.0011339,0.00010996307461042448
0.0014273,0.0001332441785261597
0.0010941,0.00012030096517577163
0.0010964,0.00013509601523854558
0.0014083,0.00022750142856694332
0.0011187,0.00016862716928841044
0.0011625,0.00015128431658451727
0.0014803,0.00017529850731442831
0.0012733,7.481985773249713e-05
0.0012083999999999999,0.00015794387188703042
0.0016034,0.00023432418189811788
0.0012821,8.684398527116184e-05
0.0012664,5.8997551738280705e-05
0.0015331,8.60987159537753e-05
0.0012716,7.311664957069936e-05
0.0012956,7.189838508463022e-05
0.0015963000000000001,0.00010187470518021418
0.0012182,0.000162974299269002
0.0012506,0.00017591866807640903
0.00155,0.0002352119611471038
0.00124,0.00017589832921953018
0.0012355,0.0001569700962320885
0.0015658999999999998,0.000248654803112892
0.0011876,0.00020069667549701853
0.0011781,0.00022520630048419553
0.001475,0.0003230810011952627
0.0012172,0.00020281014657939472
0.0012680999999999999,0.000130797935763528
0.0014553,0.00023554997110780739
0.0012460000000000001,0.00019019931066588484
0.0011999,0.00020101710817186126
0.0015643,0.00024488366852673353
0.0012635,0.00019705738025029945
0.0012567,0.00019121892630641395
0.0016454,0.00023705564278830773
0.0014465,0.00022005819937260035
0.0013816,0.0001978872855384544
0.0016388,0.00021574151199989306
0.0013174999999999999,0.00018634451367769802
0.0013586000000000002,0.00015695094775120027
0.0016504999999999998,0.0001771033910209263
0.0013059,0.00014223802429574013
0.0013341,0.00017392811414170193
0.0016947,0.00020629431510452357
0.0013819,0.00016540552859227193
0.0014123,0.00015939751148203872
0.0017558,0.00018555071184629465
0.001409,0.00017412766708494216
0.0013911,0.00026122508387297803
0.0017449,0.00025279919567382594
0.0013627000000000001,0.0001942884739533231
0.001387,0.00018295961910274686
0.0017883,0.0002187200392180734
0.0014326999999999999,0.00017994940646995448
0.0013927,0.00025877233666337334
0.0017318,0.00032012802994357673
0.0014731000000000002,0.0003392195126725139
0.0013844999999999999,0.00026752954146328504
0.0016971,0.00030665994557852225
0.0013705,0.0001851487390061179
0.0013681000000000001,0.00020508613366637495
0.001754,0.0002241616480231273
0.0013853000000000001,0.00025298355238587703
0.0013275000000000001,0.00020304747665946942
0.0016667000000000001,0.00026031137338024837
mean_timeC,stdev_timeC
0.0034162,0.0002155869507491892
0.004472,2.8413611761501612e-05
0.0062927,0.0004659146440664379
0.0060095999999999995,0.001432645044043437
0.0069081,0.0015954392254868947
0.0075666,0.001741509638854239
0.0087741,0.0020357736967660345
0.010124900000000001,0.0011420813796651176
0.0120764,0.0005869617061141592
0.012478699999999999,0.0028871852517249005
0.014404900000000002,0.0005597595614785577
0.0164393,0.0017043141370585932
0.017719099999999998,0.0018073519272374405
0.0186423,0.0006374119634201347
0.0199859,0.0014031213972980222
0.0218356,0.0013533482921997578
0.022545100000000002,0.0003470083092184779
0.0242762,0.000658116977106316
0.0254583,0.0006910901291920373
0.0267177,0.0010510653907134205
0.028086299999999998,0.0003869662776005163
0.029069,0.0004484291099679707
0.0304462,0.0005935053683179467
0.0318792,0.0004269985167811863
0.033079399999999995,0.001417798230434156
0.034353100000000004,0.0018650192998703491
0.035935499999999995,0.0021308791221778247
0.0371114,0.002197289350287959
0.0383514,0.001446347061469764
0.0396318,0.0026510927222981504
0.0400288,0.0020036900292543587
0.0409856,0.0019311246118950142
0.0428055,0.0021096238869628974
0.0445744,0.002566553945576745
0.0455907,0.0020434427947842236
0.0466711,0.00232296292838837
0.0486089,0.0027826646482184015
0.0496097,0.0027018981003073456
0.050601799999999995,0.0025617261888552156
0.0525451,0.0006489390401091446
0.0542435,0.001426831084762469
0.0553419,0.0005778614693659538
0.0572401,0.0011692836791053834
0.057474000000000004,0.0016848722338635787
0.0602348,0.002588271186203898
0.0605187,0.0011782373888331863
0.0620572,0.0010760816573724015
0.0636412,0.0013351603149684558
0.0652977,0.0014635289201105645
0.06579070000000001,0.0014905820675159094
0.06786879999999999,0.0020659400765753095
0.0682809,0.0025079197865074477
0.06859950000000001,0.0017304069688306785
0.0711772,0.0009863248056407306
0.072787,0.0014332517031018818
0.07396670000000001,0.001825528419694174
0.0729317,0.005496746412399085
0.0758615,0.00354786612706223
0.0766378,0.00397123825637406
0.0772837,0.004239032123544765
0.08009150000000001,0.004534527593917586
0.0807912,0.0028608590318294257
0.0859419,0.004003859483881354
0.0844608,0.001389763912804378
0.0850828,0.0008919295936339388
0.08731370000000001,0.0020416810094734295
0.0883525,0.003515178745257644
0.0896906,0.001723602441915703
0.09050169999999999,0.0032893480627288092
0.0906252,0.001989455637437873
0.0915241,0.002839328576735471
0.0936265,0.00434711670088475
0.0961866,0.002113355951508828
0.0968398,0.0012610546556134862
0.0985249,0.003796671011118382
0.0974285,0.007677416279076067
0.0979718,0.008075749649413358
0.1008859,0.003605006933265025
0.1034356,0.0026794572087147288
0.10461050000000001,0.002874917399779613
0.1051844,0.005860754600637097
0.1055998,0.00625457330989804
0.107572,0.006366619127222164
0.10983799999999999,0.0038649604281429735
0.1105995,0.0007085459680845616
0.1126598,0.00430302285995942
0.1133461,0.002654314745215168
0.1144501,0.004412426579810958
0.1134314,0.009643083130755778
0.1177286,0.004491485925862647
0.1199749,0.00247836507265038
0.11910570000000001,0.00604462345210831
0.1208605,0.006327297795179935
0.1227134,0.0013077862720388747
0.1240284,0.007256194368338755
0.1245204,0.005364384881377882
0.1259102,0.00451749686835039
0.1273397,0.003644109952298977
0.1293998,0.0011115552467901252
0.1274092,0.007868941560901876
0.1279182,0.007013204891092551
0.1336416,0.0012285904479886229
0.1347381,0.0017136122632873771
0.13550579999999998,0.0042371460468365015
0.12933429999999999,0.024790792762412597
0.1297658,0.024245824436843186
0.1344224,0.021118465075747234
0.1313083,0.019773063917303706
0.1348095,0.015447259320021788
0.1340582,0.014095587519188801
0.13854450000000001,0.011634911404428008
0.1422829,0.011049898033214807
0.1435804,0.00999067575514512
0.1437397,0.010409353870971586
0.1474877,0.0042351176042965104
0.1490723,0.004173513309484516
0.1465803,0.007557759971637686
0.1458757,0.008231801342625106
0.1502896,0.008739270071223217
0.1493952,0.009247825291506227
0.1525249,0.011617566148342395
0.15487,0.009182429138789413
0.15745130000000002,0.008948127141723257
0.158858,0.010017454012317146
0.1582274,0.006953695647319895
0.161166,0.004978170592139693
0.1639937,0.004366872184731052
0.1668053,0.0056429770521517365
0.1652088,0.006937048937088125
0.1656233,0.009646967860421223
0.1633267,0.015321957432608491
0.1617745,0.0142205076112712
0.16084009999999999,0.01438926802593593
0.1630669,0.01397031112713274
0.1669691,0.011967349056216816
0.16987570000000002,0.01453361857556472
0.17044299999999998,0.015327452937639556
0.1713521,0.014284126282540199
0.1693373,0.016826073523948878
0.1735238,0.019894661605566456
0.1746762,0.01707189037114649
0.1734935,0.01939860408637694
0.1676322,0.025335932826280105
0.172426,0.02487610582689966
0.1720726,0.02311880085894499
0.1720996,0.019510195421311844
0.1692853,0.020607128599642942
0.1697686,0.023004906207155028
0.1669043,0.02042032302525
0.1699492,0.018816429415687654
0.177636,0.019177135488793826
0.1905688,0.019192810255695004
0.1898078,0.019430484186796104
0.19455709999999998,0.01322416571155499
0.1935554,0.022020812040733948
0.2059399,0.010440873190920808
0.1997282,0.007325046921351426
0.2010818,0.01066045929592154
0.1958254,0.011260765764369667
0.20386289999999999,0.00996666557915267
0.2042167,0.012000097963026065
0.1910802,0.028452357503572723
0.1992278,0.012722608867681187
0.1949908,0.029371133696577366
0.19810080000000002,0.03106324753645554
0.18647370000000002,0.030400445344142938
0.199151,0.029565668893348433
0.1958761,0.029961520208612768
0.1880305,0.037925724474879116
0.18794170000000002,0.042360249965294375
0.1877212,0.04049010306180457
0.19508540000000002,0.034411551265365665
0.21015730000000002,0.027130967734921164
0.1918658,0.03094727377976936
0.20056820000000003,0.03552426609391264
0.19870669999999999,0.033839545902686105
0.20720550000000001,0.03597630813697629
0.20134349999999998,0.03087987692926684
0.2030431,0.032070352797318034
0.2144342,0.034694250711032805
0.2157956,0.03526195270070372
0.2138923,0.033075356778289045
0.2104241,0.029778461420033854
0.2253912,0.02507807445115709
0.2235437,0.02491386971169094
0.2161616,0.02280984433285087
0.223448,0.024544530012928657
0.2213538,0.02777112903638517
0.2219182,0.023720521569120502
0.22221929999999998,0.028137355285377405
0.22885589999999997,0.02789311309843744
0.2293236,0.027097649468378456
0.2267486,0.02833130286136206
0.2244186,0.030306003113428057
0.2296083,0.029656175043881388
0.2230598,0.026563292971902235
0.2373312,0.028924447985897477
0.2332224,0.02656145926881445
0.2274485,0.03673679749318869
0.23400439999999997,0.0426178254833976
0.2257229,0.04407113550323437
0.2340704,0.04419564745085199
0.2262902,0.04235788854720898
0.21904859999999998,0.035805061650864695
0.22165469999999998,0.033739679054160816
0.2267065,0.031947332763819614
0.23337590000000002,0.04042444173860386
0.2200167,0.03316673520612683
0.21934599999999999,0.03649418119828603
0.22541760000000002,0.03803276804195736
