mean_accFULL,stdev_accFULL, mean_timeFULL, stdev_timeFULL
87.3321,0.0,0.5659046,0.1789492857619474
mean_accI,stdev_accI
50.0,0.0
74.45105,0.0
80.058258,0.0
82.999832,0.0
84.680328,0.0
85.654465,0.0
86.363663,0.0
86.796936,0.0
86.705956,0.0
86.932251,0.0
87.161316,0.0
87.677238,0.0
88.049698,0.0
88.151756,0.0
88.110352,0.0
88.264832,0.0
88.187553,0.0
88.074402,0.0
88.270287,0.0
88.195786,0.0
88.082634,0.0
mean_timeI,stdev_timeI
0.7211879,0.029440437845664667
0.016717100000000002,0.003830220778377026
0.0185824,0.003530524078188204
0.0198676,0.004716837056992982
0.0202015,0.004908250995347868
0.0204734,0.00575803452577353
0.023550599999999998,0.005808861031982852
0.0241649,0.0068611968254654945
0.0247388,0.006657216799166986
0.026781,0.007662169188073745
0.0274071,0.007658987682600242
0.0231566,0.006746722615051284
0.023924099999999997,0.008109980359614523
0.0217219,0.007556601653153648
0.019535900000000002,0.006517539284286842
0.0198714,0.007159336036874432
0.0224202,0.009436924696813752
0.0208614,0.00781383542470946
0.0213891,0.009899806220886908
0.0228822,0.01069222548084978
0.0261722,0.01125134756176146
mean_timeC,stdev_timeC
0.3494148,0.06226317080086573
0.3759746,0.0824309166288151
0.40198809999999996,0.09769325728973202
0.4135314,0.11084226644521084
0.4937248,0.07968851271851478
0.5715074,0.0957557020004553
0.5499321,0.10890069634758488
0.5354316,0.13468299387508267
0.5723081999999999,0.14745580732303792
0.5397883,0.13311928353510621
0.5487164,0.17245680801561108
0.5724384,0.1787007131865393
0.4866538,0.1017721755019514
0.5252013,0.20276009786885807
0.4725614,0.16963331615196087
0.4261611,0.08612774554688453
0.5142045000000001,0.1571239407631582
0.551372,0.23286595836947344
0.6231243,0.25210995266089314
0.5791144,0.21625144327184398
