mean_accFULL,stdev_accFULL, mean_timeFULL, stdev_timeFULL
71.022224,0.0,0.032795000000000005,0.0003007043583174535
mean_accI,stdev_accI
50.0,0.0
50.0,0.0
50.0,0.0
50.0,0.0
50.0,0.0
50.0,0.0
50.0,0.0
50.0,0.0
50.0,0.0
50.0,0.0
50.0,0.0
58.53333299999999,0.0
60.95555499999999,0.0
61.355556,0.0
62.0,0.0
61.97777599999999,0.0
63.644444,0.0
63.488887999999996,0.0
63.82222,0.0
64.622215,0.0
64.955551,0.0
67.466667,0.0
70.066666,0.0
71.977776,0.0
71.666664,0.0
72.044441,0.0
72.066673,0.0
72.0,0.0
71.955559,0.0
72.022224,0.0
71.466667,0.0
mean_timeI,stdev_timeI
0.06439829999999999,0.0005262160625108686
0.0006284999999999999,2.677063067368166e-06
0.0004835,5.2334394893691956e-06
0.000513,7.512951779723106e-06
0.0005456,1.646545204697121e-06
0.0005917,9.866328823044783e-06
0.0006201,9.85956951956378e-06
0.0006908,9.647106647418506e-06
0.0007099999999999999,5.83095189484531e-06
0.0007187,5.056349144062987e-06
0.0007223,1.51880801215222e-05
0.000753,1.0317191693694777e-05
0.000758,5.715476066494079e-06
0.0007575,9.082951062292474e-06
0.0008165000000000001,1.4477952586989317e-05
0.0008832,1.045413262250335e-05
0.0009325999999999999,1.2276445377677984e-05
0.0009213000000000001,6.092800852007415e-06
0.0009452,1.145813636194338e-05
0.0010184,6.818276093624306e-06
0.0010155000000000001,8.897565210026122e-06
0.0009927,8.30060238777887e-06
0.0010500000000000002,1.020892855407574e-05
0.0010466,1.0793001847905409e-05
0.0010812,1.3002563849743878e-05
0.0011482,1.382268666600918e-05
0.0012125999999999999,6.850790708621448e-06
0.0012293,1.2867271142968376e-05
0.0013111,1.311021654198659e-05
0.0012963,8.590045918904567e-06
0.0013149,1.3236733400318628e-05
mean_timeC,stdev_timeC
0.0076501,7.534365710971749e-06
0.0083511,2.397429178655079e-05
0.009009,1.7454703282114825e-05
0.009833,0.00013132656496941773
0.0105255,5.9172534920256e-05
0.0112972,0.00010287295292954545
0.0121155,0.00016312725094232408
0.0129489,0.00016957033938752374
0.0137738,0.00019234852626301985
0.014468100000000001,0.00018474814688591013
0.0151864,0.0002292946672830499
0.0158551,0.00021558780113911836
0.0164724,0.00025726994037823846
0.0169979,0.0001769371828267502
0.0177236,0.00024829292736156954
0.0185002,0.0002849673665527336
0.0193957,0.000275644315901651
0.0203749,0.0002989799138552435
0.0211387,0.0003493985467119811
0.0219235,0.00037063256737637106
0.022558500000000002,0.00038218879860322673
0.023370099999999998,0.00033454428373203113
0.0241568,0.00043724612951720726
0.0248216,0.0004376640517819832
0.025632300000000004,0.00037831734180593786
0.026224900000000002,0.00048711199944160633
0.0271649,0.0003697333724005264
0.027762799999999997,0.00047700659208116706
0.028902699999999996,0.0003941570611937436
0.029383199999999998,0.0005028361341210258
