mean_accFULL,stdev_accFULL, mean_timeFULL, stdev_timeFULL
94.0,0.0,0.1427022,0.006410144179345738
mean_accI,stdev_accI
50.0,0.0
53.615387,0.0
53.615387,0.0
53.769237999999994,0.0
53.76923000000001,0.0
53.69230700000001,0.0
53.69230700000001,0.0
53.69230700000001,0.0
53.69230700000001,0.0
53.69230700000001,0.0
53.69230700000001,0.0
55.461536,0.0
56.0,0.0
57.384617000000006,0.0
57.461536,0.0
57.461536,0.0
57.538456,0.0
57.538456,0.0
57.538456,0.0
57.538456,0.0
57.538456,0.0
59.46154,0.0
60.000004000000004,0.0
60.615382999999994,0.0
60.923080000000006,0.0
61.153847,0.0
61.230766,0.0
61.230766,0.0
61.30769299999999,0.0
61.384617000000006,0.0
61.384617000000006,0.0
65.07692,0.0
65.230766,0.0
65.230766,0.0
65.230766,0.0
65.230766,0.0
65.230766,0.0
65.230766,0.0
65.230766,0.0
65.230766,0.0
65.230766,0.0
67.769226,0.0
68.230774,0.0
68.53846,0.0
68.53846,0.0
68.615379,0.0
68.615379,0.0
68.692307,0.0
68.615379,0.0
68.615379,0.0
68.615379,0.0
71.692307,0.0
72.153847,0.0
72.307686,0.0
72.46154,0.0
72.46154,0.0
72.46154,0.0
72.46154,0.0
72.46154,0.0
72.46154,0.0
72.46154,0.0
75.153847,0.0
75.769226,0.0
75.692307,0.0
75.846153,0.0
75.846153,0.0
75.846153,0.0
75.846153,0.0
75.846153,0.0
75.846153,0.0
75.846153,0.0
77.53846,0.0
77.92308,0.0
78.769234,0.0
78.769234,0.0
78.846153,0.0
79.53846,0.0
79.615387,0.0
79.615387,0.0
79.615387,0.0
79.615387,0.0
80.230766,0.0
81.0,0.0
81.53846,0.0
81.692307,0.0
81.615379,0.0
81.769234,0.0
81.769234,0.0
81.769234,0.0
82.0,0.0
82.076927,0.0
84.0,0.0
84.307693,0.0
84.92308,0.0
85.0,0.0
85.230766,0.0
84.92308,0.0
85.07692,0.0
85.307693,0.0
85.46154,0.0
85.538467,0.0
85.538467,0.0
85.538467,0.0
85.538467,0.0
85.615387,0.0
85.615387,0.0
85.615387,0.0
85.769234,0.0
85.769234,0.0
85.769234,0.0
85.769234,0.0
86.923073,0.0
87.92308,0.0
88.153847,0.0
88.230774,0.0
88.230774,0.0
88.076927,0.0
88.153847,0.0
88.153847,0.0
88.153847,0.0
88.384613,0.0
91.53846,0.0
91.615387,0.0
91.846153,0.0
91.615387,0.0
91.615387,0.0
91.53846,0.0
91.46154,0.0
91.46154,0.0
91.46154,0.0
91.46154,0.0
94.307693,0.0
94.769234,0.0
94.769234,0.0
94.846153,0.0
94.769234,0.0
94.769234,0.0
94.769234,0.0
94.769234,0.0
94.769234,0.0
94.692307,0.0
mean_timeI,stdev_timeI
0.0051171,8.556349169541436e-06
8.61e-05,8.799621203968575e-06
0.0001019,1.004932280747757e-05
0.00010479999999999999,2.6161889160464793e-06
0.00012130000000000001,1.349114936212297e-05
0.00011559999999999999,1.5776212754932266e-06
0.0001294,6.221825384170722e-06
0.0001329,3.842742076521229e-06
0.00013749999999999998,1.5092308563562318e-06
0.00016340000000000001,2.184389057735722e-05
0.0001512,1.3222875800840166e-05
0.00017260000000000002,6.93140998963735e-06
0.0001863,2.5677703254856044e-05
0.0001899,7.752418977325727e-06
0.0002025,2.4842839343896795e-05
0.0002002,2.910440974606196e-05
0.0002139,1.4263005760825218e-05
0.0002137,3.379036680607194e-05
0.0002229,4.371740055299619e-05
0.0002339,4.1503547371814425e-05
0.0002386,4.170584824431434e-05
0.0005109,5.07114933279977e-05
0.0004286,5.5699990025931674e-05
0.0004384,6.372545279033594e-05
0.0004619,3.9995694212696896e-05
0.0004744,6.705752091384764e-05
0.0004789,3.706285951671236e-05
0.00048590000000000005,4.2953333850690684e-05
0.0004976,5.5911040452172266e-05
0.0005046,4.092866422882081e-05
0.000505,5.2181307849544055e-05
0.0005244,3.700210204239154e-05
0.0005227,5.7967519641031155e-05
0.0005216,9.589253244011118e-05
0.0005463,6.347361656625531e-05
0.0005355000000000001,4.536579719960352e-05
0.0005588,5.806088758076874e-05
0.0005518000000000001,7.578742199952003e-05
0.0005686,2.7901413743552307e-05
0.0005913,4.466679104460294e-05
0.0005752,4.473576744495269e-05
0.000634,4.9461545107734416e-05
0.0006366,0.0001290324679209763
0.0006598999999999999,9.634019583399927e-05
0.0006598000000000001,0.00011533217725817506
0.0006816,0.00014985340985257706
0.0006392,7.014873088263568e-05
0.0006458999999999999,7.549017596129093e-05
0.0006581,4.7002245809228205e-05
0.0006684,3.957327942494081e-05
0.0006517999999999999,5.280319855631643e-05
0.000739,6.367626454705605e-05
0.0007067,8.962520726769773e-05
0.0007344,4.843139477652899e-05
0.0007462,0.00011064738787899353
0.0007461,5.6886729559713664e-05
0.0007477,6.179724912971452e-05
0.000776,0.00010305985315986695
0.0007695,7.17499516066426e-05
0.0007662,6.138367499226123e-05
0.0008056000000000001,0.00011804161224848725
0.0008102,4.808510973032899e-05
0.0007886000000000001,3.1927696092542895e-05
0.0008122000000000001,6.601313000709281e-05
0.0008199999999999999,3.827676986255646e-05
0.0008043,6.194989014428426e-05
0.0008461,6.546322122637517e-05
0.0008198999999999999,6.500162391133863e-05
0.0008458000000000001,7.812781550482233e-05
0.0009011,0.00014088801699695163
0.0008476000000000001,7.495806234896358e-05
0.0008942,4.692973471052228e-05
0.0009034000000000001,4.727978191339062e-05
0.0009353,6.416480516780379e-05
0.0009384,0.00011907719251719778
0.0009076,3.642404578175124e-05
0.0009635,0.00010104262027041413
0.000976,0.00012948873824905908
0.0009660000000000001,6.887347497807521e-05
0.0009632,7.953727288371016e-05
0.0009524,4.531421165349539e-05
0.0010041,8.167340108287668e-05
0.0009962999999999999,5.373194787295752e-05
0.0010271,0.0002316277905030684
0.0010664,0.00016809600431499455
0.0010193,0.00020774987632032684
0.0010092,5.1941847825771024e-05
0.0010097,3.589196753221164e-05
0.0010542,5.592018121096055e-05
0.0010998000000000002,0.00013711130920208997
0.0010944000000000001,0.0001187089812197132
0.0010644,6.229713744092366e-05
0.0010995000000000002,5.322541164185059e-05
0.0010968,5.2365807334345336e-05
0.0010999999999999998,5.779081049594113e-05
0.00111,4.669998810373394e-05
0.0011233,6.829031166034217e-05
0.0011464000000000001,7.019686602691037e-05
0.0011348999999999999,4.477958364155601e-05
0.0010975,0.00013294882056223323
0.0010718,0.00016516442985367306
0.0005878999999999999,7.887465442783957e-05
0.0005851999999999999,6.733960366843734e-05
0.0005951,7.64176390341625e-05
0.0006164,4.872416694459172e-05
0.0006008,5.510353890631707e-05
0.0007802,6.810906286570419e-05
0.0007654000000000001,6.302239460875968e-05
0.0008172,8.561775516795565e-05
0.000763,7.602777270328403e-05
0.0008188,0.00015307572563204717
0.0011806,0.00010484189154256148
0.0012032000000000002,0.00012760424931970114
0.0012271,0.00023838039162462824
0.0011249,0.00012085477970596684
0.0011347,0.00011604027078753497
0.0011804,0.00011521978996682818
0.0011809,0.00019549393284134874
0.0012438,9.465821558521892e-05
0.0012716,4.140907039660646e-05
0.0012911,0.00016194954632710632
0.001311,0.00014206101975325016
0.0012272,0.00010012414516211585
0.0012415,9.650014392620243e-05
0.0012744,0.00011202896450868808
0.0012899,9.467541039432223e-05
0.0013186,6.384564720219124e-05
0.0013287,5.612693946166435e-05
0.0013763,0.000160833972364879
0.0013422,7.165007559893665e-05
0.0013491,0.00017942838249408716
0.0013486,0.00011971280447619445
0.0013268,0.00011023691658322896
0.0013086999999999999,0.00012820474076864535
0.0013793,0.00014134202017328985
0.0013939999999999998,0.000125883544066199
0.0013888,0.00013870255945727897
0.0013779,0.0001463431659566726
0.0013566,0.00012945458234025125
0.0013901999999999999,9.295853316876775e-05
0.0014179000000000001,9.225502094134981e-05
mean_timeC,stdev_timeC
0.005677300000000001,0.0004910609941748581
0.0065871,0.0006297407667710049
0.007638000000000001,2.4805913273518765e-05
0.0086036,0.0006704463190044872
0.0096981,0.0010859662824722813
0.010513699999999999,2.6482908534457754e-05
0.0118717,0.0005023332337978225
0.0130306,0.0014872083617002401
0.0138213,0.002234271496981113
0.014727200000000001,0.0007093793531437649
0.015279899999999999,0.0010411296695843838
0.0160413,0.0010820066799958103
0.0175109,0.001432126736322204
0.0181517,0.0012669510250992344
0.018068499999999998,0.002585585996335153
0.020166800000000002,0.0008770604692190077
0.0199734,0.0032477726795109565
0.020813699999999997,0.0033559641452858883
0.0210619,0.0036233624485184105
0.0225457,0.0036344038499380397
0.0233001,0.0037337424314545916
0.023693,0.004211555400192296
0.025448199999999997,0.004058093498731201
0.0279483,0.000731023491034621
0.028804600000000003,0.002974845064126122
0.029468099999999997,0.000629134052134802
0.0304549,0.0005885533016549042
0.031594300000000006,0.0013291837971727868
0.0320699,0.0011916070800953363
0.0329749,0.0012654584983756321
0.033184399999999996,0.0031128947656838997
0.034357,0.0023870578822754456
0.035039100000000004,0.002448690736336915
0.0359338,0.0019619401848397135
0.0375557,0.0030532636109215617
0.0387387,0.0031859188470518204
0.0380007,0.0032567793583368346
0.0417036,0.0021739688334676947
0.0417854,0.0013762047812734852
0.0425584,0.0022137526309665024
0.0439125,0.0008259455524158695
0.0445992,0.0015890512053843115
0.0451114,0.001682578721949007
0.0474923,0.007927134693920342
0.0457992,0.005107769502325735
0.0471026,0.003864021486022618
0.0476003,0.0030544366656462926
0.05011,0.0018715993754599895
0.0505564,0.0012973291538130682
0.0520736,0.001637416610260063
0.052896,0.0005620998329676157
0.054140999999999995,0.0011505768601493393
0.0579331,0.00804202685134648
0.05546179999999999,0.0003169236851707712
0.0566905,0.0007472190293199025
0.057777100000000005,0.000720768486485857
0.0587724,0.0009695303788719344
0.0593065,0.0036323378529230697
0.0607255,0.004688592663760274
0.061808300000000004,0.003688558467296765
0.0641448,0.001834187667606561
0.0635937,0.001509291228064059
0.0646238,0.002377359824118622
0.0656352,0.001663246878180679
0.0662941,0.002697285402853105
0.0671775,0.0030722669968607876
0.06758739999999999,0.00390964625282419
0.070055,0.00334167762259218
0.07207569999999999,0.008505931016388244
0.06987299999999999,0.004821126954469373
0.0718615,0.0014275205583263741
0.07306019999999999,0.001594289029978913
0.07423260000000001,0.0018095313205357898
0.07582269999999999,0.002216467061188445
0.0764954,0.001945283595434526
0.0775544,0.0025599608156723357
0.078169,0.0018182259363334252
0.07888880000000001,0.001494449047493946
0.0801451,0.0016655102287954355
0.08031920000000001,0.0011455128691260203
0.0812678,0.0005674584272584809
0.08255559999999999,0.001809970484719447
0.0806064,0.009767459753919872
0.08017569999999999,0.011420951147878281
0.0822657,0.012150897004382478
0.0856701,0.001674562128504708
0.0867066,0.003340589276027676
0.0888665,0.002289688879884483
0.0874527,0.005820454068770466
0.0911966,0.002696999781650384
0.0903891,0.0008963509295409289
0.0920278,0.00241206254755828
0.093307,0.002579395364120136
0.0917717,0.007569303740914499
0.09686449999999999,0.002868657535425857
0.0962921,0.002344227209788143
0.09630920000000001,0.004121305127693842
0.09695970000000001,0.0012630397240168045
0.095765,0.010591913854970266
0.0970278,0.011611989577826684
0.0935051,0.00984912866366022
0.0952913,0.010703675163751519
0.0988883,0.007243491086639248
0.0993572,0.006564817621229092
0.09881039999999999,0.008758518941261954
0.09978519999999999,0.00886287374764341
0.1011121,0.009067793489414427
0.10016480000000001,0.005289546185113089
0.10020979999999999,0.008448926372293962
0.10094669999999999,0.006510222799566848
0.10347189999999999,0.004515165887194943
0.102146,0.006559793170858701
0.1026734,0.009043772875422197
0.0984646,0.01158295254242199
0.10181580000000001,0.01352093679200274
0.1052931,0.010673670996636745
0.10998270000000002,0.008951721610332223
0.10964910000000001,0.006150542423233906
0.11241939999999999,0.0028149583853249232
0.1116789,0.006217643112770126
0.1132775,0.0048763875119463874
0.1095805,0.011991466968455345
0.1152277,0.008008944153604489
0.1154833,0.009378942312435877
0.11917530000000001,0.0031926029801541047
0.11945900000000001,0.0025399163590778175
0.12030829999999999,0.002558189379228984
0.1215158,0.0033980645079221172
0.1222358,0.008212746039608866
0.12218599999999999,0.009513141658895982
0.11701790000000001,0.011637573118996934
0.11795979999999999,0.012088490410303515
0.1204293,0.011644642058808753
0.12346490000000002,0.008753460616617104
0.1237552,0.006784583173964668
0.12276329999999999,0.010083591413226185
0.1227714,0.009749026061897441
0.1254014,0.009624611740509617
0.12749090000000002,0.012636576685250724
0.134109,0.0038523046493120355
