mean_accFULL,stdev_accFULL, mean_timeFULL, stdev_timeFULL
96.615387,0.0,0.0901502,0.021028051607317307
mean_accI,stdev_accI
50.0,0.0
53.615387,0.0
53.615387,0.0
53.76923000000001,0.0
53.76923000000001,0.0
53.76923000000001,0.0
53.76923000000001,0.0
53.76923000000001,0.0
53.76923000000001,0.0
53.84615699999999,0.0
53.84615699999999,0.0
55.30769299999999,0.0
56.0,0.0
57.615382999999994,0.0
57.53846,0.0
57.53846,0.0
57.53846,0.0
57.53846,0.0
57.53846,0.0
57.53846,0.0
57.53846,0.0
59.69230700000001,0.0
60.153847,0.0
61.0,0.0
61.30769299999999,0.0
61.30769299999999,0.0
61.30769299999999,0.0
61.30769299999999,0.0
61.30769299999999,0.0
61.30769299999999,0.0
61.30769299999999,0.0
65.153847,0.0
65.153847,0.0
65.153847,0.0
65.153847,0.0
65.153847,0.0
65.153847,0.0
65.153847,0.0
65.153847,0.0
65.153847,0.0
65.153847,0.0
67.769226,0.0
68.384613,0.0
68.46154,0.0
68.46154,0.0
68.615379,0.0
68.615379,0.0
68.615379,0.0
68.615379,0.0
68.53846,0.0
68.53846,0.0
68.53846,0.0
68.53846,0.0
68.53846,0.0
68.53846,0.0
68.53846,0.0
68.53846,0.0
68.53846,0.0
68.53846,0.0
68.53846,0.0
68.53846,0.0
70.92308,0.0
71.769234,0.0
72.07692,0.0
72.0,0.0
72.153847,0.0
72.0,0.0
72.07692,0.0
72.07692,0.0
72.153847,0.0
72.07692,0.0
74.230774,0.0
74.153847,0.0
75.0,0.0
75.0,0.0
75.076927,0.0
75.846153,0.0
75.846153,0.0
75.846153,0.0
75.846153,0.0
75.846153,0.0
77.0,0.0
77.615387,0.0
78.384613,0.0
78.53846,0.0
78.53846,0.0
78.846153,0.0
79.153847,0.0
79.153847,0.0
79.230766,0.0
79.230766,0.0
81.46154,0.0
82.0,0.0
82.230774,0.0
82.230774,0.0
82.307693,0.0
82.53846,0.0
82.615387,0.0
82.615387,0.0
82.846153,0.0
82.846153,0.0
85.538467,0.0
85.846153,0.0
86.07692,0.0
86.384613,0.0
86.615387,0.0
86.615387,0.0
86.615387,0.0
86.615387,0.0
86.615387,0.0
86.615387,0.0
87.230774,0.0
88.692307,0.0
88.846153,0.0
89.153847,0.0
89.230766,0.0
89.153847,0.0
89.230766,0.0
89.307693,0.0
89.461533,0.0
89.769234,0.0
92.538467,0.0
92.769226,0.0
93.07692,0.0
93.153847,0.0
93.0,0.0
93.153847,0.0
93.153847,0.0
93.153847,0.0
93.153847,0.0
93.153847,0.0
95.92308,0.0
96.384613,0.0
96.46154,0.0
96.46154,0.0
96.615387,0.0
96.692307,0.0
96.615387,0.0
96.615387,0.0
96.615387,0.0
96.615387,0.0
mean_timeI,stdev_timeI
0.0001792,4.0998102937141425e-05
0.000268,6.916485941414021e-05
0.0002874,3.1263041723059796e-05
0.0003818,8.227163680286313e-05
0.00047670000000000004,0.0001362204504144334
0.0005964,0.000292057909021862
0.00047089999999999995,8.509400031076743e-05
0.00047000000000000004,9.588071292554676e-05
0.0005383,6.101557178294735e-05
0.0006598,0.0003394926934248937
0.0005499000000000001,0.00014665943163973087
0.0009086000000000001,0.00014323733219148328
0.0010202,0.00033792629045071025
0.0013926000000000001,0.0003642481449659162
0.001653,0.000638206166619464
0.0020023,0.0007316344032370266
0.0021192,0.000683000048804293
0.0023178,0.000965120464559275
0.0022823,0.0005913322153315248
0.0026671,0.0012679829520410226
0.0025063,0.0007546894946488478
0.0036401000000000003,0.0009424274154189983
0.0037592,0.001221520891712004
0.0044312,0.0024593695578790558
0.0049267,0.0023680103251464083
0.0047652,0.0011750677332723325
0.0050665,0.0015324082898061687
0.0062153,0.0023909881290657495
0.005552,0.001542535863080301
0.0056319000000000004,0.001581671299606843
0.0065357,0.001696275334699857
0.0081708,0.0036869596266963503
0.0079889,0.0024003708255184238
0.0072718,0.0017799154661574989
0.0077835000000000005,0.0029256975711405607
0.008837300000000001,0.0023255070677644096
0.0088907,0.0027600925527960112
0.0073436000000000005,0.002526999503143775
0.0082752,0.002428539195117555
0.008611299999999999,0.0022791553040545525
0.0100504,0.00317763497658942
0.0096779,0.0027004796466965314
0.010646300000000001,0.0027315586535488815
0.0131177,0.0027152452743720956
0.0122076,0.003619702111745907
0.0121373,0.006273954752254222
0.0113411,0.0035177423773399513
0.0124424,0.00400182322892398
0.013945099999999998,0.006015779961438454
0.0141384,0.006964729079839039
0.014699400000000001,0.008735750164315216
0.014327799999999998,0.00750678544607033
0.013023499999999999,0.0027660592204634938
0.016192699999999997,0.0050093177856648085
0.0142398,0.0033932931824736602
0.0142685,0.004469061205170002
0.0173198,0.008673892088074162
0.013891999999999998,0.004105891241726806
0.016645100000000003,0.005344522459698549
0.0203477,0.00838521540238797
0.0175033,0.00448367456074442
0.018958700000000002,0.010161641709553302
0.019728100000000002,0.006055541620881011
0.0166025,0.003922365563166074
0.0180542,0.004611240729637379
0.021620300000000002,0.009704036113906418
0.0196343,0.011395557302446131
0.0158578,0.004078714443438166
0.0193939,0.005256710704740497
0.019639200000000002,0.008390462161817363
0.0221354,0.009196872018971089
0.0229842,0.0075657423341445275
0.023698900000000002,0.005986758155388532
0.0233292,0.003560326632955653
0.0257778,0.008456419978007505
0.0237756,0.004971979422501442
0.0221697,0.003531499494234394
0.0230994,0.002746391580075775
0.0269042,0.008328401484612091
0.0262524,0.005397657973602996
0.028182099999999998,0.008557947527168987
0.031862600000000005,0.009893851639612688
0.0283074,0.007720004522163327
0.0300199,0.009421520842671257
0.0275062,0.005545236049479269
0.035443199999999994,0.009341553461104136
0.032112800000000004,0.01388499760973052
0.035568699999999995,0.01268266595747475
0.0353402,0.01080260628840199
0.0364788,0.01518104546099803
0.0383109,0.01131957989454065
0.0397387,0.008683362482996499
0.0412358,0.006870454017021001
0.045627600000000004,0.017473335833651103
0.0402289,0.00927067968801521
0.045440400000000006,0.010150828824397651
0.0398921,0.011345756558192926
0.040213900000000004,0.009130904378355226
0.042294399999999996,0.012394043499466455
0.0425547,0.009384497358824167
0.035818,0.012514155939930141
0.0438606,0.011547002835753046
0.0419504,0.01154794427304416
0.050690400000000004,0.015208740858101593
0.0435824,0.011686022754651056
0.0476327,0.0077178765509403925
0.0440917,0.012006914286267633
0.045600999999999996,0.01624702556025427
0.0475199,0.013672402166001735
0.0446531,0.014135288767635574
0.0484744,0.011215444581270757
0.0468359,0.019369970059347017
0.0562685,0.02249861123244919
0.068327,0.018379950900671935
0.0643415,0.028476062677468442
0.0655845,0.03681327397149023
0.0513382,0.02640998947704784
0.055031699999999996,0.011577373661586635
0.0604073,0.01130208712337878
0.0670749,0.021385933281533966
0.062038499999999996,0.015797549706274772
0.05555600000000001,0.013577881138904636
0.06521210000000001,0.01812859853288904
0.0554639,0.013423638407674724
0.06374959999999999,0.012833881721616591
0.060268699999999994,0.013532636123666208
0.0664061,0.008997193246908852
0.06427000000000001,0.007448576940895786
0.0539583,0.013488289695139261
0.0630904,0.019324272521595447
0.062394700000000004,0.0081078047316562
0.069038,0.021863368176015335
0.0757483,0.0171168010838604
0.0694437,0.021813663883243257
0.0688948,0.02006736064027023
0.0661621,0.006227632588356151
0.0694016,0.02260153158625416
0.0647087,0.013040418730921863
0.06235120000000001,0.009704538237340302
0.0804114,0.02179206696738772
0.077563,0.02433336921915162
mean_timeC,stdev_timeC
0.0142787,0.004118184256036471
0.0167452,0.0055729297461528755
0.0147925,0.0035573774125829765
0.019098499999999997,0.0068761813409285045
0.0181445,0.004768934827494384
0.0179814,0.005287092126637813
0.0164927,0.0027396494524340557
0.0166932,0.0036884167877288486
0.0180355,0.0053427542470568905
0.0202244,0.00543116971645049
0.018441199999999998,0.010824133363307505
0.0176556,0.005760355760618339
0.0200769,0.00787996096225525
0.0250626,0.01117258250460574
0.0292553,0.015336290584753536
0.028438399999999996,0.009828666488050824
0.0245041,0.008067444059648357
0.026240399999999997,0.007707302514138422
0.0236964,0.003806083673979505
0.027349400000000003,0.007890085666342427
0.0247054,0.005781982497379251
0.031314999999999996,0.008079070161018944
0.0300153,0.008893612077715605
0.0311464,0.014112414961460156
0.0313146,0.007839250803205338
0.0329064,0.009194228687364457
0.0305027,0.008453324212008749
0.0353901,0.005838032610962932
0.0285721,0.0068543727235490575
0.033629599999999996,0.012590313438865963
0.037044499999999994,0.016902970516384917
0.0383488,0.009884797022588668
0.0363861,0.009152578622078772
0.0369011,0.008092769151807335
0.0360894,0.008614913879752691
0.041259699999999996,0.009775784925007303
0.0368391,0.009995207890117475
0.0321922,0.011178707118645003
0.039122699999999996,0.010526004159540631
0.0342846,0.007793666405771063
0.0345296,0.009516518471700782
0.0429579,0.014253564033446355
0.0390308,0.007555842901725496
0.0377363,0.007221333795697919
0.044641200000000006,0.010242472550881235
0.0450583,0.020156269127053802
0.039983599999999994,0.006419453666611964
0.0372571,0.004149160542942526
0.042565399999999996,0.008969182821689436
0.0429215,0.012929941859884754
0.0470017,0.02704531853122746
0.0452297,0.023153829076418442
0.049136,0.014020863604722149
0.0447118,0.011918008659167856
0.0467619,0.013608703656524786
0.0439396,0.011991981999097005
0.0440363,0.008748267435453847
0.0410051,0.015328438823528856
0.0477578,0.013697461539359117
0.056361499999999995,0.024860221082640795
0.047420699999999996,0.010928618933281958
0.056491599999999996,0.029394816165061784
0.0453961,0.012188632668278352
0.0471702,0.011834130412591464
0.0477753,0.009089787175726392
0.0429602,0.009569644690954367
0.0369709,0.011984740783828223
0.0406447,0.011251060029565609
0.0681651,0.04425318101171435
0.0496123,0.018602101811055892
0.0481404,0.01456773710178306
0.0553735,0.014576465249389737
0.0527942,0.007910426239393736
0.048677200000000004,0.008318365261409373
0.0523555,0.013785725122991052
0.0528286,0.013535636554419351
0.0511367,0.009667160516695453
0.052824499999999996,0.01700757998494919
0.0707811,0.024736424036226414
0.055154400000000006,0.01116936617320388
0.0545995,0.009068829450988213
0.05876869999999999,0.009339800474314212
0.0612645,0.014653571223804495
0.062119999999999995,0.01892646897278459
0.0584736,0.011380162000409111
0.0687798,0.013768255483781038
0.059567,0.022808445964890577
0.06093610000000001,0.016644380269161253
0.0737081,0.04021286710453094
0.0779483,0.025147204324625125
0.0671642,0.017225755044248264
0.07394039999999999,0.012102635123531292
0.0633798,0.018840462861735758
0.0821596,0.03450723346134192
0.0668735,0.016470199764355556
0.0705565,0.014614757885629017
0.0662133,0.015778214024055097
0.071785,0.016826743072990816
0.0690615,0.016303798604756024
0.07734830000000001,0.01732211642220559
0.0634117,0.0195845052758552
0.0741595,0.023147714786417542
0.0771362,0.012923336469778657
0.0796496,0.017287450002819966
0.0695295,0.017965236450495782
0.0680318,0.005711117341544376
0.0704295,0.017924552151541564
0.0692893,0.016968081041571357
0.0724431,0.022682232721033244
0.0676701,0.020306450324137568
0.0693442,0.017587013105003234
0.07833,0.027902167605960492
0.07652830000000001,0.020468493496374158
0.0877256,0.02596774997825829
0.0904999,0.0475612418594291
0.0795859,0.027465198085536862
0.0810126,0.038809073633193907
0.08196250000000001,0.02066295805031044
0.0820267,0.013438524133996264
0.0872416,0.01852377111953419
0.0764109,0.0201583135838404
0.0755541,0.017374827413691212
0.077467,0.01578846616292342
0.0772041,0.019100293432591845
0.0862209,0.019395004410930148
0.0851809,0.023786882395555747
0.0872612,0.016242383964321386
0.0903832,0.01877467969130529
0.0826321,0.022452562291046727
0.0828599,0.022406321471356645
0.0853544,0.011385704840329875
0.0840762,0.019736371752567785
0.08431999999999999,0.03317598900476735
0.09169540000000001,0.013437450396394233
0.0855603,0.020484740667954113
0.0859837,0.013441373954655412
0.0803685,0.01888195903942879
0.0892473,0.0243288518067198
0.0813483,0.021656528895205918
0.0896364,0.020991611060929397
0.10019070000000001,0.019263146426099068
