mean_accFULL,stdev_accFULL, mean_timeFULL, stdev_timeFULL
96.615387,0.0,0.0810885,0.01906179649485093
mean_accI,stdev_accI
50.0,0.0
53.84615699999999,0.0
53.84615699999999,0.0
53.84615699999999,0.0
53.84615699999999,0.0
53.84615699999999,0.0
53.84615699999999,0.0
53.84615699999999,0.0
53.84615699999999,0.0
53.84615699999999,0.0
53.84615699999999,0.0
57.0,0.0
57.461536,0.0
57.615387,0.0
57.615382999999994,0.0
57.615382999999994,0.0
57.615382999999994,0.0
57.615387,0.0
57.615382999999994,0.0
57.615382999999994,0.0
57.615382999999994,0.0
59.76923000000001,0.0
60.230766,0.0
61.076919999999994,0.0
61.384617000000006,0.0
61.384617000000006,0.0
61.384617000000006,0.0
61.384617000000006,0.0
61.384617000000006,0.0
61.384617000000006,0.0
61.384617000000006,0.0
61.384617000000006,0.0
61.384617000000006,0.0
61.384617000000006,0.0
61.384617000000006,0.0
61.384617000000006,0.0
61.384617000000006,0.0
61.384617000000006,0.0
61.384617000000006,0.0
61.384617000000006,0.0
61.384617000000006,0.0
64.0,0.0
64.615387,0.0
64.692307,0.0
64.692307,0.0
64.846153,0.0
64.846153,0.0
64.846153,0.0
64.846153,0.0
64.769234,0.0
64.769234,0.0
67.307693,0.0
68.230766,0.0
68.384613,0.0
68.53846,0.0
68.53846,0.0
68.53846,0.0
68.53846,0.0
68.53846,0.0
68.53846,0.0
68.53846,0.0
70.92308,0.0
71.769234,0.0
72.07692,0.0
72.0,0.0
72.153847,0.0
72.0,0.0
72.07692,0.0
72.07692,0.0
72.153847,0.0
72.07692,0.0
74.230774,0.0
74.153847,0.0
75.0,0.0
75.0,0.0
75.076927,0.0
75.846153,0.0
75.846153,0.0
75.846153,0.0
75.846153,0.0
75.846153,0.0
77.0,0.0
77.615387,0.0
78.384613,0.0
78.53846,0.0
78.53846,0.0
78.846153,0.0
79.153847,0.0
79.153847,0.0
79.230766,0.0
79.230766,0.0
81.46154,0.0
82.0,0.0
82.230774,0.0
82.230774,0.0
82.307693,0.0
82.53846,0.0
82.615387,0.0
82.615379,0.0
82.846153,0.0
82.846153,0.0
85.538467,0.0
85.846153,0.0
86.07692,0.0
86.384613,0.0
86.615387,0.0
86.615387,0.0
86.615387,0.0
86.615387,0.0
86.615387,0.0
86.615387,0.0
87.230774,0.0
88.692307,0.0
88.846153,0.0
89.153847,0.0
89.230766,0.0
89.153847,0.0
89.230766,0.0
89.307693,0.0
89.461533,0.0
89.769234,0.0
92.538467,0.0
92.769226,0.0
93.07692,0.0
93.153847,0.0
93.0,0.0
93.153847,0.0
93.153847,0.0
93.153847,0.0
93.153847,0.0
93.153847,0.0
95.92308,0.0
96.384613,0.0
96.46154,0.0
96.46154,0.0
96.615387,0.0
96.692307,0.0
96.615387,0.0
96.615387,0.0
96.615387,0.0
96.615387,0.0
mean_timeI,stdev_timeI
0.0001617,3.051793643817426e-05
0.0001525,8.527732536977356e-06
0.0001938,7.929242642830959e-05
0.0002496,3.401372272088625e-05
0.0002771,2.8061242547922452e-05
0.0003392,0.0001609228938895202
0.00036050000000000003,8.543646112105117e-05
0.00038019999999999997,8.322232606431736e-05
0.0003325,0.0001006868081395638
0.0003769,0.00011647169422462935
0.0004335,9.207756392182505e-05
0.0007233,7.446706953039341e-05
0.000856,0.000248481164052507
0.0010213,0.00027193506169263603
0.0010796999999999998,0.0006021553970714056
0.001128,0.0003374861314022976
0.0013551000000000001,0.0005170401768184408
0.0013192,0.00034161700452081976
0.0014751,0.0004903614199977626
0.0014096,0.0003844029136205916
0.0017858,0.00048347096890896945
0.0034285999999999995,0.0023090425721497645
0.0040351,0.003560865389511688
0.0034422000000000003,0.0024625185301051264
0.0032932000000000005,0.0008358588131709539
0.0032618,0.0006573292427188474
0.0043244,0.0022555182306709227
0.0038050000000000002,0.0011672030195680992
0.0045195,0.0024080503986051087
0.0043578,0.0019434943215193034
0.0041905,0.0006690006228198398
0.0044416,0.0003810311156731314
0.0060152,0.0021191169439703466
0.0048544999999999994,0.0010403295685075529
0.0053011,0.0016646860531510307
0.0042711,0.000631018832259915
0.005112,0.0013707708293754528
0.0049666,0.0014631852013102555
0.0049823,0.0010654560890894459
0.0058419000000000006,0.002252874531694021
0.0051622000000000005,0.0011368537284980862
0.0068925,0.0020587490943126925
0.006935800000000001,0.0022920435229530677
0.0075476,0.0019556544343688805
0.0084319,0.0033056125823278876
0.0068771,0.0012431116379651684
0.008576499999999999,0.004329973011206626
0.007029199999999999,0.0015573126996349979
0.0089392,0.0028422591874930916
0.0089722,0.0012172750807529996
0.008980199999999999,0.0027287726097195335
0.0097518,0.0010872977513082603
0.010967399999999999,0.005093678090426297
0.0109849,0.002563824593150718
0.0139243,0.004715602472407717
0.012653500000000002,0.005788647515228023
0.0134264,0.0036149822559884176
0.014582500000000002,0.0059216791021541254
0.0141902,0.0032925302597107764
0.013803099999999999,0.0040409589194755355
0.0165922,0.008132814051728958
0.0165469,0.00465255792130642
0.0162439,0.004687633528764807
0.015785399999999998,0.004326043951078938
0.013683999999999998,0.0034479725443609124
0.0178811,0.007927243901746544
0.0179461,0.003276795095821526
0.0198101,0.006708531640133082
0.019836,0.004636874857535455
0.01887,0.004134192356971849
0.0200985,0.005047058026437007
0.022262399999999998,0.003348923017595026
0.0220869,0.006027625171749742
0.025196600000000003,0.008280976246796025
0.025920500000000003,0.008301660453052617
0.0285403,0.011889185048699605
0.0226031,0.0052447883221770205
0.0333718,0.022922407590245258
0.0236044,0.00652954210067172
0.025635799999999997,0.006225857170792717
0.0276543,0.008892543931106929
0.030560999999999998,0.016244578411820292
0.030442000000000004,0.008624443737295628
0.0328634,0.00810992429338551
0.030557800000000003,0.005732032077137507
0.0299327,0.0062074788414191685
0.0312907,0.005186754927483828
0.0329041,0.010590949442802566
0.030333500000000003,0.007221084025269336
0.032914,0.006994173988240339
0.0314774,0.0065694467922006615
0.0322746,0.005629565094708076
0.0311556,0.006364007249105446
0.035291,0.0055159676898578315
0.0355356,0.009673073017402485
0.0405868,0.012182469461393194
0.0366983,0.007785741469721
0.0376518,0.007409343047801202
0.0401649,0.011706010948321474
0.0348184,0.0056473283004738915
0.0388723,0.007720770658856969
0.037871,0.011490314452712869
0.0420352,0.012679460826251425
0.043666500000000004,0.010225395197470094
0.0408402,0.011943136251048597
0.038799600000000004,0.008930815456111
0.0433412,0.013765001415021924
0.051090899999999995,0.011676007122395147
0.0476785,0.008524668299183913
0.0453611,0.009290034283515259
0.051174,0.014301632602997152
0.0625016,0.028361075983349672
0.057009500000000005,0.017377000944735353
0.0576611,0.01730282373519164
0.061522299999999995,0.01721369519404051
0.056932300000000005,0.01662135000567376
0.0626155,0.020865684573534177
0.0632069,0.018631483226278875
0.06089409999999999,0.013643202975596796
0.0536181,0.018160756649985704
0.06890389999999999,0.017812576159369348
0.0586268,0.014267815808860008
0.058075699999999994,0.020501337609748517
0.052974600000000004,0.011835612204979796
0.0540858,0.012450177185709267
0.06257979999999999,0.016294735706151645
0.0572601,0.015182106254476756
0.058962099999999996,0.008426813506763855
0.060343100000000004,0.01301661885138465
0.0725857,0.024423468818376762
0.0625948,0.008175758854347678
0.0705283,0.013892443174058494
0.0632144,0.017960962323884545
0.0772109,0.02399191877579708
0.06762589999999999,0.012260607076233125
0.0699369,0.008131603100796848
0.0654943,0.01519819113542427
0.06564980000000001,0.012327197453868687
0.0623498,0.016343365400743576
0.0695237,0.026133007221817307
0.06818840000000001,0.006694807742654833
mean_timeC,stdev_timeC
0.0204864,0.009883873006063968
0.016412,0.0047147124102230355
0.0177533,0.004512333839353842
0.0161654,0.0017913706236039244
0.0169308,0.002406983857214021
0.0173075,0.0021147331983018564
0.0189999,0.005058017671644364
0.0173664,0.0034144932664550193
0.015717500000000002,0.006602109330442136
0.015111099999999999,0.004343390264400482
0.0178555,0.004487581859358606
0.021113899999999998,0.005678590894266327
0.019274,0.00424489869006186
0.0209424,0.008061586529820156
0.0190437,0.005635839956129975
0.0191785,0.0038574170762311925
0.0218525,0.007356606905813758
0.023347100000000003,0.0062200519906723175
0.0231314,0.007446421664128349
0.0230348,0.005789015571657143
0.0246542,0.006032164708184506
0.0325289,0.012866033494351623
0.0359497,0.01665566935210551
0.0317132,0.017037828720559173
0.029357,0.0073375944135512
0.0358182,0.009767300489103653
0.036888199999999996,0.009752991037511404
0.0282816,0.0074443487171291355
0.0264998,0.00768038310387068
0.0288435,0.005152980480589203
0.0338503,0.00662256449236665
0.0323705,0.004171942959288341
0.0296987,0.007581066328543616
0.033593,0.006213491414298048
0.040360099999999996,0.014188353693943652
0.031971299999999994,0.007886909872975882
0.0328459,0.008072086133363817
0.028442099999999998,0.006802464283053768
0.0327125,0.009524312856520879
0.0364928,0.011199732980943984
0.0355721,0.011342546945510566
0.033083800000000003,0.0038239551891842156
0.0371465,0.009726053067805964
0.0349028,0.007982456205120494
0.037556099999999995,0.008592052160119969
0.0458581,0.019175572646526678
0.0377606,0.015194351320291512
0.03793,0.010675304388062093
0.037296,0.00623419019066096
0.0395623,0.00810716896812801
0.0401047,0.0075805223808565235
0.037044,0.004701735731502663
0.0369998,0.010804202307949954
0.0309139,0.0067569643159237315
0.042829,0.006943062740766659
0.040059,0.012955256710866229
0.035435299999999996,0.006590856967547291
0.045415899999999995,0.0066407796137033315
0.0452192,0.012771492367334714
0.0377432,0.010289050844897642
0.0473229,0.020064923154876797
0.0403018,0.01286723805985142
0.0406868,0.010062432418544622
0.0364139,0.0126091558484742
0.0479653,0.008548022514008723
0.0498332,0.028148046215205294
0.0450349,0.017562198890736253
0.053985099999999994,0.013192711173219854
0.051812800000000006,0.013924132415023606
0.0503904,0.012286458328854031
0.0450982,0.008609962650583593
0.049347199999999994,0.0060506469589806855
0.0586944,0.023483888151477623
0.0571386,0.016215157354908537
0.0562538,0.010002429091642355
0.0672931,0.02750079041470142
0.049656099999999995,0.01637862042386015
0.054393500000000004,0.018953554232796432
0.052589300000000005,0.004342793828094229
0.0579803,0.016653269355695097
0.0526939,0.012726262927505467
0.055188400000000006,0.013933207425268438
0.0581701,0.012388587583829812
0.062323300000000005,0.008908704919596588
0.0605483,0.018866892543111954
0.0580067,0.008581290734952276
0.061135300000000004,0.009873559946195248
0.05389819999999999,0.0133465629433199
0.056909299999999996,0.01158937078198045
0.058041699999999995,0.012046092691085447
0.0549667,0.008610914108785948
0.0687388,0.01661796022246881
0.0696434,0.02095295744280506
0.0603885,0.01976329008962492
0.0626842,0.014753759007264706
0.06329409999999999,0.021151280930215288
0.0620413,0.018118875425306553
0.0725491,0.02118686112481559
0.0680327,0.008166995572288366
0.0606777,0.01659109502815692
0.0669222,0.015759450644683724
0.067082,0.020027716705716715
0.0680161,0.012234659478074755
0.0745413,0.029505847059147067
0.0643677,0.020284474594296657
0.0727885,0.01599627181738156
0.0730715,0.014183533020529278
0.0802308,0.019685218841670123
0.0794184,0.025353900625610513
0.0743751,0.020516680581907008
0.0766309,0.02454843365200042
0.0838491,0.020407516417296403
0.07489209999999999,0.00911416879186833
0.0950473,0.030029670820151635
0.0843594,0.02703251843079204
0.0823015,0.021815935914677904
0.0773191,0.02111895479026681
0.0802859,0.01889887939329267
0.08502570000000001,0.019042869111851584
0.0690443,0.023157893159064937
0.0832237,0.01895594514217989
0.08459570000000001,0.02189701228250101
0.0904646,0.01427617938463307
0.089069,0.03096846081634238
0.0850009,0.018571787764420165
0.0790861,0.010540665944068453
0.08606939999999999,0.01582981361018927
0.08638280000000001,0.019176782946515765
0.0854419,0.011445687188243053
0.08999850000000001,0.02346827134783377
0.0912914,0.041527412382130854
0.0943995,0.018439486924954163
0.0892144,0.01851663422859445
0.0881807,0.021039522771573397
0.0914249,0.024231253718424613
0.0912259,0.010816390828018578
0.08480370000000001,0.01742156858641354
0.0819548,0.022693564201724192
0.0886611,0.017438971990917356
0.08786859999999999,0.022089539169279
0.09342969999999999,0.022000872351643996
