mean_accFULL,stdev_accFULL, mean_timeFULL, stdev_timeFULL
96.615387,0.0,0.100899,0.029468826421604692
mean_accI,stdev_accI
50.0,0.0
53.615387,0.0
53.615387,0.0
53.76923000000001,0.0
53.76923000000001,0.0
53.76923000000001,0.0
53.76923000000001,0.0
53.76923000000001,0.0
53.76923000000001,0.0
53.76923000000001,0.0
53.76923000000001,0.0
53.76923000000001,0.0
53.76923000000001,0.0
53.76923000000001,0.0
53.76923000000001,0.0
53.76923000000001,0.0
53.76923000000001,0.0
53.76923000000001,0.0
53.76923000000001,0.0
53.76923000000001,0.0
53.76923000000001,0.0
55.923073,0.0
56.384617000000006,0.0
57.23076999999999,0.0
57.53846,0.0
57.53846,0.0
57.53846,0.0
57.53846,0.0
57.53846,0.0
57.53846,0.0
57.53846,0.0
61.384617000000006,0.0
61.384617000000006,0.0
61.384617000000006,0.0
61.384617000000006,0.0
61.384617000000006,0.0
61.384617000000006,0.0
61.384617000000006,0.0
61.384617000000006,0.0
61.384617000000006,0.0
61.384617000000006,0.0
64.0,0.0
64.615387,0.0
64.692307,0.0
64.692307,0.0
64.846153,0.0
64.846153,0.0
64.846153,0.0
64.846153,0.0
64.769234,0.0
64.769234,0.0
67.307693,0.0
68.230766,0.0
68.384613,0.0
68.53846,0.0
68.53846,0.0
68.53846,0.0
68.53846,0.0
68.53846,0.0
68.53846,0.0
68.53846,0.0
70.92308,0.0
71.769234,0.0
72.07692,0.0
72.0,0.0
72.153847,0.0
72.0,0.0
72.07692,0.0
72.07692,0.0
72.153847,0.0
72.07692,0.0
74.230774,0.0
74.153847,0.0
75.0,0.0
75.0,0.0
75.076927,0.0
75.846153,0.0
75.846153,0.0
75.846153,0.0
75.846153,0.0
75.846153,0.0
77.0,0.0
77.615387,0.0
78.384613,0.0
78.53846,0.0
78.53846,0.0
78.846153,0.0
79.153847,0.0
79.153847,0.0
79.230766,0.0
79.230766,0.0
81.46154,0.0
82.0,0.0
82.230774,0.0
82.230774,0.0
82.307693,0.0
82.53846,0.0
82.615387,0.0
82.615379,0.0
82.846153,0.0
82.846153,0.0
85.538467,0.0
85.846153,0.0
86.07692,0.0
86.384613,0.0
86.615387,0.0
86.615387,0.0
86.615387,0.0
86.615387,0.0
86.615387,0.0
86.615387,0.0
87.230774,0.0
88.692307,0.0
88.846153,0.0
89.153847,0.0
89.230766,0.0
89.153847,0.0
89.230766,0.0
89.307693,0.0
89.461533,0.0
89.769234,0.0
92.538467,0.0
92.769226,0.0
93.07692,0.0
93.153847,0.0
93.0,0.0
93.153847,0.0
93.153847,0.0
93.153847,0.0
93.153847,0.0
93.153847,0.0
95.92308,0.0
96.384613,0.0
96.46154,0.0
96.46154,0.0
96.615387,0.0
96.692307,0.0
96.615387,0.0
96.615387,0.0
96.615387,0.0
96.615387,0.0
mean_timeI,stdev_timeI
0.0001699,7.248754682319192e-06
0.0002233,8.499019551297272e-06
0.00026809999999999996,3.240867510748044e-05
0.0003959,0.0001319406011136156
0.0002996,1.2509551905999226e-05
0.0003395,1.0233387622005828e-05
0.00038500000000000003,2.503774927761856e-05
0.0003999,2.7846603622943554e-05
0.00047939999999999994,2.4404917537250573e-05
0.0004907,7.052036742829848e-05
0.0005683,9.548362279586078e-05
0.0005380000000000001,2.7511613709284473e-05
0.0005309000000000001,6.369100756342646e-05
0.0006005,3.01671270683099e-05
0.0006811,2.2922332632900453e-05
0.0007501,0.0004335738947656122
0.0006358,1.4226735395022996e-05
0.0006655999999999999,4.405854690699133e-05
0.0007505000000000001,0.00020818061068857176
0.0007817,0.00021595989854085825
0.000841,0.00018930398833622074
0.0016701,0.0005592424340122984
0.0021874,0.0012682572644731385
0.0020978,0.001233887875331016
0.0021606,0.00048570091391490896
0.0022521,0.0005687314246050884
0.0024631,0.000290390713809286
0.0030171,0.001076036497728792
0.0032688,0.0015698794575097512
0.0030335,0.0001241497751373987
0.0037842,0.0020661743929838603
0.0044805999999999995,0.0025627316675766116
0.0048722,0.001876306407102351
0.004529,0.0016868650081009909
0.0042367,0.0002614799971104653
0.0048982999999999995,0.0013714402040677289
0.0044957,0.000264312966848856
0.0043266,0.0006678311829264106
0.0043075000000000006,0.0005790390986606845
0.0048343,0.0005975061227022422
0.0045403,8.636235033598589e-05
0.0063003,0.0015906822470597676
0.0059616,0.0010862188443300817
0.0079763,0.004996142401893685
0.0070054,0.0006509743466527692
0.0089623,0.004866696302421181
0.0073595,0.0031620287176290967
0.006525100000000001,0.0009760793968161038
0.0088179,0.0031219313982782447
0.0075873,0.0016435586086294579
0.0075994999999999995,0.0023003827338558738
0.0086044,0.0020942892827878388
0.0110039,0.0038961679877655285
0.0106127,0.0024634178176761736
0.0121823,0.0037954781004652252
0.013894400000000001,0.004647291426196554
0.012773999999999999,0.0029031730916361156
0.013933000000000001,0.0027198051400789728
0.0152645,0.005783949885482911
0.0147388,0.0025155058603257775
0.0136619,0.0037261232892467017
0.0159613,0.005538736038122777
0.016500300000000002,0.006108732948274407
0.018309,0.006022313029245675
0.021495999999999998,0.00863242346556799
0.0188136,0.0036449820362306927
0.0198643,0.00913969324856025
0.018068599999999997,0.002682377560631198
0.0183677,0.0024123953540919544
0.0201332,0.009912356259851752
0.0167389,0.00370083046085605
0.0240731,0.007303950110119257
0.0228994,0.008100289297988754
0.024153,0.007483776675805695
0.0243777,0.0081984833292506
0.026915100000000004,0.0064488908512325685
0.0255366,0.007198615904000805
0.0266764,0.007613902170810094
0.027792099999999997,0.010558281851492483
0.0257046,0.007116668293520501
0.025256800000000003,0.008754490248501686
0.0264573,0.004887045779973373
0.0298481,0.006490909925084122
0.028104800000000003,0.00591673980799862
0.0344131,0.017058601417531925
0.029789499999999997,0.005123670261096476
0.033438,0.005492439611765329
0.0324801,0.006538935904768195
0.030558099999999998,0.007943004321763621
0.0364327,0.00993369892000625
0.0329044,0.009223648184000852
0.0392854,0.00797016261091607
0.0339311,0.008787411367657965
0.0372697,0.014452408019657718
0.040924300000000004,0.012440247380980813
0.042583300000000004,0.01191614770012151
0.0425701,0.013412455939246257
0.0377962,0.00709429256985266
0.032821699999999995,0.007042250288240415
0.043723500000000005,0.020052996690713778
0.0370473,0.006330757406854606
0.0413915,0.01419012573157045
0.0474884,0.012351093880480564
0.0423157,0.01385292574031445
0.0425246,0.008515974808166904
0.0507228,0.009580279163179141
0.045301400000000006,0.007536446129752847
0.0458881,0.005394489831712025
0.0518651,0.013212845546411769
0.0533291,0.01519282738992318
0.0467702,0.017592369045191788
0.055355600000000005,0.01850410275347365
0.0564816,0.014443898074965773
0.0499219,0.016255196396161378
0.0583896,0.02573184916790863
0.058123999999999995,0.024329551121584175
0.0612239,0.012710469538053179
0.050544900000000004,0.012743569615474482
0.058988,0.008407093697850906
0.054110599999999995,0.017958170478457245
0.0563929,0.018739551307625033
0.047456200000000004,0.01906393987960866
0.060655,0.018293988362908242
0.0747177,0.028808725310417865
0.06480369999999999,0.021332871422343084
0.0687155,0.015293226999412372
0.0657891,0.013909093679635954
0.0738557,0.024194593868373894
0.07353420000000001,0.017133775576653007
0.07051009999999999,0.02942124614193703
0.0704272,0.02171187264967155
0.0721446,0.012870644723556004
0.0677864,0.01873739501756966
0.0797263,0.014133863323789273
0.07198550000000001,0.017501197103499965
0.0825466,0.03183061278496955
0.0804655,0.018636550683774317
0.0812326,0.03476195004503247
0.0897172,0.03226815187973016
0.0845593,0.03317320253206394
0.08486360000000001,0.027133401376655063
mean_timeC,stdev_timeC
0.0156433,0.0012286086123018273
0.0163856,0.0025204385949891953
0.0169436,0.0072017226365178304
0.018487899999999998,0.006482337291954706
0.0212594,0.00959837511943211
0.0185001,0.00316168609904413
0.0185654,0.005225116015724222
0.0175313,0.0016607794722826859
0.0172999,0.004121592530671717
0.0187238,0.00490487811152213
0.0177878,0.001477828647411841
0.017409,0.0011803926841898375
0.0194091,0.005976220980779669
0.0190211,0.003078221797293583
0.018621199999999997,0.0023745172047293225
0.02237,0.005564720777661115
0.0208279,0.0053674447148216314
0.018386800000000002,0.0024061053269639806
0.0180074,0.004368330680401077
0.0198042,0.003727575554044627
0.0200877,0.00341588814057031
0.026234800000000003,0.006033175813781661
0.024441499999999998,0.008840739225627886
0.023102,0.008928395662777894
0.0277057,0.007972775315618354
0.0275365,0.005128864597116555
0.0299013,0.012672476703032006
0.0283035,0.006910010536251816
0.030476399999999997,0.00933710372891104
0.029748200000000002,0.005727187399685042
0.028491500000000003,0.014920315592804627
0.031558600000000006,0.009911624793364833
0.0359006,0.01554203848491782
0.0286281,0.006247026607381574
0.0328234,0.007184112087717513
0.034246399999999996,0.006846297137058023
0.043343599999999996,0.011040413701991023
0.0298632,0.0039398851872724525
0.0303266,0.009679469948756951
0.03378,0.007377599940962432
0.034559,0.007436550290438586
0.0356549,0.010614409445549845
0.0325407,0.0065817213562343315
0.0358178,0.006348576599872167
0.0347661,0.009931020887994232
0.0361375,0.015933524882042475
0.0319503,0.009825270050571978
0.0338314,0.012281562063154308
0.0435683,0.014892892339412562
0.0331068,0.0110093480259076
0.033841500000000004,0.00762990054180117
0.0354797,0.011350561513765641
0.0446863,0.017771855227672023
0.0416871,0.013255190115154475
0.0441967,0.016582851919645453
0.0446485,0.01536093849310285
0.0430885,0.012066020749286909
0.0471412,0.014489789146537334
0.0417628,0.0055073741030650086
0.0435385,0.015440847646925202
0.0473771,0.013053064607805922
0.045868900000000004,0.011482547814932983
0.045536599999999997,0.012940630863893597
0.053491699999999996,0.01836770145935522
0.051036000000000005,0.013484382423134303
0.0474907,0.013159636824184945
0.0579764,0.019174555032936517
0.048489700000000004,0.006480405749471077
0.057661399999999995,0.01907781180207928
0.0505956,0.013684062523810521
0.0519759,0.019007314846015352
0.050629900000000005,0.010289779842693967
0.043329799999999995,0.0077044876071604455
0.050682000000000005,0.008835850370947767
0.056499299999999995,0.01858486923428722
0.0526643,0.01582107190532087
0.053675600000000004,0.013656776829756637
0.0550903,0.009148720372574273
0.049538,0.015675826138073584
0.0581434,0.020461775643596743
0.05258739999999999,0.015661912450272476
0.0551238,0.007090240331297351
0.05987250000000001,0.009794143468306855
0.05343559999999999,0.010960464965806271
0.05738420000000001,0.0132861812154166
0.0703527,0.01811125043876197
0.06203959999999999,0.014396684480964513
0.057505099999999996,0.015493663675838588
0.057621900000000004,0.018716711715291587
0.06129829999999999,0.008718289001990138
0.060629699999999995,0.013357243877803201
0.0642212,0.015453493390025297
0.0635465,0.0252541456453743
0.059229,0.010012801550459735
0.0695518,0.012410085233837482
0.06875590000000001,0.025287324006967073
0.0700682,0.020507361880283112
0.05544980000000001,0.018360967935027585
0.0571237,0.013880933334373931
0.064593,0.018964609654125057
0.0627366,0.012221318597707314
0.0677377,0.01507560230637569
0.0681718,0.013742805558626748
0.061708200000000005,0.021191250646329384
0.06811160000000001,0.015706485936990772
0.084673,0.030509037659173864
0.0857151,0.039631224343803576
0.07216120000000001,0.017166935051623707
0.0836573,0.039123083368177075
0.0735769,0.009192477352584437
0.0845489,0.03697944042437635
0.077128,0.014721736340829124
0.0799888,0.014735042501164057
0.0763914,0.02255937606603713
0.0763769,0.0451301640749658
0.072934,0.012339637568961795
0.0856375,0.02365274244024241
0.0797992,0.017568951671754478
0.084537,0.027126596551068558
0.0747479,0.02090500994950466
0.06625729999999999,0.022128636148413868
0.0551388,0.01797488605310816
0.07721750000000001,0.022060979842498184
0.0868926,0.027119938762631614
0.0870757,0.018293095807799545
0.0906687,0.015291541750988428
0.0927896,0.016506345972921378
0.0876181,0.03526384179754415
0.0919754,0.02614128492633826
0.1041176,0.023778381746638877
0.0848248,0.03003043229348078
0.0955444,0.03256846526660755
0.0842418,0.031085894220869877
0.10437650000000001,0.03012520315560821
0.098359,0.026490893961678398
0.0929627,0.02126429058330212
0.0972436,0.017886426934658833
0.0973377,0.03239906815549553
0.1164528,0.03716966449135639
0.1075699,0.038709208067475506
0.09450149999999999,0.023005021916722632
