mean_accFULL,stdev_accFULL, mean_timeFULL, stdev_timeFULL
96.615387,0.0,0.0875813,0.01488165256691011
mean_accI,stdev_accI
50.0,0.0
53.615387,0.0
53.615387,0.0
53.76923000000001,0.0
53.69230700000001,0.0
53.69230700000001,0.0
53.76923000000001,0.0
53.76923000000001,0.0
53.76923000000001,0.0
53.84615699999999,0.0
53.84615699999999,0.0
56.538464,0.0
57.23076999999999,0.0
57.615382999999994,0.0
57.615382999999994,0.0
57.615387,0.0
57.615387,0.0
57.615382999999994,0.0
57.615387,0.0
57.615382999999994,0.0
57.53846,0.0
59.69230700000001,0.0
60.076923,0.0
60.923080000000006,0.0
61.230766,0.0
61.230766,0.0
61.230766,0.0
61.230766,0.0
61.230766,0.0
61.230766,0.0
61.230766,0.0
64.692307,0.0
64.92308,0.0
65.0,0.0
64.846153,0.0
64.846153,0.0
65.0,0.0
64.846153,0.0
64.846153,0.0
64.846153,0.0
64.846153,0.0
67.384613,0.0
67.923073,0.0
68.153847,0.0
68.153847,0.0
68.307693,0.0
68.307693,0.0
68.307693,0.0
68.230774,0.0
68.230774,0.0
68.230774,0.0
70.769234,0.0
71.692307,0.0
71.846161,0.0
72.0,0.0
72.0,0.0
72.0,0.0
72.0,0.0
72.0,0.0
72.0,0.0
72.0,0.0
74.384613,0.0
75.230774,0.0
75.53846,0.0
75.46154,0.0
75.615379,0.0
75.46154,0.0
75.53846,0.0
75.53846,0.0
75.615387,0.0
75.53846,0.0
77.615387,0.0
77.53846,0.0
78.384613,0.0
78.384613,0.0
78.46154,0.0
79.307693,0.0
79.307693,0.0
79.307693,0.0
79.307693,0.0
79.307693,0.0
80.46154,0.0
81.076927,0.0
81.846153,0.0
82.0,0.0
82.0,0.0
82.307693,0.0
82.615387,0.0
82.615387,0.0
82.692307,0.0
82.692307,0.0
82.692307,0.0
82.769234,0.0
82.769234,0.0
82.769234,0.0
82.769234,0.0
82.769234,0.0
82.769234,0.0
82.769234,0.0
82.846153,0.0
82.846153,0.0
85.538467,0.0
85.846153,0.0
86.07692,0.0
86.384621,0.0
86.615387,0.0
86.615387,0.0
86.615387,0.0
86.615387,0.0
86.615387,0.0
86.615387,0.0
87.230774,0.0
88.692307,0.0
88.846153,0.0
89.153847,0.0
89.230766,0.0
89.153847,0.0
89.230766,0.0
89.307693,0.0
89.46154,0.0
89.769234,0.0
92.538467,0.0
92.769226,0.0
93.07692,0.0
93.153847,0.0
93.07692,0.0
93.153847,0.0
93.153847,0.0
93.153847,0.0
93.153847,0.0
93.153847,0.0
95.92308,0.0
96.384613,0.0
96.46154,0.0
96.46154,0.0
96.615387,0.0
96.692307,0.0
96.615387,0.0
96.615387,0.0
96.615387,0.0
96.615387,0.0
mean_timeI,stdev_timeI
0.000151,2.483724801359621e-05
0.0001916,2.5038636810603994e-05
0.0002566,7.638818989579184e-05
0.0002503,4.980417206977299e-05
0.0002657,2.0672311057171246e-05
0.0002675,3.0887789748629724e-05
0.0003509,0.00010251444342682209
0.0004098,0.00017333384615308755
0.0004443,0.00018809515913199067
0.0004189,9.846877677720993e-05
0.00041860000000000004,9.869616676109227e-05
0.0008987,0.00029480541605155994
0.0009629,0.00022910572523036896
0.0010189,0.00014613802455973676
0.0011524,5.6004364909254073e-05
0.0015783,0.0006305556720508947
0.0012322,0.0003118332175307107
0.0013603,0.0003034564036050136
0.0014646,0.0001270417254290889
0.0016819,0.0006512868373032304
0.001586,0.00022698653900372347
0.0032313000000000003,0.0017395525637997325
0.003114,0.001179869390135102
0.0043168,0.0036501465663114894
0.0032261,0.00010010821922077909
0.003255,0.0006232158534568902
0.0033406,0.0006739098521975241
0.0041645,0.0006971195099200071
0.004522,0.001485481590446531
0.0047107,0.001485115936364715
0.0048639,0.001286700556548501
0.0054518,0.0007148410545941897
0.006568300000000001,0.0025462923830542323
0.006393899999999999,0.0012360281774925503
0.006858100000000001,0.0015851576472599395
0.007589899999999999,0.003030195463075682
0.0066592,0.0014467149607914403
0.0060694,0.0007306426699222481
0.0064517,0.0007914456603793679
0.0073333999999999995,0.002238665783204114
0.0062601,0.0012229913645556854
0.0080465,0.0010397727582933149
0.0076403,0.0012635394774644405
0.0090054,0.002174768350371546
0.0099077,0.00236810393212235
0.009175800000000001,0.002234824218789677
0.0077514,0.001718143584738417
0.0087379,0.00144951328612975
0.0099837,0.002829120988340135
0.0105956,0.0035682716700261366
0.0098689,0.0025198355523944633
0.014154,0.004613913956718309
0.012392700000000001,0.0015053963708383693
0.0138498,0.003945175951575403
0.0164637,0.004797840696026124
0.015864700000000002,0.004045876832584556
0.0138844,0.005087587928806079
0.01562,0.006200525927514357
0.0189123,0.004318640116466705
0.019400800000000003,0.005012839199938938
0.0191768,0.004686695917405163
0.0191178,0.0040030717594256434
0.024097399999999998,0.00831109578548795
0.025707200000000003,0.007128993240438808
0.0197833,0.0020538210486797533
0.0200364,0.0033919740958130366
0.0197484,0.003666370569862729
0.022563,0.005440121158781504
0.0217873,0.0053817601220336
0.0241123,0.0071639175510175845
0.0244501,0.005995267178737278
0.0253165,0.006484260195101501
0.0222468,0.00412964894391763
0.0257193,0.010003041604654279
0.025539299999999997,0.002304646854123691
0.0298024,0.004938740374719944
0.028947,0.009019391935651145
0.0304599,0.007761484958863649
0.0298106,0.012143122682773524
0.0312639,0.004344020371601507
0.0329121,0.009374426838182933
0.0343686,0.004381354336529085
0.032041799999999995,0.008414753799791834
0.037617,0.005614217844009974
0.036854399999999995,0.009089993731815465
0.0408821,0.01181558355590898
0.0362555,0.0069151010477071125
0.0348529,0.005780669231729718
0.0384848,0.007984346808321614
0.0366302,0.0072278840426042625
0.0331548,0.007647873107385259
0.035784500000000004,0.006249263854424953
0.0375558,0.00893745495466504
0.0425317,0.012752887682142163
0.0387577,0.01458970403362895
0.037310300000000005,0.006150474056706704
0.0332019,0.00890560701593228
0.040091100000000005,0.00951176975529674
0.0368741,0.008682132334730782
0.0373376,0.008443629290773016
0.0452034,0.015566932154766755
0.0410304,0.011748035572904188
0.044319000000000004,0.011536391511695115
0.044239099999999996,0.00924713661927602
0.0457594,0.006814472412936064
0.0414215,0.012462718155897345
0.043700100000000006,0.010125985751191504
0.04783,0.012067564414118074
0.0475579,0.014783560632976377
0.0520763,0.01626200527507806
0.0492145,0.011411228770625694
0.049712,0.015060247164859769
0.0503587,0.014711080208468718
0.0522605,0.01471036271363377
0.05601160000000001,0.017093575480604143
0.05500819999999999,0.011512136617983261
0.0453988,0.01222972601491955
0.058269400000000006,0.018641673721947704
0.0572538,0.015286522668314364
0.0658262,0.026093183033973538
0.0572441,0.015268669078650352
0.05761429999999999,0.014748446095549638
0.0614834,0.012145633529059827
0.0706691,0.017610244319397977
0.0667261,0.01781686842698358
0.06859509999999999,0.024519196871249902
0.06681669999999999,0.022424704219776107
0.0714647,0.023033644923362767
0.07938680000000001,0.032441611015621416
0.0713898,0.02727935478546205
0.0690124,0.017845868169162046
0.075095,0.014933034796123063
0.07031760000000001,0.018051857381813467
0.06894320000000001,0.021962811264094183
0.0668627,0.014270909712107042
0.0730702,0.01849408421210535
0.0764437,0.020833176271674626
0.0702646,0.010467667682493131
0.0664436,0.015723532980147233
0.059883200000000004,0.023668236463431087
0.0785482,0.023722207311574806
mean_timeC,stdev_timeC
0.014457999999999999,0.005266330875371285
0.0181453,0.004369285831549336
0.019792999999999998,0.01553643744377856
0.019051099999999998,0.005032159674422989
0.019742199999999998,0.005742040148472203
0.0161585,0.004005768098075019
0.014774200000000001,0.0038411941083181123
0.0192993,0.008677145755117608
0.0190447,0.004598802502342926
0.0194035,0.009171505901431891
0.0202176,0.006432541716408323
0.023280699999999998,0.004846461000909151
0.0209019,0.00504334253028463
0.026738,0.010893865694865978
0.026485500000000002,0.011458467972542305
0.028432600000000002,0.010312814296355341
0.0210092,0.007059493604753499
0.0239316,0.00910081944051682
0.0253523,0.00630902165421338
0.0224336,0.00974211308586478
0.028769499999999996,0.01769778681235469
0.027403499999999997,0.012543437542750746
0.036015399999999996,0.010037085944967626
0.032257999999999995,0.009768660649694455
0.029634300000000002,0.006253743928417778
0.026582699999999997,0.007110612960763493
0.029047499999999997,0.005859938760582552
0.036965700000000004,0.008628922142680651
0.036658800000000005,0.01032021289401424
0.0321185,0.00847742762674307
0.0341593,0.010089853683004748
0.0399158,0.007702361727274159
0.0382463,0.008699959579088732
0.035355,0.007482936470545652
0.0401701,0.01092805294693941
0.0358366,0.00872908505069244
0.039126,0.010876956406397274
0.0348981,0.009532009540373832
0.0328686,0.006060992148338605
0.0381384,0.013651524043531224
0.036313899999999996,0.007951931847041951
0.0377185,0.009592218515836446
0.037601499999999996,0.009192422897268283
0.0370885,0.008013221841293163
0.040335699999999995,0.004439549227618097
0.038452,0.016324592266475348
0.0363286,0.014867920157917927
0.044903900000000004,0.008199422478985266
0.0422199,0.00751665889800042
0.0385201,0.009452650380243158
0.036352800000000005,0.010132473821004096
0.049262099999999996,0.010887318907283323
0.041954200000000004,0.00930093840904717
0.041075299999999995,0.012662226108039264
0.0485211,0.010682685393247855
0.051670499999999994,0.016916006149666523
0.0389986,0.010027031888295204
0.0472507,0.008560585909984328
0.0450561,0.00520820799742526
0.0502121,0.011225683304616945
0.0468875,0.009952798704663706
0.055805099999999996,0.017091950362995767
0.055525599999999994,0.0111026655678315
0.053898,0.01451913038412119
0.0523798,0.011147774384752023
0.0468127,0.007777172923227165
0.0529057,0.014720990705263162
0.0551203,0.00892356697552423
0.0523278,0.012440851067707903
0.0559782,0.01533333502753614
0.054756799999999994,0.006037563780201415
0.0550847,0.01515365155150548
0.0443988,0.012053469355795913
0.0501781,0.017067135432689864
0.056278499999999995,0.011533040306971195
0.0599499,0.013250552050973407
0.059559600000000004,0.008857254279841907
0.060685199999999995,0.00910270960636325
0.0559099,0.013027426073480517
0.0652964,0.016702374922281094
0.0554351,0.016537980095995868
0.0578143,0.014463336491126643
0.0684414,0.019979549223031922
0.0695027,0.01708655333588375
0.058457100000000005,0.015160179084620926
0.0711922,0.010243473388781107
0.0657576,0.012463451895665004
0.06280440000000001,0.00989613896875387
0.0628555,0.0073390861866826146
0.0567517,0.013053901247860307
0.0583808,0.02980969504782705
0.0625327,0.008329227856036703
0.0675461,0.01303038969699508
0.0686548,0.027026017755735553
0.068339,0.016403952098334243
0.0640816,0.00887842157142811
0.0645633,0.019174060127914713
0.0620457,0.017042589937826026
0.062927,0.014677864581289292
0.0674036,0.013752528779181749
0.0719899,0.01338313614176023
0.0683211,0.016644693358211466
0.0640502,0.010457459642655945
0.0771684,0.014359054226050777
0.06837410000000001,0.004996583487188463
0.0655783,0.01428538815285667
0.0657516,0.016339198383709716
0.07542689999999999,0.023706466222671536
0.080862,0.028719363800598214
0.0742361,0.020824035314190827
0.0665487,0.01683061684384873
0.0704176,0.023702067041598808
0.0692822,0.019703432954127
0.0687481,0.015553046600085928
0.073209,0.020999473480171938
0.0743558,0.01310332609853103
0.057079000000000005,0.01686234892692395
0.0744379,0.021085844680206144
0.0827878,0.030048425578278363
0.0741527,0.03131435540539763
0.0781811,0.01952213573499466
0.08458489999999999,0.03271854023655565
0.09527,0.041916784455765584
0.08719350000000001,0.02067929955427784
0.08837239999999999,0.01765004013341361
0.0877271,0.027672649017677284
0.1095919,0.04614574550619182
0.0909114,0.018543254132493095
0.08333549999999999,0.01783591721623658
0.07976799999999999,0.015299118856253709
0.0924219,0.015961635598800296
0.0998834,0.03443643020342781
0.0846669,0.017179392806822687
0.09504270000000001,0.023557116749862803
0.092099,0.016587812071919956
0.0843244,0.017089433123684612
0.1041259,0.029374196013394707
0.098156,0.025137708036599784
0.0881189,0.014472523879176476
0.08289339999999999,0.02420775412135541
0.1018486,0.02988852158047746
