mean_accFULL,stdev_accFULL, mean_timeFULL, stdev_timeFULL
96.615387,0.0,0.1019946,0.017485906446812145
mean_accI,stdev_accI
50.0,0.0
53.46154,0.0
53.615387,0.0
53.69230700000001,0.0
53.69230700000001,0.0
53.69230700000001,0.0
53.76923000000001,0.0
53.76923000000001,0.0
53.76923000000001,0.0
53.76923000000001,0.0
53.76923000000001,0.0
56.076919999999994,0.0
56.538464,0.0
57.538456,0.0
57.53846,0.0
57.53846,0.0
57.53846,0.0
57.53846,0.0
57.53846,0.0
57.53846,0.0
57.53846,0.0
59.69230700000001,0.0
60.153847,0.0
61.0,0.0
61.30769299999999,0.0
61.30769299999999,0.0
61.30769299999999,0.0
61.30769299999999,0.0
61.30769299999999,0.0
61.30769299999999,0.0
61.30769299999999,0.0
65.07692,0.0
65.153847,0.0
65.153847,0.0
65.153847,0.0
65.153847,0.0
65.153847,0.0
65.153847,0.0
65.153847,0.0
65.153847,0.0
65.153847,0.0
67.846153,0.0
68.384613,0.0
68.46154,0.0
68.46154,0.0
68.615379,0.0
68.615379,0.0
68.615379,0.0
68.615379,0.0
68.53846,0.0
68.53846,0.0
71.076927,0.0
72.0,0.0
72.153847,0.0
72.307693,0.0
72.307693,0.0
72.307693,0.0
72.307693,0.0
72.307693,0.0
72.307693,0.0
72.307693,0.0
74.692307,0.0
75.53846,0.0
75.846153,0.0
75.769226,0.0
75.92308,0.0
75.692307,0.0
75.769226,0.0
75.769226,0.0
75.846153,0.0
75.769226,0.0
77.92308,0.0
77.846153,0.0
78.692307,0.0
78.692307,0.0
78.769234,0.0
79.53846,0.0
79.53846,0.0
79.53846,0.0
79.53846,0.0
79.53846,0.0
80.615387,0.0
81.307693,0.0
82.076927,0.0
82.230774,0.0
82.230774,0.0
82.53846,0.0
82.846153,0.0
82.846153,0.0
82.92308,0.0
82.92308,0.0
85.153847,0.0
85.692307,0.0
85.923073,0.0
85.923073,0.0
86.0,0.0
86.230766,0.0
86.307693,0.0
86.307693,0.0
86.538467,0.0
86.538467,0.0
86.538467,0.0
86.538467,0.0
86.538467,0.0
86.538467,0.0
86.538467,0.0
86.538467,0.0
86.538467,0.0
86.615387,0.0
86.615387,0.0
86.615387,0.0
87.230774,0.0
88.692307,0.0
88.846153,0.0
89.153847,0.0
89.230766,0.0
89.153847,0.0
89.230766,0.0
89.307693,0.0
89.461533,0.0
89.769234,0.0
92.538467,0.0
92.769226,0.0
93.07692,0.0
93.153847,0.0
93.0,0.0
93.153847,0.0
93.153847,0.0
93.153847,0.0
93.153847,0.0
93.153847,0.0
95.92308,0.0
96.384613,0.0
96.46154,0.0
96.46154,0.0
96.615387,0.0
96.692307,0.0
96.615387,0.0
96.615387,0.0
96.615387,0.0
96.615387,0.0
mean_timeI,stdev_timeI
0.0001785,2.9447693741049854e-05
0.0001502,2.4155974646267354e-05
0.0001907,2.0683058015895258e-05
0.0002144,1.873321470899572e-05
0.00025309999999999997,6.378165880564726e-05
0.0002619,2.3983559183555536e-05
0.00027790000000000003,4.818125499956735e-05
0.0003029,1.1110055505411913e-05
0.0003061,5.555067756362453e-05
0.0003014,4.740885993145163e-05
0.0003501,2.1809529008109173e-05
0.0008493000000000001,0.0003823823130498236
0.0009352,0.00046770831365998476
0.0009565999999999999,0.0001249188180824295
0.0010995,0.00015939068005654813
0.0013161,0.00010644085472954245
0.0014829,0.0001375794316022566
0.0015726,0.00013830337024896473
0.0014655,0.00011933635936573003
0.0015117,0.00010310302291074367
0.0015784,3.618839593018733e-05
0.0023022999999999997,0.00030065375064645006
0.0027578,0.0009292150570358954
0.0031177,0.0007361577503044665
0.0040896000000000005,0.0023017465445951154
0.0034173000000000003,9.747028037076511e-05
0.0035821,0.0005277599306923978
0.0040871,0.0027231627221139597
0.0043161,0.000908648257333692
0.0042067,0.0006903096004289992
0.0074255,0.004428671640571245
0.0063909,0.0028860476414794144
0.0059765,0.001516670274720983
0.007031999999999999,0.002115703875519655
0.0078075,0.003927477257873189
0.0071756,0.0017233417278970271
0.0062658,0.001196264630701195
0.007931299999999999,0.003857654412550023
0.0067082,0.002474652469427666
0.0067133,0.0007558755115023169
0.0062763,0.0007711738599189045
0.0086427,0.0021729959375121817
0.0084251,0.0035789235020231057
0.0100966,0.0030631284371084124
0.0100892,0.0018805437629697546
0.009017500000000001,0.002296048404929168
0.009943,0.0030725556861421473
0.0094329,0.0013639050512733242
0.009112,0.0007806861654268566
0.0090154,0.0013889290998623524
0.0105959,0.0023548242892694423
0.015639800000000002,0.005908191560123208
0.0142511,0.004872393353259657
0.0182188,0.006344357489577298
0.014946899999999999,0.005247279982153717
0.015975700000000002,0.00609617253419444
0.016475200000000002,0.007024721011462938
0.016378,0.003331593445918768
0.013893800000000001,0.0034984876033953742
0.0195093,0.006478237381160609
0.0160334,0.0023121558578761752
0.018876399999999998,0.004449277249671506
0.0199626,0.004514075325517336
0.0210948,0.007513792588744161
0.020550199999999998,0.006195914815424757
0.024010499999999997,0.004951209465036464
0.0205765,0.007487394670006681
0.0247215,0.006190870576905965
0.0270227,0.0104587432647416
0.027035000000000003,0.006062069631917984
0.0255641,0.004713118393260336
0.02604,0.008104321206752741
0.0241926,0.008445794380110797
0.029452,0.00792404680562765
0.0277262,0.006770002737567146
0.0349331,0.007426349940134341
0.0318223,0.014392480845913953
0.035162900000000004,0.014690872135445192
0.035041100000000006,0.009724690071610967
0.0333515,0.007521865567205459
0.0322366,0.007653955407354931
0.0396334,0.008585859164929273
0.036669600000000004,0.007096477282583395
0.0412521,0.012110530995331662
0.0366769,0.010701783189419105
0.035528899999999995,0.008009881916871324
0.0340825,0.003595256326822269
0.036331999999999996,0.008639390153374381
0.0364935,0.012267486125255384
0.0456473,0.014630941437393715
0.0413279,0.015413294257808024
0.0516142,0.01890553780597985
0.0445822,0.015709775355915608
0.042727100000000004,0.01639805913617015
0.0606636,0.026411785854887668
0.049119499999999996,0.01599953321714939
0.0485665,0.010613878663230413
0.05017239999999999,0.015271103643446629
0.0485448,0.01379607727500023
0.0426443,0.014816519977151629
0.0582549,0.022702914616850412
0.0486532,0.014771023456604337
0.0539378,0.010059424567152048
0.050646199999999995,0.014266816749989386
0.0520597,0.01775412877207878
0.0440764,0.008048893632736807
0.0429715,0.01457393070786937
0.0483303,0.015144663196797888
0.0474997,0.011999662347564432
0.0489198,0.010746679619512457
0.061247499999999996,0.019366395599078316
0.0499224,0.008695933343299678
0.0568148,0.014570954325491365
0.056602299999999994,0.01298556525146287
0.0560066,0.016187214372941242
0.0652107,0.025467046092505073
0.0580878,0.016756237205556888
0.0573762,0.016548797981189516
0.0540511,0.017146637548251586
0.05303719999999999,0.01799093269646932
0.0624919,0.016141316774387123
0.0634938,0.013596232507573561
0.0608856,0.012550843019052101
0.0644678,0.026506009825027314
0.0618514,0.008944411131476957
0.0642218,0.007232284160469484
0.0679159,0.011747632966781956
0.0664056,0.016576012006645158
0.0671706,0.01499250226835623
0.06340090000000001,0.014081956867250769
0.0621629,0.014190116336928163
0.0670466,0.018714050308079575
0.0776294,0.02303121963384098
0.06522520000000001,0.02070395991001614
0.073,0.013538524119464919
0.0789548,0.01578173232851479
0.0727676,0.020124065102922584
0.0708831,0.017359719182636565
0.0740181,0.01261735644481662
0.0836746,0.027148601487205767
0.07739270000000001,0.020460935256401813
mean_timeC,stdev_timeC
0.0146649,0.002732935477142156
0.014943900000000001,0.0036828757920950857
0.0166162,0.0028977776082140367
0.0186549,0.005581326494063336
0.0172982,0.006408550742736006
0.0167097,0.00418214591514399
0.0190829,0.00811395966426586
0.0178122,0.0026102005372086725
0.0147928,0.004829103592915678
0.017274699999999997,0.0048066655582522985
0.016880700000000002,0.0036750437956574074
0.0213226,0.005439616963639178
0.0202174,0.008443317715474437
0.019023699999999998,0.003883141055325644
0.0199609,0.004546800351162709
0.0213974,0.0033591353450950242
0.0225264,0.005741846145235481
0.0203961,0.0020045351054269146
0.021999499999999998,0.001999907345075989
0.025237100000000002,0.012334847145384496
0.024868,0.005926570415416397
0.0244898,0.008382868413881042
0.026436300000000003,0.003726238587518398
0.0301738,0.0075344384705608065
0.031071500000000002,0.007921388756609115
0.0290568,0.005266802842121374
0.028925299999999998,0.007682947756774957
0.026016,0.005719266347666942
0.030271799999999998,0.012805265685993746
0.029224299999999998,0.008864297779419541
0.0340548,0.011180956049362584
0.031881900000000005,0.01353581549035332
0.036939700000000006,0.007968191807290897
0.038046199999999995,0.008826890465440754
0.0304423,0.008831909571422127
0.0336636,0.006649538750920999
0.0342873,0.009363767404795525
0.034379900000000005,0.0043884493705382745
0.0314216,0.011187500566852873
0.0340862,0.0131738727774165
0.0318206,0.006578777346724678
0.0306062,0.006278804765947806
0.033285999999999996,0.0067835986680292995
0.0467377,0.017887190985295717
0.0370929,0.0077238175714977745
0.0389129,0.01268416747541771
0.0379969,0.00853512061296018
0.038187700000000005,0.006974643552023127
0.0393164,0.010327489123693136
0.0419518,0.01138944078034075
0.0406704,0.009361469200932084
0.0474862,0.013036283935402928
0.0490708,0.014884621144732647
0.0398219,0.011167550536661516
0.048227,0.017438014903588588
0.044567499999999996,0.009089699863642975
0.041980100000000006,0.011062764236141186
0.0433023,0.00910571941205697
0.0411257,0.015189941065279572
0.050797499999999995,0.01403653249559876
0.041237499999999996,0.013907673471464913
0.0547068,0.015689459885895086
0.0491837,0.013872207675380615
0.0486947,0.015533836265463282
0.045644699999999996,0.013398955672821006
0.05129589999999999,0.012926740497038602
0.0482491,0.013809993719927771
0.0556953,0.013520984029360519
0.0604464,0.025665578748372088
0.0600953,0.012829678839402888
0.0494054,0.012098513528529031
0.0566938,0.0162403048671439
0.06225460000000001,0.018948087914087797
0.0598915,0.01247580033727518
0.0606579,0.011499261275307114
0.05884969999999999,0.014236638125703067
0.053729000000000006,0.019969950297606873
0.0697831,0.022707564018528175
0.0660174,0.015466190094669225
0.0614544,0.009965098306924356
0.0647189,0.027106999430036516
0.07320489999999999,0.01774740120224179
0.0625362,0.009919973664839595
0.0648128,0.013003999297651985
0.059815799999999995,0.012144319420114813
0.06599239999999999,0.011287859182915659
0.06302250000000001,0.00890827807591219
0.0659218,0.00687699879307827
0.07453370000000001,0.039005931446526323
0.0759677,0.017252314241219285
0.07545110000000001,0.025589253914051063
0.0772359,0.01922004900242337
0.0732123,0.020350181184287604
0.0633389,0.022182106254316287
0.0831818,0.03884331298320357
0.0762992,0.013688592548379676
0.075372,0.020922033898367633
0.0747098,0.020124942809028466
0.0650596,0.02119822904133477
0.0810411,0.01665803403399626
0.0836187,0.033658076452102184
0.0726263,0.020438074371405716
0.0774728,0.017581688010224982
0.07978779999999999,0.018042198466681134
0.076071,0.0100847452785548
0.0652413,0.016972391379007915
0.0699552,0.018341768876286472
0.0799651,0.02191598729213194
0.0732737,0.016421104124807743
0.0772694,0.02173798336348409
0.0811243,0.028713182005831395
0.0918436,0.03601082780127851
0.0802008,0.018316184080994845
0.0782872,0.011680822077234119
0.07061110000000001,0.011198300639432357
0.074539,0.006326329443067457
0.08359140000000001,0.026437475262714984
0.0805755,0.025103027047438806
0.0786956,0.02349930125296873
0.083171,0.025223816408747952
0.0779928,0.013772428195492617
0.0891605,0.01567682821697184
0.09166179999999999,0.023882502133942704
0.0889948,0.02085693583439332
0.08220540000000001,0.022342944490126828
0.08866009999999999,0.011456949423821337
0.09645390000000001,0.014419517617528759
0.0825616,0.016351856579605875
0.08953370000000001,0.01881298299963205
0.088503,0.02196066269997839
0.0884208,0.020680390501363576
0.0859724,0.022511900078748474
0.0967285,0.020423132691740623
0.0955121,0.026712597637527587
0.0964987,0.017307527303010228
0.091705,0.015121872165105014
0.087692,0.0262891677946133
0.10849489999999999,0.022495637880610445
0.0951062,0.01746942972929187
0.1008106,0.018023638424148565
0.099458,0.019255308964888966
