Full Time (seconds)
0.211998
Time - I
0.002241
0.003387
0.004547
0.006047
0.006423
0.007150
0.007859
0.008977
0.009999
0.011503
0.012521
0.013657
0.015201
0.016152
0.017236
0.018649
0.019924
0.020789
0.022202
0.023294
0.024397
0.026007
0.026902
0.027980
0.029430
0.030463
0.031598
0.033589
0.033988
0.035086
0.036451
0.037826
0.039023
0.040116
0.041109
0.042604
0.043665
0.045742
0.045734
0.047135
0.048243
0.049282
0.050866
0.051731
0.052824
0.054357
0.055345
0.056908
0.057846
0.058868
0.059938
0.061389
0.062410
0.063498
0.064933
0.066461
0.067075
0.068617
0.069612
0.073150
0.072051
0.073062
0.074416
0.075672
0.078424
0.077806
0.080267
0.081080
0.082110
0.082652
0.083769
0.084842
0.088289
0.087815
0.088326
0.090466
0.091892
0.091950
0.099994
0.094962
0.096507
0.096883
0.098339
0.099368
0.100486
0.102235
0.104325
0.104713
0.106277
0.106097
0.107765
0.109259
0.110431
0.113076
0.113817
0.114530
0.114581
0.125073
0.116784
0.118251
0.119864
0.120292
0.122131
0.122763
0.125527
0.125690
0.126351
0.127856
0.128780
0.129866
0.131372
0.133978
0.133891
0.137013
0.137213
0.136962
0.138573
0.141239
0.143176
0.141549
0.142892
0.144065
0.145863
0.146589
0.148017
0.148702
0.151940
0.141242
0.140722
0.164320
0.155296
0.156181
0.157115
0.158538
0.159282
0.161200
0.161851
0.163282
0.164302
0.166262
0.166375
0.164103
0.156455
0.157271
0.174362
0.160253
0.173388
0.178343
0.175901
0.166626
0.178388
0.179921
0.183182
0.185432
0.182990
0.184562
0.185517
0.187681
0.187674
0.189590
0.190292
0.191649
0.193350
0.194073
0.194716
0.182589
0.182130
0.184029
0.184429
0.185449
0.186292
0.174203
0.177074
0.179262
0.198699
0.207839
0.209014
0.209908
0.195034
0.212082
0.213829
0.204006
0.199646
0.200632
0.201973
0.206859
0.220915
0.225771
0.223213
0.208301
0.208078
0.194044
0.227359
0.226785
0.212422
0.214373
0.214777
0.216007
0.217505
0.218601
0.220144
0.220233
0.221405
0.218071
0.197210
0.239476
0.238304
0.215929
0.211865
0.212887
0.213694
