Full Time (seconds)
0.002595
Time - I
0.000355
0.000405
0.000456
0.000508
0.000558
0.000614
0.000739
0.000738
0.000814
0.000917
0.000951
0.000951
0.000975
0.000999
0.001056
0.001089
0.001092
0.001163
0.001172
0.001199
0.001243
0.001465
0.001502
0.001620
0.001758
0.001130
0.002022
0.002124
0.002269
0.002424
0.002576
