Full Time (seconds)
0.822449
Time - I
0.248074
0.295253
0.312216
0.311682
0.328303
0.408906
0.392501
0.525623
0.495444
0.535927
0.329749
0.333415
0.331117
0.312800
0.299987
0.742795
0.673510
0.829225
0.661252
0.432859
0.459133
