Full Time (seconds)
0.770069
Time - I
0.167696
0.170794
0.166042
0.183338
0.169864
0.180330
0.260121
0.204147
0.290070
0.307240
0.312277
0.241461
0.266244
0.296943
0.282923
0.297285
0.300654
0.308985
0.288395
0.292750
0.806673
