Full Time (seconds)
0.806527
Incremental Time - I
0.033551
0.001882
0.005147
0.009866
0.010612
0.013370
0.016479
0.018777
0.024230
0.020909
0.022164
0.031178
0.034264
0.036096
0.024274
0.041912
0.044942
0.029319
0.041418
0.055882
0.061104
Classification Time - I
0.054736
0.104181
0.141997
0.188048
0.222719
0.272709
0.313533
0.335108
0.325382
0.410024
0.459590
0.508499
0.543827
0.337259
0.362396
0.371692
0.652701
0.720117
0.445143
0.856979
