Full Time (seconds)
0.002772
Time - I
0.000442
0.000501
0.000602
0.000624
0.000670
0.000736
0.000799
0.000876
0.000953
0.001040
0.001093
0.001134
0.001109
0.001226
0.001178
0.001196
0.001237
0.001348
0.001327
0.001379
0.001398
0.001605
0.001679
0.001800
0.001984
0.002068
0.002285
0.002364
0.002486
0.002632
0.002772
