Full Accuracy
94.000000
Accuracy - I
50.000000
72.230766
78.153847
80.230766
83.538460
86.384613
88.307693
89.692307
89.461540
89.615387
90.615387
91.692307
92.615387
92.923073
93.307693
93.923080
94.230774
94.076927
94.230774
94.461533
94.769226
