Full Accuracy
94.000000
Accuracy - I
50.000000
71.000000
77.000000
83.230766
85.000000
89.000000
89.846153
90.384613
90.384613
91.000000
91.230766
92.307693
93.307693
93.538460
93.384621
94.076927
94.307693
94.307693
94.461533
94.923080
94.846153
