Full Time (seconds)
0.151096
Incremental Time - I
0.005886
0.000320
0.000568
0.000809
0.001299
0.001438
0.001735
0.001959
0.002313
0.002490
0.002680
0.004255
0.004697
0.005367
0.005919
0.006386
0.006976
0.008550
0.008089
0.008674
0.009386
Classification Time - I
0.010084
0.015257
0.020396
0.025473
0.032662
0.035418
0.040487
0.047069
0.049987
0.059137
0.062512
0.072290
0.077943
0.084947
0.092279
0.100576
0.108846
0.120122
0.127316
0.125745
