Full Time (seconds)
0.150518
Incremental Time - I
0.005872
0.000322
0.000769
0.000816
0.001297
0.001515
0.001651
0.001857
0.002146
0.002412
0.002497
0.003868
0.004337
0.004793
0.005859
0.006296
0.006950
0.007648
0.007666
0.008180
0.009360
Classification Time - I
0.010562
0.015393
0.020171
0.027247
0.030300
0.035255
0.040074
0.045022
0.048645
0.050882
0.059921
0.063991
0.073764
0.089270
0.092361
0.099827
0.103403
0.111607
0.116645
0.140897
