Full Time (seconds)
0.210558
Incremental Time - I
0.000544
0.015479
0.042690
0.080677
0.099276
0.129985
0.170047
0.198228
0.215459
0.227838
0.264837
0.291640
0.311061
0.313654
0.277719
0.346847
0.317126
0.361859
0.380653
0.397558
0.400538
Classification Time - C
0.020357
0.073997
0.100623
0.115918
0.133692
0.144346
0.159054
0.166864
0.157367
0.155156
0.166723
0.177454
0.185243
0.185907
0.162398
0.179706
0.171171
0.164098
0.205075
0.207708
0.213644
