Full Time (seconds)
0.002934
Time - I
0.000820
0.000896
0.000939
0.001010
0.001070
0.001117
0.001193
0.001262
0.001327
0.001387
0.000763
0.001492
0.001559
0.001630
0.001717
0.001957
0.001824
0.001888
0.001973
0.002014
0.002101
0.002200
0.002223
0.002283
0.002357
0.002422
0.002509
0.002554
0.002634
0.002686
0.002773
