Full Time (seconds)
0.005877
Incremental Time - I
0.001301
0.000063
0.000072
0.000073
0.000077
0.000089
0.000095
0.000095
0.000102
0.000103
0.000112
0.000075
0.000068
0.000076
0.000071
0.000076
0.000086
0.000087
0.000092
0.000097
0.000097
0.000220
0.000251
0.000266
0.001866
0.001619
0.001763
0.001752
0.001750
0.001789
0.001855
Classification Time - I
0.000723
0.000817
0.000883
0.001313
0.001085
0.001190
0.001296
0.001425
0.001526
0.001652
0.001696
0.001774
0.001810
0.001912
0.001875
0.001946
0.002037
0.002084
0.002148
0.002228
0.002483
0.002682
0.003002
0.003151
0.003406
0.003656
0.003937
0.004253
0.004491
0.004731
