Full Accuracy
87.036766
Accuracy - I
50.000000
74.734985
83.563904
84.932266
86.993217
87.619438
87.978043
88.151840
88.703636
88.383522
88.253822
88.441399
88.455177
88.504822
88.297844
88.165375
87.814934
87.699013
87.533447
86.965027
87.036766
