Full Time (seconds)
0.014304
Incremental Time - I
0.002078
0.000679
0.001095
0.001621
0.002271
0.002966
0.003681
0.004475
0.005398
0.006323
0.007091
0.008391
0.009587
0.010768
0.011734
0.013192
0.014250
0.015517
0.025231
0.018380
0.019365
Classification Time - C
0.002637
0.003501
0.004581
0.005420
0.006296
0.006827
0.007686
0.008302
0.008824
0.009486
0.010287
0.010906
0.011645
0.011945
0.012923
0.012935
0.013547
0.014252
0.014007
0.014351
