Full Time (seconds)
0.354416
Incremental Time - I
0.033492
0.003570
0.006601
0.009221
0.013036
0.014696
0.016618
0.019039
0.023885
0.018177
0.020543
0.021141
0.019092
0.020916
0.022092
0.044398
0.045590
0.035120
0.030016
0.028200
0.025751
Classification Time - I
0.065529
0.106016
0.142491
0.180302
0.222175
0.240483
0.259198
0.312403
0.265782
0.277610
0.290293
0.257617
0.546505
0.562130
0.618538
0.578557
0.482600
0.418044
0.394297
0.336528
