Full Accuracy
84.798309
Accuracy - I
50.000000
84.568428
84.965309
83.537712
82.258842
84.943054
85.418602
85.418602
85.148926
84.612999
85.687134
85.687134
86.256615
83.452782
83.959732
83.928467
85.273994
85.273994
85.305252
85.305252
84.798309
