Full Time (seconds)
0.002575
Time - I
0.000699
0.000777
0.000857
0.000920
0.000998
0.001081
0.001146
0.001234
0.001300
0.001421
0.001491
0.001579
0.001656
0.001824
0.002163
0.001999
0.002125
0.002219
0.002334
0.002422
0.002575
