Full Accuracy
85.581192
Accuracy - I
50.000000
68.311409
73.113190
75.039101
79.135231
83.196777
83.130692
86.234894
87.010941
88.265656
89.423584
87.427071
88.231537
89.038857
87.486755
85.665550
86.441597
86.948547
85.458977
83.462463
85.581192
