Full Time (seconds)
0.002987
Time - I
0.000545
0.000640
0.000769
0.000918
0.001007
0.001320
0.001286
0.001339
0.001501
0.001554
0.001736
0.002278
0.001928
0.002042
0.002092
0.002861
0.002410
0.002528
0.002673
0.002845
0.002963
