Full Accuracy
76.822220
Accuracy - I
50.000000
66.066666
71.155556
74.622223
75.822220
75.288887
75.866661
75.733337
75.133339
76.155556
76.222221
76.155556
75.044449
75.288895
76.133331
76.422218
75.933334
76.088890
76.000000
76.377777
76.822220
