Full Accuracy
76.822220
Accuracy - I
50.000000
63.666664
66.555557
69.400002
72.555557
73.933334
73.844444
72.199997
72.599998
74.644447
75.288887
75.000000
75.800003
76.911110
78.066666
76.400002
77.022224
76.933327
76.688889
76.555557
76.822220
