Full Time (seconds)
0.017276
Time - I
0.004451
0.005086
0.005630
0.006293
0.006811
0.007389
0.007940
0.008578
0.009147
0.009826
0.010358
0.011128
0.011847
0.012432
0.013073
0.013742
0.014490
0.015260
0.016155
0.016141
0.017294
