Full Accuracy
96.615387
Accuracy - I
cat: testS_0.svm.acc: No such file or directory
72.999992
79.076920
85.923073
89.384613
91.846153
92.307693
93.615379
93.692307
93.461540
93.384621
94.307693
95.230774
95.615387
95.769234
95.923080
95.461533
95.769234
96.153847
96.461540
96.769234
