Full Accuracy
96.615387
Accuracy - I
cat: testS_0.svm.acc: No such file or directory
72.615387
79.153847
84.384613
87.461540
90.153847
90.692307
91.384613
91.923073
92.076920
92.769226
93.461540
94.692307
94.846153
95.307693
95.846153
95.384613
95.923080
95.692307
96.384613
96.769234
