Full Time (seconds)
0.076812
Incremental Time - I
0.014724
0.002073
0.003283
0.004921
0.006985
0.009385
0.012348
0.016536
0.022316
0.019802
0.021223
0.025255
0.041223
0.036053
0.044855
0.041395
0.028734
0.057038
0.061025
0.085373
0.071434
Classification Time - C
0.020504
0.026334
0.029971
0.035589
0.055279
0.050425
0.051218
0.046138
0.045796
0.048882
0.065589
0.054131
0.068894
0.098529
0.067256
0.038791
0.111076
0.111695
0.097866
0.085788
