Full Accuracy
96.6154
Accuracy - I
cat: testS_0.svm.acc: No such file or directory
73
79.0769
85.9231
89.3846
91.8462
92.3077
93.6154
93.6923
93.4615
93.3846
94.3077
95.2308
95.6154
95.7692
95.9231
95.4615
95.7692
96.1538
96.4615
96.7692
