Full Time (seconds)
0.131103
Incremental Time - I
cat: testS_0.svm.time: No such file or directory
0.003591
0.005994
0.009227
0.012714
0.016818
0.020797
0.025090
0.013741
0.015554
0.038316
0.043668
0.052566
0.062824
0.065592
0.067343
0.080300
0.087440
0.108289
0.122917
0.114348
Classification Time - C
0.032497
0.037325
0.042840
0.048338
0.053596
0.058409
0.063927
0.032011
0.033502
0.076096
0.071509
0.087846
0.093739
0.100664
0.105719
0.124916
0.136384
0.137143
0.128287
0.131237
