Full Accuracy
73.846413
Accuracy - I
50.000000
76.629173
75.594315
74.147324
73.384750
72.579460
73.904160
73.683296
72.586266
72.536263
71.054787
70.940720
70.613060
71.788254
73.333809
73.461952
73.483315
73.177025
73.177025
73.476044
73.846413
