Full Time (seconds)
0.120980
Time - I
0.004306
0.004611
0.004905
0.005230
0.005599
0.005505
0.006339
0.006814
0.007286
0.007738
0.008218
0.009065
0.009685
0.010516
0.011235
0.011140
0.012746
0.014698
0.014324
0.015200
0.014816
0.016898
0.020349
0.020370
0.018440
0.019627
0.020209
0.020993
0.022639
0.024228
0.023411
0.025160
0.024867
0.025652
0.026411
0.027120
0.027944
0.028688
0.026974
0.030258
0.031300
0.027207
0.032644
0.033328
0.034694
0.031639
0.030829
0.031162
0.037592
0.037853
0.038554
0.039365
0.040064
0.043391
0.048311
0.042325
0.043068
0.043828
0.045135
0.046754
0.046224
0.051465
0.047619
0.051243
0.049201
0.050420
0.052474
0.051702
0.052487
0.054429
0.054060
0.054632
0.056046
0.056305
0.056621
0.057525
0.058142
0.050532
0.054288
0.056595
0.065749
0.070310
0.063027
0.070633
0.071426
0.065078
0.067405
0.066474
0.069437
0.059875
0.060391
0.068607
0.077980
0.078331
0.072185
0.074085
0.060066
0.060829
0.062127
0.075859
0.076410
0.077062
0.078114
0.079325
0.087934
0.079916
0.080583
0.081797
0.083835
0.082942
0.085339
0.084506
0.085367
0.086070
0.069379
0.087484
0.066162
0.062843
0.063770
0.062787
0.062914
0.062901
0.095561
0.093413
0.094181
0.098914
0.098880
0.103845
0.097679
0.104035
0.098970
0.100631
0.100334
0.101607
0.112693
0.111846
0.108853
0.104521
0.108427
0.105404
0.106970
