Full Time (seconds)
0.106549
Time - I
0.004282
0.005132
0.005931
0.006737
0.007569
0.009581
0.009129
0.009910
0.010643
0.011401
0.012135
0.014292
0.013626
0.014375
0.015404
0.015989
0.016775
0.017496
0.018262
0.019041
0.022324
0.021032
0.024525
0.024350
0.022690
0.023676
0.024192
0.024965
0.026273
0.026888
0.029493
0.031067
0.024953
0.025683
0.026202
0.027514
0.031941
0.032885
0.037990
0.034155
0.035126
0.036586
0.039549
0.037196
0.038501
0.039212
0.039564
0.040164
0.041481
0.046341
0.043246
0.043260
0.047053
0.044783
0.045647
0.046250
0.047298
0.048099
0.048877
0.049251
0.049996
0.051928
0.051521
0.043288
0.042492
0.042954
0.054523
0.055348
0.056473
0.056785
0.058644
0.060768
0.063929
0.060633
0.058843
0.056561
0.057285
0.062691
0.063558
0.068006
0.065706
0.066070
0.066591
0.067377
0.073399
0.068799
0.069689
0.070572
0.075111
0.074302
0.077157
0.073423
0.074589
0.074811
0.075635
0.079549
0.077412
0.077847
0.079115
0.079741
0.071220
0.069139
0.086211
0.082028
0.081681
0.083012
0.087413
0.082456
0.093726
0.091991
0.084018
0.084618
0.085844
0.076912
0.074686
0.078268
0.088828
0.089068
0.098767
0.093678
0.091450
0.092467
0.092874
0.094116
0.094568
0.095163
0.098481
0.097309
0.101674
0.098752
0.103515
0.100285
0.109941
0.101469
0.103692
0.106201
0.103748
0.105417
0.079740
0.081906
0.106873
