Full Time (seconds)
0.109723
Time - I
0.004184
0.005010
0.005892
0.007401
0.007582
0.008461
0.008955
0.009885
0.010527
0.011296
0.012066
0.013060
0.013547
0.014358
0.015089
0.018432
0.018550
0.017352
0.018318
0.019312
0.019559
0.020260
0.021145
0.022115
0.022634
0.023516
0.025520
0.027543
0.025621
0.027977
0.028978
0.030178
0.031070
0.033541
0.031373
0.046967
0.032335
0.035340
0.036062
0.036307
0.034927
0.036015
0.037465
0.037639
0.037834
0.040653
0.041510
0.042926
0.040950
0.042304
0.046950
0.046757
0.050103
0.051554
0.054020
0.050471
0.046921
0.047676
0.048686
0.049662
0.049986
0.052653
0.052029
0.054450
0.056449
0.056868
0.054370
0.056960
0.055939
0.060895
0.058491
0.065718
0.066279
0.066886
0.063468
0.064793
0.065186
0.090674
0.063457
0.069712
0.068209
0.066333
0.074614
0.071097
0.067878
0.072674
0.072872
0.074916
0.071028
0.075480
0.076053
0.077346
0.076645
0.075211
0.081626
0.078057
0.086148
0.078295
0.081130
0.082945
0.083150
0.081049
0.083010
0.082825
0.083507
0.084375
0.093771
0.095517
0.089588
0.093754
0.091277
0.092180
0.088134
0.088314
0.093005
0.086979
0.090710
0.089980
0.100417
0.087528
0.088377
0.093684
0.092817
0.086473
0.090767
0.098296
0.095834
0.096542
0.098346
0.098234
0.098869
0.100340
0.100503
0.101175
0.138216
0.156951
0.106112
0.108916
0.109302
0.105775
0.106641
