Full Time (seconds)
0.017809
Time - I
0.002622
0.003394
0.004092
0.004778
0.005464
0.006177
0.006899
0.007567
0.008289
0.009162
0.009761
0.010509
0.011136
0.012201
0.012938
0.013226
0.014016
0.015292
0.015767
0.017111
0.016916
