Full Time (seconds)
0.107642
Time - I
0.004419
0.005380
0.006382
0.007357
0.008228
0.009152
0.009916
0.010746
0.011575
0.012339
0.013028
0.013899
0.014708
0.015501
0.017098
0.016821
0.018055
0.018812
0.019591
0.020370
0.020615
0.020886
0.021922
0.021606
0.022175
0.022685
0.023125
0.023729
0.023397
0.024559
0.025048
0.025886
0.026012
0.027827
0.028423
0.029118
0.030014
0.030598
0.031662
0.031844
0.033044
0.034778
0.034780
0.036122
0.036335
0.036220
0.036783
0.038765
0.039478
0.039117
0.041237
0.040937
0.042668
0.043435
0.043013
0.045369
0.045824
0.047682
0.045853
0.048077
0.048891
0.048088
0.048957
0.051202
0.051992
0.052906
0.052345
0.052652
0.054628
0.055878
0.056695
0.057235
0.058281
0.057242
0.057880
0.058656
0.060619
0.061373
0.061055
0.061729
0.064446
0.065210
0.064058
0.066814
0.067544
0.066761
0.069240
0.067743
0.068437
0.071576
0.069986
0.071325
0.074706
0.074209
0.075518
0.074046
0.076953
0.077719
0.076664
0.077540
0.080493
0.080901
0.079198
0.079920
0.083458
0.085673
0.084655
0.082906
0.083559
0.086715
0.086780
0.085897
0.087390
0.088755
0.089650
0.088622
0.090704
0.092466
0.092593
0.093939
0.093891
0.093456
0.094866
0.095008
0.099069
0.097177
0.097947
0.098492
0.099848
0.100556
0.100765
0.102722
0.101989
0.106429
0.103422
0.104233
0.106592
0.106113
0.107530
0.107137
0.109588
