Full Time (seconds)
0.111750
Time - I
0.004572
0.004882
0.005178
0.005529
0.005944
0.006280
0.006738
0.007204
0.007699
0.008161
0.008655
0.009397
0.010167
0.010928
0.011707
0.012560
0.013261
0.014062
0.014717
0.015606
0.016653
0.017408
0.017694
0.018940
0.019508
0.020510
0.021216
0.021760
0.022366
0.022946
0.024444
0.024516
0.025318
0.026593
0.027749
0.027972
0.028569
0.030319
0.031145
0.031879
0.032037
0.032922
0.033312
0.033981
0.034756
0.036544
0.037301
0.037527
0.039290
0.040041
0.039692
0.041266
0.041020
0.042317
0.042602
0.043086
0.044103
0.048393
0.045299
0.047285
0.047021
0.047623
0.049988
0.049538
0.054711
0.050791
0.051361
0.052453
0.052960
0.055643
0.055661
0.057753
0.055933
0.058702
0.058690
0.059336
0.059770
0.062760
0.060463
0.063100
0.062021
0.062673
0.063770
0.065138
0.065160
0.065944
0.066634
0.068118
0.068794
0.068721
0.069929
0.072449
0.071474
0.071916
0.072580
0.073178
0.074482
0.074681
0.075566
0.078804
0.078240
0.079566
0.079757
0.081819
0.080442
0.081038
0.081971
0.082304
0.084565
0.083736
0.087390
0.087985
0.087329
0.088507
0.094126
0.089162
0.090337
0.094905
0.092072
0.091650
0.092607
0.093536
0.094140
0.096893
0.098684
0.099218
0.097004
0.100719
0.098446
0.100231
0.099619
0.101764
0.102420
0.101889
0.104220
0.105459
0.104400
0.105159
0.112475
0.106731
0.109319
