Full Accuracy
91.153847
Accuracy - I
50.000000
52.000004
52.692307
52.846153
52.769234
52.615387
52.538460
52.538460
52.538460
52.538460
52.538460
52.769234
53.461540
53.923077
54.384613
55.230766
55.692310
56.153847
56.230770
56.230770
56.384617
56.692307
57.538460
58.076923
58.307690
58.538460
58.692307
59.153851
59.307690
59.384613
59.538460
60.230766
62.461536
62.692307
62.538464
62.538464
62.538464
62.538464
62.538464
62.538464
62.538464
62.538464
63.692307
64.538460
65.000000
65.076920
65.076920
65.153847
65.461540
65.461540
65.461540
66.000000
67.538467
68.307693
68.692307
68.846153
69.000000
69.076927
69.076927
69.230766
69.307693
69.384613
71.000000
71.384613
72.153847
72.230766
72.384613
72.846153
72.846153
72.846153
72.846153
73.384613
74.307693
74.615387
74.692307
75.076927
75.000000
75.230774
75.538460
75.538460
75.769226
75.769226
75.769226
75.923080
76.230774
76.307693
76.307693
76.384613
76.615387
76.692307
76.615387
76.769234
77.153847
78.461540
78.923073
79.461540
79.461540
79.615387
79.692307
79.692307
79.538460
80.923073
81.461540
82.692307
82.923080
82.923080
82.923080
82.923080
82.923080
83.000000
83.076927
82.923080
83.461540
83.923080
84.461540
84.615387
84.846153
84.769234
85.000000
85.230766
85.307693
88.461533
88.461533
88.461533
88.461533
88.538460
88.461533
88.230774
88.230774
88.153847
88.153847
89.615387
90.307693
91.230766
91.307693
91.230766
91.153847
91.076920
91.153847
91.307693
91.153847
