Full Time (seconds)
0.106699
Time - I
0.004745
0.005554
0.006361
0.007192
0.008026
0.008762
0.009552
0.010318
0.011092
0.011862
0.012622
0.013461
0.014071
0.014894
0.016048
0.016369
0.017651
0.018328
0.019137
0.019388
0.020079
0.021258
0.021627
0.022454
0.023126
0.023866
0.024616
0.026160
0.026137
0.026927
0.027643
0.028464
0.029272
0.030577
0.030879
0.032098
0.032957
0.033427
0.034194
0.035099
0.036629
0.035863
0.037161
0.037500
0.037799
0.036966
0.037450
0.037968
0.039712
0.039978
0.040467
0.040030
0.040831
0.041635
0.042312
0.043471
0.043850
0.044549
0.045339
0.046630
0.048294
0.049061
0.049805
0.050570
0.049911
0.050788
0.052018
0.053251
0.052957
0.053919
0.054554
0.055154
0.056148
0.056872
0.057389
0.058608
0.059192
0.060322
0.060354
0.061240
0.062403
0.062724
0.063408
0.066189
0.065146
0.066188
0.066467
0.067229
0.068027
0.069519
0.069424
0.070166
0.071737
0.072987
0.072757
0.077673
0.074199
0.075025
0.075545
0.077654
0.077079
0.078244
0.078823
0.079337
0.080295
0.084369
0.084682
0.084396
0.082949
0.084076
0.085400
0.085341
0.095492
0.096031
0.087928
0.088452
0.089627
0.089943
0.091146
0.091459
0.092560
0.092967
0.094347
0.094651
0.095921
0.095924
0.097319
0.097361
0.098636
0.098898
0.099662
0.100439
0.101134
0.102490
0.102876
0.103542
0.104548
0.106450
0.105869
0.107143
0.107261
