Full Time (seconds)
0.017460
Time - I
0.002622
0.003511
0.004380
0.006995
0.006073
0.006931
0.007731
0.008602
0.009754
0.010374
0.011083
0.011481
0.011869
0.011675
0.011982
0.011942
0.012472
0.012897
0.012543
0.012743
0.012999
0.013726
0.013814
0.014835
0.014573
0.015567
0.015474
0.016185
0.016290
0.017445
0.017934
