Full Time (seconds)
0.328121
Time - I
0.223759
0.264624
0.245203
0.254362
0.265883
0.253926
0.299884
0.304340
0.314497
0.329426
0.353107
0.337115
0.274573
0.275334
0.425539
0.267230
0.322601
0.296782
0.420305
0.447278
0.370972
