Full Time (seconds)
0.160770
Incremental Time - I
0.078909
0.000076
0.000057
0.000054
0.000091
0.000086
0.000074
0.000084
0.000096
0.000090
0.000100
0.020383
0.046838
0.068290
0.082938
0.095976
0.104761
0.124689
0.151109
0.329896
0.365815
Classification Time - C
0.106844
0.012362
0.008675
0.008751
0.016437
0.012300
0.010504
0.010503
0.012311
0.012294
0.012599
0.024275
0.039674
0.048293
0.060715
0.065620
0.074711
0.087455
0.095868
0.204196
0.194329
