Full Time (seconds)
0.002592
Time - I
0.000357
0.000420
0.000455
0.000502
0.000553
0.000622
0.000690
0.000750
0.000802
0.000864
0.000938
0.000993
0.000974
0.001026
0.001072
0.001066
0.001107
0.001285
0.001646
0.001213
0.001253
0.001362
0.001507
0.001614
0.001735
0.001860
0.002024
0.002160
0.002294
0.002410
0.002593
