Full Time (seconds)
0.001346
Incremental Time - I
0.000147
0.000058
0.000036
0.000048
0.000037
0.000038
0.000041
0.000040
0.000037
0.000040
0.000041
0.000162
0.000178
0.000195
0.000228
0.000223
0.000227
0.000232
0.000240
0.000229
0.000231
0.000662
0.001707
0.003557
0.006994
0.007619
0.006852
0.006122
0.007716
0.010417
0.014438
Classification Time - C
0.000614
0.000495
0.000491
0.000491
0.000773
0.000490
0.000491
0.000717
0.000494
0.000492
0.000702
0.000577
0.000578
0.000566
0.000704
0.000567
0.000569
0.000562
0.000563
0.000561
0.000640
0.000761
0.000767
0.000861
0.001063
0.001113
0.001576
0.001187
0.001251
0.001298
0.001355
