Full Accuracy
81.503311
Accuracy - I
50.000000
82.296417
81.283882
78.319969
77.628746
77.301094
75.969116
75.463318
74.544434
72.386292
72.058632
73.540115
73.910484
73.889122
74.957520
76.438995
79.031601
79.580109
80.627144
80.627144
80.605789
