Full Time (seconds)
0.855353
Incremental Time - I
0.033646
0.006967
0.018112
0.027050
0.037419
0.048829
0.053732
0.068753
0.081042
0.090135
0.103192
0.004486
0.004803
0.005306
0.005583
0.005711
0.003404
0.005402
0.005499
0.002924
0.005393
Classification Time - I
0.103660
0.176024
0.250204
0.327151
0.378538
0.474095
0.556363
0.630580
0.691415
0.681184
0.757973
0.802230
0.782167
0.666181
0.634262
0.705774
0.345523
0.319527
0.792676
0.830707
