Full Time (seconds)
0.007979
Incremental Time - I
0.001879
0.000375
0.000745
0.001094
0.001380
0.001765
0.002135
0.002580
0.002937
0.003411
0.003906
0.004444
0.004891
0.005333
0.003994
0.004235
0.004740
0.007493
0.008175
0.008872
0.015270
Classification Time - C
0.001448
0.002129
0.002501
0.002965
0.003357
0.003753
0.004066
0.004386
0.004765
0.005049
0.005418
0.005694
0.006031
0.003908
0.003991
0.006993
0.007321
0.008456
0.007790
0.008808
