Full Time (seconds)
0.248079
Time - I
0.002137
0.003200
0.004434
0.005993
0.006969
0.008161
0.009669
0.009896
0.010303
0.010997
0.012093
0.013106
0.014657
0.016497
0.016707
0.019234
0.020157
0.020193
0.021692
0.022685
0.024233
0.025480
0.027476
0.028589
0.030028
0.030544
0.031373
0.032281
0.033329
0.037096
0.035843
0.038468
0.038826
0.039283
0.040342
0.048810
0.053078
0.044562
0.045042
0.047074
0.048589
0.048444
0.049881
0.064196
0.052992
0.054693
0.068476
0.055705
0.057459
0.060593
0.060686
0.060580
0.062418
0.063498
0.064071
0.071434
0.068893
0.068445
0.068847
0.070314
0.076412
0.074129
0.075314
0.075224
0.075862
0.078245
0.078222
0.080726
0.100077
0.083729
0.083590
0.083869
0.085335
0.122121
0.089440
0.091518
0.089986
0.092373
0.092440
0.094376
0.096688
0.098443
0.097128
0.098748
0.094111
0.101076
0.101994
0.105214
0.104483
0.109168
0.108764
0.110296
0.111127
0.112442
0.113794
0.113256
0.117431
0.107955
0.107681
0.118899
0.119836
0.122203
0.123183
0.122951
0.134055
0.134558
0.178404
0.126446
0.127832
0.129508
0.134220
0.132363
0.132565
0.134009
0.137128
0.138035
0.128777
0.138518
0.140058
0.142611
0.142559
0.133859
0.133717
0.147408
0.148009
0.149287
0.150694
0.151468
0.157614
0.147949
0.143562
0.157891
0.161294
0.157541
0.162132
0.171987
0.161344
0.162342
0.168014
0.168232
0.169500
0.170536
0.157935
0.170976
0.171013
0.174797
0.175566
0.177508
0.164971
0.165598
0.166045
0.168661
0.169620
0.169817
0.197924
0.157421
0.187748
0.192091
0.189437
0.185841
0.178123
0.167171
0.156501
0.155982
0.194199
0.149665
0.199605
0.201855
0.201814
0.186628
0.191146
0.190425
0.206813
0.208276
0.209850
0.207636
0.207699
0.213837
0.214261
0.211783
0.213612
0.201653
0.203230
0.207811
0.238446
0.222187
0.223205
0.220845
0.208070
0.223445
0.224142
0.229603
0.230725
0.229799
0.225929
0.216676
0.216615
0.235224
0.240282
0.233968
0.223192
0.221271
0.238823
0.244956
0.210471
0.214422
0.212617
0.200011
0.199282
0.202052
0.201928
