Full Time (seconds)
0.249220
Time - I
0.002115
0.003225
0.004256
0.006211
0.006943
0.007881
0.009201
0.010406
0.011466
0.012823
0.014062
0.015249
0.015349
0.015609
0.016854
0.018221
0.019121
0.021859
0.021804
0.023189
0.023829
0.025130
0.026520
0.029098
0.031094
0.032279
0.034230
0.034839
0.034425
0.036191
0.036499
0.039377
0.038270
0.039283
0.040471
0.041494
0.042845
0.043918
0.045229
0.046886
0.047421
0.050855
0.050737
0.050926
0.052054
0.054435
0.054464
0.055672
0.056930
0.058102
0.064495
0.062600
0.063804
0.065302
0.065369
0.065647
0.067197
0.067616
0.069103
0.069900
0.078103
0.076045
0.073825
0.074700
0.075745
0.082351
0.081102
0.081740
0.082681
0.085788
0.089209
0.085156
0.085652
0.087306
0.087561
0.088858
0.090425
0.090954
0.093756
0.094326
0.096163
0.097528
0.098810
0.099871
0.101163
0.102553
0.101778
0.104200
0.105216
0.105988
0.107542
0.111121
0.110539
0.113398
0.113960
0.115757
0.117866
0.117943
0.118758
0.117438
0.121570
0.123164
0.130201
0.125554
0.124337
0.124960
0.130261
0.128568
0.136981
0.131948
0.131928
0.133389
0.132373
0.126222
0.136362
0.138060
0.139038
0.131148
0.131217
0.142956
0.144786
0.147346
0.143992
0.149393
0.149277
0.151887
0.153274
0.154083
0.152339
0.157488
0.156349
0.157538
0.160294
0.158150
0.158273
0.163829
0.160782
0.165534
0.166622
0.166765
0.178305
0.171032
0.170927
0.172027
0.173026
0.170324
0.177051
0.174463
0.178545
0.178835
0.182318
0.180265
0.169575
0.173342
0.185879
0.171794
0.172567
0.173935
0.175137
0.192203
0.188997
0.190573
0.195020
0.195360
0.196656
0.181707
0.197006
0.199146
0.205993
0.188904
0.184124
0.180930
0.203545
0.192541
0.206134
0.213805
0.208002
0.210250
0.214297
0.219359
0.217023
0.217711
0.218612
0.216815
0.203760
0.218662
0.225926
0.224637
0.222097
0.196779
0.232137
0.229920
0.233410
0.232778
0.236241
0.215433
0.261686
0.229051
0.236221
0.255144
0.240143
0.242869
0.224272
0.221154
0.211526
0.210464
0.211139
0.199030
0.247556
0.246540
0.249709
