Full Accuracy
91.153847
Accuracy - I
50.000000
54.461540
67.076927
71.846153
75.461540
79.076920
81.846153
83.769234
84.846153
85.769234
85.846153
86.769226
87.076920
87.153847
88.000000
88.230774
89.307693
90.538460
90.769234
91.076920
91.153847
