Full Time (seconds)
0.093005
Time - I
0.004445
0.007959
0.013158
0.020644
0.021946
0.027124
0.033749
0.038442
0.039079
0.048116
0.051708
0.052697
0.058791
0.065701
0.070758
0.076901
0.073293
0.076299
0.081564
0.087762
0.111705
