Full Time (seconds)
0.068175
Time - I
0.002653
0.009061
0.013618
0.017447
0.021544
0.025662
0.029895
0.033945
0.038066
0.043000
0.046207
0.052269
0.058367
0.064578
0.070947
0.077102
0.094939
0.098643
0.095418
0.101147
0.068727
