Full Time (seconds)
0.029066
Incremental Time - I
0.063250
0.002064
0.002292
0.001926
0.000719
0.001957
0.000698
0.000583
0.000766
0.000723
0.000640
0.000693
0.000701
0.001957
0.001888
0.001907
0.002159
0.002313
0.002346
0.003490
0.003592
Classification Time - I
0.007961
0.009010
0.003381
0.004389
0.004107
0.004470
0.004799
0.005128
0.005509
0.005847
0.006264
0.020202
0.021320
0.022413
0.023564
0.024775
0.025190
0.026952
0.028018
0.029790
