Full Time (seconds)
0.108553
Time - I
0.004266
0.005105
0.005898
0.006691
0.007463
0.008250
0.009007
0.009799
0.010608
0.011329
0.012112
0.012781
0.013720
0.014356
0.015030
0.016172
0.016587
0.017777
0.018061
0.019341
0.020219
0.020944
0.021310
0.021875
0.023284
0.023336
0.024099
0.025588
0.026355
0.027438
0.027211
0.027909
0.029606
0.030359
0.031184
0.031038
0.032781
0.033128
0.033771
0.034061
0.034862
0.036166
0.036893
0.037141
0.038997
0.039840
0.040566
0.041331
0.041273
0.043031
0.042387
0.043168
0.044408
0.045157
0.045910
0.046252
0.048540
0.048631
0.048812
0.049958
0.050517
0.050940
0.051711
0.052268
0.053262
0.053709
0.054459
0.056950
0.057702
0.058174
0.059255
0.058788
0.059666
0.058712
0.059813
0.060828
0.061299
0.060744
0.062179
0.061342
0.061279
0.062219
0.062857
0.063476
0.028828
0.064974
0.068236
0.067733
0.069343
0.068270
0.068876
0.069509
0.070315
0.073330
0.071937
0.074326
0.076165
0.075262
0.075103
0.075822
0.076220
0.076919
0.079076
0.081083
0.079228
0.079867
0.081863
0.081594
0.082367
0.085687
0.083721
0.084881
0.085516
0.086090
0.086905
0.088684
0.089958
0.091993
0.092783
0.093501
0.091330
0.097355
0.092859
0.096770
0.097522
0.098354
0.095780
0.096610
0.097680
0.101032
0.099679
0.099596
0.101058
0.101742
0.102220
0.103353
0.107073
0.108219
0.104844
0.109303
0.108297
