Full Time (seconds)
0.106015
Time - I
0.004290
0.005073
0.005866
0.006634
0.007540
0.010201
0.008961
0.009714
0.010541
0.012685
0.013596
0.013413
0.013490
0.017011
0.017171
0.015736
0.018623
0.017686
0.018526
0.019170
0.020066
0.020878
0.021004
0.023326
0.022979
0.023982
0.027184
0.028136
0.025565
0.026405
0.027532
0.028382
0.029424
0.030244
0.031083
0.031855
0.032584
0.032486
0.033234
0.034379
0.034786
0.035533
0.036245
0.037009
0.037666
0.039800
0.039330
0.040182
0.041185
0.045449
0.042493
0.043007
0.044066
0.044484
0.045252
0.046377
0.048272
0.047515
0.054583
0.049025
0.049809
0.050978
0.051268
0.052029
0.054465
0.055209
0.054258
0.061840
0.056081
0.061952
0.057437
0.058264
0.058825
0.059537
0.062238
0.061674
0.066668
0.063244
0.063371
0.064822
0.071607
0.068053
0.068557
0.067076
0.069448
0.068512
0.069694
0.070161
0.070874
0.074049
0.074684
0.073109
0.074003
0.074554
0.076700
0.082395
0.077237
0.080764
0.079216
0.079692
0.080229
0.080631
0.081566
0.082201
0.082771
0.083672
0.086578
0.087898
0.086925
0.087199
0.088015
0.091136
0.088867
0.092352
0.093449
0.091437
0.095191
0.096433
0.093442
0.094362
0.094731
0.098932
0.097244
0.097773
0.098016
0.098884
0.101705
0.100210
0.102731
0.102409
0.106052
0.102834
0.103470
0.107024
0.106814
0.110741
0.108286
0.104976
0.106007
0.106055
0.106278
