Full Accuracy
91.0433
Accuracy - I
42.1178
72.1027
78.9708
83.3279
85.6651
86.4957
88.7226
89.4069
89.4842
89.487
89.8264
90.6377
90.8777
90.8943
90.7839
90.8915
90.748
90.8225
90.8777
90.9136
91.0433
