Full Time (seconds)
0.397211
Time - I
0.219399
0.212610
0.262557
0.283345
0.302306
0.373649
0.331495
0.319540
0.335143
0.414723
0.460564
0.456292
0.437494
0.451211
0.441217
0.488997
0.470857
0.482679
0.533767
0.471549
0.432379
