Full Time (seconds)
0.125994
Incremental Time - I
0.000272
0.000296
0.000410
0.000476
0.000523
0.000497
0.000593
0.000683
0.000659
0.000787
0.000853
0.001416
0.001613
0.001993
0.001933
0.002208
0.002375
0.002496
0.002540
0.002717
0.002918
0.004207
0.004783
0.004960
0.005557
0.005691
0.006228
0.006634
0.007116
0.007728
0.008140
0.009037
0.009839
0.009583
0.009828
0.010453
0.010751
0.010276
0.010820
0.010600
0.011081
0.012888
0.013245
0.014523
0.015024
0.014833
0.015170
0.015259
0.015282
0.016510
0.016863
0.020323
0.020994
0.021926
0.022732
0.023586
0.024450
0.024505
0.026035
0.026210
0.028081
0.030786
0.031646
0.032074
0.032747
0.032377
0.033908
0.034115
0.033455
0.033904
0.034535
0.037634
0.039789
0.042106
0.040839
0.042810
0.042009
0.044174
0.043316
0.045136
0.045546
0.049468
0.052196
0.051081
0.052508
0.053879
0.057080
0.058483
0.058791
0.057185
0.057709
0.061527
0.065676
0.063921
0.067038
0.065527
0.067254
0.069398
0.067441
0.067749
0.069703
0.074123
0.075441
0.074999
0.075986
0.079985
0.101718
0.081349
0.081070
0.080469
0.081103
0.087237
0.092013
0.090294
0.107554
0.092577
0.097164
0.094096
0.094999
0.096756
0.096665
0.096773
0.097665
0.100142
0.097455
0.104529
0.101810
0.097943
0.098560
0.102403
0.099246
0.103516
0.109348
0.109817
0.110875
0.108603
0.109240
0.110805
0.111037
0.116022
0.113143
Classification Time - C
cat: testS_0.svm.time: No such file or directory
cat: test1II_0000.svm.time: No such file or directory
cat: test1II_0001.svm.time: No such file or directory
cat: test1II_0002.svm.time: No such file or directory
cat: test1II_0003.svm.time: No such file or directory
cat: test1II_0004.svm.time: No such file or directory
cat: test1II_0005.svm.time: No such file or directory
cat: test1II_0006.svm.time: No such file or directory
cat: test1II_0007.svm.time: No such file or directory
cat: test1II_0008.svm.time: No such file or directory
cat: test1II_0009.svm.time: No such file or directory
cat: test2II_0000.svm.time: No such file or directory
cat: test2II_0001.svm.time: No such file or directory
cat: test2II_0002.svm.time: No such file or directory
cat: test2II_0003.svm.time: No such file or directory
cat: test2II_0004.svm.time: No such file or directory
cat: test2II_0005.svm.time: No such file or directory
cat: test2II_0006.svm.time: No such file or directory
cat: test2II_0007.svm.time: No such file or directory
cat: test2II_0008.svm.time: No such file or directory
cat: test2II_0009.svm.time: No such file or directory
cat: test3II_0000.svm.time: No such file or directory
cat: test3II_0001.svm.time: No such file or directory
cat: test3II_0002.svm.time: No such file or directory
cat: test3II_0003.svm.time: No such file or directory
cat: test3II_0004.svm.time: No such file or directory
cat: test3II_0005.svm.time: No such file or directory
cat: test3II_0006.svm.time: No such file or directory
cat: test3II_0007.svm.time: No such file or directory
cat: test3II_0008.svm.time: No such file or directory
cat: test3II_0009.svm.time: No such file or directory
cat: test4II_0000.svm.time: No such file or directory
cat: test4II_0001.svm.time: No such file or directory
cat: test4II_0002.svm.time: No such file or directory
cat: test4II_0003.svm.time: No such file or directory
cat: test4II_0004.svm.time: No such file or directory
cat: test4II_0005.svm.time: No such file or directory
cat: test4II_0006.svm.time: No such file or directory
cat: test4II_0007.svm.time: No such file or directory
cat: test4II_0008.svm.time: No such file or directory
cat: test4II_0009.svm.time: No such file or directory
cat: test5II_0000.svm.time: No such file or directory
cat: test5II_0001.svm.time: No such file or directory
cat: test5II_0002.svm.time: No such file or directory
cat: test5II_0003.svm.time: No such file or directory
cat: test5II_0004.svm.time: No such file or directory
cat: test5II_0005.svm.time: No such file or directory
cat: test5II_0006.svm.time: No such file or directory
cat: test5II_0007.svm.time: No such file or directory
cat: test5II_0008.svm.time: No such file or directory
cat: test5II_0009.svm.time: No such file or directory
cat: test6II_0000.svm.time: No such file or directory
cat: test6II_0001.svm.time: No such file or directory
cat: test6II_0002.svm.time: No such file or directory
cat: test6II_0003.svm.time: No such file or directory
cat: test6II_0004.svm.time: No such file or directory
cat: test6II_0005.svm.time: No such file or directory
cat: test6II_0006.svm.time: No such file or directory
cat: test6II_0007.svm.time: No such file or directory
cat: test6II_0008.svm.time: No such file or directory
cat: test6II_0009.svm.time: No such file or directory
cat: test7II_0000.svm.time: No such file or directory
cat: test7II_0001.svm.time: No such file or directory
cat: test7II_0002.svm.time: No such file or directory
cat: test7II_0003.svm.time: No such file or directory
cat: test7II_0004.svm.time: No such file or directory
cat: test7II_0005.svm.time: No such file or directory
cat: test7II_0006.svm.time: No such file or directory
cat: test7II_0007.svm.time: No such file or directory
cat: test7II_0008.svm.time: No such file or directory
cat: test7II_0009.svm.time: No such file or directory
cat: test8II_0000.svm.time: No such file or directory
cat: test8II_0001.svm.time: No such file or directory
cat: test8II_0002.svm.time: No such file or directory
cat: test8II_0003.svm.time: No such file or directory
cat: test8II_0004.svm.time: No such file or directory
cat: test8II_0005.svm.time: No such file or directory
cat: test8II_0006.svm.time: No such file or directory
cat: test8II_0007.svm.time: No such file or directory
cat: test8II_0008.svm.time: No such file or directory
cat: test8II_0009.svm.time: No such file or directory
cat: test9II_0000.svm.time: No such file or directory
cat: test9II_0001.svm.time: No such file or directory
cat: test9II_0002.svm.time: No such file or directory
cat: test9II_0003.svm.time: No such file or directory
cat: test9II_0004.svm.time: No such file or directory
cat: test9II_0005.svm.time: No such file or directory
cat: test9II_0006.svm.time: No such file or directory
cat: test9II_0007.svm.time: No such file or directory
cat: test9II_0008.svm.time: No such file or directory
cat: test9II_0009.svm.time: No such file or directory
0.095762
0.098269
0.101191
0.101376
0.101214
0.101242
0.101535
0.113227
0.103113
0.103413
0.117674
0.106191
0.107850
0.108781
0.109656
0.110668
0.110383
0.109392
0.110571
0.111440
0.112071
0.114136
0.116115
0.116496
0.117563
0.118506
0.119949
0.119653
0.121643
0.120781
0.121673
0.121780
0.120858
0.121676
0.122157
0.121984
0.125644
0.124588
0.125239
0.123294
0.126486
0.133693
0.127888
0.128873
0.129140
0.129894
0.142505
0.130550
0.154446
0.131790
