Full Time (seconds)
0.131082
Incremental Time - I
0.000279
0.000311
0.000370
0.000415
0.000441
0.000557
0.000628
0.000690
0.000764
0.000753
0.000790
0.001412
0.001669
0.001998
0.002126
0.002233
0.002391
0.002613
0.002713
0.002845
0.002970
0.004463
0.004994
0.005417
0.005774
0.006035
0.006358
0.006732
0.007034
0.007924
0.008363
0.009329
0.010076
0.009806
0.010398
0.010713
0.010680
0.010663
0.011082
0.011397
0.011445
0.013793
0.013951
0.014922
0.014863
0.015279
0.015002
0.015713
0.015755
0.016730
0.016924
0.020354
0.021474
0.021736
0.023264
0.024140
0.025095
0.025643
0.025908
0.026538
0.027377
0.031129
0.031404
0.032459
0.033050
0.032172
0.034277
0.033151
0.034427
0.034266
0.034878
0.039415
0.040295
0.041732
0.041159
0.043270
0.042372
0.043054
0.044482
0.046122
0.045593
0.051858
0.052901
0.053453
0.053166
0.054707
0.055967
0.059469
0.059574
0.058117
0.060884
0.063583
0.066752
0.065479
0.066206
0.069188
0.070126
0.068220
0.070105
0.071409
0.069785
0.074521
0.077044
0.079087
0.079860
0.081304
0.082264
0.079740
0.080567
0.081323
0.083358
0.087439
0.089438
0.094765
0.092488
0.096713
0.094397
0.095026
0.096028
0.096226
0.099226
0.102810
0.105003
0.106317
0.107756
0.106091
0.106400
0.108064
0.108049
0.108761
0.109387
0.109500
0.109313
0.110384
0.110651
0.114118
0.111742
0.112357
0.113254
0.113120
0.113801
Classification Time - C
cat: testS_0.svm.time: No such file or directory
cat: test1II_0000.svm.time: No such file or directory
cat: test1II_0001.svm.time: No such file or directory
cat: test1II_0002.svm.time: No such file or directory
cat: test1II_0003.svm.time: No such file or directory
cat: test1II_0004.svm.time: No such file or directory
cat: test1II_0005.svm.time: No such file or directory
cat: test1II_0006.svm.time: No such file or directory
cat: test1II_0007.svm.time: No such file or directory
cat: test1II_0008.svm.time: No such file or directory
cat: test1II_0009.svm.time: No such file or directory
cat: test2II_0000.svm.time: No such file or directory
cat: test2II_0001.svm.time: No such file or directory
cat: test2II_0002.svm.time: No such file or directory
cat: test2II_0003.svm.time: No such file or directory
cat: test2II_0004.svm.time: No such file or directory
cat: test2II_0005.svm.time: No such file or directory
cat: test2II_0006.svm.time: No such file or directory
cat: test2II_0007.svm.time: No such file or directory
cat: test2II_0008.svm.time: No such file or directory
cat: test2II_0009.svm.time: No such file or directory
cat: test3II_0000.svm.time: No such file or directory
cat: test3II_0001.svm.time: No such file or directory
cat: test3II_0002.svm.time: No such file or directory
cat: test3II_0003.svm.time: No such file or directory
cat: test3II_0004.svm.time: No such file or directory
cat: test3II_0005.svm.time: No such file or directory
cat: test3II_0006.svm.time: No such file or directory
cat: test3II_0007.svm.time: No such file or directory
cat: test3II_0008.svm.time: No such file or directory
cat: test3II_0009.svm.time: No such file or directory
cat: test4II_0000.svm.time: No such file or directory
cat: test4II_0001.svm.time: No such file or directory
cat: test4II_0002.svm.time: No such file or directory
cat: test4II_0003.svm.time: No such file or directory
cat: test4II_0004.svm.time: No such file or directory
cat: test4II_0005.svm.time: No such file or directory
cat: test4II_0006.svm.time: No such file or directory
cat: test4II_0007.svm.time: No such file or directory
cat: test4II_0008.svm.time: No such file or directory
cat: test4II_0009.svm.time: No such file or directory
cat: test5II_0000.svm.time: No such file or directory
cat: test5II_0001.svm.time: No such file or directory
cat: test5II_0002.svm.time: No such file or directory
cat: test5II_0003.svm.time: No such file or directory
cat: test5II_0004.svm.time: No such file or directory
cat: test5II_0005.svm.time: No such file or directory
cat: test5II_0006.svm.time: No such file or directory
cat: test5II_0007.svm.time: No such file or directory
cat: test5II_0008.svm.time: No such file or directory
cat: test5II_0009.svm.time: No such file or directory
cat: test6II_0000.svm.time: No such file or directory
cat: test6II_0001.svm.time: No such file or directory
cat: test6II_0002.svm.time: No such file or directory
cat: test6II_0003.svm.time: No such file or directory
cat: test6II_0004.svm.time: No such file or directory
cat: test6II_0005.svm.time: No such file or directory
cat: test6II_0006.svm.time: No such file or directory
cat: test6II_0007.svm.time: No such file or directory
cat: test6II_0008.svm.time: No such file or directory
cat: test6II_0009.svm.time: No such file or directory
cat: test7II_0000.svm.time: No such file or directory
cat: test7II_0001.svm.time: No such file or directory
cat: test7II_0002.svm.time: No such file or directory
cat: test7II_0003.svm.time: No such file or directory
cat: test7II_0004.svm.time: No such file or directory
cat: test7II_0005.svm.time: No such file or directory
cat: test7II_0006.svm.time: No such file or directory
cat: test7II_0007.svm.time: No such file or directory
cat: test7II_0008.svm.time: No such file or directory
cat: test7II_0009.svm.time: No such file or directory
cat: test8II_0000.svm.time: No such file or directory
cat: test8II_0001.svm.time: No such file or directory
cat: test8II_0002.svm.time: No such file or directory
cat: test8II_0003.svm.time: No such file or directory
cat: test8II_0004.svm.time: No such file or directory
cat: test8II_0005.svm.time: No such file or directory
cat: test8II_0006.svm.time: No such file or directory
cat: test8II_0007.svm.time: No such file or directory
cat: test8II_0008.svm.time: No such file or directory
cat: test8II_0009.svm.time: No such file or directory
cat: test9II_0000.svm.time: No such file or directory
cat: test9II_0001.svm.time: No such file or directory
cat: test9II_0002.svm.time: No such file or directory
cat: test9II_0003.svm.time: No such file or directory
cat: test9II_0004.svm.time: No such file or directory
cat: test9II_0005.svm.time: No such file or directory
cat: test9II_0006.svm.time: No such file or directory
cat: test9II_0007.svm.time: No such file or directory
cat: test9II_0008.svm.time: No such file or directory
cat: test9II_0009.svm.time: No such file or directory
0.096019
0.098514
0.100947
0.099980
0.101557
0.102301
0.102766
0.101879
0.102794
0.103855
0.105939
0.105916
0.109780
0.107141
0.107772
0.107978
0.108520
0.111037
0.109940
0.110824
0.112346
0.113890
0.114665
0.116954
0.117831
0.118911
0.119980
0.123540
0.121680
0.121026
0.123462
0.126974
0.127212
0.126253
0.127333
0.131522
0.128968
0.129151
0.129445
0.129116
0.131556
0.129341
0.132080
0.130077
0.130556
0.130704
0.133216
0.133065
0.132871
0.131226
