Full Time (seconds)
0.002943
Time - I
0.000483
0.000625
0.000764
0.000926
0.001008
0.001116
0.001246
0.001344
0.001448
0.001594
0.001667
0.001783
0.001906
0.002028
0.002133
0.002259
0.002390
0.002515
0.002666
0.002811
0.002955
