Full Time (seconds)
0.002389
Time - I
0.000440
0.000501
0.000559
0.000615
0.000668
0.000735
0.000811
0.000865
0.000948
0.000996
0.001065
0.000967
0.000981
0.001027
0.001169
0.001191
0.001230
0.001273
0.001125
0.001359
0.001398
0.001534
0.001674
0.001832
0.001927
0.002059
0.002202
0.002342
0.002187
0.002279
0.002366
