Full Time (seconds)
0.508585
Time - I
0.012890
0.032357
0.057789
0.086879
0.117346
0.138750
0.145996
0.168006
0.190316
0.220208
0.233478
0.234877
0.265395
0.246724
0.262470
0.343607
0.333341
0.388921
0.409189
0.436292
0.465028
