Full Accuracy
79.533333
Accuracy - I
cat: testS_0.svm.acc: No such file or directory
50.000000
50.000000
55.777782
66.377777
69.311111
72.666664
73.022224
76.066666
79.266670
79.866669
79.599998
79.777779
80.799995
80.466667
80.844444
80.933334
80.288887
80.666664
79.466667
79.533333
