Full Time (seconds)
0.008015
Incremental Time - I
0.000701
0.000367
0.000587
0.000788
0.001354
0.001957
0.001989
0.002444
0.002717
0.003206
0.003576
0.004506
0.005177
0.005601
0.007517
0.008268
0.006953
0.008775
0.008410
0.009005
0.010246
Classification Time - C
0.001476
0.002366
0.002549
0.003588
0.003692
0.004560
0.004555
0.004897
0.006193
0.005327
0.005933
0.005913
0.006762
0.006575
0.006691
0.007397
0.007303
0.007544
0.011217
0.008001
