Full Time (seconds)
0.658767
Time - I
0.263054
0.297883
0.321565
0.335285
0.353709
0.334700
0.360231
0.342323
0.411285
0.458724
0.503612
0.433195
0.597527
0.467294
0.538443
0.595420
0.547377
0.694097
0.775607
0.773544
0.615015
