Full Time (seconds)
0.088410
Incremental Time - I
0.014721
0.002017
0.003357
0.005108
0.007053
0.005562
0.013092
0.017185
0.022331
0.021986
0.027524
0.029482
0.037019
0.067526
0.042473
0.041491
0.053529
0.050209
0.066244
0.064231
0.080872
Classification Time - C
0.022846
0.023206
0.041917
0.039398
0.018129
0.044854
0.051569
0.044008
0.055856
0.057998
0.054098
0.071666
0.068984
0.070720
0.082250
0.116183
0.072353
0.094571
0.093233
0.089260
