Full Accuracy
93.000000
Accuracy - I
50.000000
61.076920
70.000000
73.307686
79.153839
83.000000
84.846153
85.384613
86.384613
86.846153
87.076927
88.538460
89.000000
89.615387
90.615387
91.538460
92.000000
92.230766
93.076920
92.923073
93.000000
