Full Time (seconds)
0.106755
Time - I
0.004204
0.008632
0.012914
0.017377
0.021614
0.025610
0.029178
0.033213
0.038436
0.041621
0.045395
0.053123
0.057602
0.063643
0.071741
0.043690
0.046703
0.077909
0.094168
0.100239
0.106402
