Full Time (seconds)
0.091584
Time - I
0.004295
0.008421
0.012634
0.017103
0.021577
0.025597
0.029340
0.034051
0.037582
0.042458
0.046032
0.051366
0.057733
0.063565
0.070508
0.075291
0.081554
0.087988
0.089523
0.092718
0.100092
