Full Time (seconds)
0.107375
Time - I
0.004300
0.007742
0.011032
0.016941
0.020976
0.025765
0.029963
0.034193
0.037205
0.042597
0.045514
0.052007
0.059392
0.064001
0.069429
0.078258
0.081681
0.088273
0.096267
0.101615
0.106528
