Full Accuracy
80.976158
Accuracy - I
50.000000
50.000000
50.000000
50.000000
50.000000
50.000000
50.000000
50.000000
50.000000
50.000000
50.000000
58.041359
61.510120
65.192459
69.508759
71.624184
73.760971
75.961838
78.469002
80.278137
80.976158
