Full Time (seconds)
0.460112
Time - I
0.012885
0.055656
0.098563
0.145376
0.184144
0.231827
0.269475
0.290330
0.304056
0.340982
0.444698
0.408008
0.427710
0.385977
0.489675
0.418045
0.334076
0.339390
0.286806
0.454067
0.455677
