Full Time (seconds)
0.947904
Incremental Time - I
0.453210
0.007600
0.008123
0.008535
0.009866
0.009503
0.010659
0.011708
0.011436
0.010581
0.012980
0.038827
0.045480
0.041416
0.052087
0.057620
0.066231
0.067073
0.070438
0.079095
0.076895
Classification Time - I
0.259220
0.279696
0.298282
0.326653
0.352232
0.358453
0.387639
0.382077
0.423258
0.462131
0.499625
0.561288
0.599789
0.626372
0.754569
0.805850
0.897825
0.916158
0.998602
1.049043
