Full Time (seconds)
0.766968
Time - I
0.247155
0.165872
0.245759
0.358389
0.375682
0.359591
0.473118
0.475954
0.506883
0.509797
0.580871
0.636398
0.528529
0.644008
0.680517
0.670473
0.546002
0.464712
0.413422
0.449647
0.673224
