Full Time (seconds)
0.813888
Time - I
0.160948
0.092982
0.192638
0.160867
0.227040
0.162820
0.197215
0.207278
0.205104
0.312864
0.307412
0.373765
0.423648
0.469017
0.426410
0.382582
0.596997
0.539741
0.705553
0.695936
0.816959
