Full Accuracy
89.855072
Accuracy - I
50.000000
50.652168
50.652168
50.652168
50.724636
50.724636
50.724636
51.086964
51.159416
51.304348
52.028984
52.028984
52.028984
52.536232
52.608700
52.681160
53.405792
53.405792
53.405792
54.057972
54.057972
54.057972
54.782612
54.782612
54.637684
55.217392
55.362320
55.362320
55.579712
55.797100
55.942028
56.666668
56.666668
56.594204
57.318844
57.318844
57.318844
57.608700
57.608700
57.681160
58.188408
58.188408
58.188408
58.260872
58.405800
58.550728
59.275364
59.275364
59.275364
59.927536
60.000004
60.000004
60.072464
60.579712
60.579712
61.231888
61.231888
61.231888
61.739128
61.811596
61.811596
62.391304
62.391304
62.463768
62.463768
62.536232
62.753624
63.478260
63.478260
63.478260
64.202896
64.202896
64.202896
64.782608
64.927536
64.927536
65.507248
65.507248
65.507248
66.014496
66.159424
66.159424
66.666672
66.666672
66.884056
67.246376
67.536232
67.536232
68.260864
68.260864
68.260864
68.768112
68.913048
68.985512
69.202896
69.202896
69.347832
69.492752
69.637680
69.637680
69.637680
69.782608
69.927536
70.652176
70.652176
70.652176
71.014496
71.304352
71.376816
71.956520
72.101448
72.101448
72.101448
72.173912
72.246376
72.463768
72.608696
72.753616
73.478264
73.478264
73.478264
73.623184
73.913040
73.985512
74.710152
74.710144
74.710144
75.000000
75.434784
75.434784
75.507248
75.942024
76.014488
76.594200
76.594200
76.666672
77.318840
77.173912
77.101448
77.826088
77.826088
77.826088
78.260872
78.333336
78.260872
78.913048
78.985504
78.985504
79.202896
79.202896
79.275360
79.927536
79.855072
79.855072
79.927536
80.000000
80.289856
80.434784
80.797104
80.869568
81.086960
81.449280
81.521736
81.594208
81.739136
81.811592
82.173912
82.318840
82.318840
82.753624
82.826088
82.826088
83.405800
83.405800
83.405800
84.130440
84.130440
84.130440
84.565216
84.710144
84.710144
85.000000
85.144928
85.217392
85.652176
85.797104
85.797104
85.869568
85.869568
86.014488
86.376808
86.594200
86.739128
87.463768
87.463768
87.463768
87.971016
87.971016
88.188400
88.188400
88.405800
88.550720
89.275360
89.275360
89.275360
89.275360
89.275360
89.347824
89.855072
89.927536
89.927536
