Full Time (seconds)
0.170426
Incremental Time - I
0.000144
0.000048
0.000060
0.000082
0.000066
0.000078
0.000095
0.000086
0.000125
0.000120
0.000138
0.000112
0.000140
0.000126
0.000159
0.000184
0.000166
0.000155
0.000195
0.000078
0.000110
0.000125
0.000173
0.000180
0.000230
0.000205
0.000202
0.000252
0.000221
0.000222
0.000298
0.000229
0.000247
0.000305
0.000251
0.000249
0.000332
0.000281
0.000283
0.000545
0.000443
0.000474
0.000526
0.000485
0.000507
0.000608
0.000587
0.000500
0.000571
0.000589
0.000534
0.000641
0.000518
0.000555
0.000659
0.000544
0.000694
0.000750
0.000577
0.000558
0.000689
0.000622
0.000598
0.000746
0.000644
0.000627
0.000790
0.000642
0.000624
0.000762
0.000650
0.000634
0.000796
0.000648
0.000650
0.000792
0.000739
0.000690
0.000835
0.000728
0.000732
0.000870
0.000730
0.000733
0.000895
0.000761
0.000757
0.000969
0.000773
0.000769
0.000856
0.000842
0.000788
0.001016
0.000822
0.000832
0.000951
0.000827
0.000865
0.001045
0.000922
0.000816
0.001124
0.000920
0.001000
0.001144
0.001003
0.001021
0.001315
0.001057
0.001002
0.001171
0.000955
0.001006
0.001218
0.001012
0.000962
0.001216
0.001045
0.001039
0.001274
0.001151
0.001156
0.001319
0.001042
0.000981
0.001261
0.001044
0.000982
0.001278
0.001047
0.000950
0.001605
0.000884
0.001343
0.001570
0.001120
0.001071
0.001338
0.001078
0.001066
0.001298
0.001187
0.001123
0.001441
0.001181
0.001090
0.001437
0.001167
0.001202
0.001613
0.001170
0.001194
0.001472
0.001250
0.001190
0.001631
0.001317
0.001148
0.001550
0.001249
0.001291
0.001668
0.001722
0.001345
0.001629
0.001278
0.001344
0.001651
0.001612
0.001301
0.001415
0.001125
0.001147
0.001632
0.001394
0.001337
0.001444
0.001302
0.001278
0.001528
0.001167
0.001170
0.001543
0.001298
0.001215
0.001900
0.001581
0.001532
0.001883
0.001493
0.001346
0.001698
0.001553
0.001552
0.002071
0.001578
0.001447
0.001620
0.001348
0.001499
0.002492
0.001496
0.001407
0.001620
0.001302
0.001522
0.001638
0.001116
0.001036
0.001387
Classification Time - I
0.003256
0.004409
0.005932
0.007103
0.008444
0.009864
0.011074
0.012223
0.013885
0.014984
0.016238
0.018035
0.018944
0.020463
0.023065
0.027667
0.024189
0.025655
0.027773
0.026796
0.028048
0.028831
0.031615
0.031991
0.032686
0.034216
0.037328
0.036655
0.037828
0.040724
0.040289
0.041348
0.043668
0.045972
0.046921
0.046773
0.048225
0.049552
0.050658
0.051830
0.054818
0.054759
0.055962
0.057531
0.058468
0.059496
0.061124
0.062276
0.064129
0.065459
0.067347
0.068755
0.070190
0.071034
0.072280
0.073013
0.076421
0.077342
0.078774
0.080827
0.079358
0.080426
0.084232
0.085145
0.086757
0.088161
0.089548
0.092370
0.089598
0.090960
0.091945
0.094483
0.094603
0.095634
0.097859
0.100608
0.099708
0.101485
0.104124
0.105554
0.105525
0.106295
0.107361
0.108888
0.111272
0.111270
0.112452
0.115459
0.116903
0.108366
0.119254
0.119326
0.123000
0.125280
0.124531
0.116442
0.155182
0.128799
0.129537
0.127536
0.121420
0.131872
0.135140
0.135878
0.137534
0.137528
0.140652
0.144957
0.143256
0.143432
0.145289
0.145922
0.148402
0.149021
0.149787
0.143749
0.139425
0.153566
0.153798
0.159081
0.163163
0.147991
0.152371
0.162583
0.163609
0.162630
0.167294
0.167979
0.169490
0.157705
0.159610
0.148811
0.182489
0.172320
0.178106
0.177818
0.179046
0.180332
0.179068
0.180253
0.174145
0.194406
0.188811
0.189174
0.177509
0.199006
0.189310
0.193828
0.191227
0.193289
0.197344
0.195563
0.196383
0.198533
0.211344
0.202663
0.200703
0.202983
0.220105
0.210700
0.213228
0.211836
0.225664
0.213451
0.216614
0.201413
0.201607
0.220570
0.215132
0.199895
0.190530
0.193382
0.193957
0.223879
0.224937
0.227927
0.206844
0.214147
0.199645
0.200323
0.188412
0.191301
0.190763
0.191728
0.240701
0.243314
0.243675
0.242833
0.225810
0.221508
0.212045
0.246991
0.249132
0.255574
0.256584
0.239225
0.220757
0.222412
0.263177
0.257299
0.264403
0.248778
0.242724
0.213888
0.214996
0.215730
0.190929
0.191851
0.181963
0.182789
