Full Time (seconds)
0.107033
Time - I
0.004514
0.008946
0.013265
0.017332
0.021504
0.025864
0.035270
0.033914
0.038373
0.043060
0.046353
0.052227
0.059998
0.064772
0.072208
0.076969
0.085553
0.088676
0.097632
0.095146
0.102170
