Full Time (seconds)
0.410611
Incremental Time - I
0.033539
0.002354
0.002390
0.003635
0.004792
0.006135
0.008259
0.009743
0.023111
0.025041
0.026209
0.029215
0.032588
0.037750
0.041117
0.026449
0.021777
0.022271
0.023293
0.027279
0.025986
Classification Time - I
0.028942
0.047072
0.065173
0.081671
0.105850
0.132813
0.294712
0.356461
0.393780
0.412231
0.423126
0.488081
0.527909
0.337418
0.328915
0.299161
0.311943
0.374517
0.338279
0.319409
