Full Time (seconds)
0.317039
Time - I
0.165706
0.182882
0.197507
0.208818
0.209523
0.240532
0.251113
0.252180
0.300243
0.285587
0.317074
0.388508
0.430021
0.409598
0.391438
0.579539
0.625583
0.631109
0.409424
0.369984
0.397308
