Full Time (seconds)
0.501998
Incremental Time - I
0.782819
0.020453
0.022930
0.019993
0.019318
0.029132
0.019005
0.033618
0.034971
0.023872
0.030084
0.018949
0.019311
0.035614
0.022637
0.039023
0.040577
0.024780
0.041838
0.043100
0.025744
Classification Time - I
0.387834
0.382508
0.378170
0.367180
0.351164
0.359577
0.615718
0.700260
0.706910
0.688413
0.546867
0.761899
0.825301
0.869809
0.889700
0.893595
0.935184
1.053883
0.873627
0.574252
