Full Time (seconds)
0.141498
Incremental Time - I
0.004065
0.000085
0.000103
0.000100
0.000110
0.000118
0.000127
0.000128
0.000143
0.000156
0.000158
0.000177
0.000177
0.000190
0.000199
0.000271
0.000287
0.000222
0.000225
0.000245
0.000252
0.000542
0.000435
0.000430
0.000462
0.000423
0.000438
0.000427
0.000536
0.000550
0.000587
0.000541
0.000599
0.000582
0.000543
0.000607
0.000585
0.000628
0.000541
0.000578
0.000606
0.000617
0.000656
0.000649
0.000606
0.000635
0.000735
0.000625
0.000727
0.000701
0.000668
0.000761
0.000727
0.000766
0.000859
0.000987
0.000926
0.000843
0.000839
0.000978
0.001038
0.000911
0.000896
0.000932
0.000922
0.000905
0.001121
0.000927
0.000922
0.000945
0.000906
0.000894
0.000857
0.000959
0.000918
0.000993
0.000977
0.000979
0.001098
0.001013
0.001020
0.001162
0.001076
0.001092
0.001177
0.001142
0.001089
0.001123
0.001091
0.001080
0.001111
0.001179
0.001076
0.001141
0.001131
0.001164
0.001176
0.001163
0.001143
0.001235
0.001202
0.001237
0.001240
0.001176
0.001181
0.001232
0.001177
0.001236
0.001292
0.001220
0.001231
0.000693
0.000677
0.000710
0.000728
0.000713
0.000890
0.000851
0.000917
0.000927
0.000896
0.001356
0.001316
0.001321
0.001297
0.001300
0.001219
0.001400
0.001368
0.001348
0.001351
0.001390
0.001387
0.001316
0.001446
0.001350
0.001497
0.001481
0.001524
0.001497
0.001481
Classification Time - I
0.005825
0.007935
0.007600
0.008533
0.009915
0.010456
0.011567
0.012471
0.013459
0.014665
0.015414
0.016741
0.017724
0.018256
0.018893
0.020206
0.022392
0.022606
0.022347
0.023275
0.024280
0.025304
0.027311
0.023771
0.024655
0.025516
0.025611
0.026369
0.031645
0.033245
0.035547
0.034468
0.036404
0.036245
0.038398
0.038148
0.041245
0.043105
0.041046
0.046126
0.044368
0.043830
0.044990
0.045764
0.046638
0.047618
0.053584
0.049926
0.050998
0.055239
0.052379
0.053563
0.055104
0.061165
0.061930
0.058040
0.059046
0.060128
0.061043
0.061917
0.062850
0.063684
0.065058
0.065685
0.066952
0.067762
0.069024
0.069302
0.070752
0.071218
0.073398
0.073651
0.074148
0.079391
0.077834
0.080571
0.077121
0.080356
0.081950
0.079803
0.085510
0.081552
0.088038
0.084130
0.087207
0.088505
0.092539
0.093278
0.107532
0.092033
0.097114
0.091110
0.099196
0.092894
0.093727
0.097222
0.102158
0.097464
0.097552
0.101164
0.099431
0.100479
0.100940
0.101814
0.103085
0.106669
0.106493
0.108618
0.109753
0.108781
0.115917
0.111613
0.110121
0.108899
0.109420
0.109681
0.110187
0.114472
0.113519
0.111731
0.112694
0.114201
0.114450
0.118793
0.116544
0.112230
0.119941
0.119357
0.122933
0.121643
0.123297
0.122700
0.127640
0.130641
0.129299
0.127156
0.127747
0.137826
0.129393
0.130407
