Full Time (seconds)
0.016855
Time - I
0.002610
0.003492
0.004369
0.005167
0.006295
0.006848
0.007666
0.008548
0.009315
0.010334
0.010914
0.011293
0.011681
0.012165
0.012584
0.013195
0.013347
0.014385
0.014893
0.015166
0.015456
0.015625
0.016082
0.016358
0.015760
0.016332
0.016054
0.016301
0.018670
0.019623
0.016941
