Full Time (seconds)
0.000789
Incremental Time - I
0.000077
0.000019
0.000021
0.000020
0.000020
0.000019
0.000024
0.000024
0.000019
0.000026
0.000025
0.000084
0.000104
0.000119
0.000126
0.000141
0.000124
0.000121
0.000082
0.000092
0.000105
0.000396
0.000625
0.000762
0.003610
0.003271
0.004029
0.003682
0.004806
0.004414
0.004498
Classification Time - C
0.000379
0.000302
0.000296
0.000297
0.000295
0.000296
0.000304
0.000294
0.000296
0.000297
0.000299
0.000355
0.000376
0.000382
0.000374
0.000376
0.000390
0.000364
0.000201
0.000309
0.000325
0.000498
0.000487
0.000500
0.000659
0.000708
0.000705
0.000740
0.000750
0.000783
0.000788
