Full Time (seconds)
0.001375
Incremental Time - I
0.000356
0.000144
0.000285
0.000404
0.000643
0.000651
0.000678
0.000738
0.000746
0.000990
0.000979
0.001448
0.001612
0.004741
0.003581
0.008573
0.008206
0.006422
0.003744
0.004689
0.005565
0.005048
0.006182
0.006972
0.006337
0.008314
0.010675
0.016337
0.008476
0.008236
0.011338
Classification Time - C
0.000841
0.000575
0.000580
0.000639
0.000655
0.000655
0.000632
0.000657
0.000662
0.000689
0.000657
0.000863
0.000880
0.000886
0.000947
0.001006
0.001036
0.001095
0.001063
0.001086
0.001075
0.001084
0.001155
0.001211
0.001204
0.001293
0.001365
0.001312
0.001346
0.001297
0.001352
