Full Time (seconds)
0.002778
Time - I
0.000415
0.000442
0.000466
0.000495
0.000522
0.000546
0.000582
0.000604
0.000638
0.000683
0.000735
0.000795
0.001142
0.000949
0.001678
0.001115
0.001172
0.001264
0.001312
0.001368
0.001432
0.000949
0.001703
0.001866
0.002017
0.002140
0.002266
0.002407
0.002546
0.002668
0.002823
