Full Time (seconds)
0.257008
Time - I
0.003271
0.003438
0.004619
0.006137
0.008048
0.008252
0.010344
0.004969
0.011828
0.013311
0.013621
0.014375
0.015266
0.016216
0.007725
0.008791
0.021059
0.023064
0.024393
0.024550
0.026894
0.026393
0.027038
0.028083
0.029567
0.030625
0.011228
0.034587
0.034228
0.035298
0.036979
0.038217
0.013517
0.040307
0.041362
0.042513
0.044291
0.044991
0.045997
0.047464
0.049222
0.049515
0.051184
0.052003
0.017908
0.024309
0.023981
0.024423
0.025110
0.025602
0.025851
0.062105
0.059033
0.058154
0.069728
0.067607
0.070629
0.068805
0.072071
0.071690
0.074460
0.073907
0.078194
0.076673
0.080359
0.078093
0.083029
0.080523
0.082758
0.083990
0.092826
0.086125
0.086748
0.089294
0.089206
0.093222
0.099172
0.100066
0.090751
0.087385
0.095880
0.100018
0.098789
0.099959
0.090898
0.087364
0.111266
0.111972
0.105910
0.106520
0.108809
0.109557
0.111197
0.111816
0.113535
0.114504
0.086493
0.117229
0.109931
0.110761
0.119710
0.120931
0.123655
0.124517
0.129935
0.126198
0.126659
0.128286
0.131619
0.130311
0.131700
0.132809
0.134351
0.134899
0.136946
0.137865
0.067362
0.067514
0.141400
0.141988
0.143766
0.147590
0.145441
0.150124
0.149582
0.149668
0.150631
0.166181
0.198849
0.166017
0.155613
0.144096
0.148153
0.159620
0.159731
0.155181
0.164111
0.163456
0.164781
0.165810
0.125042
0.170868
0.171945
0.171069
0.072834
0.174205
0.099933
0.100275
0.176869
0.145278
0.157645
0.179865
0.185357
0.182323
0.188216
0.184518
0.189246
0.191239
0.188663
0.193858
0.179816
0.177376
0.179657
0.181738
0.181003
0.185925
0.172598
0.177273
0.187230
0.199310
0.208194
0.206379
0.207853
0.213427
0.208575
0.209346
0.196070
0.210677
0.210966
0.201369
0.194428
0.215568
0.216748
0.219005
0.218960
0.220303
0.207591
0.194104
0.195121
0.192708
0.193755
0.227008
0.229004
0.229552
0.230949
0.233650
0.118342
0.118563
0.123565
0.247389
0.238250
0.239463
0.240216
0.211928
0.211591
0.216764
0.212772
0.215370
0.247190
0.250343
0.269150
