Full Time (seconds)
0.017294
Time - I
0.002339
0.003063
0.003807
0.004448
0.005135
0.005840
0.006502
0.007193
0.007913
0.008568
0.009250
0.010020
0.011032
0.011644
0.012042
0.013553
0.014090
0.014893
0.018976
0.016591
0.017325
