Full Accuracy
94.923080
Accuracy - I
50.000000
70.769226
78.230766
81.000000
84.076920
86.615387
88.461533
89.692307
89.461540
90.384613
91.307693
92.461540
93.153847
93.230774
93.615379
94.076927
94.307693
94.076927
94.384613
94.769234
94.923080
