Full Accuracy
94.923080
Accuracy - I
50.000000
72.461540
78.384613
83.538460
86.153847
89.076927
89.384613
89.692307
89.923080
90.769234
91.153847
91.846153
92.384613
92.846153
93.230774
93.923073
93.923073
94.307693
94.615379
95.153847
94.923080
