Full Accuracy
94.923080
Accuracy - I
50.000000
72.230766
78.846153
80.923073
83.846153
86.692307
88.615387
89.692307
89.538460
89.692307
90.692307
91.769234
92.692307
92.923073
93.307693
93.923080
94.230774
94.153847
94.307693
94.615387
94.923080
