Full Accuracy
87.8063
Accuracy - I
43.8289
81.9453
81.2491
82.6672
82.6672
82.0059
82.0059
82.0059
82.0059
82.0059
82.0059
82.0059
81.9496
81.9496
81.9496
81.9496
81.9496
81.9496
81.9496
81.9496
81.9496
85.0156
87.9808
89.5846
91.4684
88.3955
89.6472
89.8348
88.5518
86.8869
87.8695
