Full Time (seconds)
0.419888
Time - I
0.267483
0.240513
0.259017
0.280094
0.304343
0.323783
0.344268
0.365577
0.413692
0.407855
0.440328
0.433499
0.438638
0.457220
0.481604
0.445631
0.447455
0.468837
0.463308
0.451679
0.466831
