Full Time (seconds)
0.346556
Time - I
0.016218
0.040089
0.063218
0.095426
0.108640
0.129062
0.172853
0.139055
0.162428
0.166129
0.182456
0.190011
0.201436
0.305146
0.284768
0.240729
0.239578
0.393876
0.414710
0.447839
0.400743
