Full Time (seconds)
0.005653
Incremental Time - I
0.002380
0.000085
0.000089
0.000092
0.000089
0.000109
0.000116
0.000112
0.000117
0.000109
0.000122
0.000120
0.000142
0.000147
0.000144
0.000136
0.000165
0.001859
0.000825
0.000723
0.000741
0.001064
0.000749
0.000772
0.001086
0.000755
0.000785
0.000851
0.000808
0.000823
0.001707
Classification Time - I
0.001372
0.001493
0.001473
0.001596
0.001676
0.001785
0.001917
0.002007
0.002099
0.002278
0.002358
0.002438
0.002567
0.002810
0.002810
0.002970
0.003057
0.003162
0.003383
0.003422
0.003533
0.003668
0.003782
0.003884
0.004025
0.005311
0.004333
0.004480
0.004647
0.004730
