Full Accuracy
93.000000
Accuracy - I
50.000000
58.000000
68.923073
72.846153
76.923080
81.076927
83.615387
84.769234
86.000000
86.692307
87.230766
88.461533
89.153847
90.076920
91.000000
91.461540
92.000000
92.230766
92.846153
93.076920
93.000000
