Full Time (seconds)
0.106726
Time - I
0.004187
0.008648
0.013078
0.016936
0.021063
0.025559
0.027918
0.031079
0.034675
0.038516
0.045696
0.051691
0.057542
0.063590
0.070461
0.075555
0.082772
0.088017
0.097766
0.101365
0.117837
