Full Time (seconds)
0.016820
Time - I
0.004446
0.005017
0.005702
0.006212
0.006816
0.008394
0.008002
0.008548
0.009116
0.009677
0.010723
0.010903
0.011481
0.012328
0.012638
0.013753
0.013765
0.015173
0.015100
0.016529
0.016471
