Full Time (seconds)
0.191191
Time - I
0.002245
0.003384
0.004556
0.006041
0.006407
0.007141
0.007858
0.008927
0.009989
0.011453
0.012572
0.013674
0.015067
0.016194
0.017326
0.018653
0.019738
0.022970
0.022231
0.023305
0.024547
0.025819
0.026891
0.028029
0.029405
0.030520
0.031687
0.033135
0.034010
0.035074
0.037041
0.037552
0.039089
0.040103
0.041297
0.042176
0.043653
0.045379
0.045757
0.047165
0.048291
0.049277
0.051185
0.051752
0.053363
0.054292
0.055669
0.056370
0.058246
0.058899
0.060019
0.061355
0.062394
0.063515
0.065596
0.065908
0.067791
0.069092
0.070752
0.070598
0.071990
0.073073
0.075359
0.076069
0.077238
0.078022
0.079963
0.080239
0.081226
0.084079
0.085264
0.085923
0.086236
0.088735
0.088442
0.089788
0.090959
0.091889
0.093597
0.094483
0.095927
0.097091
0.098119
0.099531
0.101008
0.101950
0.104458
0.104059
0.105493
0.106254
0.108880
0.109023
0.111002
0.120036
0.112163
0.114700
0.115174
0.118023
0.118768
0.119812
0.119256
0.120670
0.121607
0.122851
0.124531
0.125212
0.126983
0.128350
0.128809
0.130311
0.130976
0.132794
0.133430
0.134914
0.135937
0.137751
0.138456
0.139725
0.140966
0.141555
0.142876
0.144090
0.145091
0.146437
0.147563
0.149151
0.150105
0.151802
0.152116
0.153578
0.155898
0.156095
0.157259
0.158545
0.159244
0.160635
0.162337
0.162798
0.166443
0.167040
0.168372
0.167733
0.171850
0.169873
0.172858
0.172249
0.173572
0.176138
0.178023
0.178352
0.178404
0.180778
0.182527
0.179846
0.171860
0.177760
0.185329
0.187262
0.190528
0.189516
0.191558
0.191614
0.194545
0.180886
0.179731
0.171094
0.174091
0.200843
0.201010
0.209153
0.191758
0.187518
0.206755
0.203247
0.190832
0.192336
0.192777
0.188872
0.181188
0.210899
0.213614
0.200113
0.199684
0.200707
0.202023
0.202454
0.220833
0.216327
0.205852
0.203187
0.193235
0.207072
0.210407
0.199672
0.197060
0.187447
0.187477
0.188210
0.197552
0.204818
0.203718
0.207578
0.192724
0.194529
0.184789
0.207155
0.229353
0.226637
0.222808
0.201702
0.195090
