Full Accuracy
87.8063
Accuracy - I
39.1935
61.6102
68.2895
74.813
79.9434
83.3663
83.1841
84.3756
84.3756
87.2039
86.7617
85.712
87.263
90.5737
87.5343
87.5656
88.2479
87.8972
86.8521
87.8376
87.8063
