Full Time (seconds)
0.001353
Incremental Time - I
0.000654
0.000443
0.000967
0.001384
0.001188
0.002390
0.002232
0.002528
0.003025
0.003585
0.002358
0.002040
0.004461
0.012791
0.012828
0.007774
0.010020
0.009974
0.020205
0.009779
0.014329
Classification Time - C
0.000709
0.000803
0.000846
0.000857
0.000830
0.000967
0.000841
0.001118
0.001374
0.000922
0.000917
0.001000
0.001064
0.001153
0.001061
0.001138
0.001180
0.001338
0.001361
0.001524
