Full Time (seconds)
0.001519
Incremental Time - I
0.000619
0.000211
0.000341
0.000588
0.000569
0.001446
0.001839
0.001853
0.002249
0.002888
0.003460
0.003767
0.003624
0.009762
0.004335
0.012455
0.011555
0.016688
0.009392
0.018898
0.011104
Classification Time - C
0.000660
0.000712
0.000809
0.000699
0.000743
0.000939
0.001241
0.000870
0.000943
0.000945
0.000978
0.000992
0.001188
0.001500
0.001166
0.001124
0.001152
0.001209
0.001966
0.001362
