Full Time (seconds)
0.016981
Time - I
0.004004
0.004369
0.004748
0.005129
0.005499
0.005888
0.006333
0.006763
0.007121
0.007515
0.007920
0.008331
0.008655
0.009050
0.009480
0.010092
0.010758
0.011051
0.011157
0.012000
0.012117
0.012909
0.013081
0.013709
0.013995
0.014618
0.014597
0.015394
0.015239
0.016261
0.016403
