Full Time (seconds)
0.015857
Time - I
0.002037
0.002826
0.003622
0.004377
0.005178
0.005996
0.006937
0.007567
0.008403
0.009712
0.010128
0.010616
0.010690
0.013163
0.011997
0.012385
0.012703
0.013193
0.013336
0.015316
0.013863
0.015604
0.016572
0.016035
0.017575
0.016659
0.017285
0.016790
0.017860
0.017609
0.016817
