Full Time (seconds)
0.110602
Time - I
0.004442
0.005408
0.006383
0.007332
0.008295
0.009167
0.009917
0.010740
0.011567
0.012440
0.013122
0.013813
0.014575
0.015319
0.016307
0.016958
0.017586
0.018348
0.019154
0.020353
0.021117
0.020883
0.021700
0.021914
0.021789
0.022083
0.022831
0.023070
0.023666
0.023972
0.024380
0.025885
0.027837
0.028255
0.027660
0.029287
0.029152
0.030876
0.031379
0.031507
0.032477
0.033101
0.034386
0.034773
0.035399
0.036159
0.037311
0.037964
0.038391
0.040326
0.041080
0.041847
0.041903
0.042819
0.043077
0.043746
0.044473
0.045298
0.045990
0.046745
0.047490
0.048164
0.049311
0.050090
0.050477
0.051213
0.052016
0.052888
0.053932
0.054667
0.055782
0.057489
0.056565
0.058369
0.059813
0.061114
0.059627
0.060357
0.061466
0.061830
0.063031
0.065539
0.064441
0.064789
0.067805
0.068466
0.068138
0.067802
0.068670
0.069250
0.070980
0.073743
0.073818
0.072241
0.073504
0.074651
0.074762
0.075771
0.078513
0.079375
0.080060
0.078845
0.081145
0.081471
0.080766
0.083609
0.084938
0.085478
0.083678
0.085909
0.085322
0.085936
0.086649
0.087436
0.091126
0.088850
0.090107
0.091900
0.091296
0.092363
0.093780
0.093470
0.097891
0.095283
0.099579
0.097242
0.098206
0.101389
0.099418
0.101196
0.101131
0.104723
0.104290
0.103032
0.103957
0.104140
0.105512
0.106114
0.110630
0.107111
0.107955
