Full Time (seconds)
0.106955
Time - I
0.004578
0.005410
0.006270
0.007197
0.008006
0.008849
0.009638
0.010442
0.011349
0.011956
0.012724
0.013526
0.014387
0.015173
0.015973
0.016893
0.017250
0.017997
0.019178
0.019564
0.020873
0.021016
0.021778
0.022528
0.023944
0.024324
0.025706
0.025808
0.027097
0.027383
0.030285
0.029468
0.029894
0.031166
0.031736
0.032792
0.032839
0.034407
0.034822
0.036055
0.036134
0.037239
0.037558
0.037992
0.039935
0.039579
0.041191
0.041628
0.042283
0.043874
0.044664
0.044127
0.045975
0.047493
0.047725
0.047088
0.048519
0.050065
0.049224
0.050078
0.051712
0.052786
0.052409
0.053419
0.054110
0.054611
0.056943
0.056780
0.058193
0.057784
0.059025
0.059153
0.061296
0.060629
0.061417
0.063308
0.064042
0.064551
0.065446
0.065182
0.068154
0.066783
0.067429
0.068340
0.069358
0.071877
0.072323
0.072091
0.072292
0.072652
0.074755
0.075823
0.077654
0.076636
0.077368
0.077970
0.078705
0.080217
0.080183
0.080329
0.083170
0.084613
0.083956
0.085957
0.082272
0.082537
0.084584
0.083402
0.085603
0.084334
0.085632
0.087220
0.089265
0.088927
0.087806
0.090153
0.089757
0.090349
0.091229
0.092488
0.093040
0.095666
0.096100
0.098097
0.096617
0.096170
0.097085
0.100328
0.098596
0.099090
0.101947
0.100791
0.101436
0.104758
0.103336
0.103665
0.104416
0.105590
0.106538
0.106693
0.110672
