Full Time (seconds)
0.110236
Time - I
0.004655
0.005498
0.006763
0.007154
0.007919
0.008744
0.009514
0.010329
0.011127
0.012112
0.012667
0.013440
0.014080
0.014937
0.015883
0.016329
0.017548
0.018328
0.019124
0.019981
0.020667
0.021794
0.022254
0.023116
0.023821
0.024559
0.025366
0.026038
0.026121
0.027710
0.027624
0.029457
0.030159
0.030992
0.031455
0.031849
0.033433
0.034238
0.035051
0.034776
0.036625
0.036542
0.037180
0.038966
0.038662
0.040551
0.041316
0.042051
0.042894
0.042335
0.044036
0.044235
0.045323
0.048639
0.046133
0.047108
0.050138
0.049789
0.049349
0.051485
0.052855
0.051682
0.053804
0.054591
0.055479
0.056204
0.055664
0.057692
0.058497
0.059321
0.058241
0.059037
0.061619
0.060500
0.062672
0.062015
0.064946
0.065510
0.064191
0.064862
0.068002
0.068697
0.067811
0.069333
0.071125
0.069510
0.070672
0.071344
0.073916
0.072508
0.074586
0.073654
0.075553
0.074211
0.074941
0.075857
0.075173
0.076009
0.076167
0.076852
0.077057
0.079901
0.079527
0.079461
0.082914
0.080770
0.081957
0.082351
0.084470
0.083831
0.090179
0.087521
0.087863
0.088038
0.087644
0.088352
0.089177
0.090286
0.092493
0.092803
0.092146
0.092887
0.093742
0.095838
0.097336
0.096174
0.096791
0.099854
0.098497
0.098975
0.099759
0.105362
0.101377
0.103659
0.103315
0.103574
0.105164
0.105273
0.108235
0.109207
0.107704
