Full Time (seconds)
0.009287
Incremental Time - I
0.000227
0.000363
0.000656
0.000959
0.001143
0.001310
0.001640
0.001798
0.002118
0.002344
0.002668
0.003445
0.003953
0.004514
0.005083
0.005489
0.006084
0.006361
0.006736
0.009023
0.007530
0.007597
0.007851
0.008263
0.008867
0.009316
0.008572
0.008807
0.009300
0.009641
0.010179
Classification Time - C
0.001294
0.001825
0.002854
0.003027
0.003313
0.003200
0.003270
0.003321
0.003348
0.003401
0.003785
0.003867
0.004297
0.004695
0.005017
0.005312
0.005649
0.006211
0.006213
0.006736
0.006578
0.006789
0.008526
0.007177
0.007249
0.007514
0.007425
0.007646
0.007838
0.008001
0.008115
