Full Accuracy
94.000000
Accuracy - I
50.000000
72.461540
78.384613
83.538460
86.153847
89.076927
89.230766
89.538460
89.769234
90.615387
90.923080
91.692307
92.230766
92.692307
93.000000
93.692307
93.769226
94.153847
94.538460
95.076927
94.846153
