Full Accuracy
94.000000
Accuracy - I
50.000000
75.153847
81.000000
85.461540
88.153847
90.307693
90.153847
90.384613
90.538460
91.692307
92.000000
92.538467
93.307693
93.692307
93.769226
94.153847
94.307693
94.307693
94.461533
95.000000
94.846153
