Full Accuracy
94.000000
Accuracy - I
50.000000
71.153847
77.538460
80.923073
82.923080
85.846153
87.923073
89.307693
89.230766
90.384613
91.076920
92.461540
92.923073
93.153847
93.538460
94.000000
94.230774
94.076927
94.384613
94.692307
94.692307
