Full Time (seconds)
0.129785
Incremental Time - I
0.001398
0.000326
0.000569
0.000806
0.002718
0.002060
0.002140
0.002381
0.003424
0.003308
0.003171
0.005975
0.006589
0.005820
0.006389
0.006795
0.007522
0.008484
0.009939
0.009911
0.009763
Classification Time - I
0.010262
0.015537
0.020427
0.025439
0.030573
0.034852
0.039632
0.044728
0.051137
0.054642
0.061787
0.069097
0.078597
0.084007
0.091591
0.099289
0.106747
0.107929
0.113039
0.122058
