Full Time (seconds)
0.114534
Incremental Time - I
0.002378
0.000331
0.000575
0.000818
0.002663
0.003003
0.003547
0.004091
0.004010
0.004250
0.004480
0.006007
0.006608
0.005471
0.005302
0.005565
0.008447
0.009460
0.010043
0.010690
0.011219
Classification Time - I
0.011724
0.015301
0.020610
0.026481
0.030274
0.035176
0.041043
0.045355
0.061308
0.054989
0.062582
0.069602
0.062220
0.067375
0.076972
0.100416
0.107591
0.115217
0.123318
0.131236
