Full Time (seconds)
0.152354
Incremental Time - I
0.005128
0.000329
0.000579
0.000822
0.002642
0.002107
0.002144
0.003293
0.002748
0.004207
0.004732
0.006010
0.005597
0.005857
0.007473
0.007917
0.008917
0.009473
0.009998
0.010607
0.011179
Classification Time - I
0.010073
0.015409
0.020754
0.025292
0.030175
0.035128
0.040087
0.045348
0.049965
0.055743
0.062355
0.072126
0.077585
0.084543
0.091902
0.099651
0.107710
0.114956
0.123104
0.131364
