Full Time (seconds)
0.131711
Incremental Time - I
cat: testS_0.svm.time: No such file or directory
0.004001
0.006696
0.009965
0.014301
0.019148
0.023033
0.027088
0.031778
0.035092
0.036001
0.044570
0.052003
0.058556
0.051343
0.073559
0.080730
0.091986
0.076464
0.092070
0.112821
Classification Time - C
0.033508
0.038411
0.043861
0.049554
0.055104
0.061468
0.065425
0.070041
0.073711
0.077486
0.083682
0.089501
0.072268
0.099193
0.105598
0.111478
0.118032
0.097677
0.127421
0.121584
