Full Time (seconds)
0.131229
Incremental Time - I
cat: testS_0.svm.time: No such file or directory
0.004035
0.006194
0.009392
0.013088
0.017561
0.022496
0.026624
0.030758
0.035337
0.038490
0.044918
0.052785
0.055622
0.065627
0.073420
0.047580
0.067506
0.099467
0.102293
0.105939
Classification Time - C
0.033513
0.037727
0.042998
0.048994
0.054544
0.060277
0.067636
0.068869
0.074458
0.078491
0.083461
0.089462
0.094424
0.101828
0.060579
0.112573
0.087741
0.122159
0.121954
0.122754
