Full Time (seconds)
0.131506
Incremental Time - I
cat: testS_0.svm.time: No such file or directory
0.003969
0.006268
0.009844
0.013801
0.019855
0.021913
0.026095
0.030158
0.035013
0.041640
0.044112
0.052822
0.059974
0.061618
0.076617
0.080429
0.087461
0.098751
0.097921
0.114878
Classification Time - C
0.033778
0.037329
0.044156
0.049589
0.054460
0.059328
0.063705
0.068584
0.073074
0.076953
0.082073
0.088835
0.087322
0.091312
0.139836
0.112592
0.120035
0.113829
0.128928
0.131634
