Full Time (seconds)
0.133411
Incremental Time - I
cat: testS_0.svm.time: No such file or directory
0.004394
0.011787
0.009959
0.013904
0.017605
0.021823
0.025501
0.030814
0.034122
0.038490
0.040464
0.052218
0.059041
0.067497
0.073337
0.080083
0.087392
0.091870
0.103004
0.114448
Classification Time - C
0.033353
0.038555
0.043592
0.049449
0.054197
0.058359
0.064417
0.068248
0.071690
0.076956
0.082420
0.088015
0.093861
0.099893
0.104798
0.110249
0.116685
0.113850
0.127105
0.131047
