Full Accuracy
86.532555
Accuracy - I
50.000000
50.000000
50.000000
50.000000
50.000000
50.000000
50.000000
50.000000
50.000000
50.000000
50.000000
58.216835
65.207436
69.977142
71.299721
71.299721
71.299721
71.299721
71.299721
71.299721
71.299721
82.333038
85.828568
86.395195
84.523750
85.600166
86.407486
85.693970
85.456123
85.994339
86.532555
