Full Time (seconds)
0.002871
Time - I
0.000821
0.000882
0.000940
0.000995
0.001051
0.001178
0.001198
0.001255
0.001331
0.001466
0.001482
0.001512
0.002221
0.001634
0.001767
0.001771
0.001903
0.001891
0.001999
0.003822
0.002421
0.002200
0.002273
0.002294
0.002365
0.002873
0.002481
0.002551
0.002644
0.002691
0.002772
