Full Accuracy
94.923080
Accuracy - I
50.000000
73.846153
79.307693
83.307686
85.307693
89.384613
90.230766
90.846153
90.769234
91.538460
91.846153
93.076920
93.615379
93.615379
93.384621
93.846153
94.076927
94.076927
94.538460
95.000000
94.923080
