Full Time (seconds)
0.084496
Time - I
0.003938
0.008096
0.012174
0.016198
0.020264
0.024378
0.028417
0.032568
0.036990
0.040424
0.044425
0.050430
0.056427
0.062452
0.068173
0.060035
0.097307
0.065512
0.073261
0.079194
0.084416
