Full Time (seconds)
0.085938
Time - I
0.003922
0.007989
0.012130
0.016554
0.020262
0.024235
0.028494
0.033420
0.038021
0.040498
0.044483
0.052262
0.060263
0.072677
0.073897
0.074761
0.081991
0.089607
0.092940
0.099250
0.090653
