Full Time (seconds)
0.354333
Time - I
0.224670
0.237570
0.246047
0.260396
0.272263
0.257874
0.248532
0.248739
0.274649
0.269834
0.265644
0.248357
0.365261
0.304174
0.299894
0.402162
0.423645
0.424496
0.425323
0.417287
0.415203
