Full Time (seconds)
0.002780
Time - I
0.000815
0.000885
0.000935
0.000998
0.001060
0.001117
0.001182
0.001286
0.001344
0.001385
0.002508
0.001491
0.001563
0.001656
0.002221
0.001789
0.001834
0.002079
0.001999
0.002020
0.002100
0.002214
0.002264
0.002302
0.002383
0.002414
0.002480
0.002600
0.002628
0.002687
0.002782
