Full Time (seconds)
0.005641
Incremental Time - I
0.001305
0.000060
0.000068
0.000072
0.000074
0.000089
0.000091
0.000089
0.000101
0.000100
0.000102
0.000071
0.000070
0.000069
0.000068
0.000072
0.000084
0.000087
0.000092
0.000084
0.000096
0.000219
0.000251
0.000264
0.001713
0.001506
0.001621
0.001665
0.001679
0.001580
0.001812
Classification Time - I
0.000724
0.000806
0.000886
0.000979
0.001088
0.001190
0.001364
0.001507
0.001548
0.001631
0.001687
0.001723
0.001761
0.001816
0.001874
0.001932
0.002012
0.001829
0.002160
0.002223
0.002497
0.002663
0.002907
0.003143
0.003369
0.003619
0.003880
0.004162
0.004455
0.004735
