Full Time (seconds)
0.106810
Time - I
0.004408
0.005314
0.006261
0.007219
0.008074
0.008950
0.009732
0.010556
0.011335
0.012077
0.012833
0.013608
0.014481
0.015095
0.015852
0.016601
0.017782
0.018580
0.019402
0.020145
0.020389
0.021168
0.022508
0.022657
0.024075
0.024214
0.025613
0.025799
0.026636
0.027482
0.027947
0.029319
0.029934
0.030378
0.031677
0.032926
0.032749
0.033728
0.035231
0.035609
0.036213
0.036645
0.037543
0.039312
0.038888
0.040270
0.040630
0.041948
0.042817
0.042627
0.043563
0.043985
0.045340
0.044506
0.049709
0.046555
0.045560
0.047695
0.046546
0.046984
0.047611
0.048415
0.048857
0.049772
0.016865
0.051309
0.051737
0.054135
0.053766
0.055678
0.055383
0.061868
0.061778
0.062291
0.063308
0.064501
0.060679
0.061915
0.061098
0.069890
0.063358
0.070245
0.070816
0.072142
0.072064
0.068302
0.068928
0.067963
0.068290
0.069309
0.072113
0.070507
0.071502
0.072414
0.073533
0.075749
0.074352
0.075589
0.075933
0.086588
0.084324
0.079696
0.079164
0.080908
0.080574
0.082354
0.089600
0.085514
0.086235
0.084416
0.084852
0.087102
0.086690
0.088138
0.090826
0.089779
0.089794
0.090781
0.091290
0.103081
0.093362
0.093223
0.094767
0.094952
0.098911
0.096318
0.096982
0.101565
0.099046
0.100817
0.110855
0.101415
0.102177
0.103613
0.105446
0.103931
0.104524
0.105552
0.106699
0.106975
0.108092
