Full Time (seconds)
0.119920
Time - I
0.004593
0.007341
0.006269
0.007477
0.008009
0.008867
0.009653
0.010572
0.011212
0.012797
0.012896
0.015273
0.015730
0.014985
0.018761
0.016504
0.020319
0.018095
0.020987
0.021075
0.022003
0.021203
0.023516
0.023881
0.024347
0.024153
0.024827
0.025659
0.026393
0.027461
0.027826
0.029331
0.032089
0.032447
0.032911
0.033962
0.034781
0.033910
0.034523
0.036025
0.035874
0.036584
0.040142
0.040093
0.040914
0.042420
0.043465
0.047790
0.041818
0.043764
0.044099
0.044644
0.044855
0.045601
0.050846
0.049825
0.049976
0.053090
0.053125
0.050141
0.050908
0.051589
0.053192
0.053447
0.054246
0.060305
0.059919
0.061444
0.062659
0.057724
0.059108
0.059185
0.060392
0.064941
0.066864
0.068801
0.067469
0.064079
0.064524
0.065638
0.066952
0.068330
0.070895
0.074251
0.069423
0.073232
0.071781
0.071542
0.072751
0.080185
0.079560
0.078423
0.082122
0.077398
0.076573
0.078016
0.078373
0.085044
0.084380
0.090976
0.086982
0.082148
0.082659
0.081951
0.091192
0.089795
0.091729
0.090783
0.084037
0.084585
0.084780
0.085660
0.092685
0.093350
0.097126
0.091420
0.091358
0.091255
0.091558
0.092190
0.102931
0.100616
0.105414
0.104330
0.095702
0.096300
0.106785
0.107459
0.106779
0.107666
0.100592
0.100871
0.103608
0.113364
0.113909
0.113860
0.104674
0.105845
0.106610
0.117278
0.116047
