Full Time (seconds)
0.017365
Time - I
0.004436
0.004811
0.005210
0.005610
0.006086
0.006390
0.006828
0.007253
0.007701
0.008101
0.008505
0.008925
0.009239
0.009616
0.010072
0.010473
0.013222
0.011345
0.012063
0.012793
0.013013
0.013111
0.013855
0.013676
0.014204
0.014821
0.015492
0.015323
0.016062
0.015972
0.016530
