Full Time (seconds)
0.002609
Time - I
0.000339
0.000362
0.000388
0.000410
0.000435
0.000461
0.000486
0.000509
0.000545
0.000617
0.000621
0.000678
0.001021
0.000809
0.000859
0.000953
0.001000
0.001070
0.001109
0.001185
0.001283
0.001372
0.001494
0.001671
0.001754
0.002980
0.002013
0.002184
0.002271
0.002424
0.002550
