Full Time (seconds)
0.390240
Time - I
0.254649
0.241717
0.238536
0.253170
0.258264
0.252885
0.258901
0.254542
0.250067
0.234202
0.240380
0.241571
0.205803
0.207144
0.188405
0.198321
0.185873
0.178310
0.177171
0.454318
0.440131
