Full Time (seconds)
0.494908
Time - I
0.011390
0.057984
0.100518
0.142463
0.187212
0.229039
0.204477
0.241757
0.239911
0.491303
0.445981
0.441974
0.423923
0.227753
0.251352
0.251719
0.223256
0.493660
0.284328
0.301786
0.474222
