Full Time (seconds)
0.106432
Time - I
0.003997
0.004723
0.005448
0.006200
0.006963
0.007710
0.008455
0.009205
0.009988
0.010752
0.011525
0.012208
0.013139
0.013707
0.014733
0.015206
0.016309
0.016934
0.017463
0.018222
0.018948
0.019722
0.021102
0.021206
0.022180
0.022748
0.023559
0.024333
0.025049
0.026535
0.027571
0.028125
0.028386
0.028766
0.029498
0.030531
0.031984
0.032728
0.033362
0.034261
0.033992
0.035876
0.036088
0.037402
0.037110
0.037784
0.038837
0.039322
0.041264
0.040955
0.042878
0.042611
0.043889
0.044810
0.044495
0.046672
0.046105
0.047051
0.047625
0.049080
0.050717
0.050689
0.049915
0.050085
0.050315
0.051566
0.052633
0.051514
0.052144
0.052538
0.052800
0.053447
0.054389
0.056749
0.057562
0.056959
0.059115
0.058635
0.059198
0.060895
0.060863
0.066410
0.062001
0.062887
0.063385
0.065222
0.066561
0.065489
0.066260
0.067100
0.069977
0.069325
0.071559
0.072329
0.071411
0.071912
0.073068
0.073245
0.073637
0.074989
0.077727
0.078431
0.076797
0.078165
0.080849
0.079543
0.080150
0.081658
0.083888
0.084733
0.082907
0.084049
0.085165
0.085398
0.085796
0.087292
0.090237
0.090984
0.089098
0.092560
0.090281
0.091168
0.092126
0.095997
0.096571
0.095534
0.098517
0.096334
0.096248
0.097491
0.101097
0.098889
0.100061
0.100608
0.101309
0.102016
0.102935
0.106664
0.103933
0.104884
0.105832
