Full Time (seconds)
0.105249
Time - I
0.003944
0.004689
0.005437
0.006200
0.006972
0.007691
0.008456
0.009214
0.009999
0.010694
0.011462
0.012235
0.012943
0.013868
0.014844
0.015561
0.016588
0.016708
0.017969
0.018747
0.018989
0.019673
0.020451
0.021838
0.022633
0.023457
0.024178
0.024984
0.024963
0.026616
0.026511
0.028350
0.028619
0.028932
0.029763
0.030934
0.031003
0.032058
0.032520
0.033489
0.034376
0.034427
0.034601
0.035627
0.036261
0.036611
0.037070
0.037542
0.037215
0.037770
0.037787
0.038551
0.039297
0.040102
0.040836
0.041546
0.044351
0.044369
0.045116
0.044909
0.045472
0.046600
0.046830
0.047689
0.048338
0.049039
0.053017
0.050916
0.051252
0.052027
0.052963
0.053556
0.054611
0.055218
0.055727
0.057212
0.058164
0.059889
0.058785
0.059801
0.060275
0.061692
0.061863
0.062570
0.063508
0.064241
0.067165
0.067627
0.067270
0.067118
0.067860
0.068899
0.069763
0.070704
0.073026
0.074201
0.073365
0.073615
0.074398
0.076236
0.075280
0.078318
0.079339
0.079478
0.081013
0.081570
0.079871
0.081012
0.083992
0.082064
0.083196
0.085764
0.084175
0.088229
0.085815
0.087003
0.088317
0.088018
0.089350
0.089572
0.090352
0.093574
0.093262
0.092548
0.093643
0.094210
0.097976
0.095456
0.096222
0.097497
0.098119
0.098936
0.099695
0.103608
0.100737
0.101969
0.105873
0.104934
0.103911
0.104927
0.108984
