Full Time (seconds)
0.105233
Time - I
0.003952
0.004710
0.005437
0.006208
0.007031
0.007702
0.008452
0.009229
0.010019
0.010715
0.011774
0.012309
0.012965
0.014090
0.014501
0.015962
0.015992
0.016689
0.018093
0.018224
0.018951
0.019708
0.020454
0.021289
0.022629
0.023519
0.023513
0.024550
0.025014
0.026073
0.026447
0.027231
0.028930
0.028892
0.029604
0.031195
0.032012
0.031714
0.033398
0.033262
0.040174
0.039297
0.038375
0.036528
0.039791
0.038977
0.038831
0.040692
0.041275
0.040617
0.041617
0.042673
0.043756
0.043771
0.045045
0.045811
0.046810
0.046666
0.047904
0.049925
0.050627
0.049852
0.050803
0.051318
0.058560
0.052940
0.053527
0.054802
0.054992
0.057583
0.056539
0.057326
0.058042
0.059974
0.059592
0.060517
0.061700
0.061885
0.064191
0.063228
0.064176
0.065279
0.065547
0.066518
0.075480
0.076637
0.068559
0.069340
0.069983
0.073224
0.071754
0.073851
0.073399
0.074373
0.075016
0.075386
0.078501
0.079358
0.077615
0.080982
0.086194
0.081309
0.091634
0.090208
0.082076
0.083586
0.083737
0.085239
0.085299
0.085978
0.086722
0.087291
0.088373
0.088795
0.092655
0.092488
0.091387
0.092410
0.092575
0.094211
0.095180
0.097528
0.097804
0.095019
0.095677
0.095500
0.097541
0.099965
0.100257
0.097480
0.097950
0.098517
0.099386
0.103598
0.104465
0.102060
0.102435
0.103586
0.104753
0.108209
0.106139
