Full Time (seconds)
0.108321
Time - I
0.003972
0.004703
0.005453
0.006220
0.006969
0.007733
0.008471
0.009242
0.010094
0.011282
0.011541
0.012222
0.013136
0.013914
0.014591
0.015265
0.015973
0.017103
0.017983
0.018858
0.018959
0.019997
0.020455
0.021301
0.022010
0.022744
0.024102
0.025011
0.024999
0.026200
0.026498
0.027203
0.027117
0.027947
0.028020
0.028192
0.028450
0.030103
0.029403
0.029843
0.030334
0.031128
0.031842
0.032759
0.033279
0.034086
0.035178
0.035601
0.036230
0.037054
0.038037
0.038763
0.039601
0.040477
0.040733
0.041634
0.042331
0.044097
0.045039
0.045925
0.046095
0.048544
0.048237
0.047781
0.048669
0.049079
0.049976
0.050719
0.051530
0.053697
0.053369
0.053521
0.054848
0.055872
0.056036
0.056509
0.057668
0.059402
0.060863
0.061609
0.060786
0.061340
0.062210
0.062561
0.064924
0.064152
0.065105
0.067696
0.068413
0.068325
0.068795
0.069257
0.069280
0.070226
0.071166
0.073845
0.072399
0.073403
0.075274
0.074590
0.075558
0.076032
0.078005
0.078606
0.079032
0.079065
0.080720
0.081238
0.081873
0.082610
0.083823
0.083673
0.085372
0.085576
0.086216
0.086618
0.087635
0.088495
0.089330
0.089503
0.091002
0.091522
0.094814
0.092422
0.093546
0.094023
0.095372
0.095691
0.097659
0.100131
0.099036
0.098506
0.099250
0.102403
0.102320
0.101874
0.104186
0.103432
0.104340
0.105246
0.105953
