Full Time (seconds)
0.330829
Incremental Time - I
0.031887
0.000048
0.000054
0.000058
0.000053
0.000053
0.000064
0.000060
0.000060
0.000066
0.000071
0.060103
0.096567
0.131809
0.177948
0.216731
0.252998
0.297392
0.239087
0.267358
0.303259
Classification Time - C
0.145617
0.043593
0.044882
0.044677
0.039406
0.041198
0.044752
0.044626
0.044606
0.044662
0.044691
0.146534
0.181033
0.217974
0.246474
0.256760
0.273832
0.250069
0.218059
0.312533
0.323667
