Full Accuracy
93.000000
Accuracy - I
50.000000
52.000004
53.461540
53.692310
53.692307
53.615387
53.538460
53.538460
53.538460
53.538460
53.538460
54.384621
55.076920
55.923073
56.230770
56.923073
57.230770
57.307690
57.384617
57.384617
57.384617
58.307693
59.153851
59.615387
59.923077
60.230766
60.384613
60.769230
60.769230
60.923080
61.000000
64.692307
64.769234
64.846153
64.846153
64.846153
64.846153
64.769234
64.769234
64.769234
64.692314
65.230766
66.923073
67.307693
67.538460
67.769226
67.769226
68.000000
68.000000
68.153847
68.153847
69.384613
70.076927
70.461540
70.846153
70.846153
70.923080
70.923080
71.307693
71.461540
71.538460
73.230766
74.000000
74.000000
74.615387
74.846153
74.769226
74.923080
74.923073
75.000000
74.923073
75.923080
76.923080
77.461533
77.384613
77.692307
77.846153
78.230766
78.307693
78.230766
78.230766
78.307693
78.923073
79.615387
79.769226
79.923073
80.076920
80.307693
80.461540
80.461540
80.461540
80.923073
81.846153
82.923080
83.076927
83.230766
83.307693
83.538460
83.538460
84.000000
84.076920
85.923073
86.615387
86.846153
87.153847
87.153847
87.384621
87.384621
87.461540
87.461540
87.615379
87.692307
88.307693
89.230766
89.384613
89.615387
89.923080
89.692307
89.692307
89.846153
89.923080
93.000000
93.230774
93.153847
93.384621
93.307693
93.153847
93.000000
92.923073
92.923073
92.923073
92.846153
92.846153
92.846153
92.846153
92.923073
92.923073
92.923073
92.923073
93.000000
93.000000
