Full Time (seconds)
0.108638
Time - I
0.004361
0.005111
0.005888
0.006663
0.007415
0.008225
0.008964
0.009727
0.010547
0.011265
0.012053
0.012841
0.013608
0.014453
0.015256
0.016102
0.017444
0.017719
0.018503
0.019302
0.020052
0.020852
0.021077
0.021755
0.023344
0.023204
0.024061
0.025495
0.026286
0.026298
0.027625
0.027327
0.028015
0.028182
0.029144
0.029380
0.029470
0.029480
0.029938
0.030846
0.031789
0.031599
0.032339
0.033187
0.034100
0.034640
0.036458
0.036189
0.037156
0.038976
0.038411
0.040469
0.041187
0.040651
0.042937
0.042757
0.042981
0.044197
0.044450
0.045200
0.046334
0.046849
0.047427
0.048206
0.048999
0.050105
0.052011
0.052840
0.053196
0.052708
0.054837
0.054267
0.054940
0.057844
0.056509
0.057545
0.058953
0.060537
0.061599
0.062184
0.062980
0.063729
0.062509
0.063257
0.065477
0.065061
0.065516
0.067312
0.066935
0.068713
0.070152
0.070678
0.072209
0.070864
0.071637
0.073498
0.073033
0.074916
0.074825
0.076327
0.076991
0.077461
0.077606
0.078337
0.080105
0.079913
0.080793
0.081266
0.083761
0.085676
0.083548
0.084411
0.089809
0.088745
0.089545
0.089673
0.090944
0.089521
0.089931
0.093628
0.092110
0.092193
0.095814
0.096559
0.095267
0.094843
0.099129
0.098446
0.100729
0.097837
0.099036
0.102771
0.100200
0.100885
0.101688
0.105937
0.106242
0.104456
0.108648
0.105927
0.112300
