Full Time (seconds)
0.347607
Time - I
0.165549
0.180820
0.117139
0.158348
0.200995
0.203803
0.213546
0.217397
0.222991
0.210274
0.216275
0.250804
0.286482
0.308790
0.308177
0.548642
0.617138
0.568968
0.524283
0.462800
0.417336
