Full Time (seconds)
0.188863
Incremental Time - I
0.000108
0.000161
0.000212
0.000274
0.000512
0.000635
0.000801
0.001160
0.001355
0.001640
0.002037
0.002355
0.002643
0.003278
0.003397
0.003842
0.004569
0.005168
0.005619
0.005730
0.005914
0.006195
0.006755
0.007476
0.007884
0.008952
0.009059
0.009767
0.011718
0.011554
0.013196
0.013724
0.014652
0.014798
0.016286
0.016810
0.018919
0.019958
0.020345
0.021093
0.022960
0.023573
0.024559
0.026566
0.028348
0.028597
0.031131
0.031370
0.034130
0.034019
0.034935
0.036085
0.038836
0.039764
0.041423
0.043327
0.044285
0.045196
0.047793
0.048966
0.050667
0.056969
0.054197
0.056398
0.059694
0.063779
0.063112
0.065142
0.071039
0.071471
0.071767
0.072171
0.079168
0.079415
0.080560
0.085624
0.084735
0.090097
0.092938
0.096528
0.091842
0.099751
0.097279
0.098245
0.106701
0.103382
0.112479
0.107803
0.111396
0.118290
0.113832
0.125537
0.127859
0.122336
0.135007
0.128992
0.130444
0.135034
0.137204
0.149707
0.146661
0.145515
0.149017
0.153651
0.155283
0.151875
0.163453
0.153368
0.172316
0.176793
0.179770
0.174738
0.179226
0.182648
0.185324
0.190032
0.192278
0.204476
0.205959
0.203084
0.206038
0.211067
0.214228
0.216648
0.232287
0.234192
0.227773
0.233032
0.234945
0.248725
0.246189
0.246198
0.260439
0.257317
0.258066
0.261450
0.263947
0.268221
0.271456
0.274738
0.278844
0.282239
0.285470
0.290237
0.288625
0.289995
0.303428
0.306755
0.306537
0.321150
0.319446
0.326608
0.332648
0.331926
0.325341
0.329643
0.339524
0.356430
0.352884
0.359866
0.371072
0.370568
0.374668
0.381828
0.385827
0.397855
0.403798
0.400434
0.401245
0.412984
0.415721
0.404416
0.422528
0.407981
0.397876
0.437671
0.442060
0.434645
0.442452
0.431192
0.468480
0.470125
0.473810
0.479509
0.401282
0.462567
0.492283
0.393060
0.455832
0.500715
0.419345
0.521371
0.540649
0.499642
0.494674
0.511594
0.480950
0.570638
0.562409
0.539514
0.562569
0.490171
0.449963
0.534396
0.508516
0.429221
0.536904
0.573489
0.622726
0.608518
0.564203
Classification Time - C
cat: testS_0.svm.time: No such file or directory
cat: test1II_0000.svm.time: No such file or directory
cat: test1II_0001.svm.time: No such file or directory
cat: test1II_0002.svm.time: No such file or directory
cat: test2II_0000.svm.time: No such file or directory
cat: test2II_0001.svm.time: No such file or directory
cat: test2II_0002.svm.time: No such file or directory
cat: test3II_0000.svm.time: No such file or directory
cat: test3II_0001.svm.time: No such file or directory
cat: test3II_0002.svm.time: No such file or directory
cat: test4II_0000.svm.time: No such file or directory
cat: test4II_0001.svm.time: No such file or directory
cat: test4II_0002.svm.time: No such file or directory
cat: test5II_0000.svm.time: No such file or directory
cat: test5II_0001.svm.time: No such file or directory
cat: test5II_0002.svm.time: No such file or directory
cat: test6II_0000.svm.time: No such file or directory
cat: test6II_0001.svm.time: No such file or directory
0.086908
0.086525
0.087944
0.088014
0.089702
0.090536
0.091552
0.092948
0.094392
cat: test9II_0002.svm.time: No such file or directory
cat: test10II_0000.svm.time: No such file or directory
cat: test10II_0001.svm.time: No such file or directory
cat: test10II_0002.svm.time: No such file or directory
0.102840
0.107464
0.105416
0.106454
0.108113
0.110664
0.111836
0.113199
0.115454
0.116445
0.118444
0.120156
0.121854
0.123664
0.125810
cat: test16II_0000.svm.time: No such file or directory
cat: test16II_0001.svm.time: No such file or directory
cat: test16II_0002.svm.time: No such file or directory
cat: test17II_0000.svm.time: No such file or directory
cat: test17II_0001.svm.time: No such file or directory
cat: test17II_0002.svm.time: No such file or directory
cat: test18II_0000.svm.time: No such file or directory
cat: test18II_0001.svm.time: No such file or directory
cat: test18II_0002.svm.time: No such file or directory
cat: test19II_0000.svm.time: No such file or directory
cat: test19II_0001.svm.time: No such file or directory
cat: test19II_0002.svm.time: No such file or directory
cat: test20II_0000.svm.time: No such file or directory
cat: test20II_0001.svm.time: No such file or directory
cat: test20II_0002.svm.time: No such file or directory
cat: test21II_0000.svm.time: No such file or directory
cat: test21II_0001.svm.time: No such file or directory
cat: test21II_0002.svm.time: No such file or directory
cat: test22II_0000.svm.time: No such file or directory
cat: test22II_0001.svm.time: No such file or directory
cat: test22II_0002.svm.time: No such file or directory
cat: test23II_0000.svm.time: No such file or directory
cat: test23II_0001.svm.time: No such file or directory
cat: test23II_0002.svm.time: No such file or directory
cat: test24II_0000.svm.time: No such file or directory
cat: test24II_0001.svm.time: No such file or directory
cat: test24II_0002.svm.time: No such file or directory
cat: test25II_0000.svm.time: No such file or directory
cat: test25II_0001.svm.time: No such file or directory
cat: test25II_0002.svm.time: No such file or directory
cat: test26II_0000.svm.time: No such file or directory
cat: test26II_0001.svm.time: No such file or directory
cat: test26II_0002.svm.time: No such file or directory
cat: test27II_0000.svm.time: No such file or directory
cat: test27II_0001.svm.time: No such file or directory
cat: test27II_0002.svm.time: No such file or directory
cat: test28II_0000.svm.time: No such file or directory
cat: test28II_0001.svm.time: No such file or directory
cat: test28II_0002.svm.time: No such file or directory
cat: test29II_0000.svm.time: No such file or directory
cat: test29II_0001.svm.time: No such file or directory
cat: test29II_0002.svm.time: No such file or directory
cat: test30II_0000.svm.time: No such file or directory
cat: test30II_0001.svm.time: No such file or directory
cat: test30II_0002.svm.time: No such file or directory
cat: test31II_0000.svm.time: No such file or directory
cat: test31II_0001.svm.time: No such file or directory
cat: test31II_0002.svm.time: No such file or directory
cat: test32II_0000.svm.time: No such file or directory
cat: test32II_0001.svm.time: No such file or directory
cat: test32II_0002.svm.time: No such file or directory
cat: test33II_0000.svm.time: No such file or directory
cat: test33II_0001.svm.time: No such file or directory
cat: test33II_0002.svm.time: No such file or directory
cat: test34II_0000.svm.time: No such file or directory
cat: test34II_0001.svm.time: No such file or directory
cat: test34II_0002.svm.time: No such file or directory
0.211449
0.222613
0.221134
0.227531
0.224789
0.226542
0.215491
0.234706
0.208043
0.216616
0.240702
0.239714
cat: test39II_0000.svm.time: No such file or directory
cat: test39II_0001.svm.time: No such file or directory
cat: test39II_0002.svm.time: No such file or directory
cat: test40II_0000.svm.time: No such file or directory
cat: test40II_0001.svm.time: No such file or directory
cat: test40II_0002.svm.time: No such file or directory
cat: test41II_0000.svm.time: No such file or directory
cat: test41II_0001.svm.time: No such file or directory
cat: test41II_0002.svm.time: No such file or directory
cat: test42II_0000.svm.time: No such file or directory
cat: test42II_0001.svm.time: No such file or directory
cat: test42II_0002.svm.time: No such file or directory
cat: test43II_0000.svm.time: No such file or directory
cat: test43II_0001.svm.time: No such file or directory
cat: test43II_0002.svm.time: No such file or directory
cat: test44II_0000.svm.time: No such file or directory
cat: test44II_0001.svm.time: No such file or directory
cat: test44II_0002.svm.time: No such file or directory
cat: test45II_0000.svm.time: No such file or directory
cat: test45II_0001.svm.time: No such file or directory
cat: test45II_0002.svm.time: No such file or directory
cat: test46II_0000.svm.time: No such file or directory
cat: test46II_0001.svm.time: No such file or directory
cat: test46II_0002.svm.time: No such file or directory
0.247364
0.290433
0.295347
0.252200
0.256124
0.254985
0.270371
0.301033
0.266038
0.416780
0.267046
0.264470
0.286976
0.312862
0.309294
0.270444
0.416543
0.370752
0.296561
0.278542
0.331446
0.283074
0.196336
0.198830
0.342422
0.200548
0.341216
0.343838
0.296152
0.353266
0.362916
0.350776
0.294360
0.356223
0.364648
0.295272
0.359669
0.360421
0.303536
0.369979
0.367344
0.317058
0.379280
0.379497
0.216145
0.286459
0.304423
0.228173
0.264731
0.389274
0.229716
0.294096
0.427442
0.396327
0.402250
0.400124
0.236549
0.231745
0.419235
0.411883
0.319022
0.414300
0.296925
0.312725
0.423305
0.295048
0.437127
0.427157
0.429202
0.437063
0.433730
0.240086
