Full Time (seconds)
0.333548
Incremental Time - I
0.000121
0.000036
0.000038
0.000039
0.000242
0.000310
0.000391
0.000698
0.000800
0.001001
0.001416
0.001551
0.001771
0.002320
0.002549
0.002945
0.003627
0.004121
0.004501
0.005082
0.005737
0.005775
0.006694
0.007002
0.007978
0.008491
0.009047
0.010414
0.011686
0.011572
0.013240
0.013841
0.014486
0.015749
0.016268
0.016880
0.017765
0.019476
0.021337
0.021212
0.022803
0.023599
0.026199
0.026527
0.027402
0.030497
0.030642
0.031153
0.033996
0.033982
0.037293
0.036063
0.038518
0.039885
0.041300
0.045377
0.044162
0.048322
0.050922
0.049217
0.054092
0.054016
0.054766
0.060224
0.063001
0.061246
0.062349
0.065594
0.067420
0.068222
0.071655
0.072326
0.074067
0.082413
0.083569
0.080867
0.089080
0.084855
0.088098
0.096410
0.094513
0.093849
0.102024
0.104984
0.105671
0.105414
0.110765
0.107810
0.112061
0.112660
0.121717
0.126153
0.124223
0.127896
0.122094
0.128100
0.127384
0.135162
0.136981
0.146712
0.144164
0.146213
0.149790
0.153802
0.165716
0.167484
0.161162
0.174360
0.178618
0.183408
0.172837
0.175677
0.179613
0.181638
0.186149
0.190961
0.202900
0.206191
0.201121
0.217037
0.219848
0.211920
0.226175
0.222409
0.222079
0.229301
0.242311
0.238049
0.235130
0.241662
0.260232
0.257865
0.253648
0.273351
0.267727
0.265447
0.284312
0.269383
0.289934
0.285240
0.293756
0.281078
0.287784
0.289651
0.295793
0.299865
0.303476
0.298006
0.301227
0.298807
0.321560
0.322500
0.326270
0.320101
0.338199
0.341392
0.346416
0.362713
0.345349
0.347299
0.367519
0.346341
0.378351
0.382153
0.385194
0.390689
0.401304
0.400207
0.360560
0.414210
0.418330
0.425563
0.427931
0.423650
0.431465
0.435178
0.426345
0.419387
0.427379
0.466357
0.431117
0.434752
0.475617
0.478636
0.468091
0.461422
0.502392
0.501969
0.397064
0.509412
0.488312
0.394965
0.505049
0.494642
0.500881
0.509537
0.521258
0.508517
0.552976
0.470969
0.551121
0.338817
0.554709
0.546979
0.557139
0.329984
0.551848
0.318994
0.289164
0.590085
0.432088
Classification Time - C
cat: testS_0.svm.time: No such file or directory
cat: test1II_0000.svm.time: No such file or directory
cat: test1II_0001.svm.time: No such file or directory
cat: test1II_0002.svm.time: No such file or directory
cat: test2II_0000.svm.time: No such file or directory
cat: test2II_0001.svm.time: No such file or directory
cat: test2II_0002.svm.time: No such file or directory
cat: test3II_0000.svm.time: No such file or directory
cat: test3II_0001.svm.time: No such file or directory
cat: test3II_0002.svm.time: No such file or directory
cat: test4II_0000.svm.time: No such file or directory
cat: test4II_0001.svm.time: No such file or directory
cat: test4II_0002.svm.time: No such file or directory
cat: test5II_0000.svm.time: No such file or directory
cat: test5II_0001.svm.time: No such file or directory
cat: test5II_0002.svm.time: No such file or directory
cat: test6II_0000.svm.time: No such file or directory
cat: test6II_0001.svm.time: No such file or directory
cat: test6II_0002.svm.time: No such file or directory
cat: test7II_0000.svm.time: No such file or directory
0.087252
0.088719
0.089427
0.090344
0.091166
0.092558
0.093959
cat: test9II_0002.svm.time: No such file or directory
cat: test10II_0000.svm.time: No such file or directory
cat: test10II_0001.svm.time: No such file or directory
cat: test10II_0002.svm.time: No such file or directory
0.102675
0.104495
0.105305
0.106618
0.107898
0.109900
0.112646
0.112898
0.115473
0.117456
0.120123
0.121838
0.123258
0.123638
0.125681
cat: test16II_0000.svm.time: No such file or directory
cat: test16II_0001.svm.time: No such file or directory
cat: test16II_0002.svm.time: No such file or directory
cat: test17II_0000.svm.time: No such file or directory
cat: test17II_0001.svm.time: No such file or directory
cat: test17II_0002.svm.time: No such file or directory
cat: test18II_0000.svm.time: No such file or directory
cat: test18II_0001.svm.time: No such file or directory
cat: test18II_0002.svm.time: No such file or directory
cat: test19II_0000.svm.time: No such file or directory
cat: test19II_0001.svm.time: No such file or directory
cat: test19II_0002.svm.time: No such file or directory
cat: test20II_0000.svm.time: No such file or directory
cat: test20II_0001.svm.time: No such file or directory
cat: test20II_0002.svm.time: No such file or directory
cat: test21II_0000.svm.time: No such file or directory
cat: test21II_0001.svm.time: No such file or directory
cat: test21II_0002.svm.time: No such file or directory
cat: test22II_0000.svm.time: No such file or directory
cat: test22II_0001.svm.time: No such file or directory
cat: test22II_0002.svm.time: No such file or directory
cat: test23II_0000.svm.time: No such file or directory
cat: test23II_0001.svm.time: No such file or directory
cat: test23II_0002.svm.time: No such file or directory
cat: test24II_0000.svm.time: No such file or directory
cat: test24II_0001.svm.time: No such file or directory
cat: test24II_0002.svm.time: No such file or directory
cat: test25II_0000.svm.time: No such file or directory
cat: test25II_0001.svm.time: No such file or directory
cat: test25II_0002.svm.time: No such file or directory
cat: test26II_0000.svm.time: No such file or directory
cat: test26II_0001.svm.time: No such file or directory
cat: test26II_0002.svm.time: No such file or directory
cat: test27II_0000.svm.time: No such file or directory
cat: test27II_0001.svm.time: No such file or directory
cat: test27II_0002.svm.time: No such file or directory
cat: test28II_0000.svm.time: No such file or directory
cat: test28II_0001.svm.time: No such file or directory
cat: test28II_0002.svm.time: No such file or directory
cat: test29II_0000.svm.time: No such file or directory
cat: test29II_0001.svm.time: No such file or directory
cat: test29II_0002.svm.time: No such file or directory
cat: test30II_0000.svm.time: No such file or directory
cat: test30II_0001.svm.time: No such file or directory
cat: test30II_0002.svm.time: No such file or directory
cat: test31II_0000.svm.time: No such file or directory
cat: test31II_0001.svm.time: No such file or directory
cat: test31II_0002.svm.time: No such file or directory
cat: test32II_0000.svm.time: No such file or directory
cat: test32II_0001.svm.time: No such file or directory
cat: test32II_0002.svm.time: No such file or directory
cat: test33II_0000.svm.time: No such file or directory
cat: test33II_0001.svm.time: No such file or directory
cat: test33II_0002.svm.time: No such file or directory
cat: test34II_0000.svm.time: No such file or directory
cat: test34II_0001.svm.time: No such file or directory
cat: test34II_0002.svm.time: No such file or directory
0.218141
0.205653
0.204171
0.223415
0.209230
0.227168
0.215731
0.236341
0.214461
0.238212
0.241053
0.240419
cat: test39II_0000.svm.time: No such file or directory
cat: test39II_0001.svm.time: No such file or directory
cat: test39II_0002.svm.time: No such file or directory
cat: test40II_0000.svm.time: No such file or directory
cat: test40II_0001.svm.time: No such file or directory
cat: test40II_0002.svm.time: No such file or directory
cat: test41II_0000.svm.time: No such file or directory
cat: test41II_0001.svm.time: No such file or directory
cat: test41II_0002.svm.time: No such file or directory
cat: test42II_0000.svm.time: No such file or directory
cat: test42II_0001.svm.time: No such file or directory
cat: test42II_0002.svm.time: No such file or directory
cat: test43II_0000.svm.time: No such file or directory
cat: test43II_0001.svm.time: No such file or directory
cat: test43II_0002.svm.time: No such file or directory
cat: test44II_0000.svm.time: No such file or directory
cat: test44II_0001.svm.time: No such file or directory
cat: test44II_0002.svm.time: No such file or directory
cat: test45II_0000.svm.time: No such file or directory
cat: test45II_0001.svm.time: No such file or directory
cat: test45II_0002.svm.time: No such file or directory
cat: test46II_0000.svm.time: No such file or directory
cat: test46II_0001.svm.time: No such file or directory
cat: test46II_0002.svm.time: No such file or directory
0.289223
0.296819
0.301305
0.279929
0.253546
0.298565
0.339941
0.257871
0.295471
0.260902
0.310860
0.280681
0.266360
0.267777
0.274942
0.329275
0.318842
0.321622
0.294060
0.286655
0.330223
0.290073
0.272527
0.338597
0.346889
0.271864
0.341447
0.343341
0.198313
0.353747
0.305323
0.356843
0.307070
0.285553
0.357336
0.361463
0.360374
0.360790
0.293152
0.294578
0.335337
0.288308
0.286321
0.373558
0.319705
0.308278
0.302952
0.383260
0.220939
0.387051
0.223348
0.224817
0.264381
0.366738
0.405459
0.300949
0.418344
0.320420
0.305021
0.234497
0.413021
0.237706
0.419856
0.417714
0.425601
0.231318
0.427740
0.256399
0.223202
0.437153
0.333862
0.438256
