Full Time (seconds)
0.683273
Incremental Time - I
0.015954
0.002319
0.002380
0.008223
0.010833
0.013796
0.017790
0.019569
0.021574
0.021461
0.021393
0.019093
0.021205
0.036290
0.020607
0.046320
0.026010
0.025740
0.027836
0.027513
0.049587
Classification Time - I
0.031985
0.105249
0.142341
0.180745
0.224981
0.266387
0.298020
0.293595
0.293608
0.301804
0.289844
0.273943
0.277564
0.567761
0.604670
0.390747
0.362966
0.353596
0.678894
0.772400
