Full Time (seconds)
0.715601
Time - I
0.256047
0.280294
0.272780
0.302667
0.304144
0.277068
0.268873
0.259281
0.268179
0.504609
0.531391
0.495532
0.444083
0.431287
0.375708
0.347169
0.314058
0.329706
0.288330
0.289588
0.431356
