Full Time (seconds)
0.105172
Time - I
0.003904
0.004683
0.005434
0.006330
0.006929
0.007790
0.008427
0.009207
0.009974
0.010840
0.011620
0.012540
0.013105
0.013886
0.014721
0.015537
0.016523
0.017164
0.017967
0.018706
0.019933
0.020280
0.021123
0.021162
0.022619
0.022878
0.024128
0.024922
0.024935
0.026139
0.027235
0.027174
0.028251
0.028836
0.030400
0.031165
0.030949
0.032732
0.032463
0.033894
0.033986
0.035778
0.036600
0.036229
0.036915
0.039096
0.038476
0.040832
0.039958
0.042082
0.042659
0.043066
0.044322
0.045095
0.045963
0.046675
0.047436
0.047615
0.048976
0.049755
0.050572
0.050815
0.051430
0.052932
0.053630
0.055183
0.053450
0.055919
0.054987
0.055709
0.058299
0.059079
0.059708
0.063996
0.061723
0.063597
0.062901
0.061670
0.065189
0.065214
0.064942
0.065853
0.064609
0.064847
0.065264
0.067886
0.065875
0.066306
0.066775
0.071044
0.068091
0.070726
0.071624
0.072505
0.073027
0.071460
0.074643
0.075377
0.074153
0.074483
0.075735
0.075940
0.076668
0.077399
0.078257
0.081801
0.080117
0.083201
0.084884
0.084995
0.091018
0.087106
0.084184
0.087695
0.088949
0.089288
0.090188
0.090947
0.088688
0.090503
0.090213
0.094363
0.094478
0.095943
0.096533
0.094071
0.097889
0.098768
0.096478
0.100240
0.101124
0.098882
0.102586
0.103723
0.103072
0.104945
0.105689
0.103013
0.107290
0.109558
0.105273
