Full Time (seconds)
0.109008
Time - I
0.004038
0.004770
0.005434
0.006175
0.006998
0.007731
0.008477
0.009426
0.009995
0.010724
0.011523
0.012301
0.012980
0.013896
0.014461
0.015572
0.016402
0.017035
0.017500
0.018189
0.018938
0.020306
0.021090
0.021914
0.022634
0.023414
0.024170
0.024973
0.025735
0.026514
0.027241
0.028417
0.028854
0.031486
0.030417
0.031169
0.031934
0.032422
0.033534
0.034276
0.035053
0.035364
0.035651
0.036140
0.035603
0.035505
0.037071
0.037552
0.037884
0.038465
0.037774
0.039481
0.039240
0.041271
0.040717
0.042454
0.045188
0.044328
0.045134
0.044495
0.046689
0.047456
0.046935
0.049009
0.049810
0.049604
0.050514
0.052229
0.051917
0.053616
0.052781
0.053837
0.054202
0.054920
0.057375
0.056484
0.058481
0.058032
0.060530
0.060818
0.060173
0.062687
0.061755
0.063768
0.063200
0.066213
0.065941
0.065448
0.066594
0.068992
0.069969
0.069389
0.069655
0.069967
0.072905
0.073929
0.072764
0.076477
0.076344
0.076160
0.075802
0.075900
0.076735
0.077481
0.080876
0.080256
0.079760
0.080807
0.081485
0.084375
0.083278
0.083888
0.086673
0.085020
0.088649
0.089783
0.087255
0.088633
0.091619
0.089530
0.092557
0.092085
0.091790
0.092605
0.093700
0.097830
0.096012
0.096532
0.096333
0.097648
0.099234
0.100197
0.100672
0.100295
0.104333
0.101485
0.102740
0.105983
0.104891
0.106809
0.105428
