Full Time (seconds)
0.108259
Time - I
0.003913
0.004246
0.004510
0.004814
0.005126
0.005422
0.005865
0.006346
0.006794
0.007219
0.007704
0.008444
0.009189
0.010016
0.010917
0.011423
0.012159
0.013095
0.013668
0.014429
0.015494
0.015951
0.016726
0.017553
0.018255
0.019471
0.019838
0.021048
0.021809
0.021920
0.022856
0.024101
0.024165
0.024982
0.026229
0.026429
0.027648
0.028701
0.029584
0.030133
0.030220
0.031942
0.031671
0.032499
0.033198
0.035760
0.036139
0.036590
0.036172
0.036992
0.038129
0.038619
0.039184
0.040612
0.042003
0.041527
0.042604
0.042784
0.043819
0.045824
0.045187
0.046757
0.047207
0.048196
0.048180
0.048970
0.051284
0.050729
0.051197
0.053506
0.052701
0.057866
0.054771
0.054994
0.056480
0.057904
0.059017
0.059856
0.058679
0.060450
0.061681
0.065406
0.062794
0.062463
0.064183
0.066100
0.064790
0.066091
0.066883
0.068591
0.067714
0.070039
0.069183
0.072388
0.072120
0.075383
0.074594
0.073643
0.073681
0.076761
0.075216
0.076827
0.078759
0.080408
0.078926
0.079164
0.082967
0.083308
0.085935
0.082347
0.082758
0.086204
0.086984
0.086208
0.085724
0.086465
0.087216
0.088358
0.091691
0.091485
0.090661
0.094161
0.095143
0.092517
0.093093
0.097058
0.095971
0.095977
0.097444
0.112919
0.101984
0.098668
0.100483
0.104084
0.101510
0.101491
0.102427
0.103123
0.104902
0.108191
0.108466
