Full Accuracy
96.6154
Accuracy - I
cat: testS_0.svm.acc: No such file or directory
72.5385
79.7692
85.6923
89.0769
92
92.3077
93.0769
93.2308
93.3846
93.4615
94
95.2308
95.6923
95.5385
96
95.4615
95.8462
95.8462
96.6154
96.7692
