Full Accuracy
96.6154
Accuracy - I
cat: testS_0.svm.acc: No such file or directory
72.2308
79.9231
86.3846
90.3077
92.4615
93
93.8462
94.0769
94.6154
94.8462
95.3077
95.4615
96
96.0769
96.1538
95.7692
95.6154
96.0769
96.6154
96.7692
