Full Time (seconds)
0.098681
Incremental Time - I
cat: testS_0.svm.time: No such file or directory
0.003538
0.005701
0.009311
0.012559
0.016539
0.021580
0.026881
0.029865
0.032944
0.038689
0.043959
0.053351
0.059415
0.068165
0.058396
0.080983
0.090179
0.095805
0.106899
0.086263
Classification Time - C
0.031869
0.036816
0.041865
0.048295
0.052855
0.059622
0.066443
0.068057
0.072370
0.076275
0.081754
0.088024
0.093267
0.099933
0.106651
0.114752
0.118620
0.124173
0.102364
0.101197
