Full Accuracy
86.532555
Accuracy - I
50.000000
69.403252
70.824173
71.296867
71.296867
71.328705
71.331558
71.331558
71.331558
71.331558
71.331558
71.331558
71.772415
71.299721
71.299721
71.299721
71.299721
71.299721
71.299721
71.299721
71.299721
82.333038
85.828568
86.395195
84.523750
85.600166
86.407486
85.693970
85.456123
85.994339
86.532555
