Full Time (seconds)
0.130964
Incremental Time - I
0.000255
0.000439
0.000518
0.000464
0.000469
0.000572
0.000582
0.000613
0.000673
0.000845
0.000887
0.001616
0.001809
0.002033
0.002278
0.002253
0.002839
0.002682
0.002710
0.002967
0.003352
0.004907
0.005261
0.005788
0.006179
0.006444
0.006817
0.007233
0.007709
0.008256
0.008719
0.010037
0.010198
0.010601
0.010912
0.011225
0.011585
0.011230
0.011349
0.011922
0.011635
0.012073
0.012088
0.012544
0.012573
0.012356
0.012366
0.012528
0.013092
0.013162
0.013459
0.016607
0.016823
0.017791
0.019062
0.019732
0.019797
0.020583
0.021629
0.023231
0.023878
0.026399
0.027661
0.027652
0.028214
0.028383
0.029365
0.028895
0.030109
0.030538
0.030759
0.034011
0.034839
0.036967
0.036229
0.037055
0.036746
0.037576
0.038168
0.039480
0.039973
0.044078
0.045586
0.045513
0.046916
0.048618
0.051334
0.050562
0.050726
0.053433
0.053974
0.057128
0.057766
0.057957
0.058832
0.061275
0.060243
0.060617
0.063283
0.063671
0.062554
0.069437
0.068053
0.071149
0.069835
0.070572
0.072773
0.072173
0.072252
0.075046
0.073862
0.080370
0.081150
0.082980
0.083920
0.084785
0.085973
0.086111
0.089705
0.087495
0.088753
0.096479
0.097907
0.098888
0.099993
0.100406
0.100853
0.097891
0.102553
0.103008
0.099641
0.104257
0.106273
0.100497
0.101444
0.107687
0.111811
0.111862
0.111834
0.113217
0.128287
Classification Time - C
cat: testS_0.svm.time: No such file or directory
cat: test1II_0000.svm.time: No such file or directory
cat: test1II_0001.svm.time: No such file or directory
cat: test1II_0002.svm.time: No such file or directory
cat: test1II_0003.svm.time: No such file or directory
cat: test1II_0004.svm.time: No such file or directory
cat: test1II_0005.svm.time: No such file or directory
cat: test1II_0006.svm.time: No such file or directory
cat: test1II_0007.svm.time: No such file or directory
cat: test1II_0008.svm.time: No such file or directory
cat: test1II_0009.svm.time: No such file or directory
cat: test2II_0000.svm.time: No such file or directory
cat: test2II_0001.svm.time: No such file or directory
cat: test2II_0002.svm.time: No such file or directory
cat: test2II_0003.svm.time: No such file or directory
cat: test2II_0004.svm.time: No such file or directory
cat: test2II_0005.svm.time: No such file or directory
cat: test2II_0006.svm.time: No such file or directory
cat: test2II_0007.svm.time: No such file or directory
cat: test2II_0008.svm.time: No such file or directory
cat: test2II_0009.svm.time: No such file or directory
cat: test3II_0000.svm.time: No such file or directory
cat: test3II_0001.svm.time: No such file or directory
cat: test3II_0002.svm.time: No such file or directory
cat: test3II_0003.svm.time: No such file or directory
cat: test3II_0004.svm.time: No such file or directory
cat: test3II_0005.svm.time: No such file or directory
cat: test3II_0006.svm.time: No such file or directory
cat: test3II_0007.svm.time: No such file or directory
cat: test3II_0008.svm.time: No such file or directory
cat: test3II_0009.svm.time: No such file or directory
cat: test4II_0000.svm.time: No such file or directory
cat: test4II_0001.svm.time: No such file or directory
cat: test4II_0002.svm.time: No such file or directory
cat: test4II_0003.svm.time: No such file or directory
cat: test4II_0004.svm.time: No such file or directory
cat: test4II_0005.svm.time: No such file or directory
cat: test4II_0006.svm.time: No such file or directory
cat: test4II_0007.svm.time: No such file or directory
cat: test4II_0008.svm.time: No such file or directory
cat: test4II_0009.svm.time: No such file or directory
cat: test5II_0000.svm.time: No such file or directory
cat: test5II_0001.svm.time: No such file or directory
cat: test5II_0002.svm.time: No such file or directory
cat: test5II_0003.svm.time: No such file or directory
cat: test5II_0004.svm.time: No such file or directory
cat: test5II_0005.svm.time: No such file or directory
cat: test5II_0006.svm.time: No such file or directory
cat: test5II_0007.svm.time: No such file or directory
cat: test5II_0008.svm.time: No such file or directory
cat: test5II_0009.svm.time: No such file or directory
cat: test6II_0000.svm.time: No such file or directory
cat: test6II_0001.svm.time: No such file or directory
cat: test6II_0002.svm.time: No such file or directory
cat: test6II_0003.svm.time: No such file or directory
cat: test6II_0004.svm.time: No such file or directory
cat: test6II_0005.svm.time: No such file or directory
cat: test6II_0006.svm.time: No such file or directory
cat: test6II_0007.svm.time: No such file or directory
cat: test6II_0008.svm.time: No such file or directory
cat: test6II_0009.svm.time: No such file or directory
cat: test7II_0000.svm.time: No such file or directory
cat: test7II_0001.svm.time: No such file or directory
cat: test7II_0002.svm.time: No such file or directory
cat: test7II_0003.svm.time: No such file or directory
cat: test7II_0004.svm.time: No such file or directory
cat: test7II_0005.svm.time: No such file or directory
cat: test7II_0006.svm.time: No such file or directory
cat: test7II_0007.svm.time: No such file or directory
cat: test7II_0008.svm.time: No such file or directory
cat: test7II_0009.svm.time: No such file or directory
cat: test8II_0000.svm.time: No such file or directory
cat: test8II_0001.svm.time: No such file or directory
cat: test8II_0002.svm.time: No such file or directory
cat: test8II_0003.svm.time: No such file or directory
cat: test8II_0004.svm.time: No such file or directory
cat: test8II_0005.svm.time: No such file or directory
cat: test8II_0006.svm.time: No such file or directory
cat: test8II_0007.svm.time: No such file or directory
cat: test8II_0008.svm.time: No such file or directory
cat: test8II_0009.svm.time: No such file or directory
cat: test9II_0000.svm.time: No such file or directory
cat: test9II_0001.svm.time: No such file or directory
cat: test9II_0002.svm.time: No such file or directory
cat: test9II_0003.svm.time: No such file or directory
cat: test9II_0004.svm.time: No such file or directory
cat: test9II_0005.svm.time: No such file or directory
cat: test9II_0006.svm.time: No such file or directory
cat: test9II_0007.svm.time: No such file or directory
cat: test9II_0008.svm.time: No such file or directory
cat: test9II_0009.svm.time: No such file or directory
cat: test10II_0000.svm.time: No such file or directory
cat: test10II_0001.svm.time: No such file or directory
cat: test10II_0002.svm.time: No such file or directory
cat: test10II_0003.svm.time: No such file or directory
cat: test10II_0004.svm.time: No such file or directory
cat: test10II_0005.svm.time: No such file or directory
cat: test10II_0006.svm.time: No such file or directory
cat: test10II_0007.svm.time: No such file or directory
cat: test10II_0008.svm.time: No such file or directory
cat: test10II_0009.svm.time: No such file or directory
0.099877
0.102854
0.101384
0.102213
0.101191
0.102928
0.103447
0.102698
0.103257
0.103543
0.105918
0.107618
0.109768
0.108568
0.109805
0.112013
0.112035
0.113064
0.113480
0.114404
0.117411
0.118878
0.120264
0.122049
0.121427
0.123437
0.122593
0.124653
0.124652
0.124982
0.127677
0.127489
0.119043
0.121797
0.129077
0.130743
0.132483
0.130495
0.133263
0.131365
