Full Time (seconds)
0.213598
Time - I
0.002116
0.003191
0.004249
0.005668
0.006618
0.006858
0.007466
0.008990
0.009597
0.011023
0.012114
0.013141
0.014688
0.015564
0.016902
0.019463
0.020343
0.020213
0.021784
0.022685
0.026552
0.026894
0.027154
0.027301
0.028714
0.029842
0.030811
0.032243
0.034160
0.034727
0.036621
0.037211
0.037857
0.039277
0.040467
0.041403
0.045248
0.044078
0.044927
0.048221
0.049702
0.051014
0.049925
0.050977
0.052026
0.053607
0.054731
0.055612
0.059351
0.062729
0.059668
0.060424
0.061581
0.063555
0.065443
0.065811
0.069934
0.068438
0.072861
0.070832
0.076862
0.075508
0.073440
0.074776
0.080132
0.077256
0.079046
0.079352
0.082609
0.085614
0.082891
0.083934
0.085406
0.086610
0.088605
0.088884
0.093946
0.092058
0.101111
0.097545
0.094901
0.096070
0.099571
0.100833
0.099537
0.109364
0.104395
0.104792
0.111496
0.108047
0.107376
0.100292
0.102969
0.111935
0.112632
0.116431
0.116258
0.115243
0.121573
0.121232
0.119707
0.123091
0.124162
0.124284
0.132877
0.125748
0.127807
0.126897
0.131477
0.133861
0.131743
0.143794
0.180634
0.138309
0.134834
0.137550
0.141806
0.139309
0.141723
0.144678
0.139427
0.136634
0.144834
0.145567
0.136419
0.151058
0.149035
0.150525
0.152581
0.154134
0.165652
0.156530
0.156088
0.159237
0.159511
0.161714
0.164845
0.177860
0.177487
0.167402
0.172094
0.180431
0.168270
0.172946
0.174892
0.176030
0.173490
0.177816
0.179094
0.182514
0.178264
0.179051
0.183610
0.181635
0.198474
0.185866
0.186542
0.188926
0.186750
0.191536
0.205372
0.204750
0.194162
0.193151
0.199514
0.179910
0.170441
0.170319
0.173640
0.202536
0.217428
0.219000
0.178046
0.163201
0.165458
0.167750
0.169194
0.169450
0.210692
0.200073
0.213182
0.214978
0.220178
0.221402
0.217754
0.218309
0.226147
0.225415
0.224596
0.220908
0.224267
0.225756
0.230471
0.233389
0.223478
0.241040
0.216809
0.238302
0.231301
0.235131
0.196591
0.191399
0.240046
0.242075
0.245867
0.227007
0.241848
0.250942
0.213393
0.219888
0.216255
