Full Accuracy
73.846413
Accuracy - I
50.000000
72.709511
71.205246
68.113182
66.595795
65.919128
65.434685
64.451721
62.336288
62.008636
62.051357
63.903206
65.320610
66.367653
67.785057
69.921844
71.381966
72.407646
73.105667
73.105667
73.846413
