Full Time (seconds)
0.016934
Time - I
0.004826
0.005216
0.005746
0.006043
0.006424
0.006813
0.007335
0.007713
0.008184
0.008686
0.008987
0.009484
0.009887
0.010159
0.010508
0.011238
0.011340
0.012134
0.012193
0.012799
0.013011
0.013514
0.013801
0.014196
0.015400
0.015746
0.015835
0.016432
0.017130
0.016613
0.017062
