Full Time (seconds)
0.017784
Time - I
0.002603
0.003508
0.004411
0.005203
0.006054
0.006946
0.007673
0.008637
0.009435
0.010284
0.011215
0.011181
0.011649
0.011534
0.012088
0.012202
0.012513
0.012744
0.012985
0.012808
0.013321
0.014187
0.014391
0.014131
0.015230
0.015659
0.016066
0.015809
0.016152
0.017408
0.017895
