Full Time (seconds)
0.012489
Time - I
0.002330
0.003047
0.003732
0.004412
0.005119
0.005826
0.006603
0.007144
0.007815
0.008471
0.009232
0.009888
0.010602
0.011862
0.009335
0.009921
0.010553
0.011129
0.011158
0.011846
0.012484
