Full Accuracy
96.615387
Accuracy - I
cat: testS_0.svm.acc: No such file or directory
53.230774
53.384621
53.692307
53.692307
53.538460
53.538460
53.538460
53.538460
53.461540
53.461540
56.538456
56.923073
57.230770
57.230770
57.230770
57.230770
57.230770
57.230770
57.230770
57.230770
59.384613
59.846149
60.692303
61.000000
61.000000
61.000000
61.000000
61.000000
61.000000
61.000000
64.692307
64.846153
64.846153
64.846153
64.846153
64.846153
64.846153
64.846153
64.846153
64.846153
67.461540
68.076927
68.153847
68.153847
68.307693
68.307693
68.307693
68.307693
68.230766
68.230766
70.692307
71.692307
71.846153
72.000000
72.000000
72.000000
72.000000
72.000000
72.000000
72.000000
74.384621
75.076920
75.307693
75.307693
75.384613
75.230774
75.461540
75.461540
75.538460
75.461540
77.615387
77.538460
78.384613
78.384613
78.461540
79.230766
79.230766
79.230766
79.230766
79.230766
80.307693
81.000000
81.769234
81.923073
81.923073
82.230774
82.538460
82.538460
82.615379
82.615379
84.846153
85.384613
85.615387
85.615387
85.692307
85.923073
86.000000
86.000000
86.230766
86.230766
88.923080
89.230766
89.461540
89.769234
90.000000
90.000000
90.000000
90.000000
90.000000
90.000000
90.538460
92.076920
92.230766
92.615387
92.615387
92.538467
92.615387
92.692307
92.846153
93.153847
95.923080
96.153847
96.461540
96.538460
96.384613
96.538460
96.538460
96.538460
96.538460
96.538460
96.538460
96.538460
96.615387
96.692307
96.692307
96.615387
96.615387
96.538460
96.538460
96.538460
