Full Accuracy
79.533333
Accuracy - I
cat: testS_0.svm.acc: No such file or directory
50.000000
66.688889
67.555550
66.377777
63.666672
61.066669
58.755554
57.377773
57.377773
56.066669
56.066669
56.066669
56.066669
59.733330
66.977783
69.000000
70.355560
70.977776
72.111115
72.222221
74.511108
76.711113
77.577774
78.822220
79.044441
79.022224
78.911110
79.022224
79.733337
79.533333
