Full Time (seconds)
0.008037
Incremental Time - I
0.000211
0.000327
0.000613
0.000863
0.001117
0.001286
0.001636
0.001728
0.001994
0.002185
0.001675
0.001756
0.003178
0.002880
0.003171
0.003381
0.003713
0.003892
0.003787
0.004045
0.005871
0.005050
0.005478
0.006224
0.006730
0.008519
0.007766
0.008301
0.011800
0.009698
0.009635
Classification Time - C
0.001260
0.001715
0.002550
0.002838
0.003005
0.003138
0.003265
0.003338
0.003315
0.001954
0.001953
0.002062
0.003803
0.003764
0.003900
0.004027
0.004614
0.004761
0.004414
0.004504
0.004721
0.005170
0.005381
0.005754
0.006115
0.006442
0.006988
0.007228
0.007482
0.008243
0.008058
