Full Time (seconds)
0.008065
Incremental Time - I
0.000730
0.000025
0.000024
0.000033
0.000030
0.000025
0.000029
0.000027
0.000028
0.000026
0.000025
0.000556
0.001085
0.001598
0.001935
0.002357
0.002549
0.002941
0.003341
0.003763
0.003799
0.004706
0.005349
0.005985
0.006419
0.007789
0.011574
0.005524
0.007590
0.008906
0.010948
Classification Time - C
0.001923
0.000734
0.000719
0.000801
0.000706
0.000721
0.000716
0.000721
0.000715
0.000714
0.000654
0.001308
0.001959
0.002512
0.002941
0.003348
0.003572
0.003880
0.004147
0.004376
0.004513
0.005010
0.005382
0.005869
0.006067
0.006433
0.006897
0.004418
0.007469
0.007683
0.008028
