Full Time (seconds)
0.105996
Time - I
0.004170
0.005000
0.005953
0.006730
0.007515
0.008300
0.009187
0.009864
0.010640
0.011404
0.012223
0.012962
0.013773
0.014671
0.015148
0.016308
0.017203
0.017893
0.018229
0.019504
0.020191
0.021004
0.021761
0.022807
0.023342
0.024131
0.024427
0.025630
0.026514
0.027842
0.027987
0.028804
0.029621
0.030555
0.030333
0.031996
0.032864
0.033228
0.034387
0.034099
0.035959
0.037470
0.036412
0.037157
0.038852
0.039884
0.040663
0.040784
0.042194
0.042939
0.042902
0.044079
0.043058
0.044115
0.045239
0.045856
0.044386
0.046419
0.045519
0.047250
0.047668
0.048397
0.048634
0.048861
0.050753
0.051556
0.052445
0.051459
0.052230
0.054645
0.055593
0.056258
0.056247
0.058012
0.059799
0.059385
0.058582
0.061192
0.061647
0.062456
0.066190
0.063168
0.062724
0.065548
0.067034
0.064991
0.065748
0.068583
0.072327
0.070488
0.070968
0.071802
0.071251
0.073346
0.071678
0.074933
0.073331
0.073998
0.074768
0.075933
0.078833
0.079759
0.077885
0.080319
0.079395
0.081462
0.081370
0.084816
0.085044
0.083115
0.086537
0.087786
0.093048
0.087973
0.089893
0.087597
0.088894
0.092114
0.092007
0.092389
0.094444
0.095387
0.093462
0.093623
0.094439
0.096978
0.095931
0.100069
0.100399
0.101849
0.102429
0.100201
0.100472
0.101037
0.101873
0.106294
0.105198
0.104619
0.108986
0.108379
0.109082
