Full Time (seconds)
0.001400
Incremental Time - I
0.000151
0.000041
0.000038
0.000037
0.000038
0.000040
0.000038
0.000041
0.000041
0.000042
0.000040
0.000169
0.000173
0.000190
0.000214
0.000229
0.000235
0.000230
0.000248
0.000239
0.000264
0.000676
0.001775
0.002400
0.006935
0.007398
0.007759
0.006101
0.007462
0.012376
0.015607
Classification Time - C
0.000794
0.000494
0.000495
0.000492
0.000492
0.000578
0.000494
0.000528
0.000493
0.000493
0.000528
0.000594
0.000581
0.000570
0.000582
0.000564
0.000563
0.000667
0.000562
0.000548
0.000552
0.000747
0.000776
0.000821
0.001046
0.001113
0.001110
0.001175
0.001257
0.001301
0.002300
