Full Time (seconds)
0.002774
Time - I
0.000527
0.000556
0.000674
0.000783
0.000893
0.000999
0.001103
0.001241
0.001316
0.001419
0.001552
0.001623
0.001742
0.000991
0.001946
0.002056
0.002227
0.002341
0.002490
0.002626
0.002758
