Full Time (seconds)
0.032300
Incremental Time - I
0.011569
0.000314
0.000370
0.000455
0.000780
0.000760
0.000813
0.000885
0.001006
0.001091
0.001146
0.001276
0.001357
0.001457
0.001571
0.001662
0.001825
0.001907
0.002098
0.002172
0.002329
Classification Time - I
0.004742
0.005902
0.007106
0.008384
0.009677
0.011016
0.012556
0.013782
0.014867
0.016670
0.018076
0.018763
0.020151
0.021746
0.023149
0.024101
0.026179
0.027452
0.028167
0.029660
