Full Time (seconds)
0.002973
Time - I
0.000940
0.000992
0.001057
0.001140
0.001180
0.001253
0.001319
0.001422
0.001486
0.001521
0.001605
0.001692
0.001764
0.001790
0.001856
0.002858
0.001995
0.002083
0.002143
0.002252
0.002264
0.002356
0.002482
0.002489
0.002596
0.002945
0.002659
0.002732
0.002806
0.002897
0.003058
