Full Time (seconds)
0.117511
Time - I
0.004267
0.005046
0.005815
0.006656
0.007437
0.008265
0.008930
0.009671
0.010435
0.011191
0.011918
0.012830
0.013495
0.014176
0.015019
0.015773
0.016803
0.017456
0.018006
0.019345
0.019444
0.020212
0.021233
0.022600
0.022811
0.023258
0.024080
0.024857
0.026162
0.026272
0.026992
0.030261
0.028613
0.029421
0.030677
0.030920
0.031646
0.036183
0.024910
0.034850
0.034843
0.036298
0.036289
0.037136
0.037901
0.043073
0.039253
0.040392
0.040708
0.041477
0.042463
0.043409
0.044813
0.044540
0.045330
0.046067
0.050192
0.043869
0.044559
0.047026
0.049932
0.051471
0.050380
0.050953
0.051597
0.051553
0.052046
0.052502
0.052681
0.053149
0.053921
0.056892
0.055167
0.055841
0.056581
0.064756
0.065721
0.060650
0.060053
0.067156
0.066334
0.062250
0.062991
0.068365
0.063998
0.065948
0.065514
0.066705
0.067373
0.068290
0.070646
0.076525
0.071366
0.071352
0.071615
0.073650
0.074310
0.075618
0.076274
0.079198
0.076303
0.085601
0.080511
0.081598
0.083147
0.081854
0.081167
0.085267
0.083739
0.087203
0.083803
0.086496
0.093385
0.088769
0.087480
0.094231
0.092687
0.094198
0.093060
0.093204
0.095597
0.095830
0.097026
0.096655
0.097627
0.097677
0.098338
0.099654
0.099038
0.108435
0.102348
0.104088
0.110768
0.101213
0.101609
0.105407
0.106580
0.104405
0.105776
0.108460
0.117736
