Full Time (seconds)
0.141553
Incremental Time - I
0.005907
0.000089
0.000106
0.000109
0.000114
0.000112
0.000123
0.000135
0.000142
0.000162
0.000161
0.000183
0.000182
0.000192
0.000201
0.000214
0.000218
0.000224
0.000232
0.000245
0.000276
0.000475
0.000390
0.000391
0.000411
0.000417
0.000473
0.000471
0.000512
0.000456
0.000470
0.000475
0.000462
0.000544
0.000531
0.000543
0.000528
0.000489
0.000506
0.000522
0.000517
0.000549
0.000554
0.000560
0.000582
0.000653
0.000605
0.000601
0.000673
0.000612
0.000625
0.000673
0.000648
0.000731
0.000727
0.000745
0.000698
0.000702
0.000696
0.000706
0.000717
0.000743
0.000844
0.000807
0.000800
0.000804
0.000759
0.000783
0.000776
0.000777
0.000849
0.000877
0.000846
0.000838
0.000823
0.000860
0.000850
0.000864
0.000952
0.000939
0.000927
0.000965
0.000930
0.000941
0.000926
0.000963
0.000996
0.000975
0.000960
0.001034
0.001010
0.001002
0.001003
0.001082
0.001038
0.001049
0.001041
0.001051
0.001086
0.001143
0.001091
0.001153
0.001112
0.001108
0.001118
0.001102
0.001184
0.001143
0.001210
0.001174
0.001144
0.001182
0.001231
0.001256
0.001245
0.001208
0.001219
0.001201
0.001299
0.001307
0.001257
0.001240
0.001241
0.001237
0.001298
0.001329
0.001243
0.001283
0.001286
0.001276
0.001350
0.000736
0.000694
0.000663
0.000674
0.000671
0.000897
0.000957
0.000917
0.000907
0.000900
Classification Time - I
0.005798
0.006652
0.007573
0.008468
0.009447
0.010419
0.011428
0.012380
0.013323
0.014295
0.015519
0.016321
0.017635
0.018525
0.019374
0.020408
0.021175
0.021575
0.022452
0.023410
0.025041
0.025890
0.026352
0.027893
0.028032
0.029045
0.030055
0.030969
0.031853
0.032790
0.034671
0.035596
0.035780
0.037547
0.037337
0.038321
0.039221
0.040261
0.042470
0.043452
0.043032
0.044657
0.046377
0.047564
0.047544
0.047758
0.049048
0.049757
0.050746
0.053182
0.054144
0.055228
0.054508
0.055364
0.056339
0.058348
0.060057
0.059373
0.061935
0.060847
0.062544
0.062848
0.063793
0.064913
0.065376
0.067007
0.067304
0.068134
0.071602
0.070436
0.071491
0.072646
0.072932
0.074149
0.074714
0.076687
0.076989
0.077786
0.079138
0.079545
0.080698
0.084273
0.082181
0.086161
0.084227
0.085006
0.085836
0.087022
0.088405
0.089163
0.093260
0.090926
0.092843
0.096084
0.093507
0.097648
0.095528
0.096399
0.096869
0.098744
0.099164
0.103726
0.104570
0.105161
0.102491
0.104729
0.104415
0.105211
0.106674
0.109036
0.108263
0.109085
0.109880
0.110939
0.115674
0.112470
0.113518
0.114496
0.116077
0.117606
0.121457
0.122143
0.119592
0.120076
0.120694
0.122355
0.123108
0.124927
0.124230
0.124950
0.127168
0.126424
0.125960
0.126222
0.127292
0.127221
0.128766
0.128713
0.130360
0.134604
