Full Time (seconds)
0.141905
Incremental Time - I
0.002360
0.000089
0.000101
0.000101
0.000109
0.000124
0.000124
0.000132
0.000140
0.000152
0.000156
0.000095
0.000095
0.000105
0.000103
0.000095
0.000129
0.000132
0.000135
0.000137
0.000141
0.000212
0.000230
0.000235
0.000246
0.000251
0.000457
0.000435
0.000470
0.000456
0.000405
0.000416
0.000429
0.000441
0.000441
0.000545
0.000459
0.000460
0.000464
0.000550
0.000550
0.000507
0.000515
0.000525
0.000533
0.000630
0.000642
0.000638
0.000589
0.000578
0.000579
0.000670
0.000704
0.000601
0.000626
0.000632
0.000720
0.000649
0.000663
0.000736
0.000958
0.000698
0.000696
0.000700
0.000732
0.000806
0.000772
0.000715
0.000736
0.000828
0.000775
0.000760
0.000778
0.000763
0.000790
0.000782
0.000867
0.000900
0.000830
0.000841
0.000843
0.000946
0.000906
0.000883
0.001258
0.000951
0.000911
0.000914
0.000917
0.000953
0.000934
0.001015
0.001009
0.000976
0.000981
0.001098
0.001003
0.000975
0.000982
0.001000
0.001016
0.001047
0.001042
0.001131
0.001139
0.001135
0.001088
0.001078
0.001073
0.001096
0.001148
0.001174
0.001234
0.001121
0.001153
0.001149
0.001217
0.001196
0.001177
0.001194
0.001194
0.001298
0.001244
0.001257
0.001248
0.001325
0.001301
0.001327
0.000580
0.001462
0.001269
0.001380
0.001430
0.001318
0.001369
0.001235
0.001338
0.001362
0.001356
0.001408
0.001440
Classification Time - I
0.005776
0.006752
0.007741
0.008725
0.009716
0.012467
0.011611
0.012757
0.015221
0.015679
0.014988
0.015341
0.016143
0.016553
0.017002
0.017606
0.018257
0.018904
0.019283
0.020073
0.021051
0.021955
0.022921
0.023836
0.024876
0.026407
0.026240
0.026948
0.027798
0.028775
0.029792
0.031740
0.031593
0.032776
0.035279
0.034606
0.037451
0.038648
0.039555
0.038678
0.039285
0.041695
0.041240
0.042700
0.043079
0.044083
0.044918
0.046138
0.048143
0.048177
0.049121
0.051615
0.051211
0.053744
0.052689
0.053578
0.056573
0.055799
0.060233
0.059475
0.058374
0.061839
0.060998
0.061643
0.066998
0.062935
0.064226
0.069280
0.065800
0.067219
0.067953
0.068534
0.070242
0.073855
0.076448
0.072987
0.076639
0.074188
0.078077
0.077261
0.077456
0.078698
0.080070
0.080306
0.081340
0.082767
0.082712
0.083606
0.092178
0.092628
0.086269
0.087243
0.088276
0.092608
0.090028
0.091187
0.092433
0.093038
0.093624
0.094522
0.098982
0.096649
0.097649
0.098928
0.099942
0.100010
0.105571
0.103080
0.103087
0.104332
0.105072
0.105635
0.110614
0.108014
0.108392
0.116652
0.110337
0.111158
0.113312
0.112870
0.113563
0.114421
0.115583
0.117076
0.119723
0.118308
0.114345
0.133192
0.121537
0.123289
0.133787
0.123873
0.121200
0.136220
0.117634
0.128025
0.128419
0.131238
0.140282
0.140860
