Full Time (seconds)
0.130663
Incremental Time - I
0.005890
0.000088
0.000100
0.000101
0.000112
0.000114
0.000127
0.000132
0.000139
0.000167
0.000154
0.000176
0.000176
0.000192
0.000201
0.000212
0.000216
0.000220
0.000231
0.000249
0.000255
0.000454
0.000472
0.000444
0.000440
0.000471
0.000443
0.000501
0.000496
0.000480
0.000487
0.000509
0.000499
0.000506
0.000526
0.000556
0.000522
0.000535
0.000576
0.000561
0.000588
0.000624
0.000599
0.000599
0.000612
0.000633
0.000642
0.000642
0.000668
0.000665
0.000676
0.000448
0.000409
0.000417
0.000425
0.000449
0.000524
0.000497
0.000540
0.000523
0.000536
0.000743
0.000762
0.000748
0.000794
0.000766
0.000790
0.000803
0.000796
0.000792
0.000823
0.000834
0.000850
0.000877
0.000864
0.000885
0.000878
0.000885
0.000882
0.000911
0.000908
0.000915
0.000934
0.000932
0.000961
0.000951
0.000957
0.000983
0.000976
0.000971
0.000978
0.001009
0.001014
0.001026
0.001038
0.001070
0.001059
0.001079
0.001079
0.001078
0.001107
0.001110
0.001063
0.001113
0.001137
0.001130
0.001131
0.001129
0.001141
0.001163
0.001168
0.001211
0.001208
0.001225
0.001207
0.001210
0.001230
0.001210
0.001278
0.001270
0.001262
0.001248
0.001291
0.001281
0.001268
0.001261
0.001293
0.001274
0.001321
0.001316
0.001345
0.001383
0.001381
0.001386
0.001362
0.001320
0.001365
0.001406
0.001317
0.001244
0.001331
Classification Time - I
0.005785
0.006700
0.007684
0.008634
0.009578
0.010523
0.011460
0.012445
0.013424
0.014421
0.015384
0.016375
0.017255
0.018128
0.018907
0.019821
0.020634
0.021665
0.022903
0.023264
0.024260
0.025006
0.026819
0.027344
0.028584
0.029637
0.030646
0.031652
0.031556
0.032537
0.034118
0.035342
0.035123
0.036067
0.037012
0.037890
0.039185
0.040321
0.042251
0.041730
0.042701
0.045120
0.045689
0.047000
0.046442
0.049225
0.048314
0.050391
0.050612
0.051141
0.053123
0.053010
0.053003
0.052871
0.053509
0.053697
0.056346
0.055044
0.055838
0.057891
0.058873
0.059756
0.059992
0.061674
0.062635
0.063616
0.064818
0.063209
0.064307
0.067748
0.066134
0.067496
0.070446
0.068966
0.069720
0.072394
0.074278
0.072847
0.073953
0.075366
0.078417
0.079256
0.080228
0.079916
0.079386
0.083202
0.084396
0.082862
0.082846
0.084009
0.086305
0.089207
0.090392
0.091177
0.090023
0.089373
0.094168
0.093997
0.092503
0.093250
0.097620
0.095860
0.095964
0.099929
0.098313
0.102749
0.103219
0.103100
0.101527
0.106192
0.106399
0.104752
0.105220
0.110712
0.106887
0.107537
0.112787
0.110049
0.114962
0.115634
0.112376
0.113129
0.118367
0.114951
0.120745
0.120486
0.118273
0.118758
0.120222
0.120440
0.121468
0.122815
0.123505
0.124081
0.125243
0.126435
0.132052
0.118072
0.123738
0.120021
