Full Time (seconds)
0.141869
Incremental Time - I
0.005110
0.000089
0.000104
0.000106
0.000110
0.000113
0.000129
0.000125
0.000149
0.000164
0.000160
0.000191
0.000178
0.000199
0.000210
0.000222
0.000224
0.000224
0.000227
0.000244
0.000253
0.000472
0.000447
0.000435
0.000420
0.000419
0.000422
0.000429
0.000443
0.000456
0.000457
0.000465
0.000479
0.000478
0.000479
0.000493
0.000499
0.000522
0.000508
0.000553
0.000531
0.000617
0.000631
0.000619
0.000648
0.000623
0.000623
0.000647
0.000643
0.000664
0.000647
0.000701
0.000679
0.000692
0.000693
0.000712
0.000730
0.000722
0.000717
0.000718
0.000747
0.000777
0.000748
0.000793
0.000815
0.000833
0.000786
0.000796
0.000819
0.000814
0.000834
0.000475
0.000443
0.000449
0.000478
0.000468
0.000617
0.000601
0.000598
0.000622
0.000616
0.000928
0.000941
0.000914
0.000945
0.000899
0.000929
0.000978
0.000980
0.001007
0.001010
0.001004
0.001010
0.001014
0.001001
0.001020
0.001066
0.001077
0.001063
0.001080
0.001063
0.001094
0.001083
0.001076
0.001089
0.001092
0.001134
0.001102
0.001095
0.001161
0.001114
0.001187
0.001125
0.001196
0.001200
0.001218
0.001219
0.001214
0.001280
0.001223
0.001252
0.001271
0.001242
0.001199
0.001287
0.001307
0.001257
0.001279
0.001314
0.001305
0.001336
0.001370
0.001390
0.001286
0.001351
0.001397
0.001404
0.001404
0.001424
0.001420
0.001405
Classification Time - I
0.005771
0.006613
0.007558
0.008485
0.009450
0.010442
0.011456
0.012515
0.013212
0.014459
0.015535
0.016211
0.017504
0.017981
0.018840
0.020095
0.020961
0.021993
0.022322
0.023880
0.024881
0.025213
0.025826
0.027488
0.028091
0.028665
0.029553
0.031501
0.031455
0.032381
0.034373
0.034166
0.035120
0.036108
0.037043
0.038386
0.039321
0.039985
0.042172
0.043474
0.042776
0.045153
0.044770
0.045473
0.047171
0.048944
0.049894
0.049821
0.050156
0.051219
0.052063
0.053034
0.054361
0.054939
0.055892
0.056993
0.057735
0.058672
0.060833
0.062671
0.061707
0.062712
0.064605
0.065101
0.065024
0.066692
0.069040
0.067921
0.070169
0.069797
0.072741
0.070484
0.073392
0.072673
0.072186
0.073237
0.075395
0.075857
0.074221
0.075013
0.075579
0.076321
0.079983
0.078511
0.079152
0.079996
0.083607
0.081937
0.083509
0.084295
0.085697
0.085840
0.086734
0.088406
0.088763
0.089919
0.091758
0.093873
0.092139
0.094522
0.094480
0.094748
0.095606
0.097899
0.098649
0.098717
0.099854
0.102503
0.101812
0.102825
0.103351
0.105336
0.105177
0.105782
0.108953
0.107623
0.108639
0.109825
0.114985
0.111884
0.112046
0.114064
0.114586
0.114870
0.116499
0.116944
0.117633
0.119663
0.120165
0.120303
0.121641
0.124224
0.126417
0.124587
0.126542
0.125949
0.129043
0.127502
0.129280
0.129264
