Full Time (seconds)
0.005662
Incremental Time - I
0.001301
0.000065
0.000067
0.000071
0.000074
0.000087
0.000090
0.000098
0.000107
0.000102
0.000138
0.000082
0.000077
0.000077
0.000068
0.000075
0.000089
0.000091
0.000098
0.000164
0.000099
0.000228
0.000257
0.000271
0.002090
0.001260
0.001056
0.000945
0.002006
0.002185
0.001130
Classification Time - I
0.000721
0.001009
0.000887
0.000995
0.001087
0.001188
0.001295
0.001427
0.001539
0.001665
0.001691
0.001739
0.001783
0.001826
0.001864
0.001954
0.002016
0.002081
0.002156
0.002221
0.002504
0.003277
0.002931
0.003157
0.003413
0.003667
0.003943
0.004284
0.004472
0.004864
