Full Time (seconds)
0.478623
Time - I
0.215100
0.264153
0.258447
0.326492
0.304206
0.330726
0.362822
0.361462
0.414128
0.421585
0.369707
0.353064
0.420860
0.447137
0.440596
0.387930
0.367884
0.298562
0.412867
0.404290
0.425919
