Full Accuracy
79.533333
Accuracy - I
cat: testS_0.svm.acc: No such file or directory
50.000000
50.000000
50.000000
50.000000
50.000000
50.000000
50.000000
50.000000
50.000000
50.000000
50.000000
50.000000
50.000000
53.977783
62.422222
64.111115
65.511116
66.711113
67.733337
68.088890
68.088890
68.088890
68.088890
71.711113
74.177780
77.400002
78.822220
79.422226
79.511108
79.533333
