Full Accuracy
79.533333
Accuracy - I
cat: testS_0.svm.acc: No such file or directory
50.000000
69.133339
67.688889
66.133331
64.866669
64.200005
64.000000
63.288887
62.177776
61.466663
64.022224
64.844444
65.466667
66.066666
66.844444
66.977776
67.577782
67.733337
67.599998
68.088890
68.088890
68.088890
68.088890
71.711113
74.177780
77.400002
78.822220
79.422226
79.511108
79.533333
