Full Time (seconds)
0.005665
Incremental Time - I
0.001298
0.000065
0.000071
0.000074
0.000075
0.000090
0.000093
0.000095
0.000103
0.000123
0.000131
0.000073
0.000070
0.000074
0.000070
0.000074
0.000086
0.000094
0.000092
0.000098
0.000097
0.000302
0.000263
0.000276
0.001776
0.001698
0.001693
0.001733
0.001614
0.001639
0.001728
Classification Time - I
0.000732
0.000849
0.000890
0.000979
0.001167
0.001198
0.001300
0.001406
0.001524
0.001638
0.001743
0.001778
0.001818
0.001822
0.001901
0.001934
0.002061
0.002093
0.002262
0.002257
0.002537
0.002694
0.003094
0.003139
0.003406
0.003677
0.003946
0.004176
0.004549
0.004858
