Full Time (seconds)
0.203780
Time - I
0.221547
0.256310
0.241776
0.249587
0.298831
0.274164
0.285160
0.276824
0.316344
0.317495
0.333106
0.368984
0.361633
0.319953
0.314230
0.292470
0.273475
0.257102
0.265748
0.224940
0.221757
