Full Time (seconds)
0.501736
Time - I
0.012832
0.019164
0.045701
0.068705
0.082519
0.122844
0.145890
0.173904
0.194088
0.210279
0.202682
0.247393
0.246121
0.302558
0.326809
0.326086
0.336991
0.369138
0.410463
0.433936
0.460043
