Full Time (seconds)
0.002763
Time - I
0.000818
0.000887
0.000939
0.000994
0.001070
0.001150
0.001184
0.001359
0.001625
0.001430
0.001523
0.001505
0.001904
0.001690
0.001688
0.001779
0.001889
0.001889
0.001953
0.002029
0.002087
0.002152
0.002225
0.002281
0.002355
0.002430
0.002476
0.002551
0.002620
0.002699
0.002773
