Full Time (seconds)
0.032792
Incremental Time - I
0.063426
0.000763
0.000672
0.000727
0.000793
0.000822
0.000904
0.000968
0.001024
0.001062
0.001090
0.001197
0.001241
0.001314
0.001367
0.001426
0.001675
0.001706
0.001868
0.002035
0.001965
Classification Time - I
0.007956
0.009016
0.010146
0.011453
0.014818
0.013365
0.014698
0.015393
0.016475
0.017530
0.019493
0.019516
0.020985
0.021853
0.022888
0.024385
0.025288
0.024509
0.028318
0.028812
