Full Time (seconds)
0.032416
Incremental Time - I
0.006426
0.000315
0.000367
0.000447
0.000917
0.000787
0.000953
0.001034
0.001002
0.001140
0.001184
0.001333
0.001437
0.001525
0.001605
0.001651
0.001852
0.001906
0.002055
0.002244
0.002280
Classification Time - I
0.004944
0.005987
0.007921
0.008717
0.009890
0.011293
0.012888
0.014056
0.015569
0.016600
0.017754
0.019047
0.020363
0.021498
0.023361
0.024471
0.026411
0.028702
0.028334
0.029821
