Full Accuracy
80.976158
Accuracy - I
50.000000
82.296417
81.305237
78.319969
77.628746
77.301094
75.969116
75.463318
74.174057
72.015915
71.688255
73.169746
73.540115
73.518753
74.957520
76.438995
79.031601
79.950485
80.997513
80.997513
80.976158
