Full Time (seconds)
0.001654
Incremental Time - I
0.000174
0.000148
0.000161
0.000177
0.000187
0.000194
0.000211
0.000223
0.000236
0.000246
0.000256
0.000271
0.000209
0.000200
0.000220
0.000200
0.000213
0.000247
0.000238
0.000214
0.000215
0.000641
0.001659
0.002429
0.006958
0.007344
0.006890
0.006154
0.007184
0.010358
0.013288
Classification Time - C
0.000647
0.000591
0.000594
0.000589
0.000622
0.000581
0.000625
0.000583
0.000575
0.000582
0.000613
0.000590
0.000549
0.000556
0.000553
0.000614
0.000601
0.000621
0.000562
0.000594
0.000548
0.000737
0.000772
0.000817
0.001049
0.001103
0.001100
0.001197
0.001228
0.001355
0.001365
