Full Time (seconds)
0.020635
Time - I
0.002611
0.003402
0.004134
0.004821
0.005587
0.006333
0.006965
0.007624
0.008347
0.009042
0.009700
0.010588
0.011110
0.011808
0.012629
0.013477
0.014658
0.014997
0.015632
0.016368
0.017162
