Full Accuracy
84.798309
Accuracy - I
50.000000
69.379463
76.283318
80.540176
83.012375
86.054039
86.022774
86.263451
86.263451
87.037224
86.736855
86.974693
88.077820
88.616028
88.378189
86.619522
86.319145
86.350410
86.350410
85.067421
84.798309
