Full Time (seconds)
0.002602
Time - I
0.000361
0.000442
0.000538
0.000645
0.000742
0.000850
0.000950
0.001055
0.001390
0.001254
0.001626
0.001646
0.001555
0.001672
0.001785
0.001916
0.002059
0.002590
0.002271
0.002449
0.002584
