Full Time (seconds)
0.253027
Time - I
0.012850
0.022343
0.036589
0.049725
0.069239
0.131801
0.145241
0.215285
0.190466
0.213150
0.214808
0.235074
0.241984
0.282868
0.243501
0.242529
0.246081
0.413024
0.248935
0.262136
0.243754
