Full Time (seconds)
0.395840
Incremental Time - I
0.980591
0.030927
0.032063
0.025026
0.035825
0.022343
0.024539
0.022809
0.049094
0.049252
0.055420
0.007354
0.006879
0.004059
0.004207
0.003680
0.007412
0.003776
0.006937
0.004274
0.003701
Classification Time - I
0.437729
0.406491
0.380031
0.350325
0.327381
0.319204
0.315790
0.295567
0.747177
0.756545
0.560524
0.760322
0.462715
0.421124
0.375889
0.747858
0.789357
0.682080
0.436879
0.385529
