Full Time (seconds)
0.017015
Time - I
0.002344
0.002643
0.003235
0.004454
0.005129
0.005874
0.005639
0.006177
0.006770
0.007342
0.009365
0.010080
0.010783
0.011666
0.012555
0.014671
0.014250
0.014568
0.015692
0.015678
0.016432
