Full Time (seconds)
0.448967
Incremental Time - I
cat: testS_0.svm.time: No such file or directory
0.061846
0.153733
0.259105
0.358113
0.414081
Classification Time - C
0.162898
0.236726
0.241393
0.247793
0.438858
