Full Time (seconds)
0.275122
Time - I
0.257821
0.096565
0.307836
0.142844
0.367550
0.390157
0.352344
0.338066
0.327514
0.288709
0.285525
0.287267
0.263831
0.258710
0.260823
0.252309
0.254994
0.262149
0.271983
0.281453
0.286773
