Full Time (seconds)
0.098793
Time - I
0.004195
0.008641
0.012821
0.016984
0.021393
0.025143
0.029781
0.033303
0.038537
0.044097
0.047296
0.051555
0.057526
0.063559
0.069747
0.076149
0.081679
0.087851
0.094465
0.093891
0.098258
