Full Time (seconds)
0.265945
Time - I
0.002329
0.003455
0.004663
0.006209
0.006574
0.007801
0.008130
0.009129
0.010422
0.012638
0.013265
0.013958
0.015423
0.017101
0.017598
0.019172
0.021200
0.022781
0.022686
0.023743
0.025255
0.027672
0.027355
0.029610
0.030045
0.031031
0.032476
0.033617
0.034599
0.035719
0.037942
0.039005
0.039933
0.040972
0.042656
0.044494
0.046433
0.047614
0.046915
0.048181
0.050141
0.055074
0.051316
0.052957
0.056228
0.076989
0.056838
0.057104
0.059730
0.061381
0.060959
0.063386
0.063045
0.064175
0.067045
0.067604
0.067601
0.069346
0.070803
0.072541
0.076123
0.073796
0.075768
0.076448
0.077881
0.082969
0.080396
0.086943
0.082950
0.083879
0.084972
0.085682
0.087882
0.092339
0.089175
0.100657
0.088901
0.092721
0.094196
0.095238
0.096398
0.099273
0.093873
0.099967
0.101182
0.102356
0.112485
0.113569
0.106036
0.107761
0.109422
0.102645
0.104983
0.105311
0.118123
0.115434
0.118745
0.118882
0.119528
0.118836
0.120109
0.124786
0.122717
0.123596
0.128987
0.127342
0.128072
0.132974
0.130713
0.131121
0.131775
0.133937
0.138895
0.137502
0.142017
0.138088
0.140238
0.140239
0.132912
0.143607
0.149117
0.147530
0.151809
0.146944
0.142378
0.138065
0.161235
0.153666
0.154924
0.160954
0.169414
0.171083
0.147477
0.164872
0.160600
0.163787
0.167462
0.163838
0.168576
0.166324
0.171008
0.168625
0.170151
0.170740
0.172382
0.176592
0.180567
0.175855
0.178505
0.181374
0.180735
0.181455
0.182004
0.182635
0.185270
0.184976
0.201612
0.192806
0.190319
0.192144
0.177411
0.192485
0.193454
0.210821
0.195660
0.180492
0.207470
0.201750
0.207347
0.201870
0.192329
0.207617
0.209271
0.210829
0.201627
0.202706
0.199151
0.211280
0.212917
0.215154
0.226153
0.222725
0.217057
0.218329
0.216470
0.209128
0.223499
0.226908
0.209366
0.225615
0.230773
0.228631
0.222653
0.231935
0.242174
0.238052
0.203593
0.205050
0.238104
0.237436
0.209375
0.240025
0.240947
0.229185
0.216831
0.214743
0.245196
0.225128
0.232963
0.203086
0.250678
