Full Time (seconds)
0.002543
Time - I
0.000355
0.000444
0.000461
0.000503
0.000563
0.000620
0.000687
0.000752
0.000802
0.000865
0.000934
0.000958
0.001001
0.001010
0.001036
0.001318
0.001143
0.001175
0.001174
0.001214
0.001263
0.001363
0.001547
0.001658
0.001760
0.001957
0.002128
0.002671
0.002355
0.002459
0.002617
