Full Time (seconds)
0.002786
Time - I
0.000441
0.000502
0.000581
0.000614
0.000700
0.001253
0.000800
0.000867
0.000929
0.001024
0.001070
0.001085
0.001112
0.001139
0.001165
0.001194
0.002299
0.002383
0.002415
0.002459
0.001446
0.001619
0.001706
0.001829
0.001948
0.002059
0.002213
0.002349
0.002532
0.002625
0.004346
