Full Time (seconds)
0.002988
Time - I
0.000483
0.000904
0.000548
0.000944
0.001022
0.000633
0.000680
0.000690
0.000730
0.000804
0.000826
0.000887
0.000970
0.001067
0.001176
0.001226
0.001304
0.001416
0.001473
0.001520
0.001596
0.001735
0.001898
0.002012
0.002160
0.002289
0.002440
0.002579
0.002780
0.002882
0.003037
