Full Time (seconds)
0.002963
Time - I
0.000931
0.000995
0.001061
0.001127
0.001205
0.000717
0.001336
0.001386
0.001454
0.001520
0.001610
0.001656
0.001724
0.001803
0.001874
0.001956
0.001098
0.001127
0.002145
0.002183
0.002260
0.002328
0.002383
0.002459
0.002543
0.002600
0.002682
0.002752
0.002788
0.002881
0.002980
