Full Time (seconds)
0.765406
Time - I
0.253317
0.281924
0.317327
0.323129
0.326796
0.353144
0.327473
0.319849
0.323890
0.322934
0.549268
0.564724
0.579174
0.488970
0.464673
0.480672
0.657888
0.752148
0.609254
0.498205
0.455915
