Full Time (seconds)
0.436350
Time - I
0.165655
0.200890
0.232036
0.282134
0.303498
0.329289
0.361424
0.358204
0.329032
0.312990
0.327578
0.307933
0.542013
0.487568
0.315672
0.356324
0.335570
0.321665
0.304236
0.296027
0.690806
