Full Accuracy
87.332100
Accuracy - I
50.000000
67.502800
74.083984
78.145859
80.105057
82.102898
82.897614
84.012451
84.481583
85.003136
85.113510
85.497055
85.756447
86.600807
86.876747
86.829872
87.378983
87.492119
87.696327
87.828789
88.046768
