Full Time (seconds)
0.080060
Time - I
0.004955
0.010786
0.013872
0.017712
0.023557
0.028031
0.020252
0.036759
0.038175
0.028072
0.032548
0.037209
0.041108
0.045936
0.049972
0.055529
0.068732
0.054915
0.078118
0.101096
0.080945
