Full Time (seconds)
0.117795
Time - I
0.005545
0.010811
0.015200
0.017692
0.021496
0.025605
0.031623
0.033499
0.041713
0.044750
0.046190
0.052119
0.058327
0.064281
0.073385
0.079170
0.082601
0.088665
0.094836
0.094433
0.118853
