Full Time (seconds)
0.118756
Time - I
0.006135
0.008939
0.013803
0.017470
0.021636
0.025751
0.031613
0.038681
0.042893
0.045427
0.050105
0.058504
0.065203
0.069741
0.071191
0.076244
0.082489
0.091699
0.105112
0.112517
0.117705
