Full Time (seconds)
0.119916
Time - I
0.004559
0.010825
0.015407
0.019352
0.023892
0.025712
0.032741
0.037799
0.038049
0.042550
0.050278
0.052721
0.058683
0.064579
0.071199
0.076324
0.093770
0.099275
0.106017
0.111296
0.111038
