Full Time (seconds)
0.233528
Time - I
0.002254
0.003507
0.004705
0.006337
0.007845
0.008832
0.009841
0.010927
0.011988
0.013421
0.014632
0.015707
0.017716
0.018279
0.019705
0.021287
0.021618
0.022522
0.023097
0.024711
0.024782
0.026311
0.029258
0.029875
0.032026
0.031245
0.032936
0.033830
0.034878
0.035694
0.037973
0.040782
0.041619
0.042860
0.044326
0.043206
0.047508
0.045758
0.046388
0.048572
0.048775
0.051257
0.051637
0.052449
0.053950
0.055063
0.058358
0.061880
0.060138
0.059774
0.061041
0.063342
0.063635
0.069907
0.065952
0.068261
0.068342
0.071889
0.073131
0.071370
0.074000
0.074490
0.077580
0.079330
0.077337
0.080215
0.082016
0.081630
0.085215
0.086300
0.088077
0.085877
0.087001
0.095441
0.089941
0.091648
0.092776
0.096354
0.099008
0.095071
0.096623
0.098568
0.099489
0.103391
0.101123
0.102322
0.107115
0.106690
0.108808
0.108503
0.110124
0.110911
0.114184
0.114053
0.115707
0.115853
0.117055
0.118101
0.118767
0.113146
0.114873
0.125571
0.127594
0.126886
0.117161
0.120076
0.119425
0.119057
0.125519
0.131292
0.136038
0.136397
0.136918
0.139418
0.141119
0.138329
0.143559
0.140699
0.146666
0.144138
0.134101
0.138310
0.157900
0.140165
0.140874
0.140176
0.140143
0.152006
0.158081
0.159446
0.160691
0.156404
0.159178
0.160827
0.160773
0.165778
0.167356
0.165568
0.168928
0.168585
0.170103
0.172490
0.170181
0.171456
0.177536
0.173999
0.176488
0.178515
0.191896
0.192018
0.183572
0.181370
0.185399
0.182889
0.176606
0.185013
0.190790
0.190225
0.192460
0.196614
0.196196
0.193410
0.200548
0.180317
0.187523
0.202015
0.202318
0.199994
0.193047
0.197469
0.207808
0.204620
0.206149
0.206867
0.209274
0.208637
0.210286
0.211122
0.217191
0.211141
0.185177
0.215737
0.223559
0.234457
0.220922
0.226087
0.224708
0.224336
0.232738
0.194759
0.223791
0.229737
0.245948
0.218782
0.213198
0.219370
0.218003
0.220575
0.224539
0.226575
0.255537
0.245055
0.242265
0.247494
0.245720
0.245619
0.249698
0.215219
0.249561
0.254421
0.255536
