Full Time (seconds)
0.236939
Time - I
0.002291
0.003431
0.004560
0.006131
0.008571
0.008317
0.009740
0.010865
0.011918
0.015357
0.013835
0.014378
0.015148
0.016313
0.017696
0.018986
0.021029
0.020868
0.022673
0.023515
0.027140
0.026629
0.028033
0.028090
0.029642
0.031048
0.031735
0.033190
0.037229
0.035293
0.036708
0.040503
0.040268
0.040365
0.042068
0.048918
0.044026
0.044948
0.047567
0.048875
0.049234
0.050582
0.051956
0.052031
0.053083
0.055662
0.056512
0.058692
0.061004
0.059329
0.061712
0.062703
0.063393
0.063753
0.070028
0.066258
0.067882
0.069651
0.070635
0.073105
0.073690
0.079358
0.074618
0.081588
0.080192
0.079101
0.081577
0.081589
0.081736
0.098082
0.084577
0.087221
0.087648
0.087681
0.093266
0.090429
0.091223
0.092451
0.093790
0.099537
0.096478
0.097422
0.108218
0.108394
0.103999
0.103212
0.107873
0.105202
0.110712
0.107320
0.108772
0.113495
0.110586
0.114758
0.114014
0.117385
0.125625
0.116619
0.121108
0.119609
0.123639
0.123651
0.133354
0.126091
0.135562
0.125808
0.131130
0.138481
0.140440
0.142385
0.132911
0.138100
0.145851
0.139004
0.142125
0.134197
0.151195
0.140322
0.145981
0.143652
0.154778
0.146093
0.149537
0.153040
0.149667
0.152768
0.150775
0.156928
0.154004
0.158326
0.166608
0.149384
0.159022
0.164110
0.148858
0.161183
0.163943
0.167027
0.167724
0.173277
0.167428
0.169072
0.174935
0.171883
0.177833
0.174690
0.179425
0.177199
0.176642
0.179622
0.178926
0.184301
0.181342
0.188385
0.187199
0.190857
0.192037
0.194401
0.189866
0.189424
0.194626
0.197449
0.212492
0.210485
0.195177
0.207869
0.198168
0.205095
0.202194
0.216776
0.219431
0.209332
0.190386
0.203091
0.208848
0.216906
0.211660
0.205708
0.195954
0.187897
0.185331
0.190403
0.188259
0.197225
0.202977
0.194251
0.191686
0.195015
0.193848
0.196659
0.183967
0.184946
0.174478
0.175383
0.176360
0.176942
0.178391
0.177308
0.178735
0.181746
0.190573
0.193905
0.192503
0.241521
0.233197
0.245446
0.246845
0.248528
0.248390
0.237067
0.232175
