Full Time (seconds)
0.211872
Time - I
0.002294
0.003448
0.004590
0.006974
0.007252
0.008273
0.009737
0.010803
0.011850
0.013296
0.014430
0.016814
0.017184
0.018115
0.019151
0.020551
0.021769
0.022840
0.025628
0.024922
0.025583
0.025977
0.027488
0.028385
0.029579
0.031708
0.031717
0.033114
0.034158
0.035319
0.040470
0.039777
0.039138
0.040737
0.044295
0.042525
0.044810
0.048284
0.047649
0.052913
0.051830
0.055451
0.051038
0.052116
0.054444
0.055178
0.059245
0.056856
0.058089
0.060496
0.063619
0.064815
0.062744
0.065570
0.065917
0.070824
0.067688
0.069169
0.069947
0.072749
0.072863
0.074063
0.075738
0.076399
0.080781
0.078155
0.079445
0.081099
0.086363
0.083025
0.085477
0.087410
0.090306
0.088308
0.096436
0.099720
0.091157
0.101164
0.094279
0.091445
0.097529
0.099586
0.098323
0.094596
0.098951
0.102056
0.107955
0.106583
0.108349
0.106657
0.116592
0.108988
0.110744
0.105866
0.112999
0.114018
0.115539
0.116289
0.117335
0.119063
0.119712
0.122154
0.123251
0.125699
0.127543
0.128780
0.130051
0.130958
0.131855
0.131129
0.132165
0.135014
0.135539
0.138540
0.137187
0.140331
0.140404
0.141740
0.141625
0.143015
0.143892
0.147168
0.157891
0.151193
0.148081
0.149704
0.150819
0.156350
0.156992
0.154199
0.159992
0.160707
0.149524
0.153082
0.152507
0.152870
0.153954
0.153019
0.161522
0.173096
0.172800
0.168523
0.174402
0.184583
0.176246
0.178324
0.178757
0.175998
0.180655
0.179195
0.183413
0.186216
0.185528
0.174592
0.183703
0.190172
0.191653
0.187052
0.178284
0.193803
0.193352
0.191691
0.193558
0.194489
0.200333
0.204867
0.186377
0.187736
0.176624
0.177508
0.178200
0.179314
0.204750
0.165479
0.179782
0.187626
0.200085
0.211177
0.218019
0.213265
0.218900
0.218286
0.220353
0.217912
0.237071
0.221089
0.288104
0.225292
0.224078
0.227780
0.232446
0.220843
0.230375
0.300572
0.238042
0.233185
0.219694
0.217329
0.206016
0.243581
0.208046
0.242764
0.246636
0.241631
0.243335
0.227802
0.250375
0.230043
0.251047
0.233624
0.218799
