Full Time (seconds)
0.256369
Time - I
0.002314
0.003549
0.004631
0.006225
0.007586
0.008436
0.010078
0.010968
0.012027
0.013506
0.016416
0.016248
0.017264
0.017729
0.019135
0.019040
0.021886
0.021199
0.022890
0.024966
0.026325
0.027390
0.029057
0.031731
0.031851
0.032591
0.032892
0.033794
0.034504
0.036214
0.037081
0.038179
0.039177
0.040760
0.042297
0.043312
0.044888
0.048038
0.046295
0.047703
0.048758
0.049867
0.052345
0.052405
0.054523
0.056143
0.056897
0.058279
0.059083
0.060173
0.061579
0.063429
0.067675
0.065824
0.068399
0.068973
0.069180
0.071519
0.076021
0.073056
0.072765
0.075745
0.077344
0.076330
0.078867
0.080408
0.079850
0.080828
0.084650
0.084977
0.086674
0.087705
0.082666
0.083031
0.084197
0.091064
0.093565
0.094481
0.096593
0.097948
0.098926
0.100209
0.098685
0.099771
0.102922
0.104318
0.105342
0.106777
0.107970
0.109025
0.108320
0.112080
0.120334
0.114694
0.114357
0.114185
0.118628
0.116475
0.120246
0.121251
0.120114
0.122742
0.115157
0.123679
0.125707
0.119534
0.129426
0.129817
0.139362
0.133400
0.133944
0.133231
0.135946
0.137493
0.139180
0.140843
0.139509
0.143198
0.144860
0.142589
0.147772
0.145179
0.136896
0.147821
0.150491
0.150139
0.151171
0.154994
0.155592
0.153175
0.168456
0.146188
0.140094
0.141182
0.149296
0.174043
0.163352
0.142909
0.153440
0.168948
0.170337
0.170016
0.171727
0.172425
0.171914
0.167309
0.167298
0.166955
0.177790
0.182233
0.183693
0.170506
0.196699
0.186773
0.184436
0.189003
0.195706
0.197087
0.182854
0.189986
0.192453
0.217362
0.181251
0.198519
0.199660
0.199857
0.185873
0.187718
0.187843
0.191984
0.191736
0.181288
0.178559
0.180530
0.209851
0.209320
0.214271
0.214566
0.215547
0.230541
0.214722
0.219229
0.216731
0.218705
0.222745
0.220350
0.224252
0.223755
0.227335
0.227781
0.229014
0.229621
0.229045
0.229878
0.236642
0.237976
0.237732
0.229700
0.207304
0.241891
0.242129
0.242967
0.227887
0.226590
0.230785
0.230144
0.224163
0.211928
0.229146
0.249820
0.251966
