Full Accuracy
88.046768
Accuracy - I
50.000000
78.260979
82.540115
82.923508
85.158325
85.974976
86.650925
87.117210
87.246826
87.404076
87.450943
87.644066
87.586105
87.486740
87.933701
88.021988
87.837105
87.980576
87.853653
87.919846
88.046768
