Full Time (seconds)
0.448468
Time - I
0.249283
0.276224
0.307420
0.355580
0.319757
0.306316
0.417215
0.351036
0.330851
0.393360
0.517812
0.478248
0.419303
0.381827
0.369191
0.333016
0.315301
0.326671
0.270461
0.769175
0.716580
