Full Time (seconds)
0.810262
Time - I
0.161501
0.196510
0.225365
0.238527
0.254992
0.258471
0.304752
0.134503
0.441160
0.453893
0.483384
0.442106
0.416479
0.373709
0.406954
0.464952
0.710930
0.693565
0.587568
0.685171
0.879550
