Full Time (seconds)
0.188230
Incremental Time - I
0.013964
0.000055
0.000053
0.000060
0.000064
0.000065
0.000064
0.000061
0.000072
0.000073
0.000067
0.066925
0.108539
0.073374
0.112442
0.213225
0.134771
0.151204
0.262997
0.351796
0.311459
Classification Time - C
0.060657
0.023153
0.044776
0.035220
0.044706
0.044984
0.044578
0.050602
0.044604
0.044688
0.045449
0.139528
0.100669
0.134175
0.241323
0.254434
0.140343
0.191760
0.258162
0.313863
0.243250
