Full Time (seconds)
0.249600
Incremental Time - I
0.000179
0.000046
0.000059
0.000075
0.000064
0.000079
0.000106
0.000086
0.000097
0.000119
0.000101
0.000111
0.000146
0.000063
0.000095
0.000099
0.000134
0.000142
0.000172
0.000150
0.000161
0.000204
0.000171
0.000182
0.000236
0.000204
0.000203
0.000258
0.000219
0.000213
0.000290
0.000228
0.000233
0.000314
0.000257
0.000251
0.000336
0.000270
0.000292
0.001416
0.000888
0.000702
0.000815
0.000835
0.000833
0.000953
0.000866
0.000896
0.000915
0.000872
0.000969
0.000915
0.000884
0.000842
0.000972
0.000943
0.000963
0.001074
0.000939
0.000895
0.000995
0.000940
0.000962
0.001123
0.001042
0.001028
0.001173
0.001016
0.001077
0.001291
0.001101
0.001047
0.001238
0.001123
0.001093
0.001318
0.001057
0.001074
0.001210
0.001131
0.001115
0.001202
0.001150
0.001174
0.001337
0.001189
0.001138
0.001374
0.001220
0.001239
0.001370
0.001213
0.001255
0.001405
0.001257
0.001228
0.001443
0.001266
0.001183
0.001452
0.001290
0.001247
0.001493
0.001310
0.001323
0.001477
0.001322
0.001337
0.001601
0.001328
0.001283
0.001604
0.001338
0.001421
0.001623
0.001388
0.001404
0.001580
0.001349
0.001408
0.001648
0.001432
0.001408
0.001702
0.001463
0.001421
0.001643
0.001425
0.001505
0.001742
0.001513
0.001500
0.001813
0.001554
0.001479
0.001819
0.001559
0.001602
0.001822
0.001627
0.001510
0.001861
0.001618
0.001578
0.001914
0.001753
0.001657
0.001934
0.001560
0.001473
0.002039
0.001675
0.001628
0.001790
0.001582
0.001713
0.002093
0.001758
0.001718
0.002090
0.001780
0.001634
0.001791
0.001502
0.001522
0.001871
0.001508
0.001699
0.001861
0.001620
0.001741
0.002164
0.001852
0.001758
0.002001
0.001883
0.001704
0.002056
0.001783
0.001793
0.002128
0.001592
0.001607
0.002283
0.001857
0.001880
0.002324
0.001946
0.001849
0.002215
0.001852
0.002136
0.002533
0.002084
0.002079
0.002476
0.002003
0.001880
0.002231
0.002048
0.001993
0.002449
0.001975
0.002036
0.002102
0.001779
0.001800
0.002297
0.001891
0.001872
0.002014
Classification Time - I
0.003251
0.004452
0.006068
0.007260
0.009081
0.010400
0.011160
0.013083
0.013984
0.015241
0.016345
0.017931
0.018323
0.019152
0.019903
0.021109
0.022666
0.023910
0.025034
0.026171
0.027762
0.028952
0.030116
0.032223
0.032871
0.034117
0.035666
0.037873
0.038076
0.039205
0.040313
0.041441
0.043504
0.044235
0.046113
0.046911
0.048205
0.049241
0.050864
0.051931
0.053245
0.054701
0.056081
0.056968
0.058455
0.060173
0.061081
0.065373
0.063649
0.064725
0.067513
0.067599
0.068691
0.070375
0.071513
0.072495
0.074718
0.075378
0.076602
0.078081
0.079497
0.080508
0.082994
0.083248
0.085908
0.086681
0.088643
0.089870
0.090183
0.091029
0.093902
0.095861
0.095046
0.096534
0.099377
0.098755
0.100477
0.103705
0.103329
0.103823
0.105419
0.106422
0.107814
0.110244
0.112444
0.111746
0.113742
0.113789
0.115475
0.116651
0.119094
0.121086
0.122543
0.122023
0.122813
0.125395
0.125613
0.126746
0.128663
0.129412
0.131313
0.132270
0.133473
0.134408
0.136068
0.137187
0.138345
0.140204
0.140755
0.142454
0.143492
0.144958
0.146699
0.147821
0.151321
0.152591
0.153941
0.152500
0.153927
0.155642
0.156235
0.157790
0.158936
0.160030
0.161213
0.162691
0.166119
0.168113
0.167322
0.168722
0.169634
0.170602
0.171732
0.173417
0.174358
0.175933
0.176723
0.178234
0.179545
0.180537
0.182366
0.186661
0.187669
0.187140
0.187366
0.176914
0.175191
0.166656
0.184386
0.196956
0.194407
0.198276
0.185562
0.189650
0.199713
0.201623
0.202822
0.203920
0.189420
0.193125
0.177786
0.180976
0.182866
0.181501
0.185775
0.213577
0.215815
0.216381
0.201603
0.218793
0.221056
0.219244
0.209414
0.221891
0.226675
0.208761
0.211211
0.215194
0.211960
0.214118
0.186248
0.235665
0.236138
0.240471
0.237891
0.239418
0.233258
0.223028
0.224790
0.244612
0.247958
0.252164
0.253248
0.250761
0.254468
0.232856
0.234416
0.241666
0.259138
0.260228
0.249176
0.252528
0.259273
0.224885
0.226178
0.231017
0.246032
0.247223
0.237843
0.223135
