Full Time (seconds)
0.162397
Incremental Time - I
0.000146
0.000048
0.000062
0.000080
0.000067
0.000077
0.000094
0.000087
0.000126
0.000120
0.000102
0.000111
0.000139
0.000124
0.000137
0.000180
0.000141
0.000156
0.000190
0.000078
0.000113
0.000125
0.000172
0.000182
0.000230
0.000202
0.000203
0.000252
0.000217
0.000221
0.000295
0.000227
0.000229
0.000303
0.000256
0.000251
0.000328
0.000269
0.000275
0.001415
0.000775
0.000727
0.000898
0.000881
0.000819
0.000936
0.000991
0.000802
0.000905
0.000787
0.000862
0.000947
0.000888
0.000897
0.000938
0.000917
0.001004
0.000979
0.000955
0.000956
0.001105
0.000971
0.000931
0.001088
0.001075
0.001049
0.001256
0.001105
0.001047
0.001151
0.001155
0.001167
0.001252
0.001055
0.001038
0.001216
0.001107
0.001104
0.001374
0.001166
0.001175
0.001324
0.001168
0.001186
0.001378
0.001167
0.001258
0.001486
0.001291
0.001274
0.001429
0.001286
0.001263
0.001404
0.001190
0.001208
0.001492
0.001320
0.001160
0.001361
0.001291
0.001283
0.001504
0.001275
0.001281
0.001491
0.001397
0.001353
0.001517
0.001414
0.001430
0.001527
0.001324
0.001290
0.001523
0.001407
0.001332
0.001528
0.001347
0.001278
0.001872
0.001538
0.001449
0.001595
0.001352
0.001298
0.001598
0.001357
0.001367
0.001604
0.001537
0.001521
0.001842
0.001535
0.001550
0.001791
0.001528
0.001486
0.001714
0.001442
0.001547
0.001764
0.001594
0.001499
0.001737
0.001457
0.001412
0.001672
0.001462
0.001551
0.001738
0.001664
0.001589
0.001817
0.001468
0.001457
0.001776
0.001562
0.001484
0.001726
0.001425
0.001437
0.001706
0.001415
0.001395
0.001792
0.001463
0.001434
0.001716
0.001408
0.001510
0.001706
0.001651
0.001683
0.001987
0.001597
0.001701
0.001908
0.001608
0.001608
0.001998
0.001506
0.001471
0.001662
0.001446
0.001418
0.001852
0.001678
0.002028
0.002392
0.002082
0.002070
0.002120
0.001839
0.001861
0.002121
0.001707
0.001550
0.001855
0.001633
0.001696
0.002011
0.001639
0.001631
0.001784
0.001649
0.001588
0.001963
0.001650
0.001472
0.001915
Classification Time - I
0.003233
0.004419
0.005933
0.007118
0.008234
0.009851
0.011010
0.012234
0.014772
0.015893
0.016195
0.017785
0.018976
0.020078
0.021664
0.022847
0.024036
0.025625
0.026016
0.026793
0.027644
0.029205
0.029909
0.031527
0.032674
0.034459
0.035422
0.036615
0.037833
0.039070
0.040583
0.041345
0.042934
0.044848
0.045333
0.047567
0.047936
0.049164
0.051063
0.051847
0.054010
0.055419
0.055965
0.057120
0.058425
0.059679
0.064530
0.062388
0.063549
0.064707
0.066261
0.067358
0.068596
0.071229
0.071707
0.072406
0.074075
0.075324
0.076881
0.077972
0.079396
0.080389
0.082012
0.087664
0.084790
0.086168
0.087161
0.088701
0.089596
0.093361
0.091857
0.095382
0.094876
0.095870
0.102997
0.098582
0.099663
0.101293
0.102833
0.103493
0.104955
0.106279
0.109249
0.110920
0.110191
0.111463
0.112511
0.113887
0.116545
0.118403
0.117886
0.118826
0.122202
0.123636
0.122432
0.124159
0.126129
0.126492
0.128162
0.129227
0.133097
0.132883
0.135492
0.136154
0.138487
0.136962
0.138421
0.139532
0.141589
0.144357
0.142205
0.135493
0.137171
0.136146
0.137112
0.139679
0.142344
0.143026
0.141510
0.145771
0.144123
0.147938
0.147151
0.147224
0.150062
0.149847
0.151317
0.164670
0.153374
0.167819
0.171574
0.170241
0.175084
0.172597
0.176590
0.161503
0.162742
0.163886
0.167739
0.166313
0.167510
0.168643
0.169723
0.158828
0.160040
0.160761
0.162538
0.163534
0.191262
0.192795
0.196957
0.180078
0.184963
0.169727
0.173826
0.172350
0.173411
0.174101
0.174777
0.164444
0.168809
0.166600
0.170602
0.168362
0.169500
0.159867
0.160556
0.162233
0.163045
0.177784
0.191037
0.207375
0.205125
0.209916
0.192332
0.195990
0.194904
0.196081
0.196431
0.185438
0.189732
0.175020
0.179408
0.176975
0.183613
0.191067
0.240226
0.241305
0.242467
0.244100
0.245550
0.211193
0.214880
0.216977
0.201529
0.201418
0.189657
0.196434
0.208106
0.206349
0.207015
0.194977
0.194342
0.185056
0.186306
0.186937
0.189816
0.191340
0.189756
0.190841
