Full Time (seconds)
0.108123
Time - I
0.002405
0.008581
0.012774
0.016971
0.021524
0.025814
0.029133
0.033889
0.037365
0.041909
0.045687
0.051434
0.057748
0.064201
0.069999
0.107793
0.082441
0.088050
0.094716
0.101124
0.107254
