Full Accuracy
86.532555
Accuracy - I
50.000000
70.180969
75.092903
76.435379
82.895187
83.945114
85.033401
86.914291
86.570786
88.060349
86.842880
83.594635
84.983299
85.252403
85.696815
85.187027
86.200912
83.935295
83.966568
84.773880
86.532555
