Full Time (seconds)
0.001352
Incremental Time - I
0.000171
0.000151
0.000158
0.000163
0.000191
0.000189
0.000204
0.000207
0.000226
0.000238
0.000259
0.000240
0.000197
0.000192
0.000217
0.000198
0.000223
0.000237
0.000239
0.000208
0.000214
0.000647
0.001630
0.002437
0.007022
0.007435
0.007296
0.006354
0.007548
0.010332
0.013307
Classification Time - C
0.000646
0.000584
0.000600
0.000589
0.000802
0.000599
0.000578
0.000578
0.000608
0.000577
0.000578
0.000587
0.000569
0.000550
0.000550
0.000641
0.000549
0.000553
0.000568
0.000556
0.000556
0.000808
0.000767
0.000816
0.001052
0.001097
0.001117
0.001177
0.001242
0.001358
0.001389
