Full Time (seconds)
0.199871
Time - I
0.002288
0.002689
0.003481
0.004286
0.005386
0.006488
0.008074
0.009027
0.010083
0.011519
0.012656
0.013839
0.015331
0.016605
0.017477
0.019048
0.020151
0.021049
0.022490
0.023583
0.024777
0.026595
0.027231
0.028307
0.029878
0.030821
0.032145
0.033505
0.034438
0.035465
0.036859
0.038012
0.039104
0.040953
0.041774
0.045256
0.046327
0.045278
0.046663
0.047606
0.048686
0.049757
0.051202
0.053191
0.053306
0.054966
0.055762
0.060145
0.061752
0.063841
0.061132
0.061888
0.062971
0.064025
0.065412
0.066511
0.068138
0.068946
0.070429
0.071130
0.073212
0.073885
0.074721
0.076279
0.077168
0.078599
0.079787
0.081172
0.082201
0.083319
0.084359
0.085882
0.088260
0.087775
0.089380
0.090380
0.091356
0.092409
0.094244
0.095111
0.096553
0.098030
0.100259
0.100756
0.101504
0.102073
0.112886
0.105070
0.107112
0.108568
0.108963
0.109186
0.110255
0.112271
0.112704
0.115344
0.116015
0.118549
0.117857
0.119302
0.119941
0.122652
0.122349
0.124405
0.124528
0.125921
0.127335
0.128121
0.129554
0.131496
0.131668
0.133199
0.134142
0.136144
0.136902
0.137649
0.139307
0.140099
0.141378
0.142696
0.143559
0.145133
0.145772
0.149123
0.148648
0.152195
0.151181
0.153762
0.154340
0.157049
0.158047
0.156905
0.157830
0.159116
0.160053
0.161460
0.162432
0.164583
0.167090
0.166962
0.167249
0.170505
0.174194
0.172173
0.172039
0.175459
0.174883
0.173097
0.165056
0.164398
0.167342
0.182403
0.181284
0.183419
0.186788
0.172714
0.171891
0.172909
0.192631
0.189755
0.190957
0.192378
0.193327
0.194786
0.195567
0.196887
0.197839
0.183771
0.185148
0.172674
0.174040
0.206382
0.201490
0.206132
0.208421
0.194376
0.209685
0.212080
0.212058
0.196799
0.193067
0.184668
0.195496
0.203451
0.219622
0.220576
0.221599
0.222988
0.220020
0.193059
0.226735
0.222979
0.215243
0.230106
0.232635
0.232247
0.233801
0.232753
0.202121
0.204999
0.203790
0.239428
0.241009
0.232442
0.237578
0.243961
0.235893
0.213794
0.213180
0.216971
0.199918
