Full Time (seconds)
0.187339
Time - I
0.002296
0.003482
0.004640
0.006201
0.007344
0.008451
0.009919
0.010956
0.012023
0.013904
0.014684
0.015763
0.017298
0.017716
0.018538
0.019193
0.020673
0.021193
0.022635
0.023719
0.025367
0.026495
0.027370
0.028493
0.029897
0.030938
0.032450
0.033451
0.034508
0.035573
0.036979
0.038096
0.039232
0.040815
0.042200
0.042782
0.044215
0.045259
0.047002
0.048377
0.048785
0.049891
0.051405
0.052425
0.053518
0.054883
0.055999
0.057045
0.058897
0.059487
0.065281
0.061960
0.063643
0.064115
0.065681
0.066674
0.068120
0.069161
0.070700
0.071928
0.073800
0.074909
0.074920
0.076415
0.077443
0.079565
0.079782
0.081601
0.081880
0.083415
0.084406
0.085451
0.086823
0.088511
0.089500
0.091408
0.091970
0.094258
0.094225
0.095363
0.096219
0.099262
0.100296
0.101095
0.101717
0.102246
0.105115
0.105935
0.107085
0.108745
0.108297
0.109467
0.110424
0.111879
0.112983
0.115614
0.115675
0.116820
0.125882
0.120524
0.120558
0.123219
0.122579
0.125478
0.135636
0.126337
0.127827
0.129747
0.131852
0.124241
0.122323
0.134865
0.134255
0.135277
0.136766
0.138196
0.138834
0.140768
0.141277
0.142426
0.144164
0.144831
0.148776
0.149224
0.148678
0.149529
0.151540
0.152332
0.154407
0.151070
0.143589
0.145105
0.148698
0.147257
0.160496
0.162590
0.163681
0.165909
0.159797
0.166167
0.168139
0.168822
0.170218
0.170867
0.172605
0.173298
0.174872
0.176306
0.177779
0.178248
0.179881
0.180542
0.182155
0.182879
0.184169
0.184984
0.179968
0.173178
0.174489
0.175371
0.176742
0.181944
0.173478
0.168101
0.168047
0.168955
0.170176
0.170694
0.170454
0.161235
0.182077
0.204177
0.205703
0.206251
0.191706
0.192720
0.180091
0.181700
0.181964
0.183330
0.171713
0.173265
0.173520
0.174883
0.175420
0.176713
0.177503
0.178782
0.179346
0.180713
0.181369
0.182512
0.183041
0.184308
0.184856
0.186567
0.186822
0.188232
0.191329
0.190216
0.195549
0.192008
0.192663
0.181164
0.182258
0.183117
0.184267
0.185418
0.186222
0.186822
0.189725
