%!PS-Adobe-2.0 EPSF-1.2
%%Creator: MATLAB, The Mathworks, Inc.
%%Title: gctraj.eps
%%CreationDate: 01/14/ 1  22:28:54
%%DocumentNeededFonts: Palatino-Roman
%%+ Helvetica
%%DocumentProcessColors: Cyan Magenta Yellow Black
%%Pages: 1
%%BoundingBox:    40   186   543   592
%%EndComments

%%BeginProlog

% MathWorks dictionary
/MathWorks 160 dict begin

% definition operators
/bdef {bind def} bind def
/ldef {load def} bind def
/xdef {exch def} bdef
/xstore {exch store} bdef

% operator abbreviations
/c  /clip ldef
/cc /concat ldef
/cp /closepath ldef
/gr /grestore ldef
/gs /gsave ldef
/mt /moveto ldef
/np /newpath ldef
/cm /currentmatrix ldef
/sm /setmatrix ldef
/rc {rectclip} bdef
/rf {rectfill} bdef
/rm /rmoveto ldef
/rl /rlineto ldef
/s /show ldef
/sc {setcmykcolor} bdef
/sr /setrgbcolor ldef
/sg /setgray ldef
/w /setlinewidth ldef
/j /setlinejoin ldef
/cap /setlinecap ldef

% page state control
/pgsv () def
/bpage {/pgsv save def} bdef
/epage {pgsv restore} bdef
/bplot /gsave ldef
/eplot {stroke grestore} bdef

% orientation switch
/portraitMode 	0 def
/landscapeMode 	1 def

% coordinate system mappings
/dpi2point 0 def

% font control
/FontSize 0 def
/FMS {
	/FontSize xstore		%save size off stack
	findfont
	[FontSize 0 0 FontSize neg 0 0]
	makefont
	setfont
	}bdef

/reencode {
exch dup where
{pop load} {pop StandardEncoding} ifelse
exch
dup 3 1 roll
findfont dup length dict begin
  { 1 index /FID ne {def}{pop pop} ifelse } forall
  /Encoding exch def
  currentdict
end
definefont pop
} bdef

/isroman {
findfont /CharStrings get
/Agrave known
} bdef

/FMSR {
3 1 roll 1 index
dup isroman
{reencode} {pop pop} ifelse
exch FMS
} bdef

/csm {
	1 dpi2point div -1 dpi2point div scale
	neg translate
	landscapeMode eq {90 rotate} if
	} bdef

% line types: solid, dotted, dashed, dotdash
/SO { [] 0 setdash } bdef
/DO { [.5 dpi2point mul 4 dpi2point mul] 0 setdash } bdef
/DA { [6 dpi2point mul] 0 setdash } bdef
/DD { [.5 dpi2point mul 4 dpi2point mul 6 dpi2point mul 4 dpi2point mul] 0 setdash } bdef

% macros for lines and objects
/L {
	lineto
	stroke
	} bdef
/MP {
	3 1 roll moveto
	1 sub {rlineto} repeat
	} bdef
/AP {
	{rlineto} repeat
	} bdef
/PP {
	closepath eofill
	} bdef
/DP {
	closepath stroke
	} bdef
/MR {
	4 -2 roll moveto
	dup  0 exch rlineto
	exch 0 rlineto
	neg  0 exch rlineto
	closepath
	} bdef
/FR {
	MR stroke
	} bdef
/PR {
	MR fill
	} bdef
/L1i {
	{ currentfile picstr readhexstring pop } image
	} bdef

/tMatrix matrix def
/MakeOval {
	newpath
	tMatrix currentmatrix pop
	translate scale
	0 0 1 0 360 arc
	tMatrix setmatrix
	} bdef
/FO {
	MakeOval
	stroke
	} bdef
/PO {
	MakeOval
	fill
	} bdef

/PD {
	currentlinecap 1 setlinecap 3 1 roll 2 copy moveto lineto stroke setlinecap
	} bdef

/FA {
	newpath
	tMatrix currentmatrix pop
	translate scale
	0 0 1 5 -2 roll arc
	tMatrix setmatrix
	stroke
	} bdef
/PA {
	newpath
	tMatrix currentmatrix pop
	translate 0 0 moveto scale
	0 0 1 5 -2 roll arc
	closepath
	tMatrix setmatrix
	fill
	} bdef

/FAn {
	newpath
	tMatrix currentmatrix pop
	translate scale
	0 0 1 5 -2 roll arcn
	tMatrix setmatrix
	stroke
	} bdef
/PAn {
	newpath
	tMatrix currentmatrix pop
	translate 0 0 moveto scale
	0 0 1 5 -2 roll arcn
	closepath
	tMatrix setmatrix
	fill
	} bdef

/MRR {
	/vradius xdef
	/hradius xdef
	/lry xdef
	/lrx xdef
	/uly xdef
	/ulx xdef
	newpath
	tMatrix currentmatrix pop
	ulx hradius add uly vradius add translate
	hradius vradius scale
	0 0 1 180 270 arc 
	tMatrix setmatrix
	lrx hradius sub uly vradius add translate
	hradius vradius scale
	0 0 1 270 360 arc
	tMatrix setmatrix
	lrx hradius sub lry vradius sub translate
	hradius vradius scale
	0 0 1 0 90 arc
	tMatrix setmatrix
	ulx hradius add lry vradius sub translate
	hradius vradius scale
	0 0 1 90 180 arc
	tMatrix setmatrix
	closepath
	} bdef
/FRR {
	MRR stroke } bdef
/PRR {
	MRR fill } bdef

/MlrRR {
	/lry xdef
	/lrx xdef
	/uly xdef
	/ulx xdef
	/rad lry uly sub 2 div def
	newpath
	tMatrix currentmatrix pop
	ulx rad add uly rad add translate
	rad rad scale
	0 0 1 90 270 arc
	tMatrix setmatrix
	lrx rad sub lry rad sub translate
	rad rad scale
	0 0 1 270 90 arc
	tMatrix setmatrix
	closepath
	} bdef
/FlrRR {
	MlrRR stroke } bdef
/PlrRR {
	MlrRR fill } bdef

/MtbRR {
	/lry xdef
	/lrx xdef
	/uly xdef
	/ulx xdef
	/rad lrx ulx sub 2 div def
	newpath
	tMatrix currentmatrix pop
	ulx rad add uly rad add translate
	rad rad scale
	0 0 1 180 360 arc
	tMatrix setmatrix
	lrx rad sub lry rad sub translate
	rad rad scale
	0 0 1 0 180 arc
	tMatrix setmatrix
	closepath
	} bdef
/FtbRR {
	MtbRR stroke } bdef
/PtbRR {
	MtbRR fill } bdef

currentdict end def
%%EndProlog

%%BeginSetup
MathWorks begin

0 cap

end
%%EndSetup

%%Page: 1 1
%%BeginPageSetup
%%PageBoundingBox:    40   186   543   592
MathWorks begin
bpage
%%EndPageSetup

%%BeginObject: obj1
bplot

/dpi2point 12 def
portraitMode 0216 7344 csm

  272   233  6036  4875 MR c np
88 dict begin %Colortable dictionary
/c0 { 0 0 0 sr} bdef
/c1 { 1 1 1 sr} bdef
/c2 { 1 0 0 sr} bdef
/c3 { 0 1 0 sr} bdef
/c4 { 0 0 1 sr} bdef
/c5 { 1 1 0 sr} bdef
/c6 { 1 0 1 sr} bdef
/c7 { 0 1 1 sr} bdef
1 j
1 sg
   0    0 6918 5185 PR
6 w
0 4224 5359 0 0 -4224 899 4612 4 MP
PP
-5359 0 0 4224 5359 0 0 -4224 899 4612 5 MP stroke
4 w
DO
SO
6 w
0 sg
 899 4612 mt 6258 4612 L
 899 4612 mt  899  388 L
1346 4612 mt 1346 4558 L
%%IncludeResource: font Palatino-Roman
/Palatino-Roman /ISOLatin1Encoding 180 FMSR

1301 4813 mt 
(0) s
2239 4612 mt 2239 4558 L
2194 4813 mt 
(2) s
3132 4612 mt 3132 4558 L
3087 4813 mt 
(4) s
4025 4612 mt 4025 4558 L
3980 4813 mt 
(6) s
4918 4612 mt 4918 4558 L
4873 4813 mt 
(8) s
5811 4612 mt 5811 4558 L
5721 4813 mt 
(10) s
 899 4009 mt  953 4009 L
 665 4075 mt 
(-1) s
 899 3405 mt  953 3405 L
 530 3471 mt 
(-0.8) s
 899 2802 mt  953 2802 L
 530 2868 mt 
(-0.6) s
 899 2198 mt  953 2198 L
 530 2264 mt 
(-0.4) s
 899 1595 mt  953 1595 L
 530 1661 mt 
(-0.2) s
 899  991 mt  953  991 L
 774 1057 mt 
(0) s
gs 899 388 5360 4225 MR c np

gr 
  12   12 5811 1088 FO
  12   12 5345 1151 FO
  12   12 5002 1235 FO
  12   12 1805 1431 FO
  12   12 1606 1672 FO
  12   12 1346 1674 FO
gs 899 388 5360 4225 MR c np
-260 2 -199 241 -3197 196 -343 84 -466 63 5811 1088 6 MP stroke

gr 
  12   12 5811 1536 FO
  12   12 5334 1586 FO
  12   12 4919 1674 FO
  12   12 1933 1850 FO
  12   12 1712 2136 FO
  12   12 1346 2143 FO
gs 899 388 5360 4225 MR c np
-366 7 -221 286 -2986 176 -415 88 -477 50 5811 1536 6 MP stroke

gr 
  12   12 5811 2227 FO
  12   12 2692 2424 FO
  12   12 1346 2448 FO
gs 899 388 5360 4225 MR c np
-1346 24 -3119 197 5811 2227 3 MP stroke

gr 
  12   12 5811 2361 FO
  12   12 5673 2370 FO
  12   12 4837 2432 FO
  12   12 3437 2454 FO
  12   12 1346 2482 FO
gs 899 388 5360 4225 MR c np
-2091 28 -1400 22 -836 62 -138 9 5811 2361 5 MP stroke

gr 
  12   12 5811 2676 FO
  12   12 5465 2683 FO
  12   12 5122 2760 FO
  12   12 5110 2798 FO
  12   12 4801 2826 FO
  12   12 3288 2972 FO
  12   12 1346 3052 FO
gs 899 388 5360 4225 MR c np
-1942 80 -1513 146 -309 28 -12 38 -343 77 -346 7 5811 2676 7 MP stroke

gr 
  12   12 5811 3884 FO
  12   12 5634 3918 FO
  12   12 5422 4123 FO
  12   12 4483 4276 FO
gs 899 388 5360 4225 MR c np
-246 5 -320 60 -405 395 -2166 361 -939 153 -212 205 -177 34 5811 3884 8 MP stroke

gr 
  12   12 5811 2710 FO
  12   12 5551 2719 FO
  12   12 5215 2850 FO
  12   12 4635 2879 FO
  12   12 3838 2922 FO
  12   12 1346 3061 FO
gs 899 388 5360 4225 MR c np
-2492 139 -797 43 -580 29 -336 131 -260 9 5811 2710 6 MP stroke

gr 
  12   12 5811 2846 FO
  12   12 3195 3055 FO
  12   12 1346 3082 FO
gs 899 388 5360 4225 MR c np
-1849 27 -2616 209 5811 2846 3 MP stroke

gr 
  12   12 5811 3784 FO
  12   12 5692 3788 FO
  12   12 4266 3846 FO
  12   12 1346 3896 FO
gs 899 388 5360 4225 MR c np
-2920 50 -1426 58 -119 4 5811 3784 4 MP stroke

gr 
  12   12 5811 2963 FO
  12   12 4981 2985 FO
  12   12 4630 3183 FO
  12   12 4546 3233 FO
  12   12 4466 3264 FO
  12   12 4461 3265 FO
  12   12 4454 3267 FO
  12   12 3801 3362 FO
  12   12 1597 3700 FO
  12   12 1346 3728 FO
gs 899 388 5360 4225 MR c np
-251 28 -2204 338 -653 95 -7 2 -5 1 -80 31 -84 50 -351 198 
-830 22 5811 2963 10 MP stroke

gr 
  12   12 5811 2637 FO
  12   12 5618 2662 FO
  12   12 5406 2826 FO
  12   12 3530 2894 FO
  12   12 2187 2945 FO
  12   12 1795 3254 FO
  12   12 1584 3418 FO
  12   12 1396 3437 FO
  12   12 1346 3443 FO
gs 899 388 5360 4225 MR c np
-50 6 -188 19 -211 164 -392 309 -1343 51 -1876 68 -212 164 -193 25 
5811 2637 9 MP stroke

gr 
  12   12 1350  991 FO
  12   12 1346 1015 FO
gs 899 388 5360 4225 MR c np
-4 24 1350 991 2 MP stroke

gr 
  12   12 5183  991 FO
  12   12 4988 1189 FO
  12   12 4720 1243 FO
  12   12 4163 1365 FO
  12   12 1514 1640 FO
  12   12 1346 1813 FO
gs 899 388 5360 4225 MR c np
-168 173 -2649 275 -557 122 -268 54 -195 198 5183 991 6 MP stroke

gr 
  12   12 1474  991 FO
  12   12 1346 1180 FO
gs 899 388 5360 4225 MR c np
-128 189 1474 991 2 MP stroke

gr 
  12   12 2746  991 FO
  12   12 2737 1020 FO
  12   12 2640 1496 FO
  12   12 2620 1680 FO
  12   12 2296 1782 FO
  12   12 1346 2046 FO
gs 899 388 5360 4225 MR c np
-950 264 -324 102 -20 184 -97 476 -9 29 2746 991 6 MP stroke

gr 
  12   12 5244  991 FO
  12   12 4873 1419 FO
  12   12 4433 1553 FO
  12   12 3953 1734 FO
  12   12 3899 1752 FO
  12   12 1980 2424 FO
  12   12 1346 2613 FO
gs 899 388 5360 4225 MR c np
-634 189 -1919 672 -54 18 -480 181 -440 134 -371 428 5244 991 7 MP stroke

gr 
  12   12 4605  991 FO
  12   12 4511 1141 FO
  12   12 4049 1888 FO
  12   12 3314 2525 FO
  12   12 3280 2567 FO
  12   12 3166 2593 FO
  12   12 2733 2650 FO
  12   12 1574 2897 FO
  12   12 1346 2921 FO
gs 899 388 5360 4225 MR c np
-228 24 -1159 247 -433 57 -114 26 -34 42 -735 637 -462 747 -94 150 
4605 991 9 MP stroke

gr 
%%IncludeResource: font Symbol
/Symbol /ISOLatin1Encoding 216 FMSR

3476 4952 mt 
(a) s
%%IncludeResource: font Palatino-Italic
/Palatino-Italic /ISOLatin1Encoding 168 FMSR

3612 5060 mt 
(c) s
%%IncludeResource: font Palatino-Italic
/Palatino-Italic /ISOLatin1Encoding 216 FMSR

 475 2589 mt  -90 rotate
(g) s
90 rotate
%%IncludeResource: font Palatino-Italic
/Palatino-Italic /ISOLatin1Encoding 168 FMSR

 583 2481 mt  -90 rotate
(c) s
90 rotate
gs 899 388 5360 4225 MR c np
DO
2.4 w
0 3018 4465 0 0 -3018 1346 4009 4 MP stroke
DA
12 w
4465 0 1346 4009 2 MP stroke

gr 
12 w
DA
SO
6 w

end

eplot
%%EndObject

epage
end

showpage

%%Trailer
%%EOF
