Full Time (seconds)
0.141588
Incremental Time - I
0.001766
0.000069
0.000099
0.000104
0.000111
0.000090
0.000129
0.000129
0.000145
0.000152
0.000160
0.000175
0.000178
0.000158
0.000162
0.000168
0.000172
0.000179
0.000184
0.000197
0.000259
0.000548
0.000453
0.000429
0.000438
0.000442
0.000446
0.000461
0.000467
0.000498
0.000513
0.000502
0.000512
0.000512
0.000563
0.000503
0.000583
0.000667
0.000601
0.000437
0.000411
0.000443
0.000446
0.000641
0.000697
0.000609
0.000635
0.000667
0.000638
0.000629
0.000765
0.000759
0.000747
0.000692
0.000706
0.000780
0.000742
0.000756
0.000744
0.000786
0.000793
0.000773
0.000847
0.000756
0.000875
0.000800
0.000807
0.000793
0.000846
0.000855
0.000844
0.000925
0.000903
0.000888
0.000915
0.000979
0.000989
0.000992
0.000954
0.001036
0.000952
0.000986
0.001416
0.000791
0.001045
0.001022
0.001020
0.000983
0.000799
0.001067
0.000994
0.000663
0.000607
0.000613
0.000407
0.000413
0.000540
0.000792
0.000757
0.000731
0.000776
0.001019
0.001109
0.001150
0.001124
0.001116
0.001150
0.001177
0.001167
0.001237
0.001180
0.001232
0.001201
0.001193
0.001268
0.001228
0.000930
0.000993
0.000963
0.000990
0.000975
0.001257
0.001315
0.001327
0.001316
0.001408
0.001664
0.001252
0.001260
0.001272
0.001322
0.001420
0.001431
0.001443
0.001846
0.001396
0.001378
0.001432
0.001325
0.001472
0.001449
Classification Time - I
0.004362
0.006713
0.007641
0.008615
0.009532
0.010500
0.011498
0.012462
0.013455
0.015236
0.017076
0.013461
0.013868
0.014868
0.015287
0.016398
0.016657
0.017449
0.018391
0.023594
0.024742
0.025410
0.026352
0.027781
0.028264
0.029272
0.030216
0.031150
0.032075
0.033013
0.033979
0.034828
0.030753
0.036887
0.037623
0.038991
0.042285
0.040445
0.029710
0.030784
0.030870
0.032797
0.045373
0.046283
0.047345
0.048307
0.048980
0.050657
0.050813
0.054776
0.052731
0.053844
0.054957
0.055908
0.057769
0.058154
0.058693
0.059636
0.060295
0.061251
0.062075
0.062936
0.065673
0.069676
0.073814
0.061870
0.067875
0.069318
0.070370
0.076509
0.071956
0.072159
0.073854
0.079963
0.075119
0.100057
0.077394
0.078378
0.079196
0.080026
0.086516
0.088394
0.082517
0.083414
0.085193
0.085770
0.086334
0.088287
0.088754
0.057859
0.089285
0.089910
0.090031
0.063857
0.064458
0.095985
0.052299
0.092284
0.092770
0.082532
0.080890
0.095311
0.096138
0.097133
0.098192
0.104918
0.099980
0.100814
0.102661
0.104878
0.107787
0.113831
0.105576
0.106555
0.108085
0.090396
0.087425
0.085153
0.110528
0.086750
0.121272
0.113241
0.118245
0.121853
0.126373
0.124426
0.116725
0.118836
0.124839
0.123255
0.125280
0.122682
0.130998
0.125228
0.135124
0.133793
0.136286
0.125787
0.129927
0.130848
