Full Time (seconds)
0.140912
Incremental Time - I
0.004403
0.000128
0.000101
0.000099
0.000111
0.000117
0.000149
0.000131
0.000137
0.000147
0.000156
0.000168
0.000181
0.000191
0.000201
0.000212
0.000212
0.000222
0.000227
0.000242
0.000253
0.000541
0.000439
0.000462
0.000456
0.000571
0.000500
0.000502
0.000490
0.000573
0.000569
0.000562
0.000502
0.000547
0.000518
0.000522
0.000557
0.000584
0.000576
0.000622
0.000651
0.000659
0.000630
0.000623
0.000640
0.000641
0.000679
0.000702
0.000769
0.000692
0.000695
0.000732
0.000712
0.000781
0.000707
0.000730
0.000769
0.000744
0.000742
0.000799
0.000913
0.000470
0.000446
0.000472
0.000385
0.000462
0.000621
0.000575
0.000553
0.000767
0.000589
0.000826
0.000774
0.000943
0.000777
0.000877
0.000854
0.000842
0.001053
0.000948
0.000958
0.000963
0.001036
0.000945
0.000954
0.000989
0.000955
0.001041
0.001031
0.001036
0.001093
0.001125
0.001089
0.001106
0.001042
0.001087
0.001143
0.001141
0.001158
0.001167
0.001144
0.001148
0.001078
0.001222
0.001154
0.001103
0.001168
0.001172
0.001210
0.001222
0.001173
0.001587
0.001273
0.001128
0.001260
0.001253
0.001426
0.001187
0.001247
0.001282
0.001307
0.001717
0.001381
0.001310
0.001291
0.001281
0.001335
0.001291
0.001254
0.001371
0.001322
0.001321
0.001342
0.001318
0.001472
0.001528
0.001901
0.001444
0.001495
0.001474
0.001486
Classification Time - I
0.005848
0.006698
0.007644
0.008560
0.009675
0.010733
0.011477
0.012563
0.013518
0.014518
0.016293
0.016398
0.017348
0.018215
0.019029
0.019946
0.020615
0.021591
0.022551
0.025247
0.024424
0.025817
0.026153
0.027155
0.027984
0.028995
0.031687
0.032788
0.031780
0.033625
0.036636
0.036330
0.036811
0.037960
0.040395
0.039525
0.041461
0.040214
0.042137
0.043719
0.043193
0.044606
0.045042
0.045990
0.046874
0.053986
0.049710
0.049657
0.050805
0.051772
0.054001
0.053849
0.054355
0.055318
0.056332
0.057151
0.058193
0.061815
0.060207
0.060957
0.061261
0.067472
0.053295
0.065936
0.064624
0.063477
0.069100
0.067524
0.069458
0.067218
0.065519
0.065254
0.063717
0.069813
0.071656
0.071103
0.073240
0.074835
0.073920
0.075630
0.079787
0.077287
0.078917
0.078808
0.079804
0.080646
0.081692
0.082298
0.089750
0.089286
0.085677
0.089069
0.087267
0.091144
0.088934
0.090462
0.095980
0.098009
0.094975
0.099352
0.094328
0.095855
0.090506
0.097199
0.098422
0.107304
0.102405
0.100615
0.102923
0.102899
0.111254
0.104899
0.104001
0.111065
0.109359
0.107689
0.117869
0.117537
0.112035
0.111446
0.121620
0.116787
0.115136
0.115546
0.116090
0.123703
0.109428
0.120025
0.119924
0.121283
0.118898
0.113194
0.124055
0.124791
0.125848
0.135774
0.136336
0.135110
0.129403
0.132573
