Full Time (seconds)
0.102607
Incremental Time - I
0.005892
0.000075
0.000055
0.000054
0.000054
0.000059
0.000074
0.000077
0.000080
0.000084
0.000084
0.000127
0.000136
0.000146
0.000156
0.000169
0.000177
0.000179
0.000188
0.000202
0.000226
0.000211
0.000229
0.000238
0.000238
0.000214
0.000550
0.000477
0.000488
0.000473
0.000476
0.000551
0.000511
0.000581
0.000498
0.000545
0.000527
0.000502
0.000548
0.000572
0.000550
0.000661
0.000591
0.000594
0.000589
0.000647
0.000660
0.000797
0.000718
0.000627
0.000694
0.000681
0.000699
0.000710
0.000749
0.000734
0.000669
0.000741
0.000730
0.000720
0.000757
0.000893
0.000790
0.000746
0.000834
0.000753
0.000764
0.000852
0.000828
0.000810
0.000836
0.001161
0.001049
0.000885
0.000854
0.000865
0.000902
0.000966
0.001131
0.000901
0.000884
0.000791
0.000968
0.000942
0.001061
0.000936
0.001014
0.000957
0.000991
0.000986
0.000662
0.001059
0.000976
0.001052
0.001156
0.001048
0.001070
0.001101
0.001074
0.000778
0.000733
0.001133
0.001098
0.001126
0.001054
0.001154
0.001143
0.001214
0.001224
0.001213
0.001213
0.001291
0.001226
0.001179
0.001297
0.001261
0.001152
0.001287
0.001146
0.001122
0.001356
0.001326
0.001349
0.001336
0.001337
0.001297
0.001350
0.001364
0.001369
0.001395
0.001369
0.001394
0.001436
0.001404
0.001454
0.001481
0.001416
0.001370
0.001442
0.001428
0.001501
Classification Time - I
0.005308
0.005638
0.006045
0.006460
0.006791
0.007419
0.007952
0.008534
0.009077
0.009659
0.010714
0.011644
0.012657
0.013634
0.014526
0.016089
0.017764
0.018544
0.019709
0.019129
0.020031
0.022591
0.021936
0.022618
0.023592
0.024943
0.025721
0.026692
0.028810
0.029647
0.030202
0.030185
0.031134
0.034048
0.033150
0.034036
0.035057
0.036080
0.037804
0.040945
0.040126
0.039903
0.040717
0.041654
0.043688
0.044221
0.047794
0.045476
0.046378
0.047552
0.048553
0.050879
0.050726
0.060859
0.052087
0.052964
0.053963
0.056811
0.057830
0.056784
0.057587
0.059151
0.063771
0.060794
0.061804
0.063566
0.063181
0.066614
0.065250
0.066541
0.067086
0.071418
0.063820
0.070483
0.072582
0.073337
0.077098
0.078897
0.079601
0.080771
0.082465
0.084387
0.064184
0.080255
0.080593
0.081539
0.084058
0.083381
0.050836
0.085409
0.086089
0.086920
0.087897
0.088694
0.096954
0.095476
0.098739
0.063451
0.062115
0.094185
0.094684
0.103070
0.094818
0.094524
0.097678
0.099438
0.107000
0.101481
0.101954
0.103185
0.103851
0.106662
0.110351
0.111107
0.107406
0.108178
0.094188
0.094315
0.095288
0.096395
0.115207
0.116602
0.117154
0.115666
0.120838
0.117897
0.123159
0.122097
0.120112
0.121245
0.122922
0.123411
0.124056
0.125611
0.125789
0.126852
0.127698
0.128207
0.129454
0.120294
