Full Time (seconds)
0.099943
Incremental Time - I
0.004102
0.000087
0.000101
0.000101
0.000112
0.000118
0.000081
0.000083
0.000146
0.000154
0.000156
0.000176
0.000177
0.000201
0.000197
0.000212
0.000213
0.000222
0.000226
0.000244
0.000253
0.000543
0.000472
0.000509
0.000436
0.000485
0.000466
0.000455
0.000471
0.000473
0.000489
0.000311
0.000313
0.000292
0.000275
0.000279
0.000277
0.000280
0.000283
0.000287
0.000644
0.000677
0.000762
0.000682
0.000651
0.000637
0.000649
0.000661
0.000668
0.000559
0.000728
0.000759
0.000725
0.000729
0.000865
0.000697
0.000605
0.000647
0.000761
0.000739
0.000736
0.000759
0.000750
0.000810
0.000823
0.000786
0.000516
0.000951
0.000584
0.000865
0.000865
0.000860
0.000843
0.000879
0.000924
0.000965
0.000925
0.000960
0.000958
0.000991
0.000933
0.000966
0.001223
0.000628
0.000661
0.000642
0.000619
0.000996
0.000958
0.001119
0.001025
0.001115
0.001082
0.001031
0.001033
0.001047
0.001136
0.001027
0.000962
0.000996
0.001209
0.001193
0.001193
0.001209
0.000711
0.000680
0.001188
0.000668
0.000882
0.000943
0.000906
0.000573
0.000634
0.000505
0.000636
0.000695
0.000842
0.000833
0.000837
0.000880
0.000834
0.001149
0.001122
0.001300
0.001318
0.001351
0.001341
0.001349
0.001790
0.001319
0.001362
0.001387
0.001345
0.001342
0.001443
0.001386
0.001459
0.001473
0.001438
0.000943
0.000836
Classification Time - I
0.005825
0.007634
0.007593
0.008504
0.006061
0.006855
0.011428
0.012426
0.013474
0.014647
0.015413
0.016410
0.017545
0.018121
0.019328
0.019800
0.013069
0.021604
0.022378
0.023359
0.013689
0.025087
0.025947
0.027413
0.027903
0.028873
0.029786
0.030835
0.031667
0.016985
0.016028
0.016502
0.016992
0.017950
0.017887
0.018612
0.018787
0.019227
0.044275
0.043896
0.046212
0.048864
0.045219
0.045786
0.046888
0.047663
0.048846
0.049167
0.050781
0.051424
0.052361
0.053352
0.057165
0.047320
0.048131
0.049007
0.050060
0.059021
0.059969
0.060886
0.061788
0.062726
0.063709
0.064600
0.065720
0.040932
0.042269
0.043154
0.069253
0.071173
0.071211
0.072292
0.073768
0.074758
0.074983
0.076260
0.078181
0.079059
0.078956
0.079880
0.080638
0.048901
0.055175
0.051333
0.051119
0.051434
0.086770
0.089704
0.087991
0.089319
0.093093
0.091126
0.092420
0.092822
0.099885
0.081503
0.081754
0.085793
0.085307
0.105191
0.105963
0.107683
0.103127
0.056386
0.059088
0.057270
0.070093
0.077829
0.106402
0.080919
0.085939
0.108118
0.088773
0.118178
0.062956
0.117099
0.118522
0.112360
0.107776
0.097471
0.100369
0.107832
0.115245
0.116175
0.117643
0.117415
0.126522
0.128632
0.120702
0.131130
0.122543
0.124143
0.124234
0.125355
0.135099
0.127255
0.128039
0.129204
0.064560
0.070042
