Full Time (seconds)
0.032912
Incremental Time - I
0.063138
0.001254
0.001175
0.001183
0.001259
0.001334
0.001282
0.001535
0.001280
0.001476
0.001475
0.001555
0.001514
0.000963
0.001578
0.001080
0.001682
0.001752
0.001730
0.001739
0.001765
0.001729
0.001732
0.001881
0.001860
0.002004
0.002028
0.002007
0.002128
0.002014
0.001545
Classification Time - I
0.007651
0.008375
0.009017
0.010130
0.010579
0.011209
0.011993
0.012900
0.013910
0.014405
0.015479
0.015611
0.016298
0.016974
0.017901
0.018657
0.019705
0.020508
0.020684
0.021425
0.022162
0.022879
0.024500
0.024242
0.025974
0.026723
0.026992
0.027762
0.028026
0.028821
