Full Time (seconds)
0.221226
Time - I
0.014594
0.023252
0.038928
0.083826
0.103618
0.126631
0.149289
0.156242
0.177985
0.188057
0.148008
0.158912
0.257213
0.305555
0.336715
0.299107
0.258255
0.266955
0.259270
0.263334
0.266873
