Full Time (seconds)
0.390984
Time - I
0.203781
0.227643
0.244451
0.252360
0.264374
0.288265
0.278539
0.284991
0.288507
0.324276
0.318597
0.313063
0.346346
0.378607
0.401046
0.399392
0.375971
0.420205
0.444629
0.395740
0.345124
