Full Time (seconds)
0.205342
Time - I
0.002237
0.003381
0.004649
0.008952
0.010497
0.008923
0.010633
0.010061
0.010817
0.011513
0.012663
0.013994
0.016192
0.017721
0.017579
0.019118
0.020121
0.021328
0.022357
0.023759
0.025396
0.025990
0.027357
0.028617
0.030041
0.030608
0.031703
0.033268
0.034742
0.035994
0.036846
0.038033
0.039573
0.040415
0.041401
0.042312
0.044880
0.048987
0.050658
0.047556
0.049632
0.052117
0.052053
0.051864
0.052937
0.055088
0.056637
0.056570
0.058804
0.061097
0.062141
0.063726
0.064619
0.066199
0.067443
0.067645
0.068978
0.068644
0.071795
0.071446
0.074020
0.076434
0.075920
0.078020
0.078968
0.077847
0.084305
0.080470
0.081510
0.082848
0.090850
0.085681
0.087916
0.088083
0.091062
0.090562
0.090980
0.099000
0.093579
0.097472
0.097992
0.099280
0.100049
0.101136
0.102468
0.103574
0.103826
0.106304
0.107463
0.106265
0.107735
0.109132
0.111900
0.114199
0.114396
0.115733
0.116730
0.117762
0.119196
0.120436
0.119485
0.122296
0.121985
0.125176
0.126123
0.127909
0.128509
0.127514
0.129507
0.132390
0.131152
0.136011
0.135668
0.137064
0.139318
0.139573
0.138309
0.139721
0.141143
0.141967
0.146005
0.149470
0.156098
0.158322
0.150317
0.155731
0.150244
0.151683
0.152340
0.147676
0.158755
0.158494
0.159617
0.160750
0.161128
0.162299
0.163444
0.164819
0.164045
0.157673
0.152515
0.147231
0.148110
0.170179
0.150783
0.173142
0.173770
0.175321
0.180264
0.177173
0.193217
0.239136
0.181139
0.186148
0.187624
0.190273
0.190501
0.187314
0.216757
0.193530
0.165375
0.168900
0.167934
0.169603
0.161733
0.160371
0.197961
0.213261
0.203692
0.201363
0.190434
0.203914
0.207907
0.206779
0.209094
0.209827
0.231028
0.215872
0.217310
0.219459
0.200679
0.201030
0.188228
0.219064
0.218586
0.202887
0.211454
0.193469
0.225428
0.233483
0.225547
0.233806
0.233307
0.232483
0.233448
0.229558
0.201846
0.201893
0.202204
0.221484
0.216119
0.205816
0.219370
0.235398
0.248087
0.252748
0.250021
0.232568
0.233490
0.233741
0.203208
