Full Time (seconds)
0.365306
Time - I
0.168071
0.124550
0.211254
0.215074
0.236610
0.245554
0.227740
0.296366
0.295157
0.310754
0.328613
0.396196
0.431100
0.429184
0.528880
0.544774
0.358366
0.611456
0.513651
0.461280
0.416739
