Full Time (seconds)
0.497441
Time - I
0.247579
0.255186
0.311732
0.317050
0.346796
0.407781
0.402683
0.381491
0.449167
0.536125
0.557153
0.470117
0.692097
0.542067
0.462980
0.616918
0.404416
0.671350
0.601581
0.744234
0.605014
