Full Time (seconds)
0.018728
Time - I
0.005280
0.005211
0.005616
0.006039
0.006417
0.006828
0.007282
0.009570
0.008173
0.008567
0.009008
0.009369
0.009737
0.010320
0.010719
0.011078
0.011347
0.012158
0.012171
0.012582
0.013596
0.013989
0.014458
0.014170
0.015251
0.015686
0.016007
0.016556
0.016982
0.017252
0.017041
