Full Time (seconds)
0.017747
Time - I
0.002669
0.003499
0.004341
0.005178
0.006498
0.006837
0.007688
0.008555
0.009385
0.010083
0.010885
0.011279
0.011662
0.012118
0.012450
0.012828
0.013225
0.013797
0.014132
0.014474
0.014912
0.015099
0.015297
0.015492
0.015664
0.015904
0.016052
0.016222
0.017500
0.017544
0.017822
