Full Time (seconds)
0.320888
Incremental Time - I
0.085740
0.035244
0.060536
0.080371
0.095993
0.114178
0.133616
0.132514
0.162023
0.156344
0.210198
0.203334
0.251810
0.274757
0.276604
0.296962
0.260414
0.227760
0.280990
0.370237
0.398801
Classification Time - C
0.216187
0.112630
0.148854
0.173405
0.195875
0.205420
0.204419
0.204406
0.226097
0.210055
0.261031
0.283172
0.274679
0.284546
0.288249
0.255844
0.226190
0.305396
0.309845
0.326138
0.322770
