Full Time (seconds)
0.416191
Incremental Time - I
0.856190
0.016431
0.015847
0.016968
0.015286
0.013375
0.011776
0.010688
0.011085
0.010585
0.008968
0.009307
0.009266
0.012861
0.013893
0.012468
0.010879
0.011471
0.011572
0.011203
0.016424
Classification Time - I
0.437766
0.452841
0.422251
0.367163
0.336962
0.313892
0.290442
0.276532
0.276156
0.246665
0.236136
0.444727
0.331120
0.291679
0.284884
0.282583
0.280225
0.285165
0.745230
0.416430
