Full Accuracy
91.153847
Accuracy - I
50.000000
52.307690
53.076923
52.692307
52.692310
52.692307
52.692307
52.461536
52.461540
52.461540
52.461540
52.461540
53.384621
54.000004
54.538460
55.076920
55.615383
56.076920
56.153839
56.153839
56.307690
56.615383
57.384617
57.769234
58.307690
58.538460
58.692307
59.461540
59.538460
59.692307
59.769230
63.461536
63.230770
63.153847
63.153847
63.153847
63.153847
63.153847
63.153847
63.153847
63.153847
63.153847
64.461533
65.307693
65.692314
65.846153
65.846153
66.000000
66.307693
66.307693
66.307693
67.153847
68.307693
69.384613
69.692307
69.769234
69.769234
69.846153
69.769234
69.923080
70.000000
70.076927
70.923080
71.307693
72.384613
72.307693
72.307693
72.692307
72.692307
72.692307
72.692307
72.769234
74.153847
74.461540
74.538460
74.923080
74.846153
75.076920
75.461540
75.461540
75.692307
75.846153
76.307693
76.846153
76.923080
77.000000
77.153847
77.615387
77.692307
77.769234
77.923080
78.076920
78.461540
79.769226
80.230766
80.769226
80.769226
80.846153
80.923073
80.923073
80.769226
82.461540
82.692307
83.384613
83.769234
83.769234
84.000000
84.000000
84.076920
84.153847
84.230766
84.384613
84.384613
84.461540
84.769234
84.846153
84.846153
84.846153
85.153847
85.153847
85.307693
88.461533
88.461533
88.461533
88.461533
88.538460
88.461533
88.230774
88.230774
88.153847
88.153847
89.615387
90.307693
91.230766
91.307693
91.230766
91.153847
91.076920
91.153847
91.307693
91.153847
