Full Time (seconds)
0.109698
Time - I
0.004565
0.005446
0.006157
0.007095
0.007905
0.008682
0.009494
0.010196
0.011499
0.012401
0.012702
0.013266
0.013941
0.015262
0.016041
0.018551
0.017023
0.018298
0.018571
0.019562
0.021616
0.020815
0.024615
0.024012
0.024710
0.025809
0.024501
0.026914
0.026032
0.028110
0.029199
0.030833
0.031475
0.032336
0.032483
0.033935
0.032875
0.037278
0.034986
0.036830
0.035962
0.036354
0.037094
0.040643
0.039576
0.040033
0.042891
0.044768
0.045327
0.045436
0.044408
0.043995
0.044460
0.045912
0.046376
0.046678
0.047499
0.053747
0.063485
0.050378
0.050486
0.056852
0.055572
0.056721
0.057184
0.052007
0.058618
0.060071
0.053836
0.053996
0.054337
0.055086
0.059931
0.061772
0.061542
0.058064
0.059446
0.061858
0.065833
0.066223
0.064209
0.069509
0.063852
0.066277
0.068080
0.069320
0.067817
0.074297
0.067896
0.074521
0.072074
0.070139
0.070915
0.079094
0.072434
0.079468
0.079347
0.075566
0.083870
0.076401
0.076956
0.080334
0.075789
0.079677
0.087989
0.081468
0.075386
0.079673
0.079027
0.084124
0.077933
0.078906
0.082631
0.090411
0.088005
0.088409
0.089358
0.101293
0.099586
0.102038
0.092868
0.092686
0.096587
0.098229
0.098846
0.095806
0.097630
0.101938
0.102622
0.108197
0.099558
0.100638
0.101532
0.107656
0.102644
0.106792
0.104124
0.107440
0.109745
0.114415
0.108137
