Full Time (seconds)
0.111429
Time - I
0.004574
0.005412
0.006287
0.007237
0.008039
0.008861
0.009668
0.010444
0.011221
0.009628
0.012712
0.013458
0.014318
0.015104
0.017259
0.019138
0.017376
0.019797
0.019030
0.019532
0.020295
0.018591
0.021838
0.022887
0.023369
0.024091
0.024814
0.026979
0.028534
0.027114
0.031329
0.028829
0.029428
0.030340
0.035316
0.023913
0.024704
0.025803
0.026398
0.035599
0.035996
0.036860
0.037219
0.038377
0.039083
0.039836
0.031993
0.030868
0.031607
0.032634
0.033901
0.039186
0.045208
0.056633
0.046474
0.047208
0.049310
0.050373
0.050923
0.050171
0.052802
0.052005
0.053366
0.053238
0.054128
0.054810
0.059244
0.059169
0.057239
0.057817
0.058434
0.068149
0.061779
0.060722
0.062198
0.063491
0.063393
0.064041
0.059545
0.060119
0.066154
0.062664
0.062436
0.068225
0.069463
0.077640
0.070472
0.071317
0.072500
0.072746
0.073465
0.109072
0.075487
0.075920
0.076531
0.077347
0.087247
0.079965
0.068303
0.069012
0.082595
0.081582
0.083779
0.082504
0.082240
0.088289
0.082976
0.089197
0.083914
0.084993
0.090127
0.073843
0.075916
0.087625
0.088672
0.088695
0.095637
0.091821
0.092495
0.093192
0.093719
0.094967
0.093879
0.096395
0.096059
0.098248
0.102160
0.099567
0.100250
0.100855
0.100043
0.102127
0.117669
0.111137
0.116917
0.109942
0.111113
0.110302
0.111572
0.111558
0.118288
