Full Time (seconds)
0.118453
Time - I
0.004646
0.005450
0.005872
0.007120
0.009580
0.008699
0.009446
0.011686
0.011280
0.011826
0.012614
0.013339
0.014203
0.014972
0.015549
0.016306
0.017042
0.018001
0.014082
0.014629
0.015190
0.015979
0.021366
0.022883
0.023514
0.024242
0.025335
0.026166
0.028931
0.029031
0.032307
0.031941
0.033416
0.030360
0.031431
0.032282
0.033435
0.033797
0.034862
0.035201
0.036836
0.036544
0.037391
0.037808
0.038653
0.039494
0.040174
0.041314
0.042930
0.044218
0.044961
0.045234
0.045227
0.045396
0.046072
0.049055
0.050731
0.051457
0.049067
0.049825
0.050897
0.051554
0.055090
0.054884
0.056961
0.056791
0.058041
0.059152
0.058067
0.072157
0.058134
0.059926
0.059623
0.060373
0.065770
0.064856
0.065505
0.067281
0.067025
0.067302
0.067989
0.066466
0.067195
0.071058
0.072409
0.069544
0.070301
0.071038
0.071794
0.072562
0.073325
0.074869
0.075274
0.075865
0.084289
0.085984
0.077754
0.083491
0.084369
0.080509
0.081223
0.086294
0.088657
0.089648
0.089632
0.091002
0.094320
0.089242
0.098322
0.087551
0.097192
0.097612
0.099572
0.090596
0.094127
0.092659
0.093118
0.139274
0.094632
0.095117
0.097768
0.100472
0.097485
0.098550
0.099578
0.102645
0.104165
0.104801
0.104561
0.115029
0.114422
0.115843
0.115437
0.115664
0.104665
0.116641
0.105711
0.105867
0.107143
0.108466
0.108635
