Full Time (seconds)
0.001348
Incremental Time - I
0.000151
0.000038
0.000039
0.000040
0.000039
0.000041
0.000039
0.000040
0.000040
0.000043
0.000042
0.000169
0.000211
0.000191
0.000210
0.000221
0.000223
0.000242
0.000240
0.000228
0.000244
0.000710
0.001720
0.002365
0.006929
0.007460
0.006896
0.006111
0.007262
0.011447
0.013298
Classification Time - C
0.000621
0.000493
0.000514
0.000492
0.000492
0.000494
0.000491
0.000493
0.000495
0.000496
0.000492
0.000578
0.000608
0.000560
0.000561
0.000584
0.000588
0.000564
0.000564
0.000590
0.000550
0.000751
0.000794
0.000819
0.001051
0.001185
0.001166
0.001181
0.001245
0.001293
0.001366
