Full Accuracy
84.561043
Accuracy - I
50.000000
69.379463
76.283318
80.540176
83.012375
86.054039
85.581909
85.822594
85.822594
86.596367
86.295990
86.533829
87.636963
88.175171
87.937332
86.178658
86.319145
86.350410
86.350410
85.067421
84.798309
