Full Time (seconds)
0.005654
Incremental Time - I
0.001295
0.000094
0.000109
0.000111
0.000127
0.000137
0.000164
0.000155
0.000159
0.000181
0.000195
0.000199
0.000213
0.001658
0.001660
0.001651
0.001729
0.001783
0.001819
0.001734
0.001780
Classification Time - I
0.000806
0.000967
0.001153
0.001373
0.001526
0.001714
0.001883
0.002315
0.002281
0.002454
0.002661
0.002850
0.003055
0.003579
0.003629
0.004056
0.004334
0.004506
0.004696
0.004859
