Full Time (seconds)
0.196605
Time - I
0.220785
0.237539
0.243665
0.244279
0.245036
0.236888
0.246500
0.234127
0.395819
0.419338
0.410701
0.380988
0.345323
0.309423
0.298860
0.258465
0.252261
0.230725
0.236227
0.218764
0.216755
