Full Accuracy
91.115028
Accuracy - I
cat: testS_0.svm.acc: No such file or directory
86.822350
88.872292
90.513901
90.671150
90.853188
91.313919
91.760895
92.064377
91.173149
91.589783
91.584244
91.631111
91.225479
91.316536
91.258583
91.512428
91.123344
90.974327
91.153671
91.115028
