Full Time (seconds)
0.099701
Incremental Time - I
0.115283
0.009933
0.016885
0.024014
0.027048
0.041460
0.047928
0.047605
0.034113
0.072709
0.067563
0.090675
0.097912
0.105231
0.131649
0.133875
0.119705
0.161793
0.178197
0.163606
0.201717
Classification Time - C
0.067512
0.088063
0.104034
0.084569
0.099907
0.095830
0.101180
0.059388
0.116879
0.065320
0.140473
0.135421
0.089661
0.140327
0.087542
0.087456
0.168451
0.093601
0.102232
0.177329
