Full Time (seconds)
0.115567
Incremental Time - I
0.000303
0.000288
0.000333
0.000378
0.000405
0.000447
0.000458
0.000548
0.000601
0.000585
0.000617
0.001347
0.001506
0.001808
0.002011
0.002338
0.002609
0.002754
0.002624
0.002700
0.002876
0.004368
0.004803
0.005376
0.005731
0.006230
0.006600
0.006766
0.007577
0.007797
0.008162
0.009698
0.010097
0.010160
0.010034
0.010645
0.010987
0.010872
0.010730
0.011063
0.011389
0.013743
0.014002
0.015073
0.015684
0.015385
0.015128
0.015757
0.016317
0.016880
0.016603
0.020645
0.021451
0.021795
0.023086
0.024260
0.024516
0.025250
0.027348
0.028225
0.029143
0.030669
0.031931
0.031950
0.032999
0.034224
0.033699
0.033882
0.035852
0.035201
0.036807
0.040162
0.039799
0.043376
0.043145
0.042663
0.044106
0.044503
0.046278
0.045221
0.047132
0.050938
0.052141
0.052297
0.055945
0.057425
0.056358
0.059696
0.058129
0.058796
0.059587
0.063302
0.065621
0.065816
0.066919
0.067970
0.068435
0.071153
0.069059
0.069550
0.072959
0.065135
0.073309
0.074459
0.074181
0.072094
0.072090
0.074865
0.075672
0.074863
0.073806
0.080115
0.080274
0.083899
0.083384
0.083907
0.086330
0.085971
0.089081
0.086677
0.088317
0.091936
0.093418
0.094450
0.099283
0.099663
0.096354
0.097276
0.098003
0.098371
0.101305
0.103897
0.109317
0.106197
0.106793
0.108039
0.104800
0.094587
0.092604
0.089657
0.113757
Classification Time - C
cat: testS_0.svm.time: No such file or directory
cat: test1II_0000.svm.time: No such file or directory
cat: test1II_0001.svm.time: No such file or directory
cat: test1II_0002.svm.time: No such file or directory
cat: test1II_0003.svm.time: No such file or directory
cat: test1II_0004.svm.time: No such file or directory
cat: test1II_0005.svm.time: No such file or directory
cat: test1II_0006.svm.time: No such file or directory
cat: test1II_0007.svm.time: No such file or directory
cat: test1II_0008.svm.time: No such file or directory
cat: test1II_0009.svm.time: No such file or directory
cat: test2II_0000.svm.time: No such file or directory
cat: test2II_0001.svm.time: No such file or directory
cat: test2II_0002.svm.time: No such file or directory
cat: test2II_0003.svm.time: No such file or directory
cat: test2II_0004.svm.time: No such file or directory
cat: test2II_0005.svm.time: No such file or directory
cat: test2II_0006.svm.time: No such file or directory
cat: test2II_0007.svm.time: No such file or directory
cat: test2II_0008.svm.time: No such file or directory
cat: test2II_0009.svm.time: No such file or directory
cat: test3II_0000.svm.time: No such file or directory
cat: test3II_0001.svm.time: No such file or directory
cat: test3II_0002.svm.time: No such file or directory
cat: test3II_0003.svm.time: No such file or directory
cat: test3II_0004.svm.time: No such file or directory
cat: test3II_0005.svm.time: No such file or directory
cat: test3II_0006.svm.time: No such file or directory
cat: test3II_0007.svm.time: No such file or directory
cat: test3II_0008.svm.time: No such file or directory
cat: test3II_0009.svm.time: No such file or directory
cat: test4II_0000.svm.time: No such file or directory
cat: test4II_0001.svm.time: No such file or directory
cat: test4II_0002.svm.time: No such file or directory
cat: test4II_0003.svm.time: No such file or directory
cat: test4II_0004.svm.time: No such file or directory
cat: test4II_0005.svm.time: No such file or directory
cat: test4II_0006.svm.time: No such file or directory
cat: test4II_0007.svm.time: No such file or directory
cat: test4II_0008.svm.time: No such file or directory
cat: test4II_0009.svm.time: No such file or directory
cat: test5II_0000.svm.time: No such file or directory
cat: test5II_0001.svm.time: No such file or directory
cat: test5II_0002.svm.time: No such file or directory
cat: test5II_0003.svm.time: No such file or directory
cat: test5II_0004.svm.time: No such file or directory
cat: test5II_0005.svm.time: No such file or directory
cat: test5II_0006.svm.time: No such file or directory
cat: test5II_0007.svm.time: No such file or directory
cat: test5II_0008.svm.time: No such file or directory
cat: test5II_0009.svm.time: No such file or directory
cat: test6II_0000.svm.time: No such file or directory
cat: test6II_0001.svm.time: No such file or directory
cat: test6II_0002.svm.time: No such file or directory
cat: test6II_0003.svm.time: No such file or directory
cat: test6II_0004.svm.time: No such file or directory
cat: test6II_0005.svm.time: No such file or directory
cat: test6II_0006.svm.time: No such file or directory
cat: test6II_0007.svm.time: No such file or directory
cat: test6II_0008.svm.time: No such file or directory
cat: test6II_0009.svm.time: No such file or directory
cat: test7II_0000.svm.time: No such file or directory
cat: test7II_0001.svm.time: No such file or directory
cat: test7II_0002.svm.time: No such file or directory
cat: test7II_0003.svm.time: No such file or directory
cat: test7II_0004.svm.time: No such file or directory
cat: test7II_0005.svm.time: No such file or directory
cat: test7II_0006.svm.time: No such file or directory
cat: test7II_0007.svm.time: No such file or directory
cat: test7II_0008.svm.time: No such file or directory
cat: test7II_0009.svm.time: No such file or directory
cat: test8II_0000.svm.time: No such file or directory
cat: test8II_0001.svm.time: No such file or directory
cat: test8II_0002.svm.time: No such file or directory
cat: test8II_0003.svm.time: No such file or directory
cat: test8II_0004.svm.time: No such file or directory
cat: test8II_0005.svm.time: No such file or directory
cat: test8II_0006.svm.time: No such file or directory
cat: test8II_0007.svm.time: No such file or directory
cat: test8II_0008.svm.time: No such file or directory
cat: test8II_0009.svm.time: No such file or directory
cat: test9II_0000.svm.time: No such file or directory
cat: test9II_0001.svm.time: No such file or directory
cat: test9II_0002.svm.time: No such file or directory
cat: test9II_0003.svm.time: No such file or directory
cat: test9II_0004.svm.time: No such file or directory
cat: test9II_0005.svm.time: No such file or directory
cat: test9II_0006.svm.time: No such file or directory
cat: test9II_0007.svm.time: No such file or directory
cat: test9II_0008.svm.time: No such file or directory
cat: test9II_0009.svm.time: No such file or directory
0.095841
0.098403
0.099037
0.100858
0.100166
0.100815
0.100943
0.102955
0.103187
0.094685
0.101235
0.104006
0.103220
0.102641
0.102512
0.102855
0.102883
0.102857
0.102887
0.103292
0.105677
0.106999
0.109946
0.108591
0.109293
0.112296
0.113437
0.112563
0.113416
0.114817
0.117661
0.118463
0.120341
0.120370
0.121543
0.122210
0.122833
0.123280
0.124523
0.123124
0.127755
0.128576
0.128824
0.128625
0.131187
0.120626
0.112750
0.106491
0.105186
0.131169
