Full Time (seconds)
0.112559
Incremental Time - I
0.000299
0.000399
0.000502
0.000638
0.000540
0.000605
0.000674
0.000713
0.000866
0.000903
0.000984
0.000989
0.001028
0.001112
0.000401
0.001111
0.001157
0.001187
0.001268
0.001377
0.001417
0.002714
0.003111
0.003382
0.003661
0.003984
0.004282
0.004564
0.005015
0.005264
0.005638
0.006746
0.007352
0.007149
0.007617
0.007830
0.007856
0.007697
0.007893
0.002749
0.008080
0.010555
0.010293
0.011568
0.011609
0.011433
0.004117
0.006765
0.012239
0.011167
0.013471
0.016521
0.016829
0.018319
0.018813
0.019651
0.020397
0.021181
0.021508
0.022195
0.023798
0.025368
0.026186
0.026701
0.028037
0.028062
0.029221
0.029421
0.029592
0.029331
0.030120
0.032722
0.034696
0.036877
0.037154
0.036429
0.038089
0.038109
0.019092
0.040203
0.039821
0.045658
0.044722
0.045392
0.047144
0.048121
0.049254
0.050547
0.050702
0.051346
0.051904
0.055268
0.057160
0.058254
0.060997
0.061652
0.062693
0.062840
0.063070
0.061824
0.064499
0.066923
0.032425
0.070733
0.071750
0.070392
0.071167
0.071946
0.072108
0.031628
0.075463
0.078992
0.081935
0.077068
0.077483
0.078782
0.079246
0.079456
0.075028
0.077201
0.083724
0.085626
0.031978
0.030984
0.032597
0.049541
0.050472
0.083944
0.097138
0.102921
0.103822
0.108332
0.109862
0.110481
0.111420
0.112981
0.105371
0.102486
0.102657
0.117178
0.109024
Classification Time - C
cat: testS_0.svm.time: No such file or directory
cat: test1II_0000.svm.time: No such file or directory
cat: test1II_0001.svm.time: No such file or directory
cat: test1II_0002.svm.time: No such file or directory
cat: test1II_0003.svm.time: No such file or directory
cat: test1II_0004.svm.time: No such file or directory
cat: test1II_0005.svm.time: No such file or directory
cat: test1II_0006.svm.time: No such file or directory
cat: test1II_0007.svm.time: No such file or directory
cat: test1II_0008.svm.time: No such file or directory
cat: test1II_0009.svm.time: No such file or directory
cat: test2II_0000.svm.time: No such file or directory
cat: test2II_0001.svm.time: No such file or directory
cat: test2II_0002.svm.time: No such file or directory
cat: test2II_0003.svm.time: No such file or directory
cat: test2II_0004.svm.time: No such file or directory
cat: test2II_0005.svm.time: No such file or directory
cat: test2II_0006.svm.time: No such file or directory
cat: test2II_0007.svm.time: No such file or directory
cat: test2II_0008.svm.time: No such file or directory
cat: test2II_0009.svm.time: No such file or directory
cat: test3II_0000.svm.time: No such file or directory
cat: test3II_0001.svm.time: No such file or directory
cat: test3II_0002.svm.time: No such file or directory
cat: test3II_0003.svm.time: No such file or directory
cat: test3II_0004.svm.time: No such file or directory
cat: test3II_0005.svm.time: No such file or directory
cat: test3II_0006.svm.time: No such file or directory
cat: test3II_0007.svm.time: No such file or directory
cat: test3II_0008.svm.time: No such file or directory
cat: test3II_0009.svm.time: No such file or directory
cat: test4II_0000.svm.time: No such file or directory
cat: test4II_0001.svm.time: No such file or directory
cat: test4II_0002.svm.time: No such file or directory
cat: test4II_0003.svm.time: No such file or directory
cat: test4II_0004.svm.time: No such file or directory
cat: test4II_0005.svm.time: No such file or directory
cat: test4II_0006.svm.time: No such file or directory
cat: test4II_0007.svm.time: No such file or directory
cat: test4II_0008.svm.time: No such file or directory
cat: test4II_0009.svm.time: No such file or directory
cat: test5II_0000.svm.time: No such file or directory
cat: test5II_0001.svm.time: No such file or directory
cat: test5II_0002.svm.time: No such file or directory
cat: test5II_0003.svm.time: No such file or directory
cat: test5II_0004.svm.time: No such file or directory
cat: test5II_0005.svm.time: No such file or directory
cat: test5II_0006.svm.time: No such file or directory
cat: test5II_0007.svm.time: No such file or directory
cat: test5II_0008.svm.time: No such file or directory
cat: test5II_0009.svm.time: No such file or directory
cat: test6II_0000.svm.time: No such file or directory
cat: test6II_0001.svm.time: No such file or directory
cat: test6II_0002.svm.time: No such file or directory
cat: test6II_0003.svm.time: No such file or directory
cat: test6II_0004.svm.time: No such file or directory
cat: test6II_0005.svm.time: No such file or directory
cat: test6II_0006.svm.time: No such file or directory
cat: test6II_0007.svm.time: No such file or directory
cat: test6II_0008.svm.time: No such file or directory
cat: test6II_0009.svm.time: No such file or directory
cat: test7II_0000.svm.time: No such file or directory
cat: test7II_0001.svm.time: No such file or directory
cat: test7II_0002.svm.time: No such file or directory
cat: test7II_0003.svm.time: No such file or directory
cat: test7II_0004.svm.time: No such file or directory
cat: test7II_0005.svm.time: No such file or directory
cat: test7II_0006.svm.time: No such file or directory
cat: test7II_0007.svm.time: No such file or directory
cat: test7II_0008.svm.time: No such file or directory
cat: test7II_0009.svm.time: No such file or directory
cat: test8II_0000.svm.time: No such file or directory
cat: test8II_0001.svm.time: No such file or directory
cat: test8II_0002.svm.time: No such file or directory
cat: test8II_0003.svm.time: No such file or directory
cat: test8II_0004.svm.time: No such file or directory
cat: test8II_0005.svm.time: No such file or directory
cat: test8II_0006.svm.time: No such file or directory
cat: test8II_0007.svm.time: No such file or directory
cat: test8II_0008.svm.time: No such file or directory
cat: test8II_0009.svm.time: No such file or directory
cat: test9II_0000.svm.time: No such file or directory
cat: test9II_0001.svm.time: No such file or directory
cat: test9II_0002.svm.time: No such file or directory
cat: test9II_0003.svm.time: No such file or directory
cat: test9II_0004.svm.time: No such file or directory
cat: test9II_0005.svm.time: No such file or directory
cat: test9II_0006.svm.time: No such file or directory
cat: test9II_0007.svm.time: No such file or directory
cat: test9II_0008.svm.time: No such file or directory
cat: test9II_0009.svm.time: No such file or directory
cat: test10II_0000.svm.time: No such file or directory
cat: test10II_0001.svm.time: No such file or directory
cat: test10II_0002.svm.time: No such file or directory
cat: test10II_0003.svm.time: No such file or directory
cat: test10II_0004.svm.time: No such file or directory
cat: test10II_0005.svm.time: No such file or directory
cat: test10II_0006.svm.time: No such file or directory
cat: test10II_0007.svm.time: No such file or directory
cat: test10II_0008.svm.time: No such file or directory
cat: test10II_0009.svm.time: No such file or directory
0.048460
0.048732
0.101266
0.101524
0.101270
0.101994
0.103650
0.103085
0.103966
0.103230
0.105866
0.098790
0.100460
0.100859
0.101452
0.102123
0.095873
0.097100
0.097156
0.105658
0.108169
0.039161
0.039416
0.040569
0.122519
0.105351
0.110737
0.117510
0.125376
0.122848
0.127408
0.127426
0.129945
0.130856
0.130916
0.119761
0.122339
0.148043
0.131018
0.120883
