Full Accuracy
84.561043
Accuracy - I
50.000000
50.000000
50.000000
50.000000
50.000000
50.000000
50.000000
50.000000
50.000000
50.000000
50.000000
66.046928
68.219391
70.858856
71.299721
71.299721
71.299721
71.299721
71.299721
71.299721
71.299721
84.783409
87.766289
88.063812
83.359550
84.166870
84.974190
84.022835
84.561043
84.291367
84.291367
