Full Accuracy
84.561043
Accuracy - I
50.000000
71.294022
71.299721
71.772415
71.772415
71.772415
71.772415
71.772415
71.772415
71.772415
71.772415
71.772415
71.299721
71.299721
71.299721
71.299721
71.299721
71.299721
71.299721
71.299721
71.299721
84.783409
87.766289
88.063812
83.866501
84.673813
85.481133
84.529778
85.067986
84.798309
84.798309
