Full Time (seconds)
0.002875
Time - I
0.000356
0.000455
0.000586
0.000658
0.000751
0.000861
0.000984
0.001072
0.001188
0.001966
0.001411
0.001704
0.001622
0.002061
0.002186
0.002098
0.002550
0.002742
0.002265
0.002434
0.002570
