Full Time (seconds)
0.854684
Time - I
0.164453
0.183807
0.199620
0.216230
0.221085
0.228426
0.289608
0.219344
0.271150
0.248707
0.329808
0.384677
0.426588
0.408908
0.513823
0.503033
0.643890
0.591326
0.379745
0.799549
0.660576
