Full Accuracy
80.035912
Accuracy - I
cat: testS_0.svm.acc: No such file or directory
75.720573
74.587624
74.836647
73.782333
73.369247
73.041595
73.105667
72.450363
71.510117
71.510117
73.340607
72.535797
72.863449
74.302216
75.762337
77.941841
78.946159
79.708260
80.014557
80.035912
