Full Time (seconds)
0.002756
Time - I
0.000817
0.000877
0.000936
0.000994
0.001052
0.001183
0.001191
0.001298
0.001310
0.001373
0.001435
0.001499
0.001592
0.001658
0.001719
0.001772
0.001754
0.001770
0.001808
0.001875
0.001920
0.001980
0.002074
0.002104
0.002168
0.002236
0.002313
0.002550
0.002612
0.002682
0.002761
