Full Time (seconds)
0.293729
Incremental Time - I
cat: testS_0.svm.time: No such file or directory
0.069191
0.155728
0.245824
0.443199
0.616045
Classification Time - C
0.161519
0.224112
0.305891
0.318595
0.435762
