Full Time (seconds)
0.412080
Incremental Time - I
0.714901
0.019544
0.021046
0.023266
0.024870
0.027826
0.022535
0.021865
0.033522
0.021817
0.020279
0.013925
0.033323
0.029889
0.022106
0.021117
0.017732
0.018198
0.016316
0.016056
0.016120
Classification Time - I
0.392320
0.431290
0.473997
0.525198
0.462944
0.434878
0.639392
0.405420
0.424499
0.394463
0.358852
0.796106
0.634666
0.518774
0.467272
0.448709
0.403729
0.378804
0.391142
0.376367
